0, 2, 0
0, 9, 0
6, 7, 0
6, 8, 0
6, 4, 0
6, 1, 0
1, 6, 0
1, 11, 0
5, 10, 0
11, 10, 0
11, 1, 0
10, 5, 0
10, 11, 0
7, 6, 0
7, 8, 1
7, 4, 0
3, 9, 0
4, 7, 0
4, 6, 0
4, 8, 0
4, 2, 0
2, 0, 0
2, 4, 0
8, 7, 1
8, 6, 0
8, 4, 0
9, 0, 0
9, 3, 0
