0, 6, 0
0, 9, 0
0, 11, 0
0, 10, 0
6, 0, 0
6, 4, 0
6, 11, 0
6, 9, 0
1, 3, 0
1, 8, 0
1, 4, 0
1, 2, 0
5, 7, 0
5, 8, 0
11, 0, 0
11, 6, 0
11, 4, 0
11, 9, 0
10, 0, 0
7, 8, 0
7, 5, 0
3, 2, 1
3, 4, 0
3, 1, 0
4, 3, 0
4, 2, 0
4, 6, 0
4, 1, 0
4, 11, 0
4, 9, 0
2, 3, 1
2, 4, 0
2, 1, 0
8, 7, 0
8, 5, 0
8, 1, 0
9, 0, 0
9, 6, 0
9, 4, 0
9, 11, 0
