0, 20, 0
0, 4, 0
7, 3, 0
7, 9, 0
7, 10, 0
13, 12, 0
13, 3, 0
13, 6, 0
13, 19, 0
13, 8, 0
13, 15, 0
13, 11, 0
13, 1, 0
17, 20, 0
17, 16, 1
17, 10, 0
3, 20, 0
3, 7, 0
3, 13, 0
3, 14, 0
3, 2, 0
3, 16, 0
3, 1, 0
3, 9, 0
3, 5, 0
3, 18, 0
3, 10, 0
16, 20, 0
16, 3, 0
16, 17, 1
16, 10, 0
6, 19, 0
6, 13, 0
6, 15, 0
6, 5, 0
6, 11, 0
8, 12, 0
8, 13, 0
8, 1, 0
5, 3, 0
5, 2, 0
5, 18, 0
5, 6, 0
5, 19, 0
5, 15, 0
5, 11, 0
11, 6, 0
11, 19, 0
11, 13, 0
11, 15, 0
11, 5, 0
10, 20, 0
10, 16, 0
10, 7, 0
10, 17, 0
10, 3, 0
20, 0, 0
20, 3, 0
20, 4, 0
20, 17, 0
20, 16, 0
20, 10, 0
12, 8, 0
12, 13, 0
12, 1, 0
4, 0, 0
4, 20, 0
14, 18, 0
14, 3, 0
14, 9, 0
2, 18, 0
2, 3, 0
2, 5, 0
19, 6, 0
19, 13, 0
19, 15, 0
19, 5, 0
19, 11, 0
1, 12, 0
1, 8, 0
1, 13, 0
1, 3, 0
15, 6, 0
15, 19, 0
15, 13, 0
15, 5, 0
15, 11, 0
18, 3, 0
18, 14, 0
18, 5, 0
18, 2, 0
9, 7, 0
9, 3, 0
9, 14, 0
