0, 7, 0
0, 12, 0
0, 18, 0
0, 6, 0
0, 19, 0
0, 15, 0
0, 10, 0
7, 0, 0
7, 12, 0
7, 13, 0
7, 6, 1
7, 8, 0
7, 5, 0
7, 10, 0
7, 1, 0
13, 7, 0
13, 18, 0
13, 17, 0
13, 12, 0
13, 16, 0
13, 19, 0
17, 12, 0
17, 13, 0
17, 16, 0
17, 19, 0
17, 15, 0
17, 11, 0
3, 12, 0
3, 2, 0
3, 16, 0
3, 19, 0
3, 15, 0
3, 11, 0
16, 12, 0
16, 13, 0
16, 17, 0
16, 3, 0
16, 19, 0
16, 2, 0
16, 15, 0
16, 11, 0
16, 9, 0
6, 7, 1
6, 12, 0
6, 0, 0
6, 19, 0
6, 10, 0
6, 15, 0
6, 5, 0
6, 1, 0
8, 7, 0
8, 12, 0
8, 5, 0
8, 1, 0
5, 20, 0
5, 12, 0
5, 4, 0
5, 6, 0
5, 19, 0
5, 8, 0
5, 15, 0
5, 7, 0
5, 10, 0
5, 1, 0
11, 12, 0
11, 17, 0
11, 3, 0
11, 16, 0
11, 19, 0
11, 15, 0
10, 0, 0
10, 7, 0
10, 14, 0
10, 12, 0
10, 6, 0
10, 20, 0
10, 5, 0
20, 10, 0
20, 4, 0
20, 14, 0
20, 5, 0
20, 1, 0
12, 0, 0
12, 13, 0
12, 17, 0
12, 16, 0
12, 6, 0
12, 5, 0
12, 11, 0
12, 1, 0
12, 7, 0
12, 3, 0
12, 2, 0
12, 19, 0
12, 8, 0
12, 15, 0
12, 10, 0
12, 18, 0
12, 9, 0
4, 20, 0
4, 5, 0
14, 20, 0
14, 10, 0
2, 3, 0
2, 12, 0
2, 16, 0
2, 19, 0
2, 15, 0
2, 9, 0
19, 0, 0
19, 13, 0
19, 17, 0
19, 3, 0
19, 16, 0
19, 6, 0
19, 5, 0
19, 11, 0
19, 12, 0
19, 2, 0
19, 15, 0
19, 18, 0
19, 9, 0
1, 7, 0
1, 12, 0
1, 6, 0
1, 20, 0
1, 8, 0
1, 5, 0
15, 0, 0
15, 12, 0
15, 17, 0
15, 3, 0
15, 2, 0
15, 16, 0
15, 6, 0
15, 19, 0
15, 5, 0
15, 11, 0
15, 9, 0
18, 0, 0
18, 12, 0
18, 19, 0
18, 13, 0
9, 16, 0
9, 12, 0
9, 19, 0
9, 15, 0
9, 2, 0
