0, 6, 0
0, 8, 0
0, 10, 0
0, 2, 0
6, 0, 0
6, 8, 0
6, 10, 0
1, 3, 0
1, 4, 0
1, 11, 0
1, 9, 0
5, 7, 0
5, 11, 0
5, 9, 0
11, 7, 0
11, 4, 0
11, 9, 0
11, 5, 0
11, 1, 0
10, 0, 0
10, 6, 0
10, 8, 0
7, 8, 0
7, 5, 0
7, 11, 0
7, 2, 0
3, 4, 1
3, 1, 0
4, 3, 1
4, 11, 0
4, 1, 0
2, 0, 0
2, 7, 0
8, 0, 0
8, 6, 0
8, 7, 0
8, 10, 0
9, 5, 0
9, 11, 0
9, 1, 0
