13, 15, 0
13, 14, 0
13, 10, 0
17, 0, 0
17, 23, 0
17, 2, 0
17, 18, 0
17, 1, 0
17, 8, 0
17, 9, 0
23, 20, 0
23, 0, 0
23, 17, 0
23, 18, 0
23, 9, 0
23, 22, 0
23, 1, 0
5, 16, 0
5, 6, 1
5, 20, 0
5, 22, 0
5, 11, 0
11, 7, 0
11, 20, 0
11, 16, 0
11, 6, 0
11, 5, 0
11, 22, 0
1, 0, 1
1, 18, 0
1, 17, 0
1, 23, 0
1, 9, 0
20, 11, 0
20, 6, 0
20, 22, 0
20, 23, 0
20, 5, 0
4, 24, 0
4, 3, 1
4, 8, 0
4, 12, 0
14, 13, 0
14, 15, 1
14, 10, 0
24, 12, 0
24, 4, 0
24, 3, 0
24, 21, 0
24, 19, 0
24, 8, 0
24, 10, 0
8, 3, 0
8, 4, 0
8, 17, 0
8, 9, 0
8, 2, 0
8, 24, 0
8, 12, 0
15, 13, 0
15, 14, 1
15, 10, 0
22, 20, 0
22, 7, 0
22, 23, 0
22, 16, 0
22, 6, 0
22, 5, 0
22, 11, 0
0, 18, 0
0, 17, 0
0, 23, 0
0, 1, 1
3, 12, 0
3, 8, 0
3, 4, 1
3, 24, 0
16, 7, 0
16, 6, 0
16, 22, 0
16, 5, 0
16, 11, 0
6, 16, 0
6, 20, 0
6, 22, 0
6, 5, 1
6, 11, 0
10, 13, 0
10, 14, 0
10, 24, 0
10, 21, 0
10, 19, 0
10, 15, 0
7, 16, 0
7, 22, 0
7, 11, 0
12, 24, 0
12, 3, 0
12, 4, 0
12, 2, 0
12, 19, 0
12, 8, 0
2, 18, 0
2, 12, 0
2, 19, 0
2, 8, 0
2, 17, 0
21, 10, 0
21, 24, 0
19, 2, 0
19, 12, 0
19, 10, 0
19, 24, 0
18, 0, 0
18, 2, 0
18, 17, 0
18, 23, 0
18, 1, 0
9, 8, 0
9, 17, 0
9, 23, 0
9, 1, 0
