13, 20, 0
13, 3, 0
13, 14, 1
13, 5, 0
13, 9, 0
17, 7, 0
17, 21, 0
17, 25, 0
17, 2, 0
17, 18, 1
17, 19, 0
17, 5, 0
17, 22, 0
23, 20, 0
23, 4, 0
23, 25, 0
23, 15, 0
23, 5, 0
23, 9, 0
5, 20, 0
5, 3, 0
5, 4, 1
5, 25, 0
5, 23, 0
5, 13, 0
5, 6, 0
5, 14, 0
5, 15, 0
5, 17, 0
5, 9, 0
11, 21, 0
11, 7, 0
11, 25, 0
11, 22, 0
11, 2, 0
1, 20, 0
1, 3, 0
1, 14, 0
1, 24, 0
1, 25, 0
1, 9, 0
20, 3, 0
20, 13, 0
20, 14, 0
20, 23, 0
20, 24, 0
20, 25, 0
20, 1, 0
20, 15, 0
20, 5, 0
20, 9, 0
4, 25, 0
4, 15, 0
4, 5, 1
4, 23, 0
4, 9, 0
14, 20, 0
14, 3, 0
14, 13, 1
14, 9, 0
14, 15, 0
14, 5, 0
14, 1, 0
24, 20, 0
24, 25, 0
24, 16, 0
24, 9, 0
24, 10, 0
24, 1, 0
8, 7, 1
8, 12, 0
8, 19, 0
8, 21, 0
8, 6, 0
15, 20, 0
15, 4, 0
15, 14, 0
15, 23, 0
15, 25, 0
15, 5, 0
15, 9, 0
22, 7, 0
22, 25, 0
22, 2, 0
22, 21, 1
22, 17, 0
22, 11, 0
0, 16, 0
0, 9, 0
0, 10, 0
3, 20, 0
3, 13, 0
3, 14, 0
3, 9, 0
3, 5, 0
3, 1, 0
16, 0, 0
16, 24, 0
16, 9, 0
16, 10, 0
6, 7, 0
6, 12, 0
6, 19, 0
6, 8, 0
6, 5, 0
10, 0, 0
10, 16, 0
10, 9, 0
10, 25, 0
10, 24, 0
7, 12, 0
7, 25, 0
7, 11, 0
7, 21, 0
7, 6, 0
7, 19, 0
7, 8, 1
7, 17, 0
7, 22, 0
12, 7, 0
12, 6, 0
12, 19, 0
12, 8, 0
25, 7, 0
25, 17, 0
25, 23, 0
25, 2, 0
25, 5, 0
25, 11, 0
25, 10, 0
25, 20, 0
25, 4, 0
25, 24, 0
25, 21, 0
25, 1, 0
25, 15, 0
25, 22, 0
25, 9, 0
2, 21, 0
2, 25, 0
2, 17, 0
2, 22, 0
2, 11, 0
21, 7, 0
21, 17, 0
21, 11, 0
21, 2, 0
21, 25, 0
21, 19, 0
21, 8, 0
21, 22, 1
19, 7, 0
19, 12, 0
19, 17, 0
19, 21, 0
19, 6, 0
19, 8, 0
19, 18, 0
18, 19, 0
18, 17, 1
9, 0, 0
9, 13, 0
9, 23, 0
9, 16, 0
9, 5, 0
9, 1, 0
9, 20, 0
9, 3, 0
9, 4, 0
9, 14, 0
9, 24, 0
9, 25, 0
9, 10, 0
9, 15, 0
