13, 17, 0
13, 6, 0
13, 5, 0
13, 1, 0
13, 4, 0
13, 25, 0
13, 26, 0
13, 2, 0
13, 21, 0
13, 14, 0
13, 10, 0
13, 15, 0
17, 0, 0
17, 13, 0
17, 14, 0
17, 26, 0
17, 6, 0
17, 21, 0
17, 27, 0
17, 15, 0
17, 1, 0
23, 20, 0
23, 6, 0
23, 11, 0
2, 0, 0
2, 3, 0
2, 13, 0
2, 14, 0
2, 26, 0
2, 21, 0
2, 4, 0
2, 25, 0
2, 5, 0
2, 22, 0
2, 9, 0
5, 0, 0
5, 25, 0
5, 13, 0
5, 14, 0
5, 26, 0
5, 2, 0
5, 6, 0
5, 15, 0
11, 23, 0
1, 0, 0
1, 13, 0
1, 14, 0
1, 26, 0
1, 6, 0
1, 17, 0
20, 6, 0
20, 23, 0
4, 3, 0
4, 13, 0
4, 25, 0
4, 26, 0
4, 2, 0
4, 8, 0
4, 10, 0
14, 0, 0
14, 13, 0
14, 17, 0
14, 6, 0
14, 5, 0
14, 1, 0
14, 25, 0
14, 26, 0
14, 2, 0
14, 21, 0
14, 10, 0
14, 15, 0
24, 7, 0
24, 12, 0
24, 8, 0
24, 9, 0
8, 7, 0
8, 3, 0
8, 4, 0
8, 12, 0
8, 18, 0
8, 19, 0
8, 24, 0
8, 22, 0
8, 9, 0
15, 0, 0
15, 13, 0
15, 17, 0
15, 6, 0
15, 5, 0
15, 10, 0
15, 3, 0
15, 14, 0
15, 26, 0
15, 21, 0
15, 25, 0
15, 22, 0
15, 9, 0
22, 12, 0
22, 16, 0
22, 10, 0
22, 7, 0
22, 3, 0
22, 25, 0
22, 26, 0
22, 2, 0
22, 19, 0
22, 8, 0
22, 15, 0
22, 18, 0
22, 9, 0
0, 17, 0
0, 16, 0
0, 27, 0
0, 2, 0
0, 5, 0
0, 1, 0
0, 25, 0
0, 26, 0
0, 6, 0
0, 21, 0
0, 14, 0
0, 10, 0
0, 15, 0
3, 16, 0
3, 18, 0
3, 10, 0
3, 7, 0
3, 12, 0
3, 4, 0
3, 25, 0
3, 26, 0
3, 2, 0
3, 19, 0
3, 8, 0
3, 15, 0
3, 22, 0
16, 0, 0
16, 3, 0
16, 25, 0
16, 26, 0
16, 18, 0
16, 22, 0
16, 9, 0
6, 20, 0
6, 0, 0
6, 13, 0
6, 17, 0
6, 26, 0
6, 23, 0
6, 21, 0
6, 14, 0
6, 15, 0
6, 5, 0
6, 1, 0
10, 0, 0
10, 13, 0
10, 12, 0
10, 7, 0
10, 3, 0
10, 4, 0
10, 14, 0
10, 26, 0
10, 19, 0
10, 15, 0
10, 22, 0
10, 9, 0
7, 3, 0
7, 12, 0
7, 26, 0
7, 24, 0
7, 18, 0
7, 19, 0
7, 8, 0
7, 10, 0
7, 22, 0
7, 9, 0
12, 7, 0
12, 3, 0
12, 9, 0
12, 26, 0
12, 24, 0
12, 18, 0
12, 8, 0
12, 22, 0
12, 10, 0
25, 0, 0
25, 13, 0
25, 16, 0
25, 5, 0
25, 3, 0
25, 4, 0
25, 14, 0
25, 26, 0
25, 2, 0
25, 15, 0
25, 22, 0
25, 9, 0
26, 0, 0
26, 13, 0
26, 17, 0
26, 12, 0
26, 16, 0
26, 6, 0
26, 5, 0
26, 10, 0
26, 7, 0
26, 3, 0
26, 4, 0
26, 14, 0
26, 2, 0
26, 21, 0
26, 25, 0
26, 19, 0
26, 1, 0
26, 15, 0
26, 18, 0
26, 22, 0
26, 9, 0
27, 21, 0
27, 0, 0
27, 17, 0
21, 0, 0
21, 13, 0
21, 14, 0
21, 26, 0
21, 6, 0
21, 27, 0
21, 2, 0
21, 15, 0
21, 17, 0
19, 7, 0
19, 3, 0
19, 9, 0
19, 26, 0
19, 18, 0
19, 8, 0
19, 22, 0
19, 10, 0
18, 7, 0
18, 3, 0
18, 26, 0
18, 12, 0
18, 16, 0
18, 19, 0
18, 8, 0
18, 22, 0
18, 9, 0
9, 16, 0
9, 2, 0
9, 10, 0
9, 7, 0
9, 12, 0
9, 25, 0
9, 26, 0
9, 24, 0
9, 19, 0
9, 8, 0
9, 15, 0
9, 18, 0
9, 22, 0
