0, 7, 0
0, 8, 0
0, 13, 0
0, 4, 0
0, 1, 0
13, 0, 0
13, 8, 0
13, 4, 0
3, 12, 0
3, 6, 0
3, 9, 0
3, 5, 0
3, 11, 0
3, 10, 0
6, 3, 0
6, 5, 1
6, 10, 0
8, 0, 0
8, 13, 0
8, 4, 0
8, 2, 0
5, 6, 1
5, 3, 0
5, 10, 0
11, 7, 0
11, 12, 0
11, 3, 0
11, 9, 0
10, 6, 0
10, 5, 0
10, 3, 0
7, 0, 0
7, 12, 0
7, 11, 0
7, 1, 0
12, 7, 0
12, 3, 0
12, 11, 0
12, 9, 0
4, 0, 0
4, 8, 0
4, 13, 0
4, 2, 0
2, 8, 0
2, 4, 0
1, 0, 0
1, 7, 0
9, 12, 0
9, 11, 0
9, 3, 0
