13, 16, 0
13, 34, 0
13, 8, 0
13, 17, 0
13, 9, 0
17, 3, 0
17, 13, 0
17, 25, 0
17, 32, 0
17, 2, 0
17, 30, 0
17, 8, 0
17, 22, 0
17, 9, 0
31, 20, 0
31, 12, 0
31, 15, 0
31, 26, 0
23, 20, 0
23, 33, 0
23, 4, 0
23, 22, 0
23, 21, 0
23, 6, 0
23, 18, 0
23, 11, 0
10, 0, 0
10, 5, 0
10, 11, 0
10, 1, 0
2, 9, 0
2, 17, 0
2, 30, 0
5, 7, 0
5, 0, 0
5, 10, 0
5, 15, 0
5, 22, 0
5, 1, 0
11, 0, 0
11, 23, 0
11, 21, 0
11, 27, 0
11, 10, 0
11, 22, 0
11, 1, 0
1, 0, 0
1, 5, 0
1, 11, 0
1, 10, 0
20, 12, 0
20, 23, 0
20, 31, 0
20, 26, 0
20, 33, 0
20, 6, 0
20, 15, 0
20, 22, 0
4, 12, 0
4, 33, 0
4, 23, 0
4, 6, 0
14, 18, 0
14, 3, 0
14, 22, 0
24, 25, 0
24, 32, 0
28, 3, 0
28, 25, 0
28, 29, 1
30, 9, 0
30, 17, 0
30, 32, 0
30, 2, 0
8, 34, 0
8, 13, 0
8, 17, 0
8, 9, 0
15, 20, 0
15, 7, 0
15, 26, 0
15, 31, 0
15, 5, 0
22, 17, 0
22, 26, 0
22, 23, 0
22, 18, 0
22, 5, 0
22, 11, 0
22, 20, 0
22, 3, 0
22, 25, 0
22, 32, 0
22, 21, 0
22, 14, 0
0, 10, 0
0, 5, 0
0, 11, 0
0, 1, 0
3, 25, 0
3, 28, 0
3, 29, 0
3, 18, 0
3, 14, 0
3, 17, 0
3, 22, 0
34, 8, 0
34, 13, 0
16, 13, 0
16, 9, 0
6, 20, 0
6, 33, 0
6, 4, 0
6, 23, 0
6, 12, 0
27, 21, 0
27, 11, 0
7, 15, 0
7, 5, 0
7, 26, 0
12, 20, 0
12, 6, 0
12, 4, 0
12, 31, 0
12, 33, 0
25, 3, 0
25, 28, 0
25, 24, 0
25, 17, 0
25, 29, 0
25, 22, 0
32, 30, 0
32, 9, 0
32, 17, 0
32, 22, 0
32, 24, 0
29, 3, 0
29, 25, 0
29, 28, 1
21, 27, 0
21, 19, 0
21, 22, 0
21, 11, 0
21, 23, 0
33, 20, 0
33, 6, 0
33, 4, 0
33, 23, 0
33, 12, 0
19, 21, 0
19, 18, 0
26, 20, 0
26, 7, 0
26, 15, 0
26, 31, 0
26, 22, 0
18, 3, 0
18, 19, 0
18, 14, 0
18, 22, 0
18, 23, 0
9, 13, 0
9, 17, 0
9, 32, 0
9, 2, 0
9, 16, 0
9, 8, 0
9, 30, 0
