0, 4, 0
0, 13, 0
0, 9, 0
0, 10, 0
13, 0, 0
13, 3, 0
13, 9, 0
13, 10, 0
3, 6, 0
3, 13, 0
3, 9, 0
6, 3, 0
6, 2, 0
8, 11, 0
8, 2, 0
5, 7, 0
5, 12, 0
5, 11, 0
5, 1, 0
11, 8, 0
11, 5, 0
10, 0, 0
10, 13, 0
10, 4, 0
10, 9, 0
7, 12, 0
7, 5, 0
7, 1, 0
12, 7, 0
12, 5, 0
12, 1, 0
4, 0, 0
4, 9, 0
4, 10, 0
2, 6, 0
2, 8, 0
1, 7, 0
1, 12, 0
1, 5, 0
9, 0, 0
9, 3, 0
9, 13, 0
9, 4, 0
9, 10, 0
