0, 3, 0
0, 4, 0
0, 1, 0
13, 12, 1
13, 4, 0
13, 14, 0
13, 2, 0
13, 6, 0
13, 15, 0
13, 5, 0
13, 11, 0
13, 10, 0
3, 0, 0
3, 7, 0
3, 4, 0
3, 2, 0
3, 1, 0
3, 8, 0
3, 10, 0
3, 9, 0
6, 12, 0
6, 13, 0
6, 14, 0
6, 15, 0
6, 5, 0
6, 11, 0
6, 10, 0
8, 7, 0
8, 3, 0
8, 4, 0
8, 2, 0
8, 10, 0
8, 9, 1
5, 12, 0
5, 13, 0
5, 2, 0
5, 6, 0
5, 15, 0
5, 10, 0
11, 12, 0
11, 13, 0
11, 14, 0
11, 6, 0
11, 15, 0
11, 10, 0
10, 12, 0
10, 13, 0
10, 3, 0
10, 6, 0
10, 8, 0
10, 15, 0
10, 5, 0
10, 11, 0
7, 3, 0
7, 8, 0
7, 9, 0
7, 4, 0
7, 1, 0
12, 13, 1
12, 14, 0
12, 6, 0
12, 15, 0
12, 5, 0
12, 11, 0
12, 10, 0
4, 0, 0
4, 3, 0
4, 13, 0
4, 2, 0
4, 8, 0
4, 7, 0
4, 1, 0
14, 12, 0
14, 13, 0
14, 11, 0
14, 6, 0
2, 3, 0
2, 13, 0
2, 4, 0
2, 8, 0
2, 5, 0
2, 1, 0
1, 0, 0
1, 7, 0
1, 2, 0
1, 4, 0
1, 3, 0
15, 12, 0
15, 13, 0
15, 6, 0
15, 5, 0
15, 11, 0
15, 10, 0
9, 7, 0
9, 3, 0
9, 8, 1
