0, 15, 0
0, 1, 0
13, 7, 0
13, 12, 1
13, 4, 0
13, 17, 0
13, 6, 0
13, 5, 0
17, 7, 0
17, 12, 0
17, 13, 0
17, 4, 0
17, 6, 0
17, 5, 0
3, 6, 0
3, 11, 0
3, 9, 0
16, 7, 0
16, 8, 0
16, 15, 0
6, 7, 0
6, 12, 0
6, 13, 0
6, 17, 0
6, 4, 0
6, 3, 0
6, 14, 0
6, 5, 0
6, 9, 0
8, 16, 0
8, 7, 0
8, 15, 0
5, 7, 0
5, 12, 0
5, 13, 0
5, 17, 0
5, 4, 1
5, 6, 0
11, 3, 0
11, 9, 0
11, 14, 0
11, 10, 0
10, 14, 0
10, 11, 0
10, 2, 0
7, 12, 0
7, 13, 0
7, 17, 0
7, 4, 0
7, 16, 0
7, 6, 0
7, 14, 0
7, 8, 0
7, 5, 0
12, 7, 0
12, 13, 1
12, 17, 0
12, 4, 0
12, 6, 0
12, 5, 0
4, 7, 0
4, 12, 0
4, 13, 0
4, 17, 0
4, 6, 0
4, 5, 1
14, 7, 0
14, 2, 0
14, 18, 0
14, 6, 0
14, 10, 0
14, 15, 0
14, 11, 0
14, 9, 0
2, 18, 0
2, 14, 0
2, 10, 0
1, 0, 0
1, 15, 0
15, 0, 0
15, 16, 0
15, 8, 0
15, 14, 0
15, 1, 0
18, 14, 0
18, 2, 0
9, 6, 0
9, 14, 0
9, 11, 0
9, 3, 0
