0, 5, 0
3, 6, 0
3, 1, 0
3, 4, 0
3, 10, 0
4, 7, 0
4, 3, 0
4, 2, 0
4, 1, 0
4, 8, 0
4, 10, 0
2, 7, 0
2, 8, 0
2, 4, 0
6, 3, 0
6, 1, 0
6, 5, 0
6, 9, 0
1, 3, 0
1, 4, 0
1, 10, 0
1, 6, 0
8, 7, 1
8, 4, 0
8, 2, 0
5, 0, 0
5, 6, 0
5, 9, 0
7, 8, 1
7, 4, 0
7, 2, 0
10, 3, 0
10, 4, 0
10, 1, 0
9, 6, 0
9, 5, 0
