0, 13, 0
0, 8, 0
0, 15, 0
7, 14, 0
7, 11, 0
7, 2, 0
13, 0, 0
13, 19, 0
13, 15, 0
17, 18, 1
17, 19, 0
17, 5, 0
3, 20, 0
3, 6, 0
16, 12, 0
16, 10, 0
16, 9, 0
6, 20, 0
6, 3, 0
6, 4, 0
8, 0, 0
8, 15, 0
8, 11, 0
8, 1, 0
5, 18, 0
5, 19, 0
5, 17, 0
11, 7, 0
11, 8, 0
10, 20, 0
10, 16, 0
10, 2, 0
10, 9, 0
10, 1, 0
20, 3, 0
20, 6, 0
20, 4, 0
20, 10, 0
12, 16, 0
12, 9, 0
12, 1, 0
4, 20, 0
4, 6, 0
14, 7, 0
14, 1, 0
14, 2, 0
2, 7, 0
2, 10, 0
2, 14, 0
2, 9, 0
2, 1, 0
19, 18, 0
19, 15, 0
19, 13, 0
19, 17, 0
19, 5, 0
1, 12, 0
1, 14, 0
1, 2, 0
1, 8, 0
1, 10, 0
1, 9, 0
15, 0, 0
15, 19, 0
15, 8, 0
15, 13, 0
18, 19, 0
18, 17, 1
18, 5, 0
9, 16, 0
9, 12, 0
9, 2, 0
9, 10, 0
9, 1, 0
