0, 12, 0
0, 13, 0
0, 14, 0
0, 11, 0
13, 0, 0
13, 12, 0
13, 14, 0
13, 11, 0
13, 9, 0
3, 14, 0
3, 15, 0
3, 5, 0
16, 2, 0
16, 4, 0
16, 10, 0
16, 1, 0
6, 7, 0
6, 8, 0
6, 15, 0
8, 7, 0
8, 6, 0
5, 3, 0
5, 15, 0
5, 14, 0
5, 9, 0
11, 0, 0
11, 12, 1
11, 13, 0
11, 14, 0
10, 16, 0
10, 7, 0
10, 2, 0
10, 1, 0
7, 6, 0
7, 8, 0
7, 10, 0
12, 0, 0
12, 13, 0
12, 14, 0
12, 11, 1
12, 9, 0
4, 16, 0
14, 0, 0
14, 12, 0
14, 13, 0
14, 3, 0
14, 5, 0
14, 11, 0
14, 9, 0
2, 16, 0
2, 10, 0
2, 1, 1
1, 16, 0
1, 10, 0
1, 2, 1
15, 6, 0
15, 5, 0
15, 3, 0
9, 12, 0
9, 13, 0
9, 14, 0
9, 5, 0
