0, 12, 0
0, 4, 0
0, 17, 0
0, 16, 0
0, 6, 0
0, 19, 0
0, 5, 0
0, 18, 0
0, 9, 0
13, 3, 0
13, 4, 0
13, 16, 0
13, 1, 0
13, 8, 0
13, 15, 0
13, 11, 0
13, 10, 0
17, 0, 0
17, 12, 0
17, 4, 0
17, 2, 0
17, 16, 0
17, 6, 0
17, 19, 0
17, 9, 0
17, 5, 0
17, 1, 0
3, 13, 0
3, 4, 0
3, 16, 0
3, 1, 0
3, 8, 0
3, 15, 0
3, 10, 0
16, 0, 0
16, 13, 0
16, 17, 0
16, 3, 0
16, 6, 0
16, 1, 0
16, 11, 0
16, 10, 0
16, 12, 0
16, 8, 0
16, 15, 0
16, 9, 0
6, 0, 0
6, 17, 0
6, 16, 0
6, 5, 0
6, 11, 0
6, 10, 0
6, 12, 0
6, 4, 0
6, 2, 0
6, 19, 0
6, 18, 0
6, 9, 0
8, 3, 0
8, 13, 0
8, 16, 0
8, 10, 0
8, 15, 0
8, 11, 0
8, 1, 0
5, 0, 0
5, 4, 0
5, 17, 0
5, 2, 0
5, 6, 0
5, 19, 0
5, 9, 0
5, 15, 0
5, 1, 0
11, 12, 0
11, 13, 0
11, 9, 0
11, 2, 0
11, 16, 0
11, 6, 0
11, 8, 0
11, 10, 0
11, 1, 0
10, 12, 0
10, 13, 0
10, 9, 0
10, 3, 0
10, 16, 0
10, 6, 0
10, 8, 0
10, 15, 0
10, 11, 0
10, 1, 0
7, 14, 0
7, 2, 0
12, 0, 0
12, 16, 0
12, 17, 0
12, 1, 0
12, 2, 0
12, 18, 0
12, 6, 0
12, 19, 0
12, 10, 0
12, 11, 0
12, 9, 0
4, 0, 0
4, 13, 0
4, 17, 0
4, 18, 0
4, 6, 0
4, 5, 0
4, 1, 0
4, 3, 0
4, 2, 0
4, 19, 0
4, 15, 0
4, 9, 0
14, 7, 0
14, 2, 0
2, 7, 0
2, 12, 0
2, 4, 0
2, 17, 0
2, 14, 0
2, 18, 0
2, 6, 0
2, 19, 0
2, 5, 0
2, 11, 0
2, 9, 0
19, 0, 0
19, 12, 0
19, 4, 0
19, 17, 0
19, 2, 0
19, 6, 0
19, 15, 0
19, 5, 0
19, 9, 0
1, 12, 0
1, 13, 0
1, 17, 0
1, 4, 0
1, 3, 0
1, 16, 0
1, 8, 0
1, 15, 0
1, 5, 0
1, 11, 0
1, 10, 0
15, 3, 0
15, 13, 0
15, 1, 0
15, 4, 0
15, 16, 0
15, 19, 0
15, 8, 0
15, 5, 0
15, 10, 0
18, 0, 0
18, 12, 0
18, 2, 0
18, 4, 0
18, 6, 0
9, 0, 0
9, 12, 0
9, 4, 0
9, 17, 0
9, 2, 0
9, 16, 0
9, 6, 0
9, 19, 0
9, 5, 0
9, 11, 0
9, 10, 0
