0, 8, 0
0, 15, 0
0, 1, 0
13, 4, 0
13, 14, 0
3, 9, 0
3, 5, 0
3, 2, 1
6, 7, 0
6, 11, 0
8, 7, 0
8, 0, 0
8, 4, 0
8, 14, 0
8, 2, 0
8, 10, 0
8, 1, 0
8, 15, 0
8, 5, 0
8, 9, 0
5, 7, 0
5, 3, 0
5, 2, 0
5, 8, 0
5, 11, 0
5, 9, 0
11, 7, 0
11, 6, 0
11, 5, 0
10, 12, 0
10, 8, 0
10, 1, 0
7, 6, 0
7, 8, 0
7, 5, 0
7, 11, 0
12, 10, 0
4, 8, 0
4, 13, 0
4, 9, 0
14, 13, 0
14, 8, 0
14, 15, 0
2, 3, 1
2, 8, 0
2, 5, 0
2, 9, 0
1, 0, 0
1, 8, 0
1, 10, 0
15, 0, 0
15, 8, 0
15, 14, 0
9, 3, 0
9, 8, 0
9, 5, 0
9, 4, 0
9, 2, 0
