0, 7, 0
0, 4, 0
0, 2, 0
0, 9, 0
0, 5, 0
0, 10, 0
8, 12, 0
8, 4, 0
8, 2, 0
8, 1, 0
8, 11, 0
8, 10, 0
3, 7, 0
3, 2, 0
3, 4, 1
3, 10, 0
6, 10, 0
6, 4, 0
6, 5, 0
6, 9, 0
5, 0, 0
5, 7, 0
5, 6, 0
5, 2, 0
5, 1, 0
11, 12, 1
11, 4, 0
11, 2, 0
11, 1, 0
11, 8, 0
11, 10, 0
10, 7, 0
10, 12, 0
10, 4, 0
10, 9, 0
10, 3, 0
10, 2, 0
10, 6, 0
10, 8, 0
10, 0, 0
10, 11, 0
10, 1, 0
7, 0, 0
7, 3, 0
7, 4, 0
7, 2, 0
7, 5, 0
7, 10, 0
12, 2, 0
12, 8, 0
12, 11, 1
12, 4, 0
12, 10, 0
4, 7, 0
4, 12, 0
4, 9, 0
4, 3, 1
4, 2, 0
4, 6, 0
4, 8, 0
4, 0, 0
4, 10, 0
4, 11, 0
4, 1, 0
2, 7, 0
2, 3, 0
2, 4, 0
2, 12, 0
2, 0, 0
2, 8, 0
2, 1, 0
2, 5, 0
2, 11, 0
2, 10, 0
1, 4, 0
1, 2, 0
1, 8, 0
1, 5, 0
1, 11, 0
1, 10, 0
9, 0, 0
9, 6, 0
9, 4, 0
9, 10, 0
