13, 15, 0
13, 14, 0
13, 5, 0
13, 1, 0
17, 18, 1
17, 12, 0
17, 9, 0
23, 7, 0
23, 20, 0
23, 19, 0
23, 4, 0
23, 21, 0
5, 0, 0
5, 13, 0
5, 14, 0
5, 1, 0
5, 15, 0
5, 10, 0
11, 20, 0
11, 16, 0
11, 24, 0
1, 15, 0
1, 13, 0
1, 14, 0
1, 5, 0
1, 10, 0
20, 7, 0
20, 16, 0
20, 4, 0
20, 23, 0
20, 24, 0
20, 21, 0
20, 11, 0
4, 20, 0
4, 21, 0
4, 19, 0
4, 22, 0
4, 23, 0
14, 7, 0
14, 13, 0
14, 15, 0
14, 5, 0
14, 1, 0
24, 16, 0
24, 20, 0
24, 11, 0
8, 16, 0
8, 7, 0
8, 9, 0
15, 0, 0
15, 12, 0
15, 13, 0
15, 14, 0
15, 2, 0
15, 5, 0
15, 7, 0
15, 1, 0
22, 6, 0
22, 19, 0
22, 4, 0
0, 12, 0
0, 15, 0
0, 5, 0
0, 2, 0
3, 7, 0
3, 6, 0
3, 19, 0
16, 20, 0
16, 7, 0
16, 8, 0
16, 11, 0
16, 24, 0
6, 3, 0
6, 19, 0
6, 22, 0
10, 5, 0
10, 1, 0
7, 20, 0
7, 3, 0
7, 14, 0
7, 23, 0
7, 12, 0
7, 16, 0
7, 19, 0
7, 8, 0
7, 15, 0
7, 9, 0
12, 0, 0
12, 7, 0
12, 17, 0
12, 2, 0
12, 18, 0
12, 15, 0
12, 9, 0
2, 0, 0
2, 12, 0
2, 15, 0
2, 9, 0
21, 20, 0
21, 4, 0
21, 23, 0
19, 7, 0
19, 3, 0
19, 4, 0
19, 23, 0
19, 6, 0
19, 22, 0
18, 12, 0
18, 17, 1
18, 9, 0
9, 7, 0
9, 12, 0
9, 17, 0
9, 2, 0
9, 18, 0
9, 8, 0
