0, 1, 0
0, 11, 0
0, 9, 0
8, 6, 0
8, 5, 0
3, 6, 0
3, 4, 1
3, 2, 0
6, 3, 0
6, 8, 0
6, 5, 0
6, 4, 0
6, 2, 0
5, 6, 0
5, 8, 0
11, 0, 0
11, 9, 0
11, 1, 0
10, 12, 0
10, 2, 0
7, 12, 0
7, 1, 0
12, 7, 0
12, 10, 0
4, 6, 0
4, 2, 0
4, 3, 1
2, 6, 0
2, 4, 0
2, 3, 0
2, 10, 0
1, 0, 0
1, 7, 0
1, 11, 0
9, 0, 0
9, 11, 0
