0, 6, 0
0, 13, 0
0, 5, 0
13, 0, 0
13, 14, 0
13, 5, 0
13, 11, 0
13, 2, 0
3, 7, 0
3, 12, 0
3, 4, 0
3, 8, 0
3, 15, 0
3, 10, 0
3, 9, 0
6, 0, 0
6, 5, 0
8, 3, 0
8, 4, 0
8, 9, 0
8, 10, 0
5, 0, 0
5, 6, 0
5, 13, 0
11, 2, 0
11, 13, 0
11, 14, 0
11, 1, 0
10, 3, 0
10, 8, 0
10, 15, 0
10, 4, 0
10, 9, 1
7, 12, 0
7, 2, 0
7, 15, 0
7, 3, 0
7, 1, 0
12, 7, 0
12, 3, 0
12, 15, 0
12, 2, 0
4, 3, 0
4, 8, 0
4, 15, 0
4, 9, 0
4, 10, 0
14, 13, 0
14, 11, 0
2, 7, 0
2, 12, 0
2, 13, 0
2, 15, 0
2, 11, 0
2, 1, 0
1, 7, 0
1, 11, 0
1, 2, 0
15, 7, 0
15, 12, 0
15, 4, 0
15, 3, 0
15, 2, 0
15, 10, 0
9, 3, 0
9, 8, 0
9, 4, 0
9, 10, 1
