13, 7, 0
13, 17, 0
13, 14, 1
13, 2, 0
17, 7, 0
17, 0, 0
17, 13, 0
17, 14, 0
17, 4, 0
17, 2, 0
17, 1, 0
5, 3, 0
5, 11, 0
5, 10, 0
11, 3, 0
11, 16, 0
11, 6, 0
11, 1, 0
11, 5, 0
11, 10, 0
11, 20, 0
11, 12, 0
11, 19, 0
11, 8, 0
11, 22, 0
11, 9, 0
1, 0, 0
1, 17, 0
1, 3, 0
1, 6, 0
1, 11, 0
1, 10, 0
1, 12, 0
1, 4, 0
1, 19, 0
1, 8, 0
1, 15, 0
1, 9, 0
20, 21, 0
20, 11, 0
20, 16, 0
20, 18, 0
20, 22, 0
20, 10, 0
4, 0, 0
4, 17, 0
4, 1, 0
14, 7, 0
14, 13, 1
14, 17, 0
14, 2, 0
8, 12, 0
8, 1, 0
8, 18, 0
8, 19, 0
8, 9, 0
8, 11, 0
8, 10, 0
15, 0, 0
15, 6, 0
15, 1, 0
22, 21, 1
22, 16, 0
22, 20, 0
22, 11, 0
22, 3, 0
0, 17, 0
0, 4, 0
0, 15, 0
0, 1, 0
3, 16, 0
3, 11, 0
3, 21, 0
3, 10, 0
3, 5, 0
3, 22, 0
3, 1, 0
16, 20, 0
16, 3, 0
16, 22, 0
16, 11, 0
16, 21, 0
6, 12, 0
6, 9, 0
6, 15, 0
6, 11, 0
6, 1, 0
10, 20, 0
10, 3, 0
10, 21, 0
10, 12, 0
10, 18, 0
10, 8, 0
10, 5, 0
10, 11, 0
10, 1, 0
7, 14, 0
7, 13, 0
7, 17, 0
7, 2, 0
12, 1, 0
12, 18, 0
12, 6, 0
12, 19, 0
12, 8, 0
12, 10, 0
12, 11, 0
12, 9, 0
2, 7, 0
2, 14, 0
2, 13, 0
2, 17, 0
21, 16, 0
21, 3, 0
21, 20, 0
21, 22, 1
21, 10, 0
19, 12, 0
19, 18, 1
19, 1, 0
19, 8, 0
19, 11, 0
19, 9, 0
18, 20, 0
18, 12, 0
18, 19, 1
18, 8, 0
18, 10, 0
18, 9, 0
9, 12, 0
9, 18, 0
9, 6, 0
9, 19, 0
9, 8, 0
9, 11, 0
9, 1, 0
