13, 20, 0
13, 19, 0
13, 17, 0
13, 10, 0
17, 7, 0
17, 3, 0
17, 4, 0
17, 13, 0
17, 21, 0
17, 6, 0
17, 8, 0
17, 15, 0
17, 10, 0
17, 9, 0
5, 0, 0
5, 3, 0
5, 4, 0
5, 2, 0
5, 16, 0
5, 15, 0
5, 7, 0
11, 12, 1
11, 10, 0
11, 15, 0
11, 9, 0
1, 0, 1
1, 16, 0
1, 2, 0
20, 2, 0
20, 19, 0
20, 13, 0
20, 10, 0
4, 7, 0
4, 3, 0
4, 16, 0
4, 17, 0
4, 2, 0
4, 21, 0
4, 15, 0
4, 5, 0
4, 0, 0
14, 7, 0
14, 16, 0
14, 8, 0
14, 2, 0
8, 18, 0
8, 16, 0
8, 14, 0
8, 17, 0
8, 6, 0
15, 12, 0
15, 4, 0
15, 17, 0
15, 3, 0
15, 2, 0
15, 10, 0
15, 5, 0
15, 11, 0
15, 9, 0
0, 7, 0
0, 21, 0
0, 4, 0
0, 2, 0
0, 16, 0
0, 6, 0
0, 5, 0
0, 18, 0
0, 1, 1
3, 7, 0
3, 4, 0
3, 17, 0
3, 21, 0
3, 15, 0
3, 5, 0
3, 9, 0
16, 0, 0
16, 7, 0
16, 4, 0
16, 14, 0
16, 2, 0
16, 18, 0
16, 6, 0
16, 8, 0
16, 5, 0
16, 1, 0
6, 0, 0
6, 7, 0
6, 17, 0
6, 2, 0
6, 16, 0
6, 8, 0
6, 18, 0
10, 20, 0
10, 12, 0
10, 13, 0
10, 17, 0
10, 2, 0
10, 19, 0
10, 15, 0
10, 11, 0
10, 9, 0
7, 0, 0
7, 3, 0
7, 4, 0
7, 14, 0
7, 2, 0
7, 16, 0
7, 6, 0
7, 21, 0
7, 18, 0
7, 17, 0
7, 5, 0
12, 2, 0
12, 10, 0
12, 15, 0
12, 11, 1
12, 9, 0
2, 0, 0
2, 7, 0
2, 16, 0
2, 6, 0
2, 5, 0
2, 10, 0
2, 20, 0
2, 12, 0
2, 4, 0
2, 14, 0
2, 21, 0
2, 1, 0
2, 15, 0
2, 18, 0
21, 0, 0
21, 3, 0
21, 4, 0
21, 17, 0
21, 2, 0
21, 7, 0
19, 20, 0
19, 13, 0
19, 10, 0
18, 7, 0
18, 0, 0
18, 2, 0
18, 16, 0
18, 6, 0
18, 8, 0
9, 3, 0
9, 17, 0
9, 12, 0
9, 15, 0
9, 11, 0
9, 10, 0
