13, 4, 0
13, 14, 0
13, 18, 0
13, 19, 0
13, 10, 0
13, 9, 0
17, 0, 0
17, 12, 0
17, 7, 0
17, 2, 0
5, 20, 0
5, 3, 0
5, 4, 0
5, 1, 0
5, 9, 0
5, 10, 0
11, 16, 0
11, 7, 0
11, 8, 0
11, 21, 0
1, 3, 0
1, 5, 0
20, 10, 0
20, 4, 0
20, 5, 0
20, 9, 0
4, 20, 0
4, 13, 0
4, 5, 0
4, 9, 0
14, 16, 0
14, 13, 0
14, 21, 0
14, 19, 0
14, 8, 0
14, 18, 0
8, 21, 0
8, 16, 0
8, 14, 0
8, 11, 0
15, 12, 0
0, 7, 0
0, 6, 0
0, 17, 0
0, 2, 0
3, 5, 0
3, 1, 0
16, 21, 0
16, 7, 0
16, 8, 0
16, 14, 0
16, 11, 0
6, 0, 0
6, 7, 0
6, 12, 0
6, 2, 0
10, 20, 0
10, 13, 0
10, 5, 0
10, 9, 0
7, 0, 0
7, 17, 0
7, 2, 0
7, 16, 0
7, 6, 0
7, 11, 0
12, 6, 0
12, 15, 0
12, 17, 0
12, 2, 0
2, 0, 0
2, 6, 0
2, 7, 0
2, 17, 0
2, 12, 0
21, 16, 0
21, 8, 0
21, 14, 0
21, 11, 0
19, 18, 1
19, 13, 0
19, 14, 0
18, 19, 1
18, 13, 0
18, 14, 0
9, 20, 0
9, 13, 0
9, 5, 0
9, 4, 0
9, 10, 0
