0, 13, 0
0, 5, 0
0, 2, 0
13, 0, 0
13, 2, 0
17, 16, 0
17, 12, 0
17, 9, 0
3, 16, 0
3, 5, 0
3, 11, 0
16, 3, 0
16, 17, 0
6, 8, 0
6, 10, 0
8, 6, 0
8, 2, 0
5, 0, 0
5, 3, 0
5, 11, 0
11, 3, 0
11, 5, 0
10, 6, 0
10, 4, 0
7, 15, 0
7, 1, 0
12, 17, 0
12, 14, 0
4, 15, 0
4, 10, 0
14, 12, 0
14, 9, 0
2, 0, 0
2, 8, 0
2, 13, 0
1, 18, 0
1, 7, 0
15, 7, 0
15, 4, 0
18, 1, 0
9, 14, 0
9, 17, 0
