0, 13, 0
0, 14, 0
0, 9, 0
0, 6, 0
0, 1, 0
0, 5, 0
0, 10, 0
13, 0, 0
13, 12, 0
13, 2, 0
13, 6, 0
13, 5, 0
13, 9, 0
17, 16, 1
17, 7, 0
17, 11, 0
17, 10, 0
3, 7, 0
3, 6, 0
3, 14, 0
16, 17, 1
16, 11, 0
16, 10, 0
6, 0, 0
6, 3, 0
6, 13, 0
6, 14, 0
6, 12, 0
6, 2, 0
6, 7, 0
8, 9, 0
8, 15, 0
8, 5, 0
8, 1, 0
5, 0, 0
5, 12, 0
5, 4, 0
5, 13, 0
5, 9, 0
5, 8, 0
5, 15, 0
5, 1, 0
11, 16, 0
11, 7, 0
11, 17, 0
11, 10, 0
10, 0, 0
10, 7, 0
10, 14, 0
10, 16, 0
10, 17, 0
10, 11, 0
7, 3, 0
7, 14, 0
7, 11, 0
7, 2, 0
7, 6, 0
7, 17, 0
7, 10, 0
12, 6, 0
12, 13, 0
12, 5, 0
12, 2, 0
4, 15, 0
4, 5, 0
4, 9, 0
14, 0, 0
14, 7, 0
14, 3, 0
14, 2, 0
14, 6, 0
14, 10, 0
2, 7, 0
2, 12, 0
2, 13, 0
2, 14, 0
2, 6, 0
1, 0, 0
1, 8, 0
1, 5, 0
1, 9, 0
15, 8, 0
15, 5, 0
15, 4, 0
15, 9, 0
9, 0, 0
9, 13, 0
9, 4, 0
9, 8, 0
9, 15, 0
9, 5, 0
9, 1, 0
