13, 20, 0
13, 2, 0
13, 16, 0
13, 6, 0
13, 5, 0
13, 1, 0
17, 7, 0
17, 21, 0
17, 18, 0
17, 3, 0
5, 20, 0
5, 16, 0
5, 13, 0
5, 1, 0
11, 12, 0
11, 8, 0
1, 16, 0
1, 20, 0
1, 13, 0
1, 5, 0
1, 9, 0
20, 13, 0
20, 9, 0
20, 5, 0
20, 1, 0
4, 21, 0
4, 8, 0
4, 22, 0
4, 10, 0
14, 19, 0
14, 15, 1
14, 9, 0
8, 21, 0
8, 4, 0
8, 11, 0
15, 19, 0
15, 14, 1
15, 9, 0
22, 19, 0
22, 4, 0
22, 10, 0
0, 18, 0
0, 7, 0
0, 21, 0
0, 3, 0
3, 0, 0
3, 18, 0
3, 7, 0
3, 17, 0
3, 21, 0
16, 6, 0
16, 13, 0
16, 9, 0
16, 5, 0
16, 1, 0
6, 16, 0
6, 13, 0
6, 2, 0
10, 21, 0
10, 19, 0
10, 4, 0
10, 22, 0
7, 0, 0
7, 3, 0
7, 17, 0
7, 18, 0
7, 21, 0
12, 21, 0
12, 11, 0
2, 6, 0
2, 13, 0
21, 0, 0
21, 3, 0
21, 7, 0
21, 17, 0
21, 4, 0
21, 12, 0
21, 18, 0
21, 19, 0
21, 8, 0
21, 10, 0
19, 14, 0
19, 21, 0
19, 9, 0
19, 15, 0
19, 22, 0
19, 10, 0
18, 0, 0
18, 3, 0
18, 7, 0
18, 17, 0
18, 21, 0
9, 20, 0
9, 14, 0
9, 16, 0
9, 19, 0
9, 15, 0
9, 1, 0
