12, 0, 0
12, 18, 0
12, 13, 1
12, 23, 0
12, 4, 0
12, 2, 0
12, 21, 0
12, 26, 0
12, 15, 0
12, 22, 0
12, 30, 0
13, 0, 0
13, 12, 1
13, 4, 0
13, 23, 0
13, 26, 0
13, 2, 0
13, 21, 0
13, 36, 0
13, 22, 0
13, 30, 0
17, 16, 0
17, 35, 0
17, 25, 0
17, 29, 0
17, 18, 1
17, 24, 0
17, 1, 0
31, 21, 0
31, 32, 1
31, 36, 0
23, 12, 0
23, 13, 0
23, 26, 0
23, 2, 0
23, 22, 1
23, 30, 0
24, 16, 0
24, 25, 1
24, 29, 0
24, 18, 0
24, 17, 0
24, 1, 0
5, 20, 0
5, 26, 0
5, 2, 0
5, 21, 0
5, 6, 0
5, 19, 0
5, 11, 0
5, 1, 0
11, 20, 0
11, 34, 0
11, 5, 0
11, 1, 0
11, 7, 0
11, 3, 0
11, 4, 0
11, 14, 0
11, 26, 0
11, 33, 0
11, 30, 0
11, 8, 0
11, 15, 0
11, 10, 0
11, 9, 0
1, 7, 0
1, 17, 0
1, 3, 0
1, 16, 0
1, 29, 0
1, 5, 0
1, 11, 0
1, 30, 0
1, 20, 0
1, 34, 0
1, 4, 0
1, 25, 0
1, 24, 0
1, 33, 0
1, 14, 0
1, 15, 0
1, 19, 0
1, 18, 0
20, 34, 0
20, 28, 0
20, 33, 0
20, 26, 0
20, 29, 0
20, 6, 0
20, 5, 0
20, 11, 0
20, 1, 0
4, 0, 0
4, 13, 0
4, 12, 0
4, 34, 0
4, 11, 0
4, 1, 0
4, 7, 0
4, 3, 1
4, 14, 0
4, 26, 0
4, 33, 0
4, 30, 0
4, 8, 0
4, 15, 0
4, 9, 0
14, 3, 0
14, 4, 0
14, 25, 0
14, 33, 0
14, 18, 0
14, 15, 1
14, 11, 0
14, 1, 0
35, 16, 0
35, 18, 0
35, 17, 0
28, 20, 0
28, 16, 0
28, 19, 0
28, 29, 0
30, 0, 0
30, 13, 0
30, 23, 0
30, 12, 0
30, 27, 0
30, 11, 0
30, 1, 0
30, 7, 0
30, 34, 0
30, 4, 0
30, 25, 0
30, 26, 0
30, 2, 0
30, 21, 0
30, 33, 0
30, 8, 0
30, 15, 0
30, 22, 0
8, 3, 0
8, 27, 0
8, 11, 0
8, 10, 0
8, 7, 1
8, 34, 0
8, 4, 0
8, 26, 0
8, 2, 0
8, 21, 0
8, 30, 0
8, 9, 0
15, 0, 0
15, 12, 0
15, 18, 0
15, 11, 0
15, 30, 0
15, 7, 0
15, 3, 0
15, 34, 0
15, 4, 0
15, 25, 0
15, 26, 0
15, 33, 0
15, 14, 1
15, 1, 0
22, 12, 0
22, 13, 0
22, 26, 0
22, 23, 1
22, 2, 0
22, 21, 0
22, 30, 0
36, 0, 0
36, 13, 0
36, 26, 0
36, 31, 0
36, 2, 0
36, 21, 0
36, 6, 0
36, 19, 0
0, 13, 0
0, 34, 0
0, 18, 0
0, 30, 0
0, 7, 0
0, 12, 0
0, 4, 0
0, 26, 0
0, 2, 0
0, 21, 0
0, 19, 0
0, 15, 0
0, 36, 0
6, 20, 0
6, 26, 0
6, 2, 0
6, 21, 0
6, 19, 0
6, 5, 0
6, 36, 0
3, 34, 0
3, 4, 1
3, 14, 0
3, 9, 0
3, 33, 0
3, 18, 0
3, 25, 0
3, 8, 0
3, 15, 0
3, 11, 0
3, 1, 0
16, 35, 0
16, 17, 0
16, 29, 0
16, 18, 0
16, 28, 0
16, 24, 0
16, 1, 0
27, 7, 0
27, 8, 0
27, 26, 0
27, 30, 0
10, 7, 0
10, 34, 0
10, 8, 0
10, 11, 0
10, 9, 1
7, 0, 0
7, 18, 0
7, 27, 0
7, 1, 0
7, 11, 0
7, 10, 0
7, 34, 0
7, 4, 0
7, 25, 0
7, 26, 0
7, 21, 0
7, 30, 0
7, 8, 1
7, 15, 0
7, 9, 0
34, 0, 0
34, 20, 0
34, 18, 0
34, 1, 0
34, 11, 0
34, 30, 0
34, 7, 0
34, 3, 0
34, 4, 0
34, 25, 0
34, 26, 0
34, 21, 0
34, 8, 0
34, 15, 0
34, 10, 0
34, 9, 0
25, 7, 0
25, 34, 0
25, 14, 0
25, 3, 0
25, 18, 0
25, 17, 0
25, 30, 0
25, 29, 0
25, 15, 0
25, 24, 1
25, 1, 0
33, 20, 0
33, 3, 0
33, 4, 0
33, 14, 0
33, 1, 0
33, 15, 0
33, 11, 0
33, 30, 0
32, 21, 0
32, 31, 1
2, 0, 0
2, 13, 0
2, 23, 0
2, 6, 0
2, 5, 0
2, 30, 0
2, 12, 0
2, 9, 0
2, 26, 0
2, 21, 0
2, 19, 0
2, 8, 0
2, 22, 0
2, 36, 0
21, 0, 0
21, 13, 0
21, 31, 0
21, 12, 0
21, 6, 0
21, 5, 0
21, 30, 0
21, 7, 0
21, 34, 0
21, 9, 0
21, 32, 0
21, 2, 0
21, 26, 0
21, 19, 0
21, 8, 0
21, 22, 0
21, 36, 0
29, 20, 0
29, 18, 0
29, 28, 0
29, 24, 0
29, 16, 0
29, 17, 0
29, 19, 0
29, 25, 0
29, 1, 0
19, 0, 0
19, 28, 0
19, 26, 0
19, 2, 0
19, 21, 0
19, 6, 0
19, 1, 0
19, 29, 0
19, 5, 0
19, 36, 0
26, 0, 0
26, 7, 0
26, 13, 0
26, 23, 0
26, 12, 0
26, 6, 0
26, 36, 0
26, 5, 0
26, 11, 0
26, 30, 0
26, 20, 0
26, 34, 0
26, 4, 0
26, 27, 0
26, 2, 0
26, 21, 0
26, 19, 0
26, 8, 0
26, 15, 0
26, 22, 0
26, 9, 0
18, 0, 0
18, 17, 1
18, 3, 0
18, 16, 0
18, 35, 0
18, 12, 0
18, 7, 0
18, 34, 0
18, 29, 0
18, 14, 0
18, 24, 0
18, 25, 0
18, 1, 0
18, 15, 0
9, 7, 0
9, 34, 0
9, 4, 0
9, 26, 0
9, 3, 0
9, 21, 0
9, 2, 0
9, 8, 0
9, 11, 0
9, 10, 1
