0, 4, 0
0, 9, 0
0, 11, 0
0, 10, 0
13, 12, 1
13, 8, 0
13, 9, 0
13, 6, 0
3, 7, 0
3, 2, 0
3, 6, 0
3, 8, 0
3, 5, 0
3, 1, 0
6, 7, 0
6, 12, 0
6, 13, 0
6, 3, 0
6, 1, 0
6, 8, 0
6, 5, 0
6, 9, 0
8, 7, 1
8, 12, 0
8, 13, 0
8, 3, 0
8, 6, 0
8, 5, 0
8, 11, 0
8, 9, 0
5, 7, 0
5, 12, 0
5, 4, 0
5, 9, 0
5, 3, 0
5, 2, 0
5, 6, 0
5, 8, 0
5, 1, 0
11, 0, 0
11, 8, 0
11, 9, 0
11, 4, 0
11, 10, 1
10, 0, 0
10, 11, 1
10, 9, 0
7, 6, 0
7, 8, 1
7, 5, 0
7, 3, 0
12, 6, 0
12, 8, 0
12, 13, 1
12, 5, 0
12, 9, 0
4, 0, 0
4, 9, 0
4, 5, 0
4, 11, 0
4, 1, 0
2, 3, 0
2, 5, 0
2, 1, 1
1, 3, 0
1, 4, 0
1, 2, 1
1, 6, 0
1, 5, 0
1, 9, 0
9, 0, 0
9, 12, 0
9, 13, 0
9, 4, 0
9, 10, 0
9, 6, 0
9, 8, 0
9, 5, 0
9, 11, 0
9, 1, 0
