0, 6, 0
0, 3, 0
0, 1, 1
3, 0, 0
3, 6, 0
3, 1, 0
3, 5, 0
3, 2, 0
4, 5, 1
4, 10, 0
2, 3, 0
2, 5, 0
2, 9, 0
6, 0, 0
6, 3, 0
6, 8, 0
6, 7, 0
6, 1, 0
1, 0, 1
1, 3, 0
1, 7, 0
1, 5, 0
1, 6, 0
8, 7, 0
8, 6, 0
5, 7, 0
5, 3, 0
5, 4, 1
5, 2, 0
5, 1, 0
5, 10, 0
5, 9, 0
7, 6, 0
7, 8, 0
7, 5, 0
7, 1, 0
10, 4, 0
10, 5, 0
10, 9, 0
9, 2, 0
9, 5, 0
9, 10, 0
