0, 6, 0
0, 1, 0
3, 1, 0
3, 5, 0
3, 2, 1
4, 7, 0
4, 6, 0
4, 2, 0
4, 1, 0
7, 6, 0
7, 4, 0
2, 3, 1
2, 8, 0
2, 5, 0
2, 4, 0
2, 1, 0
6, 0, 0
6, 7, 0
6, 4, 0
8, 5, 0
8, 2, 0
5, 3, 0
5, 8, 0
5, 2, 0
1, 0, 0
1, 3, 0
1, 4, 0
1, 2, 0
