0, 7, 0
0, 6, 0
0, 4, 0
0, 5, 0
0, 2, 0
3, 4, 0
3, 1, 0
4, 0, 0
4, 3, 0
4, 2, 0
7, 0, 0
7, 6, 0
7, 5, 0
7, 2, 0
2, 0, 0
2, 7, 0
2, 4, 0
2, 5, 0
2, 6, 0
6, 0, 0
6, 7, 0
6, 5, 1
6, 2, 0
5, 0, 0
5, 7, 0
5, 6, 1
5, 2, 0
1, 3, 0
