13, 0, 0
13, 12, 1
13, 25, 0
13, 23, 0
13, 24, 0
13, 17, 0
13, 19, 0
13, 5, 0
13, 22, 0
17, 0, 0
17, 13, 0
17, 18, 0
17, 6, 0
17, 1, 0
17, 7, 0
17, 12, 0
17, 4, 0
17, 25, 0
17, 24, 0
17, 14, 0
17, 8, 0
17, 10, 0
23, 7, 0
23, 13, 0
23, 16, 0
23, 19, 0
23, 8, 0
23, 5, 0
23, 22, 0
5, 13, 0
5, 25, 0
5, 23, 0
5, 16, 0
5, 19, 0
5, 22, 0
11, 3, 0
11, 14, 0
11, 9, 0
1, 0, 0
1, 3, 0
1, 17, 0
1, 2, 1
1, 21, 0
1, 6, 0
1, 24, 0
1, 18, 0
1, 10, 0
20, 7, 0
20, 3, 0
20, 4, 0
20, 14, 0
20, 21, 1
20, 6, 0
20, 18, 0
4, 20, 0
4, 7, 0
4, 14, 0
4, 3, 0
4, 6, 0
4, 17, 0
4, 10, 0
14, 7, 0
14, 17, 0
14, 6, 0
14, 11, 0
14, 10, 0
14, 20, 0
14, 3, 0
14, 4, 0
14, 25, 0
14, 21, 0
14, 15, 0
14, 9, 0
24, 0, 0
24, 3, 0
24, 13, 0
24, 17, 0
24, 2, 0
24, 21, 0
24, 6, 0
24, 10, 0
24, 18, 0
24, 1, 0
8, 25, 0
8, 23, 0
8, 16, 0
8, 6, 0
8, 17, 0
8, 10, 0
15, 18, 0
15, 14, 0
15, 9, 0
22, 0, 0
22, 12, 0
22, 13, 0
22, 25, 0
22, 23, 0
22, 19, 0
22, 5, 0
0, 7, 0
0, 12, 0
0, 13, 0
0, 17, 0
0, 24, 0
0, 18, 0
0, 6, 0
0, 19, 0
0, 25, 0
0, 22, 0
0, 1, 0
3, 20, 0
3, 18, 0
3, 4, 0
3, 14, 0
3, 24, 0
3, 21, 0
3, 6, 0
3, 9, 0
3, 7, 0
3, 11, 0
3, 1, 0
16, 7, 0
16, 8, 0
16, 5, 0
16, 23, 0
6, 0, 0
6, 7, 0
6, 17, 0
6, 12, 0
6, 18, 0
6, 1, 0
6, 20, 0
6, 3, 0
6, 4, 0
6, 14, 0
6, 24, 0
6, 21, 0
6, 25, 0
6, 8, 0
6, 10, 0
10, 7, 0
10, 6, 0
10, 4, 0
10, 14, 0
10, 2, 0
10, 25, 0
10, 8, 0
10, 24, 0
10, 17, 0
10, 1, 0
7, 0, 0
7, 3, 0
7, 4, 0
7, 14, 0
7, 23, 0
7, 16, 0
7, 6, 0
7, 20, 0
7, 19, 0
7, 17, 0
7, 10, 0
12, 0, 0
12, 25, 0
12, 13, 1
12, 17, 0
12, 6, 0
12, 19, 0
12, 22, 0
25, 0, 0
25, 12, 0
25, 17, 0
25, 13, 0
25, 14, 0
25, 6, 0
25, 19, 0
25, 8, 0
25, 5, 0
25, 22, 0
25, 10, 0
2, 18, 0
2, 10, 0
2, 24, 0
2, 1, 1
21, 20, 1
21, 3, 0
21, 14, 0
21, 24, 0
21, 18, 0
21, 6, 0
21, 1, 0
19, 7, 0
19, 12, 0
19, 13, 0
19, 25, 0
19, 23, 0
19, 5, 0
19, 22, 0
19, 0, 0
18, 0, 0
18, 3, 0
18, 17, 0
18, 9, 0
18, 24, 0
18, 21, 0
18, 6, 0
18, 20, 0
18, 2, 0
18, 15, 0
18, 1, 0
9, 18, 0
9, 15, 0
9, 14, 0
9, 11, 0
9, 3, 0
