13, 0, 0
13, 12, 1
13, 26, 0
13, 32, 0
13, 3, 0
13, 34, 0
13, 41, 0
17, 23, 0
17, 34, 0
17, 24, 0
17, 40, 0
17, 30, 0
17, 33, 0
17, 14, 0
17, 32, 0
17, 35, 0
17, 37, 0
17, 42, 0
17, 36, 0
23, 17, 0
23, 32, 0
23, 33, 0
23, 24, 0
23, 40, 0
23, 1, 0
23, 34, 0
23, 43, 0
23, 26, 0
23, 35, 0
23, 21, 0
23, 42, 0
23, 14, 0
23, 36, 0
42, 20, 0
42, 33, 0
42, 14, 0
42, 23, 0
42, 45, 0
42, 21, 0
42, 43, 0
42, 17, 0
5, 24, 0
5, 6, 1
5, 8, 0
5, 9, 0
20, 33, 0
20, 14, 0
20, 27, 0
20, 42, 0
20, 21, 0
20, 25, 0
20, 19, 1
20, 40, 0
20, 10, 0
14, 20, 0
14, 33, 0
14, 43, 0
14, 23, 0
14, 26, 0
14, 45, 0
14, 17, 0
14, 42, 0
14, 24, 0
14, 40, 0
24, 0, 0
24, 45, 0
24, 17, 0
24, 31, 0
24, 23, 0
24, 27, 0
24, 15, 0
24, 29, 0
24, 5, 0
24, 1, 0
24, 3, 0
24, 44, 0
24, 14, 0
24, 26, 0
24, 35, 0
24, 28, 0
24, 8, 0
24, 39, 0
24, 10, 0
24, 22, 0
24, 9, 0
28, 21, 0
28, 15, 0
28, 39, 0
28, 33, 0
28, 24, 0
39, 21, 0
39, 28, 0
39, 22, 0
39, 24, 0
41, 0, 0
41, 12, 0
41, 13, 0
41, 32, 0
41, 4, 0
41, 3, 0
41, 26, 0
41, 34, 0
41, 9, 0
0, 12, 0
0, 13, 0
0, 3, 0
0, 4, 0
0, 24, 0
0, 41, 0
0, 11, 0
0, 9, 0
8, 7, 0
8, 32, 0
8, 24, 0
8, 37, 0
8, 6, 0
8, 1, 0
8, 38, 0
8, 5, 0
8, 9, 0
12, 0, 0
12, 3, 0
12, 13, 1
12, 41, 0
12, 11, 1
15, 10, 0
15, 28, 0
15, 24, 0
10, 20, 0
10, 21, 0
10, 24, 0
10, 18, 0
10, 27, 0
10, 19, 0
10, 15, 0
7, 6, 1
7, 8, 0
7, 38, 0
7, 32, 0
7, 9, 0
3, 0, 0
3, 12, 0
3, 13, 0
3, 32, 0
3, 24, 0
3, 41, 0
3, 11, 0
32, 13, 0
32, 17, 0
32, 23, 0
32, 3, 0
32, 1, 0
32, 30, 0
32, 7, 0
32, 33, 0
32, 9, 0
32, 35, 0
32, 37, 0
32, 8, 0
32, 38, 0
32, 41, 0
32, 36, 0
2, 21, 0
2, 45, 0
2, 43, 0
21, 45, 0
21, 28, 0
21, 23, 0
21, 16, 0
21, 27, 0
21, 44, 0
21, 10, 0
21, 20, 0
21, 33, 0
21, 43, 0
21, 31, 0
21, 2, 0
21, 42, 0
21, 39, 0
21, 22, 0
33, 28, 0
33, 23, 0
33, 16, 0
33, 27, 0
33, 40, 0
33, 44, 0
33, 30, 0
33, 20, 0
33, 34, 0
33, 14, 0
33, 32, 0
33, 35, 0
33, 21, 0
33, 17, 0
33, 1, 0
33, 42, 0
33, 36, 0
19, 20, 1
19, 18, 1
19, 25, 0
19, 27, 0
19, 10, 0
18, 27, 0
18, 19, 1
18, 25, 0
18, 10, 0
31, 21, 0
31, 45, 0
31, 22, 0
31, 24, 0
29, 16, 0
29, 44, 0
29, 24, 0
40, 20, 0
40, 33, 0
40, 14, 0
40, 23, 0
40, 26, 0
40, 45, 0
40, 43, 0
40, 34, 0
40, 17, 0
11, 0, 0
11, 12, 1
11, 3, 0
1, 24, 0
1, 33, 0
1, 32, 0
1, 23, 0
1, 35, 0
1, 37, 0
1, 8, 0
1, 38, 0
1, 36, 0
37, 17, 0
37, 9, 0
37, 32, 0
37, 36, 1
37, 8, 0
37, 38, 0
37, 1, 0
4, 0, 0
4, 41, 0
4, 9, 0
35, 33, 0
35, 17, 0
35, 23, 0
35, 32, 0
35, 24, 0
35, 30, 0
35, 36, 1
35, 1, 0
30, 33, 0
30, 34, 0
30, 17, 0
30, 32, 0
30, 35, 0
38, 7, 0
38, 9, 0
38, 32, 0
38, 37, 0
38, 6, 0
38, 36, 0
38, 8, 0
38, 1, 0
22, 21, 0
22, 39, 0
22, 31, 0
22, 24, 0
36, 33, 0
36, 17, 0
36, 23, 0
36, 32, 0
36, 35, 1
36, 37, 1
36, 38, 0
36, 1, 0
45, 43, 0
45, 31, 0
45, 2, 0
45, 21, 0
45, 42, 0
45, 14, 0
45, 24, 0
45, 40, 0
16, 21, 0
16, 33, 0
16, 27, 0
16, 29, 0
27, 20, 0
27, 33, 0
27, 21, 0
27, 24, 0
27, 16, 0
27, 25, 0
27, 19, 0
27, 18, 0
27, 10, 0
44, 21, 0
44, 33, 0
44, 29, 0
44, 24, 0
34, 33, 0
34, 13, 0
34, 17, 0
34, 23, 0
34, 40, 0
34, 41, 0
34, 30, 0
25, 20, 0
25, 18, 0
25, 19, 0
25, 27, 0
26, 13, 0
26, 14, 0
26, 23, 0
26, 24, 0
26, 43, 0
26, 40, 0
26, 41, 0
6, 7, 1
6, 8, 0
6, 38, 0
6, 5, 1
6, 9, 0
43, 45, 0
43, 14, 0
43, 26, 0
43, 23, 0
43, 2, 0
43, 21, 0
43, 42, 0
43, 40, 0
9, 0, 0
9, 7, 0
9, 4, 0
9, 32, 0
9, 24, 0
9, 37, 0
9, 6, 0
9, 8, 0
9, 38, 0
9, 41, 0
9, 5, 0
