0, 13, 0
0, 11, 0
0, 1, 1
13, 0, 0
13, 7, 0
13, 17, 0
13, 12, 0
13, 18, 0
13, 9, 0
13, 11, 0
13, 1, 0
17, 3, 0
17, 4, 0
17, 13, 0
17, 2, 0
17, 16, 0
17, 6, 0
17, 12, 0
17, 15, 0
17, 5, 0
17, 10, 0
3, 15, 0
3, 4, 0
3, 17, 0
3, 5, 0
3, 2, 1
16, 4, 0
16, 17, 0
16, 2, 0
16, 6, 0
16, 15, 0
16, 5, 0
16, 11, 0
16, 1, 0
6, 4, 0
6, 17, 0
6, 2, 0
6, 16, 0
6, 15, 0
6, 5, 0
8, 7, 0
8, 14, 0
8, 9, 1
5, 3, 0
5, 4, 1
5, 17, 0
5, 2, 0
5, 16, 0
5, 6, 0
5, 15, 0
11, 0, 0
11, 16, 0
11, 13, 0
11, 1, 0
10, 12, 0
10, 14, 0
10, 17, 0
10, 9, 0
7, 12, 0
7, 13, 0
7, 14, 0
7, 18, 0
7, 8, 0
7, 9, 0
12, 7, 0
12, 14, 0
12, 13, 0
12, 17, 0
12, 10, 0
4, 3, 0
4, 17, 0
4, 2, 0
4, 16, 0
4, 6, 0
4, 15, 0
4, 5, 1
14, 7, 0
14, 12, 0
14, 8, 0
14, 9, 0
14, 10, 0
2, 3, 1
2, 4, 0
2, 17, 0
2, 16, 0
2, 6, 0
2, 15, 0
2, 5, 0
1, 0, 1
1, 13, 0
1, 16, 0
1, 15, 0
1, 11, 0
1, 9, 0
15, 3, 0
15, 4, 0
15, 17, 0
15, 2, 0
15, 16, 0
15, 6, 0
15, 5, 0
15, 1, 0
18, 7, 0
18, 13, 0
9, 7, 0
9, 13, 0
9, 14, 0
9, 8, 1
9, 10, 0
9, 1, 0
