0, 7, 0
0, 3, 0
0, 4, 0
8, 2, 0
8, 12, 0
8, 9, 1
8, 5, 0
8, 6, 0
3, 0, 0
3, 7, 0
3, 4, 1
3, 1, 0
6, 2, 0
6, 12, 0
6, 8, 0
6, 9, 0
5, 7, 0
5, 12, 0
5, 9, 0
5, 2, 0
5, 8, 0
5, 10, 0
5, 11, 0
5, 1, 0
11, 10, 1
11, 5, 0
11, 1, 0
10, 5, 0
10, 11, 1
10, 1, 0
7, 0, 0
7, 3, 0
7, 4, 0
7, 12, 0
7, 5, 0
7, 1, 0
12, 7, 0
12, 2, 0
12, 6, 0
12, 8, 0
12, 5, 0
12, 9, 0
4, 0, 0
4, 7, 0
4, 3, 1
4, 1, 0
2, 12, 0
2, 8, 0
2, 9, 0
2, 5, 0
2, 6, 0
1, 7, 0
1, 3, 0
1, 4, 0
1, 5, 0
1, 11, 0
1, 10, 0
9, 2, 0
9, 12, 0
9, 8, 1
9, 5, 0
9, 6, 0
