0, 4, 0
0, 1, 0
3, 6, 0
3, 2, 0
4, 0, 0
4, 1, 0
2, 3, 0
2, 5, 0
6, 3, 0
1, 7, 0
1, 0, 0
1, 4, 0
8, 7, 0
8, 5, 0
8, 9, 1
5, 7, 0
5, 2, 0
5, 8, 0
5, 9, 0
7, 1, 0
7, 8, 0
7, 5, 0
7, 9, 0
9, 7, 0
9, 8, 1
9, 5, 0
