12, 7, 0
12, 4, 0
12, 28, 0
12, 23, 0
12, 16, 0
12, 14, 0
12, 11, 1
12, 10, 0
13, 17, 0
13, 31, 0
13, 23, 0
13, 6, 0
13, 1, 0
13, 10, 0
13, 7, 0
13, 14, 0
13, 32, 0
13, 29, 0
13, 21, 0
13, 25, 0
13, 30, 0
17, 13, 0
17, 28, 0
17, 23, 0
17, 18, 0
17, 6, 0
17, 35, 0
17, 30, 0
17, 7, 0
17, 4, 0
17, 32, 0
17, 2, 0
17, 37, 0
17, 15, 0
31, 2, 0
31, 13, 0
31, 28, 0
31, 26, 0
31, 6, 0
31, 27, 0
31, 29, 0
31, 30, 0
31, 7, 0
31, 21, 0
31, 4, 0
31, 32, 0
31, 35, 0
31, 37, 0
31, 19, 0
31, 15, 0
31, 36, 0
23, 13, 0
23, 17, 0
23, 16, 0
23, 11, 0
23, 10, 0
23, 7, 0
23, 12, 0
23, 4, 0
23, 14, 0
23, 35, 0
23, 37, 0
23, 28, 0
23, 38, 0
24, 0, 0
24, 4, 0
24, 14, 0
24, 37, 0
24, 25, 0
24, 8, 0
24, 38, 0
24, 5, 0
24, 10, 0
24, 9, 0
5, 0, 0
5, 7, 0
5, 14, 0
5, 24, 0
5, 37, 0
5, 25, 0
5, 8, 0
5, 1, 0
11, 7, 0
11, 12, 1
11, 4, 0
11, 14, 0
11, 23, 0
11, 16, 0
11, 38, 0
11, 10, 0
1, 7, 0
1, 13, 0
1, 25, 0
1, 6, 0
1, 5, 0
1, 30, 0
20, 34, 0
20, 26, 0
20, 33, 0
20, 21, 0
20, 6, 0
20, 19, 0
20, 22, 0
21, 7, 0
21, 13, 0
21, 28, 0
21, 26, 0
21, 6, 0
21, 2, 0
21, 30, 0
21, 20, 0
21, 33, 0
21, 31, 0
21, 35, 0
21, 37, 0
21, 19, 0
21, 15, 0
21, 22, 0
21, 36, 0
4, 17, 0
4, 31, 0
4, 23, 0
4, 16, 0
4, 2, 0
4, 11, 0
4, 24, 0
4, 12, 0
4, 32, 0
4, 35, 0
4, 37, 0
4, 28, 0
4, 19, 0
4, 15, 0
14, 0, 0
14, 13, 0
14, 28, 0
14, 23, 0
14, 5, 0
14, 11, 0
14, 10, 0
14, 7, 0
14, 12, 0
14, 25, 0
14, 24, 0
14, 37, 0
14, 8, 0
14, 38, 0
35, 17, 0
35, 26, 0
35, 23, 0
35, 27, 0
35, 34, 0
35, 4, 0
35, 31, 0
35, 21, 0
35, 19, 0
35, 15, 0
35, 22, 0
35, 36, 1
28, 37, 0
28, 17, 0
28, 32, 0
28, 23, 0
28, 3, 0
28, 16, 0
28, 38, 0
28, 29, 0
28, 10, 0
28, 12, 0
28, 4, 0
28, 14, 0
28, 31, 0
28, 2, 0
28, 21, 0
28, 15, 0
28, 18, 0
30, 33, 0
30, 13, 0
30, 17, 0
30, 31, 0
30, 32, 0
30, 21, 0
30, 6, 0
30, 1, 0
8, 0, 0
8, 14, 0
8, 24, 0
8, 37, 0
8, 10, 0
8, 38, 0
8, 5, 0
8, 9, 1
15, 37, 0
15, 17, 0
15, 32, 0
15, 3, 0
15, 18, 0
15, 35, 0
15, 34, 0
15, 4, 0
15, 31, 0
15, 2, 0
15, 21, 0
15, 28, 0
15, 26, 0
15, 22, 0
15, 36, 0
19, 20, 0
19, 34, 0
19, 4, 0
19, 31, 0
19, 26, 0
19, 35, 0
19, 21, 0
19, 27, 0
19, 22, 0
19, 36, 0
22, 20, 0
22, 34, 0
22, 26, 0
22, 35, 0
22, 21, 0
22, 33, 0
22, 19, 0
22, 15, 0
22, 36, 0
36, 34, 0
36, 21, 0
36, 31, 0
36, 26, 0
36, 3, 0
36, 37, 0
36, 27, 0
36, 19, 0
36, 35, 1
36, 15, 0
36, 22, 0
0, 7, 0
0, 14, 0
0, 24, 0
0, 37, 0
0, 25, 0
0, 8, 0
0, 5, 0
38, 37, 0
38, 28, 0
38, 23, 0
38, 24, 0
38, 16, 0
38, 14, 0
38, 8, 0
38, 11, 0
38, 10, 0
3, 15, 0
3, 36, 0
3, 28, 0
3, 2, 1
16, 7, 0
16, 12, 0
16, 4, 0
16, 28, 0
16, 23, 0
16, 37, 0
16, 38, 0
16, 11, 0
16, 10, 0
6, 20, 0
6, 34, 0
6, 13, 0
6, 17, 0
6, 32, 0
6, 31, 0
6, 33, 0
6, 21, 0
6, 1, 0
6, 7, 0
6, 30, 0
10, 13, 0
10, 28, 0
10, 23, 0
10, 16, 0
10, 11, 0
10, 7, 0
10, 12, 0
10, 14, 0
10, 24, 0
10, 37, 0
10, 8, 0
10, 38, 0
7, 0, 0
7, 13, 0
7, 17, 0
7, 31, 0
7, 23, 0
7, 16, 0
7, 6, 0
7, 5, 0
7, 11, 0
7, 10, 0
7, 12, 0
7, 14, 0
7, 32, 0
7, 21, 0
7, 25, 0
7, 1, 0
34, 20, 0
34, 33, 1
34, 35, 0
34, 37, 0
34, 6, 0
34, 19, 0
34, 15, 0
34, 22, 0
34, 36, 0
25, 0, 0
25, 7, 0
25, 13, 0
25, 14, 0
25, 24, 0
25, 5, 0
25, 1, 0
33, 20, 0
33, 34, 1
33, 21, 0
33, 6, 0
33, 22, 0
33, 30, 0
32, 13, 0
32, 17, 0
32, 18, 0
32, 6, 0
32, 2, 0
32, 30, 0
32, 7, 0
32, 4, 0
32, 31, 0
32, 29, 0
32, 37, 0
32, 28, 0
32, 15, 0
27, 19, 0
27, 36, 0
27, 26, 1
27, 31, 0
27, 35, 0
37, 0, 0
37, 17, 0
37, 31, 0
37, 23, 0
37, 16, 0
37, 15, 0
37, 36, 0
37, 5, 0
37, 10, 0
37, 34, 0
37, 4, 0
37, 14, 0
37, 32, 0
37, 24, 0
37, 21, 0
37, 28, 0
37, 8, 0
37, 38, 0
37, 9, 0
29, 13, 0
29, 28, 0
29, 31, 0
29, 32, 0
29, 2, 0
2, 3, 1
2, 4, 0
2, 28, 0
2, 31, 0
2, 32, 0
2, 29, 0
2, 21, 0
2, 17, 0
2, 15, 0
2, 18, 0
26, 20, 0
26, 31, 0
26, 35, 0
26, 21, 0
26, 27, 1
26, 19, 0
26, 15, 0
26, 22, 0
26, 36, 0
18, 28, 0
18, 15, 0
18, 17, 0
18, 32, 0
18, 2, 0
9, 37, 0
9, 8, 1
9, 24, 0
