0, 7, 0
0, 3, 0
0, 4, 0
0, 6, 0
0, 8, 0
0, 9, 0
3, 0, 0
3, 7, 0
3, 4, 0
3, 6, 0
3, 1, 0
3, 8, 0
3, 5, 0
3, 9, 0
4, 0, 0
4, 3, 0
4, 8, 0
4, 9, 0
2, 5, 0
2, 10, 0
6, 0, 0
6, 3, 0
6, 8, 0
6, 7, 0
1, 3, 0
1, 5, 0
8, 0, 0
8, 3, 0
8, 4, 0
8, 6, 0
8, 7, 0
8, 9, 1
5, 3, 0
5, 1, 0
5, 2, 0
7, 0, 0
7, 3, 0
7, 6, 0
7, 8, 0
7, 9, 0
10, 2, 0
9, 0, 0
9, 3, 0
9, 8, 1
9, 7, 0
9, 4, 0
