2, 0, 0
2, 12, 0
2, 29, 0
2, 1, 0
2, 9, 0
2, 30, 0
13, 20, 0
13, 28, 0
13, 5, 0
13, 26, 0
13, 10, 0
17, 18, 0
17, 11, 0
17, 9, 0
23, 7, 0
23, 28, 0
23, 22, 1
29, 0, 0
29, 2, 0
29, 30, 0
5, 20, 0
5, 18, 0
5, 13, 0
5, 9, 0
5, 10, 0
11, 0, 0
11, 14, 0
11, 30, 0
11, 17, 0
11, 9, 0
1, 0, 1
1, 12, 0
1, 2, 0
20, 4, 0
20, 13, 0
20, 18, 0
20, 15, 0
20, 5, 0
20, 10, 0
4, 20, 0
4, 18, 0
4, 10, 0
14, 11, 0
14, 30, 0
24, 3, 0
24, 15, 0
24, 6, 0
28, 7, 0
28, 13, 0
28, 23, 0
28, 16, 0
28, 27, 0
28, 9, 0
28, 15, 0
28, 22, 0
28, 10, 0
30, 0, 0
30, 14, 0
30, 2, 0
30, 29, 0
30, 11, 0
30, 9, 0
8, 12, 0
8, 19, 0
15, 20, 0
15, 3, 0
15, 28, 0
15, 24, 0
15, 16, 0
15, 6, 0
15, 18, 0
15, 10, 0
22, 7, 0
22, 9, 0
22, 28, 0
22, 23, 1
22, 10, 0
0, 12, 0
0, 25, 0
0, 9, 0
0, 29, 0
0, 19, 0
0, 2, 0
0, 30, 0
0, 11, 0
0, 1, 1
12, 0, 0
12, 9, 0
12, 2, 0
12, 19, 0
12, 8, 0
12, 1, 0
16, 21, 0
16, 27, 0
16, 15, 0
16, 28, 0
16, 6, 0
6, 3, 0
6, 21, 0
6, 16, 0
6, 27, 0
6, 24, 0
6, 15, 0
6, 10, 0
10, 7, 0
10, 13, 0
10, 28, 0
10, 18, 0
10, 6, 0
10, 5, 0
10, 20, 0
10, 4, 0
10, 26, 0
10, 15, 0
10, 22, 0
10, 9, 0
7, 28, 0
7, 23, 0
7, 26, 0
7, 9, 0
7, 22, 0
7, 10, 0
3, 6, 0
3, 15, 0
3, 24, 0
25, 0, 0
25, 19, 0
26, 7, 0
26, 13, 0
26, 9, 0
26, 10, 0
27, 21, 0
27, 6, 0
27, 16, 0
27, 28, 0
21, 16, 0
21, 27, 0
21, 6, 0
19, 0, 0
19, 12, 0
19, 8, 0
19, 25, 0
18, 20, 0
18, 4, 0
18, 17, 0
18, 9, 0
18, 15, 0
18, 5, 0
18, 10, 0
9, 0, 0
9, 17, 0
9, 18, 0
9, 5, 0
9, 11, 0
9, 30, 0
9, 7, 0
9, 12, 0
9, 26, 0
9, 2, 0
9, 28, 0
9, 10, 0
9, 22, 0
