0, 6, 0
0, 13, 0
0, 4, 0
0, 10, 0
13, 0, 0
13, 6, 0
13, 4, 0
13, 10, 0
3, 7, 0
3, 2, 0
3, 8, 0
3, 11, 0
3, 1, 0
6, 0, 0
6, 13, 0
6, 4, 0
6, 10, 0
8, 7, 0
8, 3, 0
8, 1, 0
8, 11, 0
8, 2, 0
5, 9, 0
11, 7, 0
11, 3, 0
11, 8, 0
11, 2, 0
10, 0, 0
10, 6, 0
10, 13, 0
10, 15, 0
10, 4, 0
7, 3, 0
7, 8, 0
7, 11, 0
7, 2, 0
12, 4, 0
12, 14, 0
12, 9, 0
4, 0, 0
4, 12, 0
4, 13, 0
4, 14, 0
4, 6, 0
4, 10, 0
14, 12, 0
14, 4, 0
2, 7, 0
2, 3, 0
2, 8, 0
2, 11, 0
2, 1, 0
1, 3, 0
1, 8, 0
1, 15, 0
1, 2, 0
15, 10, 0
15, 1, 0
9, 12, 0
9, 5, 0
