0, 3, 0
0, 4, 0
0, 14, 0
0, 9, 0
0, 2, 0
0, 6, 0
0, 8, 0
0, 1, 0
0, 5, 0
0, 10, 0
0, 12, 0
13, 8, 0
13, 9, 0
13, 5, 0
13, 11, 0
13, 2, 0
3, 0, 0
3, 12, 0
3, 14, 0
3, 2, 0
3, 6, 0
3, 9, 0
3, 5, 0
3, 10, 0
6, 0, 0
6, 3, 0
6, 4, 0
6, 14, 0
6, 8, 0
6, 5, 0
6, 11, 0
8, 0, 0
8, 13, 0
8, 4, 0
8, 2, 0
8, 6, 0
8, 5, 0
8, 11, 0
5, 0, 0
5, 3, 0
5, 13, 0
5, 2, 0
5, 6, 0
5, 8, 0
5, 9, 0
11, 6, 0
11, 8, 0
11, 13, 0
11, 4, 0
10, 0, 0
10, 3, 0
10, 12, 0
10, 9, 1
7, 12, 0
7, 14, 0
7, 1, 0
12, 0, 0
12, 3, 0
12, 7, 0
12, 14, 0
12, 9, 0
12, 10, 0
4, 0, 0
4, 6, 0
4, 8, 0
4, 11, 0
14, 0, 0
14, 12, 0
14, 7, 0
14, 3, 0
14, 6, 0
14, 1, 0
2, 0, 0
2, 3, 0
2, 13, 0
2, 8, 0
2, 5, 0
2, 9, 0
1, 0, 0
1, 7, 0
1, 14, 0
9, 0, 0
9, 12, 0
9, 13, 0
9, 3, 0
9, 2, 0
9, 5, 0
9, 10, 1
