0, 6, 0
0, 1, 0
3, 7, 0
3, 8, 0
3, 5, 0
3, 4, 0
4, 7, 0
4, 3, 0
4, 8, 0
4, 5, 0
2, 8, 0
2, 9, 0
6, 0, 0
6, 1, 0
6, 9, 0
6, 10, 0
1, 0, 0
1, 6, 0
1, 10, 0
8, 2, 0
8, 3, 0
8, 4, 0
8, 5, 0
8, 9, 0
5, 7, 0
5, 3, 0
5, 8, 0
5, 4, 0
7, 3, 0
7, 4, 0
7, 5, 0
10, 6, 0
10, 1, 0
10, 9, 0
9, 6, 0
9, 8, 0
9, 10, 0
9, 2, 0
