0, 9, 0
0, 10, 0
13, 7, 0
13, 15, 0
13, 14, 1
3, 6, 0
3, 12, 0
3, 8, 0
3, 15, 0
3, 2, 1
6, 12, 0
6, 3, 0
6, 2, 0
6, 8, 0
6, 15, 0
6, 11, 0
8, 12, 0
8, 4, 0
8, 3, 0
8, 2, 0
8, 6, 0
8, 15, 0
8, 5, 0
8, 1, 0
5, 8, 0
5, 9, 0
5, 4, 1
5, 1, 0
11, 12, 1
11, 15, 0
11, 6, 0
10, 0, 0
10, 9, 0
7, 14, 0
7, 13, 0
7, 15, 0
12, 3, 0
12, 14, 0
12, 6, 0
12, 8, 0
12, 15, 0
12, 11, 1
4, 8, 0
4, 5, 1
4, 1, 0
14, 7, 0
14, 12, 0
14, 13, 1
14, 15, 0
2, 6, 0
2, 8, 0
2, 15, 0
2, 3, 1
1, 8, 0
1, 5, 0
1, 4, 0
1, 9, 0
15, 7, 0
15, 12, 0
15, 13, 0
15, 14, 0
15, 3, 0
15, 6, 0
15, 8, 0
15, 2, 0
15, 11, 0
9, 0, 0
9, 10, 0
9, 5, 0
9, 1, 0
