0, 7, 0
0, 6, 0
3, 7, 0
3, 6, 0
3, 4, 1
4, 7, 0
4, 3, 1
4, 6, 0
7, 0, 0
7, 3, 0
7, 4, 0
7, 6, 0
2, 6, 0
2, 1, 0
6, 0, 0
6, 3, 0
6, 4, 0
6, 7, 0
6, 2, 0
8, 5, 0
8, 1, 0
5, 8, 0
5, 1, 0
1, 8, 0
1, 5, 0
1, 2, 0
