0, 3, 0
0, 4, 0
0, 14, 0
0, 12, 0
0, 1, 0
0, 10, 0
13, 7, 0
13, 12, 0
13, 3, 0
13, 6, 0
13, 15, 0
13, 5, 0
13, 9, 0
3, 0, 0
3, 12, 0
3, 13, 0
3, 15, 0
3, 11, 0
3, 10, 0
16, 4, 0
16, 14, 0
16, 1, 0
6, 7, 1
6, 13, 0
6, 5, 0
6, 9, 0
8, 4, 0
8, 14, 0
8, 2, 0
5, 7, 0
5, 6, 0
5, 13, 0
5, 9, 0
11, 12, 0
11, 15, 0
11, 3, 0
11, 10, 0
10, 0, 0
10, 12, 0
10, 4, 0
10, 3, 0
10, 15, 0
10, 11, 0
7, 6, 1
7, 13, 0
7, 5, 0
7, 9, 0
12, 0, 0
12, 3, 0
12, 13, 0
12, 15, 0
12, 11, 0
12, 10, 0
4, 0, 0
4, 14, 0
4, 16, 0
4, 8, 0
4, 10, 0
4, 1, 0
14, 0, 0
14, 4, 0
14, 2, 0
14, 16, 0
14, 8, 0
14, 1, 0
2, 8, 0
2, 14, 0
1, 0, 0
1, 16, 0
1, 4, 0
1, 14, 0
15, 12, 0
15, 13, 0
15, 3, 0
15, 9, 0
15, 11, 0
15, 10, 0
9, 7, 0
9, 6, 0
9, 13, 0
9, 15, 0
9, 5, 0
