0, 12, 0
0, 14, 0
0, 2, 0
0, 19, 0
0, 15, 0
0, 11, 0
13, 7, 0
13, 3, 0
13, 17, 0
13, 18, 0
13, 6, 0
13, 19, 0
13, 8, 0
13, 5, 0
13, 10, 0
13, 9, 0
17, 12, 0
17, 13, 0
17, 16, 0
17, 6, 0
17, 19, 0
17, 8, 0
17, 11, 0
17, 9, 0
3, 7, 0
3, 18, 0
3, 8, 0
3, 13, 0
16, 12, 0
16, 19, 0
16, 17, 0
16, 11, 0
16, 6, 0
6, 7, 0
6, 13, 0
6, 17, 0
6, 16, 0
6, 8, 0
6, 5, 1
6, 10, 0
8, 7, 1
8, 3, 0
8, 13, 0
8, 17, 0
8, 18, 0
8, 6, 0
8, 5, 0
8, 10, 0
5, 7, 0
5, 13, 0
5, 18, 0
5, 6, 1
5, 8, 0
5, 10, 0
11, 0, 0
11, 12, 1
11, 17, 0
11, 16, 0
11, 19, 0
11, 9, 0
10, 7, 0
10, 13, 0
10, 18, 0
10, 6, 0
10, 8, 0
10, 5, 0
10, 1, 0
7, 3, 0
7, 13, 0
7, 18, 0
7, 6, 0
7, 8, 1
7, 5, 0
7, 10, 0
12, 0, 0
12, 17, 0
12, 16, 0
12, 19, 0
12, 11, 1
12, 9, 0
4, 1, 0
14, 0, 0
14, 15, 1
14, 2, 0
2, 0, 0
2, 15, 0
2, 14, 0
19, 0, 0
19, 12, 0
19, 13, 0
19, 17, 0
19, 16, 0
19, 11, 0
19, 9, 0
1, 4, 0
1, 10, 0
15, 0, 0
15, 14, 1
15, 2, 0
18, 7, 0
18, 3, 0
18, 13, 0
18, 8, 0
18, 5, 0
18, 10, 0
9, 12, 0
9, 19, 0
9, 13, 0
9, 17, 0
9, 11, 0
