0, 12, 0
0, 4, 0
0, 1, 0
13, 7, 0
13, 8, 0
13, 9, 0
13, 5, 0
13, 2, 0
3, 5, 0
3, 10, 0
6, 4, 0
6, 1, 0
8, 7, 0
8, 13, 0
8, 14, 0
8, 5, 0
8, 2, 0
5, 7, 0
5, 3, 0
5, 8, 0
5, 13, 0
5, 9, 0
11, 4, 0
11, 10, 0
10, 3, 0
10, 11, 0
10, 9, 0
7, 13, 0
7, 8, 0
7, 14, 0
7, 5, 0
7, 2, 0
12, 0, 0
12, 4, 0
12, 9, 0
4, 0, 0
4, 12, 0
4, 6, 0
4, 9, 0
4, 11, 0
4, 1, 0
14, 7, 0
14, 8, 0
14, 9, 0
14, 2, 0
2, 7, 0
2, 8, 0
2, 14, 0
2, 9, 0
2, 13, 0
1, 0, 0
1, 6, 0
1, 4, 0
9, 12, 0
9, 13, 0
9, 14, 0
9, 4, 0
9, 2, 0
9, 5, 0
9, 10, 0
