0, 6, 0
0, 1, 0
0, 2, 0
3, 7, 0
3, 1, 0
4, 7, 0
4, 1, 0
4, 8, 0
4, 5, 1
4, 9, 0
2, 0, 0
2, 6, 0
2, 1, 0
6, 0, 0
6, 1, 0
6, 2, 0
1, 0, 0
1, 3, 0
1, 4, 0
1, 2, 0
1, 6, 0
1, 7, 0
8, 7, 0
8, 4, 0
8, 5, 0
8, 9, 1
5, 7, 0
5, 8, 0
5, 4, 1
5, 9, 0
7, 3, 0
7, 4, 0
7, 1, 0
7, 8, 0
7, 5, 0
7, 9, 0
9, 7, 0
9, 8, 1
9, 5, 0
9, 4, 0
