0, 3, 0
0, 6, 0
0, 1, 0
0, 2, 0
3, 0, 0
3, 6, 0
3, 2, 0
3, 1, 0
4, 7, 0
4, 6, 0
4, 5, 1
7, 6, 0
7, 4, 0
7, 5, 0
2, 0, 0
2, 3, 0
2, 1, 1
6, 0, 0
6, 3, 0
6, 4, 0
6, 7, 0
6, 5, 0
6, 1, 0
5, 7, 0
5, 6, 0
5, 4, 1
1, 0, 0
1, 3, 0
1, 6, 0
1, 2, 1
