0, 7, 0
0, 3, 0
0, 4, 0
0, 1, 0
3, 0, 0
3, 8, 0
3, 4, 1
4, 0, 0
4, 3, 1
2, 9, 0
6, 7, 0
6, 1, 0
6, 9, 0
1, 7, 0
1, 6, 0
1, 0, 0
1, 9, 0
8, 3, 0
8, 5, 0
5, 8, 0
7, 0, 0
7, 6, 0
7, 1, 0
7, 9, 0
9, 7, 0
9, 6, 0
9, 1, 0
9, 2, 0
