0, 13, 0
13, 0, 0
13, 3, 0
3, 12, 0
3, 13, 0
3, 9, 0
3, 11, 0
3, 1, 0
6, 8, 0
6, 2, 0
8, 7, 0
8, 6, 0
8, 2, 0
5, 9, 0
5, 10, 0
5, 11, 0
5, 1, 0
11, 7, 0
11, 12, 1
11, 4, 0
11, 3, 0
11, 10, 0
11, 1, 0
11, 5, 0
11, 9, 0
10, 4, 0
10, 5, 0
10, 11, 0
10, 9, 1
7, 4, 0
7, 8, 0
7, 9, 0
7, 11, 0
7, 2, 0
12, 3, 0
12, 9, 0
12, 11, 1
12, 1, 0
4, 7, 0
4, 9, 0
4, 11, 0
4, 10, 0
2, 7, 0
2, 6, 0
2, 8, 0
1, 12, 0
1, 9, 0
1, 5, 0
1, 11, 0
1, 3, 0
9, 7, 0
9, 12, 0
9, 4, 0
9, 3, 0
9, 10, 1
9, 5, 0
9, 11, 0
9, 1, 0
