13, 3, 0
13, 5, 0
17, 0, 0
17, 19, 0
17, 22, 0
17, 1, 0
5, 7, 0
5, 13, 0
11, 15, 0
11, 8, 0
11, 14, 0
11, 6, 0
1, 0, 1
1, 19, 0
1, 17, 0
1, 22, 0
20, 3, 0
20, 8, 0
4, 18, 0
4, 9, 0
14, 6, 0
14, 15, 1
14, 11, 0
8, 20, 0
8, 15, 0
8, 11, 0
15, 6, 0
15, 8, 0
15, 14, 1
15, 11, 0
22, 0, 0
22, 17, 0
22, 18, 0
22, 19, 0
22, 1, 0
22, 9, 0
0, 19, 0
0, 17, 0
0, 22, 0
0, 1, 1
3, 20, 0
3, 13, 0
16, 7, 0
6, 15, 0
6, 10, 0
6, 14, 0
6, 11, 0
6, 2, 0
10, 12, 0
10, 6, 0
10, 2, 0
7, 16, 0
7, 5, 0
12, 21, 0
12, 10, 0
2, 6, 0
2, 10, 0
21, 18, 0
21, 12, 0
19, 0, 0
19, 17, 0
19, 22, 0
19, 1, 0
18, 21, 0
18, 4, 0
18, 22, 0
9, 4, 0
9, 22, 0
