2, 0, 0
2, 13, 0
2, 17, 0
2, 12, 0
2, 16, 0
2, 6, 0
2, 5, 0
2, 11, 0
2, 7, 0
2, 3, 0
2, 25, 0
2, 21, 0
2, 8, 0
2, 18, 0
13, 7, 0
13, 4, 0
13, 28, 0
13, 2, 0
13, 21, 0
13, 6, 0
13, 14, 0
13, 10, 0
13, 5, 0
13, 9, 0
17, 3, 0
17, 25, 0
17, 2, 0
17, 18, 0
17, 8, 0
17, 12, 0
23, 20, 0
23, 3, 0
23, 26, 0
23, 22, 1
29, 16, 0
29, 7, 0
29, 11, 0
5, 7, 0
5, 13, 0
5, 4, 0
5, 2, 0
5, 16, 0
5, 6, 0
5, 15, 0
5, 11, 0
11, 7, 0
11, 4, 0
11, 14, 0
11, 29, 0
11, 16, 0
11, 28, 0
11, 2, 0
11, 15, 0
11, 5, 0
1, 19, 0
20, 3, 0
20, 22, 0
20, 26, 0
20, 23, 0
4, 13, 0
4, 14, 0
4, 28, 0
4, 15, 0
4, 5, 0
4, 11, 0
14, 4, 0
14, 28, 0
14, 21, 0
14, 13, 0
14, 15, 0
14, 11, 0
14, 10, 0
24, 21, 0
24, 27, 0
24, 15, 0
24, 28, 0
24, 10, 0
28, 7, 0
28, 4, 0
28, 13, 0
28, 24, 0
28, 21, 0
28, 27, 0
28, 14, 0
28, 15, 0
28, 19, 0
28, 11, 0
28, 10, 0
8, 12, 0
8, 25, 0
8, 3, 0
8, 2, 0
8, 18, 0
8, 17, 0
15, 7, 0
15, 4, 0
15, 14, 0
15, 24, 0
15, 28, 0
15, 5, 0
15, 11, 0
15, 10, 0
22, 20, 0
22, 3, 0
22, 26, 0
22, 23, 1
0, 16, 0
0, 7, 0
0, 2, 0
12, 3, 0
12, 25, 0
12, 2, 0
12, 18, 0
12, 17, 0
12, 8, 0
16, 0, 0
16, 7, 0
16, 29, 0
16, 2, 0
16, 5, 0
16, 11, 0
6, 7, 0
6, 13, 0
6, 2, 0
6, 21, 0
6, 5, 0
6, 9, 0
10, 13, 0
10, 14, 0
10, 24, 0
10, 21, 0
10, 28, 0
10, 15, 0
10, 27, 0
7, 0, 0
7, 13, 0
7, 28, 0
7, 16, 0
7, 6, 0
7, 2, 0
7, 5, 0
7, 11, 0
7, 29, 0
7, 21, 0
7, 15, 0
7, 9, 0
3, 20, 0
3, 12, 0
3, 17, 0
3, 26, 0
3, 23, 0
3, 2, 0
3, 18, 0
3, 25, 0
3, 8, 0
3, 22, 0
25, 2, 0
25, 3, 0
25, 8, 0
25, 17, 0
25, 12, 0
26, 20, 0
26, 3, 0
26, 22, 0
26, 23, 0
27, 24, 0
27, 28, 0
27, 10, 0
21, 7, 0
21, 13, 0
21, 28, 0
21, 2, 0
21, 6, 0
21, 14, 0
21, 24, 0
21, 10, 0
21, 9, 0
19, 28, 0
19, 1, 0
18, 2, 0
18, 3, 0
18, 8, 0
18, 17, 0
18, 12, 0
9, 7, 0
9, 6, 0
9, 13, 0
9, 21, 0
