12, 1, 0
12, 24, 0
13, 4, 0
13, 15, 0
17, 23, 0
17, 24, 0
26, 0, 0
26, 16, 0
26, 28, 0
23, 25, 0
23, 17, 0
23, 24, 0
2, 5, 0
2, 9, 0
5, 2, 0
5, 9, 0
11, 6, 0
1, 12, 0
1, 29, 0
20, 0, 0
20, 7, 0
20, 31, 0
20, 16, 0
20, 8, 0
20, 30, 0
4, 18, 0
4, 13, 0
14, 3, 0
14, 19, 0
14, 6, 0
24, 12, 0
24, 17, 0
24, 23, 0
28, 16, 0
28, 0, 0
28, 15, 0
28, 26, 0
30, 20, 0
30, 7, 0
30, 8, 0
30, 31, 1
8, 20, 0
8, 7, 0
8, 10, 0
8, 31, 0
8, 30, 0
15, 13, 0
15, 28, 0
22, 21, 1
22, 18, 0
22, 27, 0
0, 20, 0
0, 16, 0
0, 28, 0
0, 26, 0
3, 27, 0
3, 14, 0
16, 0, 0
16, 20, 0
16, 28, 0
16, 26, 0
6, 19, 0
6, 14, 0
6, 11, 0
27, 21, 0
27, 3, 0
27, 18, 0
27, 22, 0
7, 20, 0
7, 8, 0
7, 10, 0
7, 30, 0
18, 21, 0
18, 27, 0
18, 4, 0
18, 22, 0
25, 23, 0
25, 9, 0
31, 20, 0
31, 8, 0
31, 30, 1
29, 1, 0
29, 10, 0
21, 18, 0
21, 27, 0
21, 22, 1
19, 6, 0
19, 14, 0
10, 7, 0
10, 8, 0
10, 29, 0
9, 25, 0
9, 5, 0
9, 2, 0
