0, 3, 0
0, 2, 0
0, 1, 1
6, 7, 1
6, 3, 0
6, 10, 0
6, 8, 0
6, 5, 0
6, 9, 0
1, 0, 1
1, 3, 0
1, 2, 0
5, 7, 0
5, 3, 0
5, 4, 0
5, 6, 0
5, 8, 0
5, 11, 0
5, 10, 0
11, 8, 0
11, 5, 0
11, 4, 0
10, 7, 0
10, 3, 0
10, 6, 0
10, 8, 0
10, 5, 0
10, 9, 1
7, 3, 0
7, 9, 0
7, 6, 1
7, 8, 0
7, 5, 0
7, 10, 0
3, 0, 0
3, 7, 0
3, 9, 0
3, 2, 0
3, 6, 0
3, 8, 0
3, 5, 0
3, 10, 0
3, 1, 0
4, 5, 0
4, 11, 0
2, 0, 0
2, 3, 0
2, 1, 0
8, 7, 0
8, 3, 0
8, 6, 0
8, 9, 0
8, 5, 0
8, 11, 0
8, 10, 0
9, 7, 0
9, 6, 0
9, 8, 0
9, 3, 0
9, 10, 1
