13, 0, 0
13, 3, 0
13, 14, 1
13, 12, 0
13, 17, 0
13, 2, 0
13, 5, 0
17, 0, 0
17, 3, 0
17, 13, 0
17, 14, 0
17, 2, 0
17, 15, 0
5, 0, 0
5, 3, 0
5, 13, 0
5, 14, 0
5, 12, 0
5, 2, 0
5, 15, 0
11, 21, 0
11, 16, 0
11, 19, 0
11, 7, 0
1, 20, 0
1, 6, 0
1, 8, 0
1, 2, 0
20, 0, 0
20, 2, 0
20, 18, 0
20, 6, 0
20, 1, 0
20, 8, 0
20, 10, 0
20, 9, 0
4, 18, 0
4, 16, 0
14, 0, 0
14, 12, 0
14, 13, 1
14, 17, 0
14, 3, 0
14, 2, 0
14, 15, 1
14, 5, 0
8, 20, 0
8, 6, 0
8, 2, 0
8, 1, 0
15, 0, 0
15, 12, 0
15, 14, 1
15, 2, 0
15, 17, 0
15, 5, 0
0, 20, 0
0, 3, 0
0, 13, 0
0, 14, 0
0, 12, 0
0, 17, 0
0, 2, 0
0, 15, 0
0, 5, 0
3, 0, 0
3, 12, 0
3, 13, 0
3, 17, 0
3, 2, 0
3, 6, 0
3, 14, 0
3, 5, 0
16, 4, 0
16, 11, 0
6, 20, 0
6, 12, 0
6, 3, 0
6, 2, 0
6, 8, 0
6, 1, 0
10, 20, 0
10, 18, 0
10, 9, 1
7, 21, 0
7, 19, 0
7, 11, 0
12, 0, 0
12, 3, 0
12, 13, 0
12, 14, 0
12, 2, 0
12, 6, 0
12, 15, 0
12, 5, 0
2, 0, 0
2, 13, 0
2, 17, 0
2, 12, 0
2, 6, 0
2, 5, 0
2, 1, 0
2, 20, 0
2, 3, 0
2, 14, 0
2, 8, 0
2, 15, 0
21, 7, 0
21, 19, 0
21, 11, 0
19, 7, 0
19, 21, 0
19, 11, 0
18, 20, 0
18, 4, 0
18, 9, 0
18, 10, 0
9, 20, 0
9, 18, 0
9, 10, 1
