13, 12, 0
13, 14, 0
13, 26, 0
13, 21, 0
13, 6, 0
13, 22, 0
17, 16, 1
17, 19, 0
17, 8, 0
17, 25, 0
23, 0, 0
23, 3, 0
23, 25, 0
23, 2, 0
23, 19, 0
23, 5, 0
23, 1, 0
2, 19, 0
2, 25, 0
2, 5, 0
2, 23, 0
5, 20, 0
5, 2, 0
5, 25, 0
5, 23, 0
5, 1, 0
11, 9, 0
11, 15, 0
11, 10, 0
11, 24, 0
1, 20, 0
1, 0, 0
1, 4, 0
1, 23, 0
1, 3, 0
1, 5, 0
1, 9, 0
20, 0, 0
20, 12, 0
20, 5, 0
20, 1, 0
20, 7, 0
20, 3, 0
20, 4, 0
20, 25, 0
20, 26, 0
20, 21, 0
20, 8, 0
20, 9, 0
4, 20, 0
4, 3, 0
4, 9, 0
4, 0, 0
4, 1, 0
14, 21, 0
14, 6, 0
14, 13, 0
14, 26, 0
14, 22, 0
24, 7, 0
24, 10, 0
24, 15, 0
24, 11, 0
24, 9, 0
28, 7, 0
28, 18, 0
28, 12, 0
8, 20, 0
8, 16, 0
8, 19, 0
8, 17, 0
8, 25, 0
15, 7, 0
15, 24, 0
15, 10, 0
15, 11, 0
15, 9, 0
22, 21, 0
22, 6, 0
22, 13, 0
22, 14, 0
22, 26, 0
0, 20, 0
0, 3, 0
0, 4, 0
0, 23, 0
0, 9, 0
0, 1, 0
12, 20, 0
12, 21, 0
12, 13, 0
12, 28, 0
12, 18, 0
16, 25, 0
16, 19, 0
16, 8, 0
16, 17, 1
6, 21, 0
6, 13, 0
6, 14, 0
6, 22, 0
10, 7, 0
10, 3, 0
10, 24, 0
10, 15, 0
10, 11, 0
10, 9, 0
7, 20, 0
7, 15, 0
7, 10, 0
7, 28, 0
7, 24, 0
3, 20, 0
3, 0, 0
3, 4, 0
3, 9, 0
3, 23, 0
3, 10, 0
3, 1, 0
25, 20, 0
25, 17, 0
25, 23, 0
25, 2, 0
25, 16, 0
25, 19, 0
25, 8, 0
25, 5, 0
26, 20, 0
26, 27, 0
26, 13, 0
26, 14, 0
26, 22, 0
27, 26, 0
21, 20, 0
21, 12, 0
21, 13, 0
21, 14, 0
21, 6, 0
21, 22, 0
19, 25, 0
19, 23, 0
19, 2, 0
19, 16, 0
19, 17, 0
19, 8, 0
18, 12, 0
18, 28, 0
9, 20, 0
9, 0, 0
9, 4, 0
9, 3, 0
9, 24, 0
9, 10, 0
9, 15, 0
9, 11, 0
9, 1, 0
