0, 8, 0
0, 5, 0
0, 4, 0
13, 6, 0
13, 4, 0
13, 9, 0
3, 12, 0
3, 5, 0
6, 8, 0
6, 13, 0
6, 4, 0
8, 0, 0
8, 6, 0
8, 4, 0
5, 0, 0
5, 3, 0
5, 4, 0
5, 12, 0
11, 7, 0
11, 12, 0
11, 1, 0
11, 10, 1
10, 7, 0
10, 12, 0
10, 11, 1
7, 12, 0
7, 4, 0
7, 10, 0
7, 11, 0
7, 1, 0
12, 7, 0
12, 3, 0
12, 4, 0
12, 10, 0
12, 5, 0
12, 11, 0
12, 1, 0
4, 0, 0
4, 12, 0
4, 13, 0
4, 14, 0
4, 7, 0
4, 6, 0
4, 1, 0
4, 8, 0
4, 5, 0
4, 9, 0
14, 2, 0
14, 4, 0
14, 1, 0
2, 14, 0
2, 1, 0
1, 7, 0
1, 12, 0
1, 4, 0
1, 14, 0
1, 2, 0
1, 11, 0
9, 13, 0
9, 4, 0
