0, 6, 0
0, 3, 0
0, 9, 0
6, 0, 0
6, 3, 0
6, 2, 0
6, 10, 0
1, 3, 0
1, 5, 0
1, 2, 0
5, 7, 0
5, 3, 0
5, 4, 0
5, 1, 0
11, 8, 0
10, 6, 0
10, 2, 0
10, 3, 0
7, 3, 0
7, 8, 0
7, 5, 0
7, 4, 0
3, 0, 0
3, 7, 0
3, 4, 0
3, 9, 0
3, 2, 0
3, 6, 0
3, 10, 0
3, 5, 0
3, 1, 0
4, 7, 0
4, 3, 0
4, 5, 0
2, 3, 0
2, 6, 0
2, 10, 0
2, 1, 0
8, 7, 0
8, 11, 0
9, 0, 0
9, 3, 0
