0, 16, 0
0, 20, 0
0, 10, 0
0, 17, 0
0, 1, 1
7, 18, 0
7, 12, 0
7, 19, 0
7, 13, 0
7, 2, 0
13, 7, 0
13, 12, 0
13, 2, 0
13, 6, 0
13, 19, 0
13, 9, 0
17, 0, 0
17, 20, 0
17, 16, 0
17, 10, 0
17, 1, 0
3, 20, 0
3, 4, 0
3, 14, 0
3, 16, 0
3, 15, 0
3, 5, 0
16, 0, 0
16, 20, 0
16, 4, 0
16, 17, 0
16, 3, 0
16, 14, 0
16, 10, 0
16, 15, 0
16, 5, 0
16, 1, 0
6, 13, 0
6, 2, 0
8, 18, 0
8, 12, 0
8, 19, 0
8, 9, 1
8, 2, 0
5, 16, 0
5, 15, 0
5, 4, 1
5, 14, 0
5, 3, 0
11, 12, 0
11, 10, 0
10, 0, 0
10, 20, 0
10, 17, 0
10, 16, 0
10, 11, 0
10, 1, 0
20, 0, 0
20, 3, 0
20, 17, 0
20, 16, 0
20, 10, 0
20, 18, 0
20, 1, 0
12, 7, 0
12, 13, 0
12, 2, 0
12, 18, 0
12, 19, 0
12, 8, 0
12, 11, 0
4, 16, 0
4, 3, 0
4, 15, 0
4, 14, 0
4, 5, 1
14, 16, 0
14, 3, 0
14, 4, 0
14, 15, 1
14, 5, 0
2, 7, 0
2, 12, 0
2, 13, 0
2, 18, 0
2, 6, 0
2, 19, 0
2, 8, 0
2, 9, 0
19, 7, 0
19, 12, 0
19, 13, 0
19, 2, 0
19, 18, 1
19, 8, 0
19, 9, 0
1, 0, 1
1, 20, 0
1, 17, 0
1, 16, 0
1, 15, 0
1, 10, 0
15, 3, 0
15, 4, 0
15, 14, 1
15, 16, 0
15, 5, 0
15, 1, 0
18, 7, 0
18, 12, 0
18, 2, 0
18, 19, 1
18, 8, 0
18, 20, 0
18, 9, 0
9, 18, 0
9, 19, 0
9, 8, 1
9, 13, 0
9, 2, 0
