0, 4, 0
0, 5, 0
0, 1, 1
3, 5, 0
3, 2, 0
4, 0, 0
4, 8, 0
4, 5, 0
4, 1, 0
7, 6, 0
7, 2, 0
2, 7, 0
2, 3, 0
6, 7, 0
6, 5, 0
6, 1, 0
8, 4, 0
8, 5, 0
8, 1, 0
5, 0, 0
5, 3, 0
5, 4, 0
5, 6, 0
5, 8, 0
5, 1, 0
1, 0, 1
1, 6, 0
1, 8, 0
1, 5, 0
1, 4, 0
