13, 20, 0
13, 25, 0
13, 23, 0
17, 7, 0
17, 20, 0
17, 4, 0
17, 2, 0
17, 27, 0
17, 19, 0
17, 11, 0
23, 13, 0
23, 25, 0
23, 26, 0
2, 20, 0
2, 7, 0
2, 17, 0
2, 26, 0
2, 24, 0
2, 18, 0
2, 0, 0
2, 10, 0
2, 9, 0
5, 0, 0
5, 15, 0
11, 7, 0
11, 4, 0
11, 17, 0
1, 0, 0
1, 4, 0
1, 9, 0
1, 22, 0
1, 24, 0
20, 7, 0
20, 13, 0
20, 17, 0
20, 26, 0
20, 2, 0
20, 25, 0
20, 19, 0
4, 7, 0
4, 17, 0
4, 22, 0
4, 24, 0
4, 18, 0
4, 27, 0
4, 1, 0
4, 11, 0
4, 10, 0
14, 21, 0
14, 3, 0
14, 15, 0
24, 0, 0
24, 4, 0
24, 2, 0
24, 18, 0
24, 1, 0
24, 9, 0
8, 12, 0
8, 25, 0
8, 16, 0
8, 6, 0
8, 19, 0
8, 22, 0
15, 0, 0
15, 3, 0
15, 14, 0
15, 5, 0
22, 7, 0
22, 3, 0
22, 4, 0
22, 25, 0
22, 16, 0
22, 27, 0
22, 19, 0
22, 8, 0
22, 1, 0
0, 3, 0
0, 24, 0
0, 1, 0
0, 2, 0
0, 15, 0
0, 5, 0
0, 9, 0
3, 0, 0
3, 15, 0
3, 14, 0
3, 22, 0
16, 8, 0
16, 25, 0
16, 22, 0
6, 12, 0
6, 19, 0
6, 8, 0
6, 25, 0
10, 7, 0
10, 18, 0
10, 4, 0
10, 2, 0
7, 20, 0
7, 4, 0
7, 17, 0
7, 22, 0
7, 2, 0
7, 18, 0
7, 11, 0
7, 10, 0
12, 6, 0
12, 19, 0
12, 8, 0
12, 25, 0
25, 20, 0
25, 12, 0
25, 13, 0
25, 26, 0
25, 23, 0
25, 16, 0
25, 6, 0
25, 19, 0
25, 8, 0
25, 22, 0
26, 20, 0
26, 25, 0
26, 23, 0
26, 2, 0
27, 19, 0
27, 4, 0
27, 17, 0
27, 22, 0
21, 14, 0
19, 20, 0
19, 12, 0
19, 17, 0
19, 6, 0
19, 27, 0
19, 8, 0
19, 25, 0
19, 22, 0
18, 7, 0
18, 2, 0
18, 4, 0
18, 10, 0
18, 24, 0
9, 0, 0
9, 2, 0
9, 24, 0
9, 1, 0
