13, 20, 0
13, 3, 0
13, 25, 0
13, 23, 0
13, 26, 0
13, 18, 0
13, 6, 0
13, 19, 0
13, 0, 0
13, 22, 0
13, 9, 0
17, 12, 0
17, 25, 0
17, 11, 0
17, 24, 0
23, 20, 0
23, 0, 0
23, 13, 0
23, 25, 0
23, 11, 0
23, 27, 0
23, 6, 0
23, 19, 0
23, 5, 0
23, 22, 1
23, 9, 0
2, 16, 0
2, 27, 0
2, 14, 0
2, 25, 0
5, 20, 0
5, 25, 0
5, 9, 0
5, 23, 0
5, 18, 0
5, 6, 0
5, 19, 0
5, 8, 0
5, 15, 0
5, 22, 0
5, 1, 0
11, 12, 0
11, 25, 0
11, 23, 0
11, 24, 0
11, 18, 0
11, 17, 0
11, 19, 0
11, 8, 0
11, 15, 0
11, 1, 0
1, 25, 0
1, 18, 0
1, 6, 0
1, 8, 0
1, 15, 0
1, 5, 0
1, 11, 0
20, 0, 0
20, 13, 0
20, 23, 0
20, 18, 0
20, 27, 0
20, 5, 0
20, 4, 0
20, 25, 0
20, 6, 0
20, 19, 0
20, 22, 0
20, 9, 0
4, 20, 0
4, 21, 0
4, 25, 0
4, 18, 0
14, 21, 0
14, 25, 0
14, 2, 0
14, 16, 0
14, 27, 0
14, 18, 0
14, 22, 0
24, 25, 0
24, 17, 0
24, 11, 0
24, 12, 0
8, 25, 0
8, 18, 0
8, 15, 0
8, 5, 0
8, 11, 0
8, 1, 0
15, 8, 0
15, 25, 0
15, 5, 0
15, 11, 0
15, 1, 0
22, 0, 0
22, 13, 0
22, 23, 1
22, 16, 0
22, 6, 0
22, 5, 0
22, 20, 0
22, 18, 0
22, 25, 0
22, 27, 0
22, 14, 0
22, 9, 0
0, 20, 0
0, 18, 0
0, 13, 0
0, 25, 0
0, 23, 0
0, 6, 0
0, 16, 0
0, 27, 0
0, 19, 0
0, 22, 0
0, 9, 0
3, 13, 0
3, 26, 0
16, 0, 0
16, 14, 0
16, 2, 0
16, 18, 0
16, 25, 0
16, 19, 0
16, 22, 0
16, 27, 0
6, 0, 0
6, 13, 0
6, 23, 0
6, 18, 0
6, 27, 0
6, 5, 0
6, 1, 0
6, 20, 0
6, 25, 0
6, 26, 0
6, 19, 0
6, 10, 0
6, 22, 0
10, 7, 0
10, 6, 0
10, 26, 0
7, 26, 0
7, 10, 0
12, 25, 0
12, 19, 0
12, 17, 0
12, 11, 0
12, 24, 0
25, 13, 0
25, 17, 0
25, 23, 0
25, 2, 0
25, 5, 0
25, 11, 0
25, 1, 0
25, 20, 0
25, 4, 0
25, 14, 0
25, 24, 0
25, 8, 0
25, 15, 0
25, 22, 0
25, 0, 0
25, 16, 0
25, 6, 0
25, 12, 0
25, 27, 0
25, 21, 0
25, 19, 0
25, 18, 0
25, 9, 0
26, 7, 0
26, 3, 0
26, 13, 0
26, 6, 0
26, 9, 0
26, 10, 0
27, 20, 0
27, 0, 0
27, 14, 0
27, 23, 0
27, 2, 0
27, 16, 0
27, 6, 0
27, 25, 0
27, 18, 0
27, 22, 0
21, 25, 0
21, 4, 0
21, 14, 0
19, 0, 0
19, 16, 0
19, 13, 0
19, 23, 0
19, 18, 1
19, 6, 0
19, 5, 0
19, 11, 0
19, 20, 0
19, 12, 0
19, 25, 0
19, 9, 0
18, 0, 0
18, 13, 0
18, 16, 0
18, 6, 0
18, 5, 0
18, 11, 0
18, 1, 0
18, 20, 0
18, 4, 0
18, 25, 0
18, 27, 0
18, 14, 0
18, 19, 1
18, 8, 0
18, 22, 0
18, 9, 0
9, 20, 0
9, 0, 0
9, 13, 0
9, 25, 0
9, 26, 0
9, 23, 0
9, 18, 0
9, 19, 0
9, 5, 0
9, 22, 0
