0, 3, 0
0, 8, 0
0, 1, 0
3, 0, 0
3, 8, 0
3, 1, 0
4, 6, 0
4, 5, 0
4, 10, 0
2, 10, 0
2, 9, 0
6, 7, 0
6, 4, 0
1, 0, 0
1, 3, 0
8, 0, 0
8, 7, 0
8, 3, 0
5, 4, 0
5, 10, 0
7, 6, 0
7, 8, 0
10, 2, 0
10, 4, 0
10, 5, 0
10, 9, 0
9, 10, 0
9, 2, 0
