13, 3, 0
13, 19, 0
13, 23, 0
13, 26, 0
17, 18, 1
17, 19, 0
17, 8, 0
17, 11, 0
23, 3, 0
23, 19, 0
23, 13, 0
23, 11, 0
5, 2, 0
5, 10, 0
5, 1, 0
11, 18, 0
11, 19, 0
11, 8, 0
11, 17, 0
11, 23, 0
1, 2, 0
1, 5, 0
1, 10, 0
20, 24, 0
4, 7, 0
4, 24, 0
14, 8, 0
14, 25, 0
14, 22, 0
14, 2, 0
24, 20, 0
24, 7, 0
24, 4, 0
8, 25, 0
8, 11, 0
8, 18, 0
8, 14, 0
8, 19, 0
8, 17, 0
15, 16, 0
15, 6, 0
15, 21, 0
15, 9, 0
22, 25, 0
22, 14, 0
22, 2, 0
0, 21, 0
0, 26, 0
3, 13, 0
3, 23, 0
16, 6, 0
16, 15, 0
6, 16, 0
6, 12, 0
6, 7, 0
6, 15, 0
10, 2, 0
10, 5, 0
10, 1, 0
7, 24, 0
7, 6, 0
7, 4, 0
7, 12, 0
12, 7, 0
12, 6, 0
25, 8, 0
25, 14, 0
25, 22, 0
25, 2, 0
26, 0, 0
26, 21, 0
26, 13, 0
2, 14, 0
2, 25, 0
2, 1, 0
2, 5, 0
2, 22, 0
2, 10, 0
21, 0, 0
21, 15, 0
21, 26, 0
21, 9, 0
19, 13, 0
19, 17, 0
19, 23, 0
19, 18, 0
19, 8, 0
19, 11, 0
18, 19, 0
18, 8, 0
18, 17, 1
18, 11, 0
9, 21, 0
9, 15, 0
