0, 7, 0
0, 1, 0
0, 8, 0
0, 10, 0
13, 6, 0
13, 4, 0
13, 9, 0
3, 11, 0
6, 13, 0
6, 4, 0
8, 0, 0
8, 12, 0
8, 7, 1
8, 1, 0
5, 7, 0
5, 2, 0
5, 9, 0
5, 1, 0
11, 12, 0
11, 3, 0
10, 0, 0
10, 7, 0
10, 2, 0
10, 1, 0
7, 0, 0
7, 12, 0
7, 9, 0
7, 2, 0
7, 1, 0
7, 8, 1
7, 5, 0
7, 10, 0
12, 7, 0
12, 8, 0
12, 11, 0
12, 1, 0
4, 6, 0
4, 13, 0
4, 9, 0
2, 7, 0
2, 10, 0
2, 5, 0
2, 1, 1
1, 0, 0
1, 7, 0
1, 12, 0
1, 9, 0
1, 2, 1
1, 8, 0
1, 5, 0
1, 10, 0
9, 7, 0
9, 13, 0
9, 5, 0
9, 4, 0
9, 1, 0
