13, 0, 0
13, 17, 0
13, 31, 0
13, 32, 0
13, 16, 0
13, 36, 0
17, 2, 0
17, 34, 0
17, 13, 0
17, 28, 0
17, 32, 0
17, 23, 0
17, 15, 0
17, 35, 0
17, 5, 0
17, 11, 0
17, 30, 0
17, 20, 0
17, 43, 0
17, 4, 0
17, 14, 0
17, 39, 0
17, 24, 0
17, 8, 0
17, 38, 0
17, 22, 0
17, 36, 0
17, 0, 0
17, 6, 0
17, 3, 0
17, 16, 0
17, 27, 0
17, 1, 0
17, 10, 0
17, 7, 0
17, 12, 0
17, 25, 0
17, 31, 0
17, 29, 0
17, 21, 0
17, 33, 0
17, 19, 0
17, 26, 0
17, 18, 0
17, 9, 0
23, 17, 0
23, 39, 0
23, 40, 0
23, 5, 0
23, 1, 0
23, 34, 0
23, 43, 0
23, 29, 0
23, 21, 0
23, 8, 0
23, 38, 0
23, 41, 0
42, 39, 0
42, 29, 0
42, 37, 0
42, 15, 0
42, 40, 0
42, 5, 0
5, 17, 0
5, 23, 0
5, 40, 0
5, 30, 0
5, 7, 0
5, 29, 0
5, 37, 0
5, 42, 0
5, 8, 0
5, 15, 0
5, 41, 0
5, 22, 0
20, 34, 0
20, 17, 0
20, 3, 0
20, 29, 0
20, 33, 0
20, 38, 0
20, 1, 0
14, 33, 0
14, 4, 0
14, 17, 0
14, 3, 0
14, 32, 0
14, 34, 0
14, 16, 0
14, 29, 0
24, 12, 0
24, 25, 1
24, 2, 0
24, 16, 0
24, 17, 0
24, 19, 0
24, 18, 0
24, 11, 0
28, 0, 0
28, 16, 0
28, 4, 0
28, 17, 0
39, 7, 0
39, 17, 0
39, 23, 0
39, 29, 0
39, 37, 0
39, 42, 0
39, 40, 1
39, 41, 0
39, 30, 0
41, 7, 0
41, 23, 0
41, 35, 0
41, 37, 0
41, 15, 0
41, 39, 0
41, 29, 0
41, 40, 0
41, 5, 0
41, 44, 0
0, 17, 0
0, 13, 0
0, 28, 0
8, 7, 0
8, 17, 0
8, 23, 0
8, 29, 0
8, 5, 0
8, 22, 0
12, 16, 0
12, 25, 0
12, 24, 0
12, 18, 0
12, 17, 0
12, 19, 0
12, 2, 0
12, 11, 1
15, 30, 0
15, 17, 0
15, 35, 0
15, 37, 0
15, 42, 0
15, 5, 0
15, 29, 0
15, 40, 0
15, 41, 0
15, 44, 0
10, 17, 0
10, 26, 0
10, 9, 0
7, 17, 0
7, 29, 0
7, 40, 0
7, 5, 0
7, 8, 0
7, 39, 0
7, 41, 0
7, 22, 0
7, 30, 0
3, 20, 0
3, 34, 0
3, 14, 0
3, 17, 0
3, 33, 0
32, 34, 0
32, 13, 0
32, 17, 0
32, 31, 1
32, 29, 0
32, 14, 0
32, 19, 0
32, 2, 0
32, 36, 0
2, 12, 0
2, 17, 0
2, 32, 0
2, 24, 0
2, 16, 0
2, 25, 0
2, 19, 0
2, 18, 0
2, 11, 0
21, 38, 0
21, 43, 0
21, 17, 0
21, 23, 0
21, 1, 0
33, 20, 0
33, 34, 1
33, 14, 0
33, 3, 0
33, 17, 0
33, 29, 0
33, 30, 0
19, 12, 0
19, 17, 0
19, 32, 0
19, 2, 0
19, 16, 0
19, 24, 0
19, 18, 0
19, 11, 0
19, 36, 0
18, 12, 0
18, 17, 0
18, 26, 0
18, 24, 0
18, 16, 0
18, 6, 0
18, 19, 0
18, 2, 0
18, 11, 0
31, 13, 0
31, 17, 0
31, 32, 1
31, 36, 0
29, 20, 0
29, 17, 0
29, 23, 0
29, 34, 0
29, 15, 0
29, 40, 0
29, 5, 0
29, 44, 0
29, 7, 0
29, 33, 0
29, 14, 0
29, 32, 0
29, 37, 0
29, 42, 0
29, 30, 0
29, 8, 0
29, 39, 0
29, 41, 0
29, 22, 0
40, 7, 0
40, 23, 0
40, 29, 0
40, 37, 0
40, 42, 0
40, 15, 0
40, 39, 1
40, 41, 0
40, 5, 0
40, 44, 0
11, 12, 1
11, 25, 0
11, 2, 0
11, 16, 0
11, 17, 0
11, 19, 0
11, 24, 0
11, 18, 0
1, 20, 0
1, 43, 0
1, 23, 0
1, 21, 0
1, 17, 0
1, 38, 0
37, 40, 0
37, 44, 0
37, 30, 0
37, 29, 0
37, 42, 0
37, 15, 0
37, 35, 0
37, 39, 0
37, 41, 0
37, 5, 0
4, 28, 0
4, 14, 0
4, 17, 0
35, 37, 0
35, 15, 0
35, 17, 0
35, 41, 0
30, 17, 0
30, 16, 0
30, 27, 0
30, 15, 0
30, 5, 0
30, 44, 0
30, 7, 0
30, 33, 0
30, 29, 0
30, 37, 0
30, 39, 0
30, 22, 0
38, 20, 0
38, 43, 0
38, 23, 0
38, 21, 0
38, 17, 0
38, 1, 0
22, 7, 0
22, 17, 0
22, 29, 0
22, 8, 0
22, 5, 0
22, 30, 0
36, 13, 0
36, 17, 0
36, 31, 0
36, 32, 0
36, 16, 0
36, 19, 0
16, 13, 0
16, 28, 0
16, 18, 0
16, 27, 0
16, 24, 0
16, 11, 0
16, 30, 0
16, 12, 0
16, 25, 0
16, 2, 0
16, 17, 0
16, 14, 0
16, 19, 0
16, 36, 0
27, 16, 0
27, 9, 0
27, 17, 0
27, 30, 0
44, 29, 0
44, 37, 0
44, 15, 0
44, 40, 0
44, 41, 0
44, 30, 0
34, 20, 0
34, 33, 1
34, 14, 0
34, 23, 0
34, 32, 0
34, 3, 0
34, 17, 0
34, 29, 0
25, 12, 0
25, 17, 0
25, 2, 0
25, 16, 0
25, 24, 1
25, 11, 0
26, 18, 0
26, 6, 0
26, 17, 0
26, 10, 0
6, 18, 0
6, 17, 0
6, 26, 0
43, 21, 0
43, 38, 0
43, 17, 0
43, 23, 0
43, 1, 0
9, 27, 0
9, 17, 0
9, 10, 0
