0, 10, 0
0, 14, 0
0, 9, 0
0, 1, 1
13, 7, 0
13, 10, 0
13, 14, 0
13, 9, 0
13, 2, 0
3, 7, 0
3, 12, 0
3, 6, 0
3, 8, 0
3, 11, 0
3, 10, 0
6, 7, 1
6, 12, 0
6, 8, 0
6, 11, 0
6, 3, 0
8, 7, 0
8, 12, 0
8, 3, 0
8, 6, 0
8, 11, 0
8, 9, 0
5, 7, 0
5, 12, 0
5, 4, 1
5, 11, 0
5, 10, 0
11, 7, 0
11, 12, 1
11, 4, 0
11, 3, 0
11, 6, 0
11, 8, 0
11, 5, 0
11, 10, 0
10, 0, 0
10, 13, 0
10, 3, 0
10, 5, 0
10, 11, 0
10, 1, 0
10, 7, 0
10, 12, 0
10, 4, 0
10, 14, 0
10, 2, 0
10, 9, 0
7, 12, 0
7, 13, 0
7, 9, 0
7, 3, 0
7, 6, 1
7, 8, 0
7, 5, 0
7, 11, 0
7, 10, 0
12, 7, 0
12, 3, 0
12, 4, 0
12, 6, 0
12, 8, 0
12, 5, 0
12, 11, 1
12, 10, 0
4, 12, 0
4, 5, 1
4, 11, 0
4, 10, 0
14, 0, 0
14, 13, 0
14, 2, 0
14, 1, 0
14, 9, 0
14, 10, 0
2, 13, 0
2, 14, 0
2, 10, 0
2, 1, 1
1, 0, 1
1, 10, 0
1, 14, 0
1, 2, 1
9, 0, 0
9, 7, 0
9, 13, 0
9, 14, 0
9, 8, 0
9, 10, 0
