0, 8, 0
0, 4, 0
0, 1, 1
8, 0, 0
8, 4, 0
8, 1, 0
3, 7, 0
3, 12, 0
3, 11, 0
3, 10, 0
6, 2, 0
6, 9, 0
6, 10, 0
5, 4, 0
5, 9, 0
5, 2, 0
11, 12, 0
11, 3, 0
10, 6, 0
10, 3, 0
7, 12, 0
7, 3, 0
12, 7, 0
12, 3, 0
12, 11, 0
4, 0, 0
4, 2, 0
4, 8, 0
4, 5, 0
4, 1, 0
2, 6, 0
2, 4, 0
2, 5, 0
2, 9, 0
1, 0, 1
1, 8, 0
1, 4, 0
9, 6, 0
9, 5, 0
9, 2, 0
