0, 3, 0
0, 13, 0
0, 14, 0
0, 4, 0
13, 0, 0
13, 3, 0
13, 4, 0
13, 14, 0
13, 12, 0
13, 1, 0
13, 9, 0
3, 0, 0
3, 12, 0
3, 13, 0
3, 14, 0
3, 4, 0
3, 1, 0
3, 15, 0
3, 5, 0
3, 10, 0
6, 7, 1
6, 8, 0
6, 11, 0
6, 2, 0
8, 7, 0
8, 6, 0
8, 5, 0
8, 11, 0
8, 2, 0
5, 7, 0
5, 12, 0
5, 4, 0
5, 3, 0
5, 2, 0
5, 8, 0
5, 15, 0
5, 11, 0
5, 10, 0
11, 7, 0
11, 2, 0
11, 6, 0
11, 8, 0
11, 15, 0
11, 5, 0
10, 12, 0
10, 15, 0
10, 5, 0
10, 3, 0
7, 6, 1
7, 8, 0
7, 5, 0
7, 11, 0
7, 2, 0
12, 3, 0
12, 13, 0
12, 4, 0
12, 9, 0
12, 15, 0
12, 5, 0
12, 10, 0
4, 0, 0
4, 12, 0
4, 13, 0
4, 14, 0
4, 3, 0
4, 5, 0
4, 9, 0
14, 0, 0
14, 3, 0
14, 13, 0
14, 4, 0
14, 9, 0
14, 1, 0
2, 7, 0
2, 6, 0
2, 8, 0
2, 15, 0
2, 5, 0
2, 11, 0
2, 9, 0
1, 3, 0
1, 13, 0
1, 14, 0
1, 9, 0
15, 12, 0
15, 3, 0
15, 2, 0
15, 9, 0
15, 5, 0
15, 11, 0
15, 10, 0
9, 12, 0
9, 13, 0
9, 14, 0
9, 4, 0
9, 2, 0
9, 15, 0
9, 1, 0
