0, 4, 0
0, 9, 0
0, 10, 0
13, 7, 0
13, 6, 0
13, 8, 0
13, 2, 0
3, 12, 0
3, 2, 0
3, 1, 0
6, 8, 0
6, 13, 0
8, 6, 0
8, 13, 0
8, 9, 0
8, 10, 0
5, 12, 0
5, 11, 0
11, 12, 0
11, 5, 0
10, 0, 0
10, 8, 0
10, 9, 0
7, 13, 0
7, 2, 0
12, 3, 0
12, 2, 0
12, 5, 0
12, 11, 0
12, 1, 0
4, 0, 0
4, 9, 0
2, 7, 0
2, 3, 0
2, 13, 0
2, 12, 0
2, 1, 0
1, 3, 0
1, 12, 0
1, 2, 0
9, 0, 0
9, 8, 0
9, 4, 0
9, 10, 0
