0, 3, 0
0, 4, 0
0, 2, 0
0, 8, 0
0, 5, 0
0, 11, 0
0, 1, 0
6, 1, 0
6, 9, 0
6, 10, 0
1, 0, 0
1, 7, 0
1, 4, 0
1, 6, 0
1, 10, 0
1, 5, 0
1, 11, 0
1, 9, 0
5, 0, 0
5, 4, 0
5, 11, 0
5, 1, 0
11, 0, 0
11, 8, 0
11, 9, 0
11, 5, 0
11, 1, 0
10, 7, 0
10, 6, 0
10, 1, 0
7, 10, 0
7, 1, 0
3, 0, 0
3, 8, 0
3, 4, 0
3, 2, 1
4, 0, 0
4, 3, 0
4, 8, 0
4, 5, 0
4, 1, 0
2, 0, 0
2, 3, 1
2, 8, 0
8, 0, 0
8, 3, 0
8, 4, 0
8, 11, 0
8, 2, 0
9, 6, 0
9, 11, 0
9, 1, 0
