0, 1, 0
0, 8, 0
0, 4, 0
0, 9, 0
3, 6, 0
3, 5, 0
3, 1, 0
4, 0, 0
4, 1, 0
4, 8, 0
4, 9, 0
2, 5, 0
2, 10, 0
6, 3, 0
6, 1, 0
6, 9, 0
1, 0, 0
1, 3, 0
1, 4, 0
1, 6, 0
1, 8, 0
1, 9, 0
8, 0, 0
8, 1, 0
8, 4, 0
8, 9, 1
5, 3, 0
5, 10, 0
5, 2, 0
7, 10, 0
10, 7, 0
10, 5, 0
10, 2, 0
9, 0, 0
9, 6, 0
9, 8, 1
9, 4, 0
9, 1, 0
