58, 18, 0
58, 6, 0
58, 56, 0
58, 51, 0
13, 0, 0
13, 34, 0
13, 47, 0
13, 54, 0
13, 50, 0
13, 35, 0
13, 37, 0
13, 5, 0
13, 22, 0
13, 46, 0
17, 20, 0
17, 62, 0
17, 63, 0
17, 38, 0
17, 10, 0
17, 7, 0
17, 43, 0
17, 57, 0
17, 24, 0
17, 39, 0
17, 41, 0
17, 36, 0
23, 21, 0
23, 27, 0
23, 19, 0
23, 40, 0
23, 26, 0
63, 20, 0
63, 25, 0
63, 62, 1
63, 61, 1
63, 17, 0
63, 38, 0
46, 0, 0
46, 34, 0
46, 13, 0
46, 54, 0
46, 28, 0
46, 7, 0
46, 47, 0
20, 7, 0
20, 61, 0
20, 43, 0
20, 62, 0
20, 63, 0
20, 28, 0
20, 38, 0
20, 17, 0
34, 0, 0
34, 13, 0
34, 28, 0
34, 50, 0
34, 37, 0
34, 54, 0
34, 49, 0
34, 46, 0
34, 47, 0
14, 37, 0
14, 50, 0
14, 56, 0
14, 6, 0
14, 18, 0
14, 42, 0
14, 55, 0
24, 17, 0
24, 39, 0
24, 53, 0
24, 59, 0
24, 30, 0
24, 57, 0
24, 43, 0
24, 9, 0
24, 31, 0
24, 2, 0
24, 10, 0
24, 38, 0
24, 41, 0
24, 36, 0
28, 7, 0
28, 49, 0
28, 51, 0
28, 21, 0
28, 6, 0
28, 55, 0
28, 46, 0
28, 11, 0
28, 1, 0
28, 20, 0
28, 34, 0
28, 43, 0
28, 52, 0
28, 26, 0
28, 27, 0
28, 37, 0
28, 54, 0
28, 8, 0
28, 42, 0
28, 22, 0
15, 37, 0
15, 40, 0
15, 50, 0
41, 17, 0
41, 24, 0
41, 59, 0
41, 10, 0
41, 57, 0
41, 3, 0
41, 4, 0
41, 31, 0
41, 2, 0
41, 9, 0
41, 39, 0
41, 48, 0
41, 36, 0
0, 34, 0
0, 13, 0
0, 54, 0
0, 46, 0
0, 47, 0
38, 17, 0
38, 62, 0
38, 63, 0
38, 29, 0
38, 10, 0
38, 20, 0
38, 33, 0
38, 43, 0
38, 24, 0
38, 61, 0
38, 25, 0
38, 36, 0
62, 20, 0
62, 61, 1
62, 17, 0
62, 63, 1
62, 25, 0
62, 38, 0
62, 10, 0
51, 58, 0
51, 12, 0
51, 28, 0
51, 50, 0
51, 56, 0
51, 37, 0
51, 6, 0
51, 49, 0
51, 18, 0
33, 10, 0
33, 38, 0
33, 29, 0
39, 17, 0
39, 60, 0
39, 53, 0
39, 59, 0
39, 11, 0
39, 30, 0
39, 57, 0
39, 9, 0
39, 24, 0
39, 10, 0
39, 41, 0
39, 36, 0
54, 0, 0
54, 7, 0
54, 13, 0
54, 28, 0
54, 34, 0
54, 46, 0
54, 47, 0
47, 0, 0
47, 34, 0
47, 13, 0
47, 54, 0
47, 46, 0
10, 17, 0
10, 62, 0
10, 3, 0
10, 39, 0
10, 29, 0
10, 33, 0
10, 25, 0
10, 24, 0
10, 61, 0
10, 38, 0
10, 41, 0
10, 36, 0
7, 53, 0
7, 28, 0
7, 26, 0
7, 6, 0
7, 55, 0
7, 59, 0
7, 46, 0
7, 11, 0
7, 1, 0
7, 20, 0
7, 43, 0
7, 4, 0
7, 54, 0
7, 32, 0
7, 21, 0
7, 17, 0
7, 48, 0
3, 4, 1
3, 31, 0
3, 2, 1
3, 10, 0
3, 59, 0
3, 48, 0
3, 41, 0
53, 45, 0
53, 16, 0
53, 36, 0
53, 11, 0
53, 1, 0
53, 7, 0
53, 43, 0
53, 50, 0
53, 24, 0
53, 30, 0
53, 39, 0
53, 9, 0
32, 7, 0
32, 57, 0
32, 43, 0
32, 48, 0
32, 31, 0
2, 3, 1
2, 31, 0
2, 24, 0
2, 36, 0
2, 59, 0
2, 41, 0
2, 48, 0
37, 13, 0
37, 28, 0
37, 56, 0
37, 51, 0
37, 34, 0
37, 27, 0
37, 40, 0
37, 5, 0
37, 11, 0
37, 1, 0
37, 12, 0
37, 52, 0
37, 50, 0
37, 42, 0
37, 14, 0
37, 49, 0
37, 15, 0
37, 22, 0
37, 9, 0
25, 63, 0
25, 61, 0
25, 38, 0
25, 62, 0
25, 10, 0
19, 21, 0
19, 27, 0
19, 40, 0
19, 26, 0
19, 23, 0
49, 34, 0
49, 28, 0
49, 50, 0
49, 51, 0
49, 12, 0
49, 37, 0
48, 7, 0
48, 3, 0
48, 4, 0
48, 43, 0
48, 32, 0
48, 31, 0
48, 2, 0
48, 59, 0
48, 41, 0
31, 57, 0
31, 3, 0
31, 4, 0
31, 43, 0
31, 32, 0
31, 24, 0
31, 2, 0
31, 59, 0
31, 41, 0
31, 48, 0
45, 50, 0
45, 53, 0
45, 44, 0
45, 11, 0
45, 9, 0
60, 59, 0
60, 39, 0
60, 30, 0
59, 48, 0
59, 60, 0
59, 2, 0
59, 30, 0
59, 7, 0
59, 3, 0
59, 4, 0
59, 43, 0
59, 31, 0
59, 24, 0
59, 39, 0
59, 41, 0
59, 36, 0
29, 33, 0
29, 36, 0
29, 38, 0
29, 10, 0
40, 37, 0
40, 23, 0
40, 26, 0
40, 21, 0
40, 27, 0
40, 19, 0
40, 15, 0
40, 50, 0
11, 7, 0
11, 45, 0
11, 28, 0
11, 50, 0
11, 37, 0
11, 1, 0
11, 53, 0
11, 39, 0
11, 44, 0
11, 9, 0
5, 37, 0
5, 13, 0
5, 50, 0
5, 22, 0
5, 35, 0
61, 20, 0
61, 25, 0
61, 62, 1
61, 63, 1
61, 38, 0
61, 10, 0
4, 7, 0
4, 3, 1
4, 43, 0
4, 31, 0
4, 59, 0
4, 41, 0
4, 48, 0
35, 13, 0
35, 5, 0
30, 16, 0
30, 24, 0
30, 60, 0
30, 59, 0
30, 53, 0
30, 39, 0
8, 42, 0
8, 28, 0
8, 52, 0
42, 55, 0
42, 52, 0
42, 50, 0
42, 37, 0
42, 28, 0
42, 14, 0
42, 8, 0
42, 9, 0
22, 13, 0
22, 28, 0
22, 50, 0
22, 37, 0
22, 27, 0
22, 5, 0
36, 59, 0
36, 29, 0
36, 53, 0
36, 17, 0
36, 9, 0
36, 2, 0
36, 39, 0
36, 24, 0
36, 38, 0
36, 41, 0
36, 10, 0
57, 17, 0
57, 32, 0
57, 31, 0
57, 24, 0
57, 43, 0
57, 39, 0
57, 41, 0
56, 58, 0
56, 37, 0
56, 14, 0
56, 50, 0
56, 51, 0
56, 18, 0
56, 6, 0
56, 9, 0
16, 53, 0
16, 43, 0
16, 30, 0
27, 21, 0
27, 28, 0
27, 26, 0
27, 23, 0
27, 37, 0
27, 19, 0
27, 40, 0
27, 22, 0
27, 50, 0
1, 7, 0
1, 43, 0
1, 28, 0
1, 50, 0
1, 37, 0
1, 52, 0
1, 53, 0
1, 11, 0
1, 9, 0
55, 7, 0
55, 42, 0
55, 14, 0
55, 28, 0
55, 6, 0
44, 45, 0
44, 11, 0
44, 9, 0
12, 37, 0
12, 49, 0
12, 50, 0
12, 51, 0
18, 58, 0
18, 6, 0
18, 14, 0
18, 51, 0
18, 56, 0
21, 7, 0
21, 28, 0
21, 26, 0
21, 23, 0
21, 27, 0
21, 19, 0
21, 40, 0
52, 37, 0
52, 42, 0
52, 8, 0
52, 28, 0
52, 1, 0
50, 45, 0
50, 13, 0
50, 56, 0
50, 51, 0
50, 34, 0
50, 27, 0
50, 53, 0
50, 40, 0
50, 5, 0
50, 11, 0
50, 1, 0
50, 12, 0
50, 14, 0
50, 37, 0
50, 42, 0
50, 49, 0
50, 15, 0
50, 22, 0
50, 9, 0
26, 7, 0
26, 28, 0
26, 23, 0
26, 21, 0
26, 27, 0
26, 19, 0
26, 40, 0
6, 58, 0
6, 7, 0
6, 28, 0
6, 51, 0
6, 56, 0
6, 18, 0
6, 14, 0
6, 55, 0
43, 7, 0
43, 28, 0
43, 32, 0
43, 16, 0
43, 31, 0
43, 53, 0
43, 59, 0
43, 1, 0
43, 20, 0
43, 4, 0
43, 57, 0
43, 24, 0
43, 17, 0
43, 38, 0
43, 48, 0
9, 45, 0
9, 56, 0
9, 53, 0
9, 44, 0
9, 11, 0
9, 1, 0
9, 50, 0
9, 24, 0
9, 37, 0
9, 42, 0
9, 39, 0
9, 41, 0
9, 36, 0
