0, 1, 0
0, 8, 0
0, 5, 0
0, 4, 0
0, 2, 0
3, 7, 0
3, 8, 0
3, 4, 0
4, 0, 0
4, 3, 0
4, 7, 0
4, 8, 0
4, 5, 0
4, 1, 0
7, 3, 0
7, 4, 0
7, 1, 0
2, 0, 0
2, 6, 0
2, 5, 0
6, 8, 0
6, 5, 0
6, 2, 0
8, 0, 0
8, 3, 0
8, 4, 0
8, 5, 0
8, 6, 0
5, 0, 0
5, 6, 0
5, 8, 0
5, 4, 0
5, 2, 0
1, 0, 0
1, 7, 0
1, 4, 0
