0, 7, 0
0, 3, 0
0, 4, 0
0, 13, 0
0, 2, 0
0, 6, 0
13, 0, 0
13, 3, 0
13, 11, 0
13, 2, 0
3, 0, 0
3, 13, 0
3, 2, 0
6, 0, 0
6, 7, 1
6, 4, 0
8, 9, 0
5, 1, 0
5, 14, 0
5, 10, 0
11, 12, 0
11, 13, 0
10, 14, 0
10, 5, 0
10, 1, 0
7, 0, 0
7, 6, 1
7, 4, 0
12, 11, 0
12, 1, 0
4, 0, 0
4, 6, 0
4, 7, 0
14, 1, 0
14, 9, 0
14, 5, 0
14, 10, 0
2, 0, 0
2, 3, 0
2, 13, 0
1, 12, 0
1, 14, 0
1, 5, 0
1, 10, 0
9, 8, 0
9, 14, 0
