0, 8, 0
0, 9, 0
0, 5, 0
0, 1, 1
13, 9, 0
3, 11, 0
3, 2, 1
6, 7, 1
6, 12, 0
6, 14, 0
8, 0, 0
8, 9, 0
8, 5, 0
8, 1, 0
5, 0, 0
5, 12, 0
5, 8, 0
5, 9, 0
5, 1, 0
11, 3, 0
11, 14, 0
11, 2, 0
11, 15, 0
11, 10, 1
10, 14, 0
10, 15, 0
10, 11, 1
10, 2, 0
7, 12, 0
7, 1, 0
7, 14, 0
7, 6, 1
12, 7, 0
12, 6, 0
12, 14, 0
12, 5, 0
4, 2, 0
14, 7, 0
14, 12, 0
14, 2, 0
14, 6, 0
14, 15, 0
14, 11, 0
14, 10, 0
2, 3, 1
2, 4, 0
2, 14, 0
2, 15, 0
2, 11, 0
2, 10, 0
1, 0, 1
1, 7, 0
1, 8, 0
1, 5, 0
1, 9, 0
15, 2, 0
15, 14, 0
15, 11, 0
15, 10, 0
9, 0, 0
9, 8, 0
9, 13, 0
9, 5, 0
9, 1, 0
