13, 20, 0
13, 16, 0
13, 9, 0
13, 33, 0
13, 21, 0
13, 2, 0
13, 29, 0
13, 15, 0
13, 10, 0
13, 22, 0
13, 1, 0
17, 0, 0
17, 26, 0
17, 23, 0
17, 33, 0
17, 18, 1
17, 6, 0
17, 5, 0
17, 11, 0
17, 7, 0
17, 12, 0
17, 25, 0
17, 32, 0
17, 24, 0
17, 19, 1
17, 22, 0
31, 8, 0
23, 0, 0
23, 17, 0
23, 25, 0
23, 22, 1
23, 32, 0
10, 34, 0
10, 13, 0
10, 14, 0
10, 33, 0
10, 28, 0
10, 15, 0
10, 30, 0
2, 20, 0
2, 13, 0
2, 16, 0
2, 1, 1
2, 22, 0
2, 9, 0
5, 12, 0
5, 17, 0
5, 26, 0
5, 11, 0
11, 12, 1
11, 17, 0
11, 5, 0
11, 26, 0
1, 20, 0
1, 16, 0
1, 13, 0
1, 2, 1
1, 21, 0
1, 22, 0
1, 9, 0
20, 7, 0
20, 3, 0
20, 13, 0
20, 2, 0
20, 16, 0
20, 1, 0
20, 22, 0
20, 9, 0
4, 3, 1
4, 14, 0
4, 15, 0
14, 34, 0
14, 4, 0
14, 28, 0
14, 3, 0
14, 33, 0
14, 30, 0
14, 15, 0
14, 22, 0
14, 10, 0
24, 0, 0
24, 33, 0
24, 25, 0
24, 32, 0
24, 29, 0
24, 18, 0
24, 6, 0
24, 19, 0
24, 17, 0
24, 22, 0
28, 0, 0
28, 33, 0
28, 14, 0
28, 32, 0
28, 34, 0
28, 6, 0
28, 10, 0
28, 25, 0
28, 30, 0
30, 34, 0
30, 28, 0
30, 33, 0
30, 29, 0
30, 6, 0
30, 14, 0
30, 22, 0
30, 10, 0
8, 27, 0
8, 26, 0
8, 31, 0
15, 7, 0
15, 3, 0
15, 4, 0
15, 14, 0
15, 33, 0
15, 13, 0
15, 10, 0
22, 0, 0
22, 2, 0
22, 13, 0
22, 17, 0
22, 23, 1
22, 18, 0
22, 6, 0
22, 24, 0
22, 1, 0
22, 20, 0
22, 14, 0
22, 32, 0
22, 29, 0
22, 25, 0
22, 19, 0
22, 30, 0
0, 17, 0
0, 23, 0
0, 18, 0
0, 6, 0
0, 29, 0
0, 33, 0
0, 25, 0
0, 32, 0
0, 24, 0
0, 28, 0
0, 19, 0
0, 22, 0
3, 20, 0
3, 15, 0
3, 4, 1
3, 14, 0
3, 7, 0
34, 28, 0
34, 10, 0
34, 14, 0
34, 33, 0
34, 30, 0
16, 20, 0
16, 2, 0
16, 9, 0
16, 13, 0
16, 1, 0
6, 0, 0
6, 33, 0
6, 28, 0
6, 32, 0
6, 24, 0
6, 17, 0
6, 29, 0
6, 25, 0
6, 22, 0
6, 30, 0
27, 8, 0
27, 26, 1
7, 20, 0
7, 3, 0
7, 17, 0
7, 33, 0
7, 15, 0
7, 9, 0
12, 26, 0
12, 17, 0
12, 5, 0
12, 11, 1
25, 0, 0
25, 33, 0
25, 17, 0
25, 23, 0
25, 32, 0
25, 24, 0
25, 28, 0
25, 6, 0
25, 29, 0
25, 22, 0
32, 0, 0
32, 33, 0
32, 6, 0
32, 17, 0
32, 23, 0
32, 24, 0
32, 28, 0
32, 29, 0
32, 25, 0
32, 22, 0
29, 0, 0
29, 13, 0
29, 25, 0
29, 32, 0
29, 24, 0
29, 6, 0
29, 22, 0
29, 30, 0
21, 33, 0
21, 13, 0
21, 9, 0
21, 1, 0
33, 0, 0
33, 13, 0
33, 28, 0
33, 6, 0
33, 17, 0
33, 10, 0
33, 7, 0
33, 34, 0
33, 25, 0
33, 32, 0
33, 24, 0
33, 21, 0
33, 14, 0
33, 30, 0
33, 15, 0
33, 9, 0
19, 18, 1
19, 0, 0
19, 17, 1
19, 22, 0
19, 24, 0
26, 12, 0
26, 17, 0
26, 27, 1
26, 8, 0
26, 5, 0
26, 11, 0
18, 0, 0
18, 19, 1
18, 17, 1
18, 22, 0
18, 24, 0
9, 20, 0
9, 7, 0
9, 13, 0
9, 21, 0
9, 2, 0
9, 16, 0
9, 33, 0
9, 1, 0
