0, 3, 0
0, 6, 0
0, 1, 1
3, 0, 0
3, 6, 0
3, 1, 0
3, 8, 0
3, 9, 0
4, 7, 0
4, 5, 0
4, 2, 0
2, 7, 0
2, 8, 0
2, 5, 0
2, 4, 0
6, 0, 0
6, 3, 0
6, 1, 0
1, 0, 1
1, 3, 0
1, 6, 0
8, 3, 0
8, 2, 0
8, 9, 0
5, 7, 0
5, 4, 0
5, 2, 0
7, 4, 0
7, 5, 0
7, 2, 0
9, 3, 0
9, 8, 0
