0, 6, 0
0, 2, 0
0, 3, 0
0, 10, 0
8, 7, 0
8, 3, 0
8, 5, 0
8, 2, 0
3, 7, 0
3, 0, 0
3, 2, 0
3, 6, 0
3, 8, 0
3, 5, 0
3, 11, 0
6, 0, 0
6, 3, 0
6, 11, 0
6, 2, 0
5, 7, 0
5, 3, 0
5, 8, 0
5, 11, 0
11, 7, 0
11, 3, 0
11, 2, 0
11, 6, 0
11, 5, 0
11, 9, 0
10, 0, 0
10, 2, 0
10, 9, 0
10, 1, 0
7, 3, 0
7, 8, 0
7, 5, 0
7, 11, 0
12, 4, 0
12, 9, 0
4, 12, 0
4, 9, 0
4, 2, 0
2, 0, 0
2, 3, 0
2, 4, 0
2, 9, 0
2, 6, 0
2, 8, 0
2, 10, 0
2, 11, 0
2, 1, 0
1, 2, 0
1, 9, 0
1, 10, 0
9, 12, 0
9, 4, 0
9, 2, 0
9, 1, 0
9, 11, 0
9, 10, 0
