0, 3, 0
0, 4, 0
0, 2, 0
0, 6, 0
0, 5, 0
0, 1, 1
3, 0, 0
3, 6, 0
3, 4, 0
3, 5, 0
3, 1, 0
4, 0, 0
4, 3, 0
4, 2, 0
4, 6, 0
4, 8, 0
4, 5, 0
4, 1, 0
7, 6, 0
2, 0, 0
2, 8, 0
2, 4, 0
6, 0, 0
6, 3, 0
6, 4, 0
6, 7, 0
6, 5, 0
8, 1, 0
8, 4, 0
8, 5, 0
8, 2, 0
5, 0, 0
5, 3, 0
5, 4, 0
5, 6, 0
5, 8, 0
5, 1, 0
1, 0, 1
1, 3, 0
1, 8, 0
1, 5, 0
1, 4, 0
