0, 7, 0
0, 9, 0
3, 10, 0
3, 1, 0
3, 5, 0
3, 2, 1
4, 7, 0
4, 6, 0
4, 8, 0
4, 5, 0
2, 3, 1
2, 10, 0
2, 5, 0
2, 1, 0
6, 8, 0
6, 5, 0
6, 4, 0
1, 3, 0
1, 10, 0
1, 5, 0
1, 2, 0
8, 6, 0
8, 4, 0
5, 3, 0
5, 4, 0
5, 2, 0
5, 6, 0
5, 1, 0
5, 10, 0
7, 0, 0
7, 4, 0
7, 9, 0
10, 3, 0
10, 1, 0
10, 5, 0
10, 2, 0
9, 0, 0
9, 7, 0
