0, 7, 0
0, 4, 0
0, 9, 0
0, 8, 0
0, 5, 0
0, 11, 0
0, 10, 0
6, 3, 0
6, 1, 0
6, 8, 0
6, 2, 0
1, 6, 0
1, 3, 0
1, 2, 1
5, 0, 0
5, 7, 0
5, 4, 1
5, 9, 0
5, 8, 0
5, 11, 0
5, 10, 0
11, 0, 0
11, 7, 0
11, 4, 0
11, 9, 0
11, 5, 0
11, 10, 1
10, 0, 0
10, 7, 0
10, 4, 0
10, 5, 0
10, 11, 1
10, 9, 0
7, 0, 0
7, 4, 0
7, 9, 0
7, 8, 0
7, 5, 0
7, 11, 0
7, 10, 0
3, 6, 0
3, 2, 0
3, 1, 0
4, 0, 0
4, 7, 0
4, 9, 0
4, 8, 0
4, 5, 1
4, 11, 0
4, 10, 0
2, 6, 0
2, 8, 0
2, 3, 0
2, 1, 1
8, 0, 0
8, 7, 0
8, 4, 0
8, 2, 0
8, 6, 0
8, 5, 0
8, 9, 0
9, 0, 0
9, 7, 0
9, 4, 0
9, 8, 0
9, 5, 0
9, 11, 0
9, 10, 0
