0, 6, 0
0, 10, 0
0, 1, 0
8, 7, 0
8, 6, 0
8, 9, 0
8, 5, 0
8, 2, 0
3, 6, 0
3, 1, 0
6, 0, 0
6, 7, 0
6, 9, 0
6, 3, 0
6, 12, 0
6, 2, 0
6, 1, 0
6, 8, 0
6, 5, 1
6, 11, 0
6, 10, 0
5, 7, 0
5, 12, 0
5, 2, 0
5, 6, 1
5, 8, 0
5, 11, 0
5, 9, 0
11, 7, 0
11, 6, 0
11, 5, 0
11, 10, 0
10, 0, 0
10, 6, 0
10, 7, 0
10, 11, 0
7, 9, 0
7, 2, 0
7, 6, 0
7, 8, 0
7, 5, 0
7, 11, 0
7, 10, 0
12, 6, 0
12, 4, 0
12, 5, 0
12, 9, 0
4, 12, 0
4, 9, 0
2, 7, 0
2, 6, 0
2, 8, 0
2, 5, 0
1, 0, 0
1, 6, 0
1, 3, 0
9, 7, 0
9, 12, 0
9, 4, 0
9, 6, 0
9, 8, 0
9, 5, 0
