0, 13, 0
0, 1, 0
13, 0, 0
13, 3, 0
13, 5, 0
13, 1, 0
3, 7, 0
3, 12, 0
3, 13, 0
3, 11, 0
3, 1, 0
6, 2, 0
6, 8, 0
6, 4, 0
6, 10, 0
8, 6, 0
8, 10, 0
5, 13, 0
5, 9, 0
5, 1, 0
11, 7, 0
11, 12, 1
11, 3, 0
10, 6, 0
10, 8, 0
10, 2, 0
7, 12, 0
7, 11, 0
7, 3, 0
12, 7, 0
12, 3, 0
12, 11, 1
4, 6, 0
4, 9, 0
4, 14, 0
4, 2, 0
14, 4, 0
14, 2, 0
2, 6, 0
2, 4, 0
2, 14, 0
2, 10, 0
2, 9, 0
1, 0, 0
1, 3, 0
1, 13, 0
1, 5, 0
9, 4, 0
9, 5, 0
9, 2, 0
