0, 6, 0
0, 9, 0
0, 14, 0
0, 10, 0
13, 2, 0
13, 3, 0
13, 8, 0
13, 4, 0
13, 1, 0
3, 8, 0
3, 13, 0
3, 5, 0
3, 4, 1
3, 1, 0
6, 0, 0
6, 9, 0
6, 14, 0
6, 10, 0
8, 3, 0
8, 13, 0
8, 4, 0
8, 2, 0
8, 5, 0
8, 1, 0
5, 3, 0
5, 8, 0
5, 11, 0
5, 2, 0
11, 14, 0
11, 5, 0
10, 0, 0
10, 6, 0
10, 14, 0
10, 9, 0
7, 12, 0
12, 7, 0
12, 9, 0
4, 2, 0
4, 3, 1
4, 8, 0
4, 13, 0
4, 1, 0
14, 0, 0
14, 6, 0
14, 11, 0
14, 10, 0
2, 8, 0
2, 13, 0
2, 5, 0
2, 4, 0
1, 3, 0
1, 8, 0
1, 13, 0
1, 4, 0
9, 0, 0
9, 12, 0
9, 10, 0
9, 6, 0
