0, 6, 0
0, 1, 0
8, 3, 0
8, 11, 0
3, 12, 0
3, 8, 0
6, 0, 0
6, 7, 0
5, 4, 1
5, 10, 0
5, 1, 0
11, 8, 0
11, 2, 0
10, 2, 0
10, 4, 0
10, 5, 0
10, 1, 0
7, 6, 0
12, 3, 0
12, 9, 0
4, 10, 0
4, 5, 1
4, 1, 0
2, 11, 0
2, 10, 0
1, 0, 0
1, 4, 0
1, 5, 0
1, 10, 0
9, 12, 0
