0, 8, 0
0, 14, 0
0, 10, 0
13, 4, 0
13, 5, 0
13, 11, 0
13, 1, 0
17, 16, 0
17, 9, 0
17, 15, 0
17, 1, 0
3, 2, 0
3, 14, 0
3, 10, 0
16, 15, 1
16, 17, 0
16, 5, 0
16, 9, 0
6, 7, 1
6, 8, 0
6, 4, 0
8, 0, 0
8, 7, 0
8, 4, 0
8, 14, 0
8, 6, 0
8, 9, 0
8, 15, 0
8, 10, 0
5, 16, 0
5, 13, 0
5, 15, 0
5, 11, 0
5, 9, 0
11, 12, 0
11, 13, 0
11, 15, 0
11, 5, 0
11, 9, 0
10, 0, 0
10, 3, 0
10, 14, 0
10, 2, 0
10, 8, 0
10, 9, 0
7, 6, 1
7, 8, 0
7, 14, 0
7, 4, 0
12, 15, 0
12, 11, 0
12, 9, 0
4, 7, 0
4, 13, 0
4, 14, 0
4, 6, 0
4, 8, 0
4, 15, 0
4, 1, 0
14, 0, 0
14, 7, 0
14, 4, 0
14, 3, 0
14, 8, 0
14, 10, 0
2, 3, 0
2, 10, 0
1, 15, 0
1, 13, 0
1, 17, 0
1, 4, 0
1, 9, 0
15, 12, 0
15, 4, 0
15, 17, 0
15, 9, 0
15, 16, 1
15, 8, 0
15, 5, 0
15, 11, 0
15, 1, 0
9, 12, 0
9, 17, 0
9, 16, 0
9, 10, 0
9, 8, 0
9, 15, 0
9, 5, 0
9, 11, 0
9, 1, 0
