0, 2, 0
0, 3, 0
0, 4, 0
0, 1, 1
6, 11, 0
6, 8, 0
6, 5, 0
6, 4, 0
1, 0, 1
1, 3, 0
1, 2, 0
5, 7, 0
5, 3, 0
5, 4, 1
5, 6, 0
5, 8, 0
5, 11, 0
5, 10, 0
11, 6, 0
11, 8, 0
11, 5, 0
11, 4, 0
10, 8, 0
10, 5, 0
10, 4, 0
10, 9, 0
7, 3, 0
7, 4, 0
7, 5, 0
7, 9, 0
3, 0, 0
3, 7, 0
3, 4, 0
3, 5, 0
3, 1, 0
4, 7, 0
4, 3, 0
4, 2, 0
4, 6, 0
4, 8, 0
4, 0, 0
4, 5, 1
4, 11, 0
4, 10, 0
2, 0, 0
2, 4, 0
2, 1, 0
8, 6, 0
8, 4, 0
8, 5, 0
8, 11, 0
8, 10, 0
9, 7, 0
9, 10, 0
