13, 6, 0
13, 4, 0
13, 14, 1
17, 18, 1
17, 0, 0
5, 16, 0
5, 21, 0
5, 19, 0
5, 8, 0
5, 22, 0
11, 0, 0
11, 12, 0
11, 4, 0
11, 1, 0
11, 2, 0
11, 16, 0
11, 6, 0
11, 20, 0
11, 8, 0
11, 22, 0
11, 10, 0
1, 7, 0
1, 20, 0
1, 10, 0
1, 11, 0
1, 2, 0
20, 3, 0
20, 11, 0
20, 21, 0
20, 16, 0
20, 19, 0
20, 2, 0
20, 22, 0
20, 1, 0
4, 13, 0
4, 14, 0
4, 6, 0
4, 8, 0
4, 11, 0
4, 9, 0
14, 13, 1
14, 4, 0
8, 21, 0
8, 4, 0
8, 16, 0
8, 5, 0
8, 11, 0
8, 9, 0
15, 16, 0
15, 6, 0
22, 20, 0
22, 3, 0
22, 19, 0
22, 5, 0
22, 11, 0
0, 21, 0
0, 17, 0
0, 12, 0
0, 16, 0
0, 18, 0
0, 11, 0
0, 10, 0
3, 20, 0
3, 19, 0
3, 22, 0
16, 0, 0
16, 20, 0
16, 5, 0
16, 11, 0
16, 10, 0
16, 7, 0
16, 12, 0
16, 2, 0
16, 21, 0
16, 19, 0
16, 8, 0
16, 15, 0
6, 13, 0
6, 4, 0
6, 15, 0
6, 11, 0
10, 7, 0
10, 12, 0
10, 21, 0
10, 16, 0
10, 0, 0
10, 11, 0
10, 1, 0
7, 16, 0
7, 21, 0
7, 2, 0
7, 10, 0
7, 1, 0
12, 0, 0
12, 16, 0
12, 21, 0
12, 11, 0
12, 10, 0
2, 20, 0
2, 7, 0
2, 21, 0
2, 16, 0
2, 11, 0
2, 1, 0
21, 0, 0
21, 7, 0
21, 8, 0
21, 12, 0
21, 16, 0
21, 20, 0
21, 2, 0
21, 5, 0
21, 10, 0
19, 16, 0
19, 3, 0
19, 20, 0
19, 5, 0
19, 22, 0
18, 0, 0
18, 17, 1
9, 8, 0
9, 4, 0
