0, 7, 0
0, 8, 0
0, 5, 0
0, 1, 0
3, 6, 0
3, 1, 0
3, 10, 0
3, 9, 0
4, 8, 0
4, 5, 0
4, 2, 0
2, 4, 0
6, 3, 0
6, 1, 0
6, 9, 0
6, 10, 0
1, 0, 0
1, 3, 0
1, 7, 0
1, 6, 0
1, 10, 0
1, 9, 0
8, 0, 0
8, 4, 0
8, 5, 0
5, 0, 0
5, 8, 0
5, 4, 0
7, 0, 0
7, 1, 0
10, 3, 0
10, 6, 0
10, 9, 1
10, 1, 0
9, 3, 0
9, 6, 0
9, 10, 1
9, 1, 0
