0, 3, 0
0, 4, 0
0, 5, 0
0, 10, 0
0, 9, 0
8, 7, 1
8, 2, 0
8, 11, 0
8, 1, 0
3, 0, 0
3, 12, 0
3, 4, 0
3, 6, 0
3, 9, 0
3, 5, 0
3, 11, 0
3, 10, 0
6, 12, 0
6, 11, 0
6, 3, 0
5, 0, 0
5, 3, 0
5, 4, 1
5, 9, 0
5, 10, 0
11, 12, 0
11, 1, 0
11, 8, 0
11, 3, 0
11, 6, 0
10, 0, 0
10, 3, 0
10, 4, 0
10, 5, 0
10, 9, 1
7, 1, 0
7, 8, 1
7, 2, 0
12, 3, 0
12, 11, 0
12, 6, 0
4, 0, 0
4, 3, 0
4, 9, 0
4, 5, 1
4, 10, 0
2, 7, 0
2, 8, 0
2, 1, 0
1, 7, 0
1, 8, 0
1, 11, 0
1, 2, 0
9, 0, 0
9, 3, 0
9, 4, 0
9, 5, 0
9, 10, 1
