0, 1, 0
0, 8, 0
0, 4, 0
0, 2, 0
3, 6, 0
3, 10, 0
4, 0, 0
4, 1, 0
4, 8, 0
4, 9, 0
4, 2, 0
2, 0, 0
2, 4, 0
2, 1, 1
6, 3, 0
6, 10, 0
6, 5, 0
6, 9, 0
1, 0, 0
1, 4, 0
1, 2, 1
8, 0, 0
8, 4, 0
8, 9, 0
5, 7, 0
5, 6, 0
5, 9, 0
7, 5, 0
7, 9, 0
10, 3, 0
10, 6, 0
9, 7, 0
9, 6, 0
9, 8, 0
9, 5, 0
9, 4, 0
