0, 3, 0
0, 4, 0
0, 2, 0
0, 8, 0
0, 5, 0
0, 1, 0
13, 12, 0
13, 14, 0
13, 3, 0
13, 2, 0
13, 16, 0
13, 8, 0
13, 15, 0
13, 5, 0
13, 11, 0
13, 9, 0
3, 0, 0
3, 12, 0
3, 13, 0
3, 9, 0
3, 2, 0
3, 8, 0
3, 5, 0
3, 1, 0
16, 13, 0
16, 14, 0
16, 2, 0
16, 8, 0
16, 15, 0
16, 5, 0
16, 9, 0
6, 7, 1
6, 4, 0
6, 10, 0
6, 1, 0
8, 0, 0
8, 12, 0
8, 13, 0
8, 3, 0
8, 16, 0
8, 2, 0
8, 15, 0
8, 5, 0
8, 11, 0
5, 0, 0
5, 3, 0
5, 13, 0
5, 2, 0
5, 16, 0
5, 8, 0
5, 15, 0
5, 11, 0
5, 9, 0
11, 13, 0
11, 12, 1
11, 8, 0
11, 15, 0
11, 5, 0
10, 7, 0
10, 6, 0
10, 2, 0
10, 4, 0
10, 1, 0
7, 6, 1
7, 10, 0
7, 1, 0
12, 3, 0
12, 8, 0
12, 13, 0
12, 11, 1
4, 0, 0
4, 6, 0
4, 2, 0
4, 10, 0
4, 1, 0
14, 16, 0
14, 13, 0
14, 15, 0
14, 9, 0
2, 0, 0
2, 3, 0
2, 4, 0
2, 13, 0
2, 16, 0
2, 1, 0
2, 8, 0
2, 15, 0
2, 5, 0
2, 10, 0
1, 0, 0
1, 7, 0
1, 4, 0
1, 3, 0
1, 6, 0
1, 2, 0
1, 10, 0
15, 13, 0
15, 14, 0
15, 2, 0
15, 16, 0
15, 8, 0
15, 5, 0
15, 11, 0
15, 9, 0
9, 3, 0
9, 13, 0
9, 14, 0
9, 16, 0
9, 15, 0
9, 5, 0
