13, 43, 0
13, 38, 0
13, 28, 0
17, 37, 0
17, 25, 0
17, 11, 0
17, 18, 1
17, 42, 0
17, 19, 0
17, 22, 0
23, 39, 0
23, 43, 0
42, 17, 0
42, 33, 0
42, 16, 0
42, 27, 0
42, 29, 0
42, 5, 0
42, 11, 0
42, 10, 0
42, 3, 0
42, 4, 0
42, 25, 0
42, 24, 0
42, 8, 0
42, 18, 0
42, 22, 0
5, 3, 0
5, 4, 1
5, 29, 0
5, 42, 0
5, 19, 0
5, 36, 0
20, 3, 0
20, 4, 0
20, 24, 0
20, 37, 0
20, 41, 0
20, 10, 0
14, 34, 0
14, 32, 0
14, 31, 0
14, 35, 0
14, 21, 0
14, 19, 0
14, 15, 0
14, 30, 0
24, 20, 0
24, 33, 0
24, 37, 0
24, 25, 0
24, 26, 0
24, 16, 0
24, 42, 0
24, 41, 0
24, 22, 0
24, 36, 0
28, 21, 0
28, 7, 0
28, 13, 0
28, 38, 0
39, 12, 0
39, 38, 0
39, 23, 0
41, 20, 0
41, 4, 0
41, 26, 0
41, 24, 0
41, 37, 0
41, 19, 0
41, 11, 0
41, 10, 0
0, 19, 0
0, 9, 0
8, 33, 0
8, 42, 0
8, 16, 0
8, 27, 0
8, 19, 0
8, 36, 0
12, 40, 0
12, 39, 0
15, 7, 0
15, 14, 0
15, 31, 0
15, 32, 0
15, 21, 0
15, 38, 0
10, 20, 0
10, 25, 0
10, 22, 0
10, 37, 0
10, 42, 0
10, 19, 0
10, 41, 0
10, 11, 0
10, 36, 0
7, 21, 0
7, 28, 0
7, 19, 0
7, 15, 0
7, 32, 0
3, 16, 0
3, 27, 0
3, 5, 0
3, 20, 0
3, 33, 0
3, 4, 0
3, 25, 0
3, 29, 0
3, 37, 0
3, 42, 0
3, 19, 0
3, 36, 0
32, 7, 0
32, 21, 0
32, 14, 0
32, 15, 0
32, 19, 0
2, 19, 0
2, 1, 0
2, 30, 0
21, 7, 0
21, 14, 0
21, 32, 0
21, 28, 0
21, 15, 0
21, 38, 0
33, 24, 0
33, 3, 0
33, 4, 0
33, 29, 0
33, 16, 0
33, 27, 0
33, 8, 0
33, 42, 0
33, 22, 0
33, 36, 0
19, 17, 0
19, 29, 0
19, 5, 0
19, 11, 0
19, 30, 0
19, 4, 0
19, 14, 0
19, 35, 0
19, 8, 0
19, 38, 0
19, 41, 0
19, 22, 0
19, 36, 0
19, 0, 0
19, 16, 0
19, 27, 0
19, 10, 0
19, 7, 0
19, 3, 0
19, 32, 0
19, 2, 0
19, 9, 0
18, 25, 0
18, 17, 1
18, 11, 0
18, 42, 0
31, 34, 0
31, 14, 0
31, 35, 0
31, 38, 0
31, 15, 0
31, 30, 1
29, 3, 0
29, 4, 0
29, 33, 0
29, 27, 0
29, 19, 0
29, 42, 0
29, 5, 0
29, 36, 0
40, 12, 0
40, 38, 0
40, 6, 0
11, 25, 0
11, 37, 0
11, 17, 0
11, 26, 0
11, 18, 0
11, 42, 0
11, 19, 0
11, 36, 0
11, 41, 0
11, 22, 0
11, 10, 0
1, 9, 0
1, 2, 0
37, 20, 0
37, 3, 0
37, 4, 0
37, 17, 0
37, 26, 0
37, 24, 0
37, 25, 0
37, 41, 0
37, 11, 0
37, 10, 0
4, 33, 0
4, 27, 0
4, 5, 1
4, 20, 0
4, 3, 0
4, 25, 0
4, 29, 0
4, 37, 0
4, 42, 0
4, 19, 0
4, 41, 0
4, 36, 0
35, 34, 1
35, 19, 0
35, 14, 0
35, 31, 0
35, 30, 0
30, 34, 0
30, 14, 0
30, 31, 1
30, 35, 0
30, 19, 0
30, 2, 0
30, 38, 0
38, 40, 0
38, 13, 0
38, 28, 0
38, 31, 0
38, 6, 0
38, 21, 0
38, 43, 0
38, 15, 0
38, 39, 0
38, 19, 0
38, 30, 0
22, 33, 0
22, 17, 0
22, 24, 0
22, 16, 0
22, 42, 0
22, 19, 0
22, 11, 0
22, 10, 0
36, 33, 0
36, 16, 0
36, 27, 0
36, 29, 0
36, 5, 0
36, 11, 0
36, 10, 0
36, 3, 0
36, 4, 0
36, 24, 0
36, 19, 0
36, 8, 0
16, 24, 0
16, 3, 0
16, 33, 0
16, 42, 0
16, 19, 0
16, 8, 0
16, 22, 0
16, 36, 0
27, 3, 0
27, 4, 0
27, 33, 0
27, 8, 0
27, 42, 0
27, 19, 0
27, 29, 0
27, 36, 0
34, 30, 0
34, 14, 0
34, 31, 0
34, 35, 1
25, 3, 0
25, 4, 0
25, 17, 0
25, 26, 0
25, 24, 0
25, 37, 0
25, 42, 0
25, 18, 0
25, 11, 0
25, 10, 0
26, 37, 0
26, 25, 0
26, 41, 0
26, 11, 0
26, 24, 0
6, 38, 0
6, 40, 0
43, 13, 0
43, 38, 0
43, 23, 0
9, 0, 0
9, 19, 0
9, 1, 0
