13, 0, 0
13, 6, 0
13, 14, 0
13, 5, 0
13, 2, 0
17, 12, 0
17, 15, 0
17, 10, 0
5, 6, 0
5, 13, 0
5, 14, 0
5, 2, 0
11, 18, 0
11, 12, 0
1, 0, 0
1, 20, 0
1, 4, 0
1, 2, 0
1, 21, 0
1, 6, 0
20, 21, 0
20, 18, 0
20, 4, 0
20, 1, 0
4, 20, 0
4, 18, 0
4, 2, 0
4, 21, 0
4, 1, 0
14, 13, 0
14, 2, 0
14, 16, 0
14, 6, 0
14, 8, 0
14, 5, 0
14, 9, 0
8, 16, 0
8, 2, 0
8, 14, 0
8, 9, 1
15, 12, 0
15, 17, 0
0, 6, 0
0, 13, 0
0, 1, 0
3, 7, 0
3, 19, 0
16, 2, 0
16, 6, 0
16, 8, 0
16, 14, 0
16, 9, 0
6, 0, 0
6, 13, 0
6, 14, 0
6, 2, 0
6, 16, 0
6, 1, 0
6, 5, 0
6, 9, 0
10, 19, 0
10, 17, 0
10, 2, 0
7, 3, 0
12, 18, 0
12, 17, 0
12, 15, 0
12, 11, 0
12, 2, 0
2, 12, 0
2, 13, 0
2, 14, 0
2, 4, 0
2, 16, 0
2, 6, 0
2, 1, 0
2, 8, 0
2, 5, 0
2, 10, 0
2, 9, 0
21, 20, 0
21, 18, 0
21, 4, 0
21, 1, 0
19, 3, 0
19, 10, 0
18, 20, 0
18, 12, 0
18, 4, 0
18, 11, 0
18, 21, 0
9, 16, 0
9, 6, 0
9, 8, 1
9, 14, 0
9, 2, 0
