0, 14, 0
0, 9, 0
0, 6, 0
0, 19, 0
0, 1, 0
0, 17, 0
0, 10, 0
13, 3, 0
13, 4, 0
13, 14, 0
13, 6, 0
13, 19, 0
13, 5, 0
13, 11, 0
17, 0, 0
17, 14, 0
17, 1, 0
17, 6, 0
17, 19, 0
17, 10, 0
17, 5, 0
17, 9, 0
3, 13, 0
3, 4, 0
3, 18, 0
3, 6, 0
3, 15, 0
3, 11, 0
16, 7, 0
16, 18, 0
16, 19, 0
16, 4, 0
16, 6, 0
6, 0, 0
6, 13, 0
6, 17, 0
6, 12, 0
6, 16, 0
6, 5, 0
6, 11, 0
6, 7, 0
6, 3, 0
6, 4, 0
6, 14, 0
6, 19, 0
6, 18, 0
8, 12, 0
8, 19, 0
8, 2, 0
5, 13, 0
5, 14, 0
5, 11, 0
5, 6, 0
5, 19, 0
5, 15, 0
5, 17, 0
5, 1, 0
11, 3, 0
11, 13, 0
11, 14, 0
11, 6, 0
11, 15, 0
11, 5, 0
10, 0, 0
10, 1, 0
10, 17, 0
10, 9, 1
7, 12, 0
7, 4, 0
7, 14, 0
7, 2, 0
7, 16, 0
7, 6, 0
7, 19, 0
12, 7, 0
12, 14, 0
12, 2, 0
12, 6, 0
12, 19, 0
12, 8, 0
4, 7, 0
4, 3, 0
4, 13, 0
4, 14, 0
4, 16, 0
4, 6, 0
4, 19, 0
4, 18, 0
14, 0, 0
14, 13, 0
14, 17, 0
14, 6, 0
14, 5, 0
14, 11, 0
14, 1, 0
14, 7, 0
14, 12, 0
14, 4, 0
14, 15, 0
14, 9, 0
2, 7, 0
2, 12, 0
2, 19, 0
2, 8, 0
2, 18, 0
19, 7, 0
19, 12, 0
19, 4, 0
19, 13, 0
19, 2, 0
19, 16, 0
19, 6, 0
19, 8, 0
19, 5, 0
19, 17, 0
19, 0, 0
1, 0, 0
1, 14, 0
1, 17, 0
1, 15, 0
1, 5, 0
1, 10, 0
15, 3, 0
15, 14, 0
15, 5, 0
15, 11, 0
15, 1, 0
18, 16, 0
18, 3, 0
18, 6, 0
18, 4, 0
18, 2, 0
9, 0, 0
9, 14, 0
9, 17, 0
9, 10, 1
