0, 7, 0
0, 3, 0
0, 4, 0
0, 5, 0
6, 2, 0
1, 8, 0
1, 9, 0
1, 4, 0
1, 10, 0
5, 0, 0
5, 7, 0
11, 2, 0
11, 9, 0
10, 2, 0
10, 9, 0
10, 1, 0
7, 0, 0
7, 5, 0
3, 0, 0
3, 8, 0
3, 4, 0
4, 0, 0
4, 3, 0
4, 8, 0
4, 9, 0
4, 1, 0
2, 6, 0
2, 10, 0
2, 11, 0
2, 9, 0
8, 3, 0
8, 4, 0
8, 1, 0
9, 2, 0
9, 4, 0
9, 10, 0
9, 11, 0
9, 1, 0
