0, 12, 0
0, 2, 0
13, 7, 0
13, 3, 0
13, 8, 0
13, 4, 0
13, 11, 0
3, 13, 0
3, 4, 0
3, 8, 0
3, 5, 0
3, 11, 0
3, 10, 0
6, 14, 0
6, 1, 0
8, 7, 0
8, 3, 0
8, 13, 0
8, 11, 0
8, 10, 0
5, 3, 0
5, 4, 1
5, 10, 0
11, 3, 0
11, 13, 0
11, 14, 0
11, 9, 0
11, 4, 0
11, 8, 0
11, 10, 0
11, 1, 0
10, 4, 0
10, 3, 0
10, 8, 0
10, 5, 0
10, 11, 0
7, 8, 0
7, 13, 0
7, 2, 0
12, 0, 0
12, 2, 0
4, 3, 0
4, 13, 0
4, 5, 1
4, 11, 0
4, 10, 0
14, 6, 0
14, 9, 0
14, 11, 0
14, 1, 0
2, 0, 0
2, 12, 0
2, 7, 0
1, 6, 0
1, 14, 0
1, 11, 0
1, 9, 0
9, 14, 0
9, 11, 0
9, 1, 0
