13, 34, 0
13, 49, 0
13, 48, 0
13, 4, 0
17, 16, 0
17, 47, 0
17, 18, 1
17, 39, 0
17, 8, 0
17, 38, 0
17, 11, 0
23, 38, 0
23, 10, 0
42, 33, 0
42, 4, 0
42, 50, 0
42, 2, 0
42, 15, 0
42, 46, 0
46, 2, 0
46, 42, 0
46, 4, 0
46, 50, 0
46, 33, 0
20, 12, 0
20, 30, 0
20, 43, 0
20, 35, 0
34, 13, 0
34, 49, 0
34, 4, 0
34, 48, 0
14, 28, 0
14, 50, 0
14, 32, 0
14, 2, 0
14, 15, 0
14, 10, 0
24, 3, 0
24, 47, 0
24, 16, 0
24, 8, 0
24, 18, 0
24, 11, 0
28, 33, 0
28, 14, 0
28, 50, 0
28, 29, 1
28, 2, 0
28, 15, 0
39, 18, 0
39, 17, 0
39, 47, 0
39, 16, 0
39, 8, 0
39, 38, 0
39, 11, 0
41, 0, 0
41, 26, 0
41, 37, 0
41, 27, 0
41, 44, 0
41, 22, 0
41, 1, 0
0, 26, 0
0, 44, 0
0, 37, 0
0, 27, 0
0, 1, 1
0, 40, 0
0, 41, 0
0, 22, 0
0, 36, 0
8, 17, 0
8, 11, 0
8, 24, 0
8, 18, 0
8, 38, 0
8, 39, 0
8, 47, 0
33, 4, 0
33, 28, 0
33, 50, 0
33, 29, 0
33, 42, 0
33, 2, 0
33, 15, 0
33, 46, 0
15, 33, 0
15, 4, 0
15, 28, 0
15, 50, 0
15, 2, 0
15, 42, 0
15, 14, 0
15, 10, 0
47, 3, 0
47, 17, 0
47, 24, 0
47, 16, 0
47, 38, 0
47, 8, 0
47, 39, 0
47, 11, 0
47, 9, 0
10, 14, 0
10, 23, 0
10, 32, 0
10, 2, 0
10, 15, 0
10, 50, 0
7, 6, 1
7, 44, 0
7, 26, 0
3, 21, 0
3, 16, 0
3, 9, 0
3, 47, 0
3, 24, 0
32, 14, 0
32, 10, 0
2, 33, 0
2, 4, 0
2, 14, 0
2, 42, 0
2, 28, 0
2, 15, 0
2, 46, 0
2, 10, 0
21, 3, 0
21, 9, 0
19, 45, 0
19, 25, 0
19, 37, 0
19, 5, 0
19, 22, 0
19, 44, 0
49, 34, 0
49, 13, 0
49, 48, 1
49, 4, 0
18, 17, 1
18, 24, 0
18, 38, 0
18, 8, 0
18, 39, 0
18, 11, 0
31, 36, 0
31, 40, 0
31, 9, 0
29, 33, 0
29, 28, 1
29, 50, 0
40, 0, 0
40, 31, 0
40, 36, 0
11, 16, 0
11, 17, 0
11, 24, 0
11, 18, 0
11, 38, 0
11, 8, 0
11, 39, 0
11, 47, 0
5, 19, 0
5, 35, 0
37, 0, 0
37, 45, 0
37, 26, 0
37, 6, 0
37, 27, 0
37, 19, 0
37, 41, 0
37, 22, 0
37, 1, 0
4, 34, 0
4, 13, 0
4, 50, 0
4, 33, 0
4, 2, 0
4, 42, 0
4, 49, 0
4, 15, 0
4, 46, 0
4, 48, 0
35, 20, 0
35, 12, 0
35, 43, 0
35, 5, 0
30, 20, 0
30, 12, 0
30, 43, 0
38, 16, 0
38, 17, 0
38, 11, 0
38, 23, 0
38, 18, 0
38, 8, 0
38, 39, 0
38, 47, 0
22, 0, 0
22, 45, 0
22, 26, 0
22, 27, 0
22, 37, 0
22, 6, 0
22, 19, 0
22, 41, 0
22, 44, 0
36, 0, 0
36, 40, 0
36, 31, 0
36, 9, 0
45, 25, 0
45, 37, 0
45, 6, 0
45, 19, 0
45, 44, 0
45, 22, 0
16, 3, 0
16, 17, 0
16, 47, 0
16, 24, 0
16, 38, 0
16, 39, 0
16, 11, 0
16, 9, 0
27, 0, 0
27, 26, 0
27, 37, 0
27, 41, 0
27, 22, 0
27, 44, 0
1, 0, 1
1, 37, 0
1, 41, 0
44, 7, 0
44, 45, 0
44, 26, 0
44, 6, 0
44, 27, 0
44, 19, 0
44, 41, 0
44, 22, 0
44, 0, 0
48, 34, 0
48, 13, 0
48, 49, 1
48, 4, 0
12, 20, 0
12, 35, 0
12, 43, 0
12, 30, 0
25, 45, 0
25, 19, 0
50, 33, 0
50, 4, 0
50, 28, 0
50, 29, 0
50, 42, 0
50, 14, 0
50, 15, 0
50, 46, 0
50, 10, 0
26, 7, 0
26, 0, 0
26, 6, 0
26, 37, 0
26, 27, 0
26, 41, 0
26, 22, 0
26, 44, 0
6, 7, 1
6, 45, 0
6, 26, 0
6, 37, 0
6, 44, 0
6, 22, 0
43, 20, 0
43, 12, 0
43, 30, 0
43, 35, 0
9, 3, 0
9, 16, 0
9, 31, 0
9, 21, 0
9, 47, 0
9, 36, 0
