12, 3, 0
12, 8, 0
12, 13, 0
12, 26, 0
12, 29, 0
13, 12, 0
13, 26, 0
17, 4, 0
17, 24, 0
17, 36, 0
17, 9, 0
17, 15, 0
17, 30, 0
31, 7, 0
31, 37, 0
31, 4, 0
31, 32, 0
31, 16, 0
31, 15, 0
31, 9, 0
23, 18, 0
23, 34, 0
24, 4, 0
24, 14, 0
24, 25, 0
24, 36, 0
24, 15, 0
24, 17, 0
24, 30, 0
5, 0, 0
5, 3, 0
5, 19, 0
5, 30, 0
5, 22, 0
5, 9, 0
11, 25, 0
11, 2, 0
11, 14, 0
11, 1, 0
1, 14, 0
1, 2, 0
1, 25, 0
1, 15, 0
1, 11, 0
1, 30, 0
20, 21, 1
20, 18, 0
20, 27, 0
21, 20, 1
21, 18, 0
21, 27, 0
4, 37, 0
4, 17, 0
4, 31, 0
4, 32, 0
4, 24, 0
4, 16, 0
4, 14, 0
4, 9, 0
4, 15, 0
4, 30, 0
14, 4, 0
14, 25, 0
14, 24, 0
14, 30, 0
14, 2, 0
14, 15, 0
14, 11, 0
14, 1, 0
35, 33, 0
35, 3, 0
35, 27, 0
35, 6, 0
35, 38, 0
35, 22, 0
28, 7, 0
28, 3, 0
28, 0, 0
28, 32, 0
28, 9, 0
30, 0, 0
30, 17, 0
30, 2, 0
30, 5, 0
30, 1, 0
30, 7, 0
30, 4, 0
30, 25, 0
30, 32, 0
30, 24, 0
30, 37, 0
30, 14, 0
30, 15, 0
30, 36, 0
8, 34, 0
8, 29, 0
8, 12, 0
15, 17, 0
15, 31, 0
15, 16, 1
15, 24, 0
15, 30, 0
15, 7, 0
15, 4, 0
15, 25, 0
15, 9, 0
15, 32, 0
15, 2, 0
15, 37, 0
15, 14, 0
15, 1, 0
15, 36, 0
19, 0, 0
19, 3, 0
19, 38, 0
19, 5, 0
19, 22, 0
19, 10, 0
22, 19, 0
22, 38, 0
22, 5, 0
22, 35, 0
36, 15, 0
36, 30, 0
36, 17, 0
36, 24, 0
0, 7, 0
0, 3, 0
0, 28, 0
0, 32, 0
0, 19, 0
0, 30, 0
0, 5, 0
0, 10, 0
38, 19, 0
38, 22, 0
38, 35, 0
3, 0, 0
3, 7, 0
3, 28, 0
3, 32, 0
3, 35, 0
3, 18, 0
3, 33, 0
3, 19, 0
3, 29, 0
3, 5, 0
3, 12, 0
16, 4, 0
16, 15, 1
16, 32, 0
16, 31, 0
16, 9, 0
6, 33, 0
6, 27, 0
6, 35, 0
10, 0, 0
10, 19, 0
7, 0, 0
7, 3, 0
7, 28, 0
7, 31, 0
7, 32, 0
7, 37, 0
7, 9, 0
7, 15, 0
7, 30, 0
34, 8, 0
34, 23, 0
34, 29, 0
25, 14, 0
25, 24, 0
25, 1, 0
25, 15, 0
25, 11, 0
25, 30, 0
33, 3, 0
33, 6, 0
33, 35, 0
32, 7, 0
32, 3, 0
32, 4, 0
32, 28, 0
32, 31, 0
32, 16, 0
32, 0, 0
32, 37, 0
32, 30, 0
32, 15, 0
32, 9, 0
27, 20, 0
27, 18, 0
27, 6, 0
27, 21, 0
27, 35, 0
37, 7, 0
37, 4, 0
37, 32, 0
37, 31, 0
37, 15, 0
37, 30, 0
29, 34, 0
29, 8, 0
29, 12, 0
29, 3, 0
2, 15, 0
2, 30, 0
2, 14, 0
2, 11, 0
2, 1, 0
26, 12, 0
26, 13, 0
18, 20, 0
18, 3, 0
18, 27, 0
18, 23, 0
18, 21, 0
9, 7, 0
9, 4, 0
9, 28, 0
9, 31, 0
9, 32, 0
9, 16, 0
9, 17, 0
9, 15, 0
9, 5, 0
