0, 3, 0
0, 4, 0
0, 13, 0
0, 9, 0
0, 6, 0
13, 0, 0
13, 3, 0
13, 6, 0
13, 1, 0
13, 5, 0
13, 11, 0
13, 10, 0
13, 7, 0
13, 12, 0
13, 4, 0
13, 2, 0
13, 8, 0
13, 9, 0
3, 0, 0
3, 6, 0
3, 13, 0
3, 9, 0
3, 2, 0
6, 0, 0
6, 13, 0
6, 1, 0
6, 5, 0
6, 11, 0
6, 10, 0
6, 7, 1
6, 3, 0
6, 4, 0
6, 2, 0
6, 8, 0
6, 9, 0
8, 12, 0
8, 13, 0
8, 9, 0
8, 10, 0
8, 6, 0
5, 6, 0
5, 13, 0
5, 9, 0
5, 1, 0
11, 7, 0
11, 6, 0
11, 13, 0
11, 9, 0
11, 1, 0
10, 12, 0
10, 13, 0
10, 4, 0
10, 6, 0
10, 8, 0
10, 9, 1
7, 6, 1
7, 13, 0
7, 9, 0
7, 11, 0
7, 2, 0
12, 8, 0
12, 13, 0
12, 9, 0
12, 10, 0
4, 0, 0
4, 6, 0
4, 13, 0
4, 9, 0
4, 10, 0
2, 7, 0
2, 6, 0
2, 13, 0
2, 9, 0
2, 3, 0
1, 6, 0
1, 13, 0
1, 5, 0
1, 11, 0
1, 9, 0
9, 0, 0
9, 13, 0
9, 3, 0
9, 6, 0
9, 1, 0
9, 5, 0
9, 11, 0
9, 10, 1
9, 7, 0
9, 12, 0
9, 4, 0
9, 2, 0
9, 8, 0
