0, 3, 0
0, 2, 0
0, 10, 0
3, 0, 0
3, 4, 0
3, 10, 0
4, 3, 0
2, 0, 0
2, 8, 0
2, 5, 0
6, 7, 0
6, 1, 0
6, 5, 0
6, 9, 0
1, 6, 0
1, 9, 0
8, 5, 0
8, 2, 0
5, 7, 0
5, 6, 0
5, 8, 0
5, 2, 0
7, 6, 0
7, 5, 0
10, 0, 0
10, 3, 0
9, 6, 0
9, 1, 0
