13, 7, 0
13, 25, 0
13, 23, 0
17, 18, 0
17, 0, 0
17, 25, 0
17, 23, 0
17, 12, 0
23, 0, 0
23, 7, 0
23, 13, 0
23, 25, 0
23, 12, 0
23, 17, 0
23, 15, 0
5, 21, 0
5, 2, 0
11, 6, 0
11, 8, 0
11, 15, 0
11, 22, 0
1, 16, 0
1, 3, 0
1, 4, 0
1, 15, 0
1, 10, 0
20, 0, 0
20, 12, 0
20, 18, 0
4, 16, 0
4, 3, 1
4, 1, 0
14, 21, 0
14, 6, 0
14, 2, 0
24, 7, 0
24, 9, 0
8, 6, 0
8, 11, 0
15, 21, 0
15, 9, 0
15, 11, 0
15, 23, 0
15, 16, 0
15, 19, 0
15, 10, 0
15, 22, 0
15, 1, 0
22, 16, 0
22, 15, 0
22, 11, 0
0, 20, 0
0, 12, 0
0, 17, 0
0, 18, 0
0, 23, 0
3, 16, 0
3, 4, 1
3, 1, 0
16, 3, 0
16, 4, 0
16, 15, 0
16, 22, 0
16, 1, 0
6, 21, 0
6, 8, 0
6, 14, 0
6, 11, 0
10, 19, 0
10, 15, 0
10, 1, 0
7, 13, 0
7, 9, 0
7, 23, 0
7, 24, 0
12, 20, 0
12, 0, 0
12, 17, 0
12, 18, 0
12, 23, 0
25, 13, 0
25, 17, 0
25, 23, 0
2, 21, 0
2, 14, 0
2, 5, 0
21, 6, 0
21, 15, 0
21, 14, 0
21, 5, 0
21, 2, 0
19, 9, 0
19, 15, 0
19, 10, 0
18, 20, 0
18, 0, 0
18, 17, 0
18, 12, 0
9, 7, 0
9, 19, 0
9, 15, 0
9, 24, 0
