0, 12, 0
0, 8, 0
0, 5, 0
0, 11, 0
13, 7, 0
13, 12, 0
13, 4, 0
13, 11, 0
13, 3, 0
3, 4, 0
3, 13, 0
3, 2, 0
6, 1, 0
6, 10, 0
6, 9, 0
6, 2, 0
8, 0, 0
5, 7, 0
5, 12, 0
5, 11, 0
5, 0, 0
11, 0, 0
11, 12, 0
11, 7, 0
11, 13, 0
11, 5, 0
10, 6, 0
10, 9, 1
10, 1, 0
7, 12, 0
7, 13, 0
7, 5, 0
7, 11, 0
12, 7, 0
12, 0, 0
12, 13, 0
12, 5, 0
12, 11, 0
4, 3, 0
4, 13, 0
2, 6, 0
2, 3, 0
1, 6, 0
1, 10, 0
1, 9, 0
9, 6, 0
9, 10, 1
9, 1, 0
