0, 2, 0
0, 13, 0
0, 1, 1
13, 0, 0
13, 2, 0
13, 1, 0
3, 2, 0
3, 5, 0
3, 9, 0
6, 7, 0
6, 11, 0
8, 14, 0
8, 10, 0
5, 12, 0
5, 2, 0
5, 15, 0
5, 3, 0
5, 9, 0
11, 6, 0
11, 4, 0
10, 8, 0
10, 4, 0
7, 6, 0
12, 14, 0
12, 15, 0
12, 5, 0
4, 11, 0
4, 10, 0
14, 12, 0
14, 8, 0
2, 0, 0
2, 3, 0
2, 13, 0
2, 9, 0
2, 5, 0
2, 1, 0
1, 0, 1
1, 13, 0
1, 2, 0
15, 12, 0
15, 5, 0
9, 3, 0
9, 5, 0
9, 2, 0
