0, 2, 0
3, 2, 0
3, 6, 0
3, 8, 0
3, 5, 0
3, 9, 0
4, 7, 0
4, 1, 0
2, 0, 0
2, 3, 0
2, 9, 0
6, 3, 0
6, 8, 0
6, 5, 1
6, 9, 0
1, 8, 0
1, 4, 0
8, 3, 0
8, 6, 0
8, 9, 0
8, 5, 0
8, 1, 0
5, 3, 0
5, 6, 1
5, 8, 0
5, 9, 0
7, 4, 0
9, 2, 0
9, 3, 0
9, 8, 0
9, 5, 0
9, 6, 0
