0, 3, 0
0, 8, 0
0, 9, 0
0, 4, 0
0, 1, 0
13, 12, 0
13, 8, 0
13, 14, 1
3, 0, 0
3, 4, 1
3, 9, 0
3, 1, 0
16, 7, 0
16, 12, 0
16, 14, 0
16, 2, 0
16, 6, 0
16, 8, 0
16, 15, 1
6, 7, 1
6, 12, 0
6, 14, 0
6, 2, 0
6, 16, 0
6, 8, 0
6, 15, 0
8, 0, 0
8, 12, 0
8, 13, 0
8, 14, 0
8, 4, 0
8, 2, 0
8, 16, 0
8, 6, 0
8, 7, 0
5, 10, 0
5, 9, 0
5, 11, 0
5, 1, 0
11, 10, 1
11, 9, 0
11, 5, 0
11, 4, 0
11, 1, 0
10, 5, 0
10, 11, 1
10, 9, 0
7, 12, 0
7, 14, 0
7, 2, 0
7, 16, 0
7, 6, 1
7, 8, 0
7, 15, 0
12, 7, 0
12, 13, 0
12, 14, 0
12, 2, 0
12, 16, 0
12, 6, 0
12, 8, 0
12, 15, 0
4, 0, 0
4, 3, 1
4, 1, 0
4, 8, 0
4, 11, 0
4, 9, 0
14, 7, 0
14, 12, 0
14, 13, 1
14, 2, 0
14, 16, 0
14, 6, 0
14, 8, 0
14, 15, 0
2, 7, 0
2, 12, 0
2, 14, 0
2, 16, 0
2, 6, 0
2, 8, 0
2, 15, 0
1, 0, 0
1, 3, 0
1, 4, 0
1, 5, 0
1, 11, 0
1, 9, 0
15, 7, 0
15, 12, 0
15, 14, 0
15, 2, 0
15, 16, 1
15, 6, 0
9, 0, 0
9, 3, 0
9, 4, 0
9, 1, 0
9, 5, 0
9, 11, 0
9, 10, 0
