0, 9, 0
0, 1, 0
3, 7, 0
3, 6, 0
3, 8, 0
3, 4, 0
4, 3, 0
4, 6, 0
4, 8, 0
4, 5, 0
4, 2, 0
2, 7, 0
2, 8, 0
2, 4, 0
6, 7, 0
6, 3, 0
6, 8, 0
6, 4, 0
1, 0, 0
8, 7, 0
8, 3, 0
8, 6, 0
8, 4, 0
8, 2, 0
5, 4, 0
5, 9, 0
7, 2, 0
7, 3, 0
7, 8, 0
7, 6, 0
9, 0, 0
9, 5, 0
