0, 6, 0
0, 11, 0
0, 12, 0
13, 3, 0
13, 10, 0
17, 7, 0
17, 12, 0
17, 2, 0
3, 13, 0
3, 5, 0
16, 14, 0
16, 4, 0
16, 15, 1
16, 11, 0
6, 0, 0
6, 11, 0
8, 10, 0
8, 1, 0
5, 3, 0
11, 0, 0
11, 4, 0
11, 14, 0
11, 16, 0
11, 6, 0
11, 15, 0
10, 8, 0
10, 13, 0
10, 1, 0
7, 9, 0
7, 17, 0
7, 2, 0
12, 0, 0
12, 17, 0
4, 16, 0
4, 15, 0
4, 14, 0
4, 11, 0
14, 16, 0
14, 4, 0
14, 15, 0
14, 11, 0
2, 7, 0
2, 17, 0
1, 8, 0
1, 10, 0
1, 9, 0
15, 16, 1
15, 4, 0
15, 14, 0
15, 11, 0
9, 7, 0
9, 1, 0
