0, 8, 0
0, 14, 0
13, 4, 0
13, 11, 0
3, 4, 0
3, 1, 0
6, 7, 0
6, 12, 0
6, 2, 0
6, 5, 1
6, 10, 0
8, 0, 0
8, 2, 0
5, 7, 0
5, 12, 0
5, 10, 0
5, 14, 0
5, 6, 1
11, 13, 0
10, 7, 0
10, 12, 0
10, 14, 0
10, 2, 0
10, 6, 0
10, 5, 0
7, 12, 0
7, 9, 0
7, 5, 0
7, 10, 0
7, 6, 0
12, 7, 0
12, 6, 0
12, 5, 0
12, 10, 0
4, 3, 0
4, 13, 0
4, 1, 0
14, 0, 0
14, 2, 0
14, 5, 0
14, 10, 0
2, 6, 0
2, 8, 0
2, 14, 0
2, 10, 0
1, 3, 0
1, 4, 0
1, 9, 0
9, 7, 0
9, 1, 0
