0, 7, 0
0, 6, 0
0, 8, 0
0, 5, 0
0, 1, 0
3, 4, 1
3, 5, 0
3, 9, 0
4, 3, 1
4, 8, 0
4, 5, 0
4, 9, 0
2, 7, 0
2, 6, 0
2, 8, 0
2, 1, 1
6, 0, 0
6, 7, 0
6, 1, 0
6, 8, 0
6, 2, 0
1, 7, 0
1, 0, 0
1, 6, 0
1, 8, 0
1, 2, 1
8, 0, 0
8, 7, 0
8, 4, 0
8, 2, 0
8, 6, 0
8, 9, 0
8, 5, 0
8, 1, 0
5, 0, 0
5, 3, 0
5, 4, 0
5, 8, 0
5, 7, 0
5, 9, 0
7, 0, 0
7, 2, 0
7, 6, 0
7, 8, 0
7, 5, 0
7, 1, 0
9, 3, 0
9, 8, 0
9, 5, 0
9, 4, 0
