0, 7, 0
0, 2, 0
0, 6, 0
0, 8, 0
0, 5, 0
0, 10, 0
0, 1, 0
3, 5, 0
4, 6, 0
4, 1, 0
4, 2, 0
2, 0, 0
2, 4, 0
2, 6, 0
2, 1, 0
2, 10, 0
2, 9, 0
6, 0, 0
6, 4, 0
6, 2, 0
6, 9, 0
6, 10, 0
6, 1, 0
1, 0, 0
1, 4, 0
1, 2, 0
1, 6, 0
1, 9, 0
1, 10, 0
8, 0, 0
8, 7, 1
8, 5, 0
5, 0, 0
5, 3, 0
5, 8, 0
5, 7, 0
7, 0, 0
7, 8, 1
7, 5, 0
10, 0, 0
10, 6, 0
10, 1, 0
10, 9, 1
10, 2, 0
9, 2, 0
9, 6, 0
9, 10, 1
9, 1, 0
