0, 7, 0
0, 3, 0
0, 4, 0
0, 2, 0
0, 10, 0
0, 8, 0
0, 5, 0
0, 9, 0
6, 7, 1
6, 3, 0
6, 4, 0
6, 2, 0
6, 8, 0
6, 10, 0
6, 11, 0
6, 1, 0
1, 7, 0
1, 3, 0
1, 2, 0
1, 6, 0
1, 8, 0
1, 5, 0
1, 11, 0
5, 0, 0
5, 8, 0
5, 11, 0
5, 1, 0
11, 7, 0
11, 3, 0
11, 4, 0
11, 2, 0
11, 6, 0
11, 8, 0
11, 5, 0
11, 1, 0
10, 0, 0
10, 3, 0
10, 7, 0
10, 2, 0
10, 6, 0
10, 8, 0
10, 9, 1
7, 0, 0
7, 3, 0
7, 4, 0
7, 9, 0
7, 2, 0
7, 6, 1
7, 8, 0
7, 10, 0
7, 11, 0
7, 1, 0
3, 0, 0
3, 7, 0
3, 4, 1
3, 9, 0
3, 2, 0
3, 6, 0
3, 8, 0
3, 10, 0
3, 11, 0
3, 1, 0
4, 0, 0
4, 7, 0
4, 3, 1
4, 2, 0
4, 6, 0
4, 11, 0
2, 0, 0
2, 7, 0
2, 4, 0
2, 9, 0
2, 3, 0
2, 6, 0
2, 8, 0
2, 10, 0
2, 11, 0
2, 1, 0
8, 0, 0
8, 7, 0
8, 3, 0
8, 2, 0
8, 6, 0
8, 10, 0
8, 5, 0
8, 11, 0
8, 1, 0
9, 0, 0
9, 7, 0
9, 2, 0
9, 3, 0
9, 10, 1
