13, 21, 0
13, 14, 1
13, 5, 0
13, 22, 0
17, 0, 0
17, 8, 0
17, 23, 0
17, 35, 0
17, 30, 0
17, 25, 0
17, 26, 0
17, 2, 0
17, 29, 0
17, 49, 0
17, 39, 0
17, 48, 0
23, 17, 0
23, 26, 0
23, 29, 0
23, 27, 0
23, 39, 0
23, 46, 0
42, 20, 0
42, 37, 0
42, 46, 0
42, 11, 0
46, 45, 0
46, 28, 0
46, 32, 0
46, 23, 0
46, 27, 0
46, 40, 0
46, 44, 0
46, 47, 0
46, 30, 0
46, 7, 0
46, 34, 0
46, 11, 0
46, 31, 0
46, 6, 0
46, 42, 0
46, 19, 0
46, 49, 0
46, 15, 0
46, 10, 0
46, 20, 0
46, 9, 0
20, 37, 0
20, 42, 0
20, 46, 0
34, 12, 0
34, 29, 0
34, 27, 0
34, 9, 0
34, 46, 0
34, 41, 0
14, 21, 0
14, 13, 1
14, 5, 0
14, 22, 0
24, 0, 0
24, 49, 0
24, 32, 0
24, 18, 0
24, 8, 0
24, 38, 0
28, 7, 0
28, 15, 0
28, 46, 0
28, 47, 0
28, 10, 0
39, 2, 0
39, 49, 0
39, 17, 0
39, 23, 0
39, 29, 0
39, 27, 0
39, 35, 0
39, 36, 0
41, 34, 0
41, 4, 0
41, 3, 0
41, 29, 0
41, 30, 0
41, 9, 0
41, 1, 0
0, 18, 0
0, 17, 0
0, 8, 0
0, 38, 0
0, 24, 0
8, 0, 0
8, 25, 0
8, 24, 0
8, 18, 0
8, 17, 0
8, 49, 0
8, 48, 0
33, 6, 0
33, 19, 0
33, 30, 0
15, 7, 0
15, 43, 0
15, 46, 0
15, 28, 0
15, 44, 0
15, 47, 0
15, 10, 0
47, 7, 0
47, 28, 0
47, 31, 0
47, 15, 0
47, 46, 0
47, 10, 0
10, 7, 0
10, 28, 0
10, 31, 0
10, 15, 0
10, 46, 0
10, 47, 0
7, 28, 0
7, 31, 0
7, 15, 0
7, 46, 0
7, 47, 0
7, 10, 0
3, 4, 1
3, 41, 0
3, 1, 0
32, 16, 0
32, 48, 0
32, 50, 0
32, 24, 0
32, 18, 0
32, 49, 0
32, 38, 0
32, 5, 0
32, 22, 0
32, 46, 0
2, 35, 0
2, 17, 0
2, 29, 0
2, 27, 0
2, 49, 0
2, 39, 0
2, 48, 0
2, 36, 0
21, 13, 0
21, 14, 0
21, 5, 0
21, 22, 0
19, 33, 0
19, 31, 0
19, 6, 0
19, 40, 0
19, 46, 0
19, 30, 0
49, 24, 0
49, 38, 0
49, 17, 0
49, 32, 0
49, 2, 0
49, 18, 0
49, 27, 0
49, 8, 0
49, 39, 0
49, 46, 0
49, 48, 0
18, 0, 0
18, 8, 0
18, 49, 0
18, 32, 0
18, 24, 0
31, 7, 0
31, 19, 0
31, 40, 0
31, 46, 0
31, 47, 0
31, 10, 0
29, 12, 0
29, 17, 0
29, 23, 0
29, 26, 0
29, 35, 0
29, 2, 0
29, 30, 0
29, 34, 0
29, 39, 0
29, 41, 0
29, 1, 0
40, 19, 0
40, 46, 0
40, 31, 0
40, 30, 0
11, 37, 0
11, 42, 0
11, 46, 0
11, 45, 0
5, 21, 0
5, 13, 0
5, 14, 0
5, 50, 0
5, 32, 0
5, 16, 0
5, 38, 0
5, 22, 0
37, 20, 0
37, 45, 0
37, 11, 0
37, 42, 0
4, 3, 1
4, 9, 0
4, 41, 0
4, 1, 0
35, 17, 0
35, 36, 1
35, 2, 0
35, 39, 0
35, 29, 0
30, 33, 0
30, 17, 0
30, 29, 0
30, 46, 0
30, 6, 0
30, 19, 0
30, 9, 0
30, 40, 0
30, 41, 0
30, 1, 0
38, 0, 0
38, 50, 0
38, 32, 0
38, 24, 0
38, 49, 0
38, 5, 0
22, 21, 0
22, 13, 0
22, 14, 0
22, 5, 0
22, 32, 0
36, 27, 0
36, 35, 1
36, 39, 0
36, 2, 0
45, 37, 0
45, 46, 0
45, 11, 0
45, 44, 0
16, 5, 0
16, 32, 0
16, 50, 0
27, 34, 0
27, 23, 0
27, 2, 0
27, 49, 0
27, 39, 0
27, 46, 0
27, 36, 0
1, 3, 0
1, 4, 0
1, 29, 0
1, 9, 0
1, 41, 0
1, 30, 0
44, 45, 0
44, 43, 0
44, 15, 0
44, 46, 0
48, 49, 0
48, 25, 0
48, 32, 0
48, 2, 0
48, 17, 0
48, 8, 0
12, 34, 0
12, 26, 0
12, 29, 0
25, 8, 0
25, 17, 0
25, 48, 0
50, 16, 0
50, 38, 0
50, 5, 0
50, 32, 0
26, 12, 0
26, 17, 0
26, 23, 0
26, 29, 0
6, 33, 0
6, 19, 0
6, 46, 0
6, 30, 0
43, 15, 0
43, 44, 0
9, 41, 0
9, 34, 0
9, 4, 0
9, 1, 0
9, 46, 0
9, 30, 0
