13, 20, 0
13, 11, 0
13, 26, 0
13, 6, 0
13, 8, 0
13, 5, 0
13, 22, 0
17, 3, 0
17, 4, 0
17, 14, 0
17, 24, 0
17, 18, 0
17, 25, 0
17, 19, 0
17, 9, 0
17, 1, 0
23, 0, 0
23, 3, 0
23, 4, 0
23, 14, 0
23, 2, 0
23, 24, 0
23, 1, 0
5, 20, 0
5, 21, 0
5, 13, 0
5, 22, 0
5, 26, 0
5, 16, 0
5, 11, 0
11, 20, 0
11, 13, 0
11, 26, 0
11, 21, 0
11, 6, 0
11, 8, 0
11, 5, 0
11, 22, 0
1, 0, 0
1, 3, 0
1, 4, 0
1, 14, 0
1, 23, 0
1, 2, 0
1, 17, 0
1, 24, 0
20, 21, 0
20, 13, 0
20, 11, 0
20, 26, 0
20, 16, 0
20, 6, 0
20, 8, 0
20, 5, 0
20, 22, 0
4, 0, 0
4, 3, 0
4, 7, 0
4, 17, 0
4, 23, 0
4, 24, 0
4, 14, 0
4, 12, 0
4, 2, 0
4, 15, 0
4, 1, 0
14, 4, 0
14, 17, 0
14, 23, 0
14, 24, 0
14, 18, 0
14, 19, 0
14, 9, 0
14, 1, 0
24, 0, 0
24, 4, 0
24, 17, 0
24, 23, 0
24, 2, 0
24, 25, 0
24, 14, 0
24, 1, 0
8, 20, 0
8, 12, 0
8, 13, 0
8, 21, 0
8, 6, 0
8, 11, 0
15, 7, 0
15, 3, 0
15, 4, 0
15, 12, 0
22, 20, 0
22, 13, 0
22, 26, 0
22, 6, 0
22, 5, 0
22, 11, 0
0, 3, 0
0, 4, 0
0, 23, 0
0, 2, 0
0, 24, 0
0, 1, 0
3, 0, 0
3, 12, 0
3, 4, 0
3, 17, 0
3, 23, 0
3, 2, 0
3, 15, 0
3, 1, 0
16, 20, 0
16, 5, 0
16, 26, 0
16, 10, 0
6, 20, 0
6, 7, 0
6, 13, 0
6, 11, 0
6, 26, 0
6, 21, 0
6, 8, 0
6, 22, 0
10, 16, 0
7, 21, 0
7, 6, 0
7, 4, 0
7, 15, 0
7, 12, 0
12, 7, 0
12, 3, 0
12, 4, 0
12, 21, 0
12, 8, 0
12, 15, 0
25, 18, 0
25, 19, 0
25, 9, 0
25, 17, 0
25, 24, 0
26, 20, 0
26, 13, 0
26, 11, 0
26, 16, 0
26, 6, 0
26, 5, 0
26, 22, 0
2, 0, 0
2, 3, 0
2, 4, 0
2, 23, 0
2, 24, 0
2, 1, 0
21, 20, 0
21, 7, 0
21, 12, 0
21, 6, 0
21, 8, 0
21, 5, 0
21, 11, 0
19, 18, 1
19, 25, 0
19, 14, 0
19, 17, 0
19, 9, 0
18, 25, 0
18, 19, 1
18, 14, 0
18, 17, 0
18, 9, 0
9, 18, 0
9, 25, 0
9, 19, 0
9, 14, 0
9, 17, 0
