13, 18, 0
13, 12, 1
13, 22, 0
17, 26, 0
17, 24, 0
23, 21, 0
23, 15, 0
23, 1, 0
2, 27, 0
2, 19, 0
2, 4, 0
2, 10, 0
2, 1, 0
5, 6, 1
5, 4, 0
5, 14, 0
5, 1, 0
11, 20, 0
11, 16, 0
11, 8, 0
11, 27, 0
1, 7, 0
1, 4, 0
1, 25, 0
1, 23, 0
1, 2, 0
1, 16, 0
1, 6, 0
1, 19, 0
1, 5, 0
1, 27, 0
1, 14, 0
20, 3, 0
20, 16, 0
20, 27, 0
20, 8, 0
20, 11, 0
20, 10, 0
4, 7, 0
4, 6, 0
4, 14, 0
4, 27, 0
4, 2, 0
4, 21, 0
4, 25, 0
4, 19, 0
4, 10, 0
4, 5, 0
4, 1, 0
14, 7, 0
14, 4, 0
14, 21, 0
14, 6, 0
14, 15, 0
14, 5, 0
14, 1, 0
24, 17, 0
24, 26, 0
8, 20, 0
8, 16, 0
8, 11, 0
8, 27, 0
15, 21, 0
15, 14, 0
15, 23, 0
22, 0, 0
22, 12, 0
22, 13, 0
22, 18, 0
22, 3, 0
0, 3, 0
0, 19, 0
0, 27, 0
0, 22, 0
0, 10, 0
3, 20, 0
3, 27, 0
3, 10, 0
3, 22, 0
3, 0, 0
16, 20, 0
16, 27, 0
16, 8, 0
16, 11, 0
16, 1, 0
6, 7, 1
6, 4, 0
6, 14, 0
6, 5, 1
6, 1, 0
10, 0, 0
10, 20, 0
10, 4, 0
10, 3, 0
10, 2, 0
10, 27, 0
10, 19, 0
7, 6, 1
7, 4, 0
7, 14, 0
7, 1, 0
12, 18, 0
12, 13, 1
12, 22, 0
25, 27, 0
25, 19, 0
25, 4, 0
25, 1, 0
26, 9, 0
26, 17, 0
26, 24, 0
27, 20, 0
27, 3, 0
27, 4, 0
27, 25, 0
27, 2, 0
27, 16, 0
27, 0, 0
27, 8, 0
27, 10, 0
27, 11, 0
27, 1, 0
21, 15, 0
21, 4, 0
21, 14, 0
21, 23, 0
19, 0, 0
19, 4, 0
19, 25, 0
19, 2, 0
19, 1, 0
19, 10, 0
18, 12, 0
18, 13, 0
18, 22, 0
18, 9, 0
9, 18, 0
9, 26, 0
