0, 6, 0
0, 4, 0
0, 5, 0
0, 1, 0
13, 9, 0
13, 1, 0
3, 2, 0
3, 15, 0
3, 11, 0
3, 9, 0
16, 6, 0
16, 10, 0
6, 0, 0
6, 16, 0
8, 7, 0
8, 14, 0
8, 10, 0
5, 0, 0
5, 4, 1
5, 1, 0
11, 3, 0
11, 1, 0
11, 9, 0
11, 2, 0
10, 16, 0
10, 7, 0
10, 8, 0
10, 14, 0
7, 8, 0
7, 10, 0
12, 2, 0
4, 0, 0
4, 5, 1
4, 1, 0
14, 8, 0
14, 10, 0
2, 12, 0
2, 9, 0
2, 11, 0
2, 3, 0
1, 0, 0
1, 13, 0
1, 4, 0
1, 5, 0
1, 11, 0
1, 9, 0
15, 3, 0
15, 9, 0
9, 3, 0
9, 13, 0
9, 2, 0
9, 15, 0
9, 11, 0
9, 1, 0
