0, 7, 0
0, 3, 0
0, 2, 0
0, 6, 0
0, 8, 0
0, 5, 0
0, 10, 0
0, 9, 0
3, 0, 0
3, 1, 0
3, 4, 0
3, 5, 0
3, 2, 0
4, 3, 0
4, 5, 1
4, 2, 0
2, 0, 0
2, 3, 0
2, 4, 0
2, 6, 0
2, 5, 0
2, 1, 0
6, 0, 0
6, 7, 0
6, 2, 0
6, 8, 0
6, 10, 0
6, 1, 0
1, 7, 0
1, 3, 0
1, 2, 0
1, 6, 0
1, 9, 0
1, 10, 0
8, 0, 0
8, 7, 0
8, 10, 0
8, 6, 0
5, 0, 0
5, 3, 0
5, 4, 1
5, 2, 0
7, 0, 0
7, 9, 0
7, 6, 0
7, 8, 0
7, 10, 0
7, 1, 0
10, 0, 0
10, 6, 0
10, 8, 0
10, 7, 0
10, 1, 0
9, 0, 0
9, 7, 0
9, 1, 0
