13, 20, 0
13, 12, 1
13, 14, 1
13, 21, 0
13, 16, 0
13, 5, 0
13, 18, 0
13, 9, 0
17, 3, 0
17, 4, 0
17, 16, 0
17, 6, 0
17, 19, 0
17, 8, 0
17, 22, 0
5, 20, 0
5, 12, 0
5, 13, 0
5, 14, 0
5, 21, 0
5, 16, 0
5, 18, 0
5, 9, 0
11, 20, 0
11, 18, 0
11, 9, 0
11, 15, 0
11, 10, 0
1, 0, 0
1, 15, 0
1, 2, 1
20, 16, 0
20, 13, 0
20, 18, 0
20, 6, 0
20, 5, 0
20, 11, 0
20, 10, 0
20, 7, 0
20, 12, 0
20, 14, 0
20, 21, 0
20, 15, 0
20, 9, 0
4, 6, 0
4, 19, 0
4, 8, 0
4, 17, 0
4, 22, 0
14, 20, 0
14, 21, 0
14, 13, 1
14, 16, 0
14, 5, 0
14, 18, 0
14, 9, 0
8, 6, 0
8, 19, 0
8, 4, 0
8, 17, 0
8, 22, 0
15, 20, 0
15, 7, 0
15, 2, 0
15, 21, 0
15, 0, 0
15, 10, 0
15, 11, 0
15, 1, 0
22, 3, 0
22, 4, 0
22, 17, 0
22, 6, 0
22, 19, 0
22, 8, 0
0, 2, 0
0, 15, 0
0, 1, 0
3, 16, 0
3, 6, 0
3, 19, 0
3, 17, 0
3, 22, 0
16, 20, 0
16, 3, 0
16, 13, 0
16, 14, 0
16, 12, 0
16, 21, 0
16, 6, 0
16, 5, 0
16, 17, 0
6, 20, 0
6, 3, 0
6, 4, 0
6, 17, 0
6, 16, 0
6, 19, 0
6, 8, 0
6, 22, 0
10, 20, 0
10, 7, 0
10, 15, 0
10, 11, 0
7, 20, 0
7, 15, 0
7, 10, 0
12, 20, 0
12, 21, 0
12, 13, 1
12, 16, 0
12, 5, 0
12, 18, 0
12, 9, 0
2, 0, 0
2, 15, 0
2, 1, 1
21, 20, 0
21, 12, 0
21, 13, 0
21, 14, 0
21, 16, 0
21, 15, 0
21, 5, 0
21, 18, 0
21, 9, 0
19, 3, 0
19, 4, 0
19, 17, 0
19, 6, 0
19, 8, 0
19, 22, 0
18, 20, 0
18, 12, 0
18, 13, 0
18, 14, 0
18, 21, 0
18, 5, 0
18, 11, 0
18, 9, 0
9, 20, 0
9, 12, 0
9, 13, 0
9, 14, 0
9, 21, 0
9, 18, 0
9, 11, 0
9, 5, 0
