58, 16, 0
58, 4, 0
58, 52, 0
58, 48, 0
13, 68, 0
13, 4, 0
13, 52, 0
13, 23, 0
13, 12, 0
13, 16, 0
13, 11, 0
17, 7, 0
17, 10, 0
23, 68, 0
23, 13, 0
23, 28, 0
23, 26, 0
23, 4, 0
23, 12, 0
23, 16, 0
23, 46, 0
23, 47, 0
23, 5, 0
23, 3, 0
23, 69, 0
23, 25, 0
23, 32, 0
23, 31, 0
23, 33, 0
23, 48, 0
63, 6, 0
63, 25, 0
24, 54, 0
24, 50, 0
24, 29, 0
24, 53, 0
24, 10, 0
24, 1, 0
46, 68, 0
46, 28, 0
46, 32, 0
46, 23, 0
46, 45, 0
46, 16, 0
46, 40, 0
46, 69, 0
46, 11, 0
46, 4, 0
46, 25, 0
46, 26, 0
46, 52, 0
46, 39, 0
46, 41, 0
65, 20, 0
65, 51, 0
65, 35, 0
65, 64, 1
65, 30, 0
65, 59, 0
65, 9, 0
20, 51, 0
20, 3, 0
20, 59, 0
20, 5, 0
20, 65, 0
20, 67, 0
20, 14, 0
20, 35, 0
20, 61, 0
20, 49, 0
20, 64, 0
20, 36, 0
34, 18, 0
34, 60, 0
34, 71, 0
34, 38, 0
34, 50, 0
14, 70, 0
14, 56, 0
14, 6, 0
14, 66, 0
14, 59, 0
14, 20, 0
14, 67, 0
14, 25, 0
14, 39, 0
14, 35, 0
14, 37, 0
14, 49, 0
14, 15, 0
14, 22, 0
14, 36, 0
53, 0, 0
53, 50, 0
53, 29, 0
53, 24, 0
53, 10, 0
53, 1, 0
66, 21, 0
66, 14, 0
66, 15, 0
66, 56, 0
42, 45, 0
42, 43, 1
42, 68, 0
42, 27, 0
42, 19, 0
42, 55, 0
42, 44, 0
15, 21, 0
15, 14, 0
15, 56, 0
15, 66, 0
15, 37, 0
15, 49, 0
15, 5, 0
41, 25, 0
41, 39, 0
41, 69, 0
41, 40, 1
41, 46, 0
0, 7, 0
0, 60, 0
0, 50, 0
0, 29, 0
0, 18, 0
0, 53, 0
0, 38, 0
0, 10, 0
0, 1, 1
68, 45, 0
68, 13, 0
68, 28, 0
68, 62, 0
68, 23, 0
68, 16, 0
68, 27, 0
68, 46, 0
68, 11, 0
68, 44, 0
68, 12, 0
68, 43, 0
68, 4, 0
68, 52, 0
68, 47, 0
68, 42, 0
68, 19, 0
62, 68, 0
62, 19, 0
62, 55, 0
62, 47, 0
62, 12, 0
51, 57, 0
51, 20, 0
51, 3, 0
51, 61, 0
51, 64, 0
51, 30, 0
51, 65, 0
51, 59, 0
51, 5, 0
51, 9, 0
33, 23, 0
33, 69, 0
33, 25, 0
33, 31, 0
33, 26, 0
33, 28, 0
33, 48, 0
6, 3, 0
6, 14, 0
6, 31, 0
6, 56, 0
6, 21, 0
6, 25, 0
6, 49, 0
6, 39, 0
6, 63, 0
6, 5, 0
64, 20, 0
64, 3, 0
64, 51, 0
64, 35, 0
64, 65, 1
64, 59, 0
64, 9, 0
47, 7, 0
47, 12, 0
47, 62, 0
47, 23, 0
47, 68, 0
47, 27, 0
47, 19, 0
47, 55, 0
10, 0, 0
10, 7, 0
10, 54, 0
10, 50, 0
10, 29, 0
10, 17, 0
10, 53, 0
10, 24, 0
10, 1, 0
7, 0, 0
7, 55, 0
7, 17, 0
7, 2, 0
7, 8, 1
7, 38, 0
7, 47, 0
7, 10, 0
3, 23, 0
3, 51, 0
3, 6, 0
3, 59, 0
3, 5, 0
3, 30, 0
3, 20, 0
3, 61, 0
3, 25, 0
3, 31, 0
3, 21, 0
3, 64, 0
3, 22, 0
69, 28, 0
69, 31, 0
69, 23, 0
69, 16, 0
69, 40, 0
69, 46, 0
69, 48, 0
69, 33, 0
69, 4, 0
69, 52, 0
69, 32, 0
69, 26, 0
69, 39, 0
69, 41, 0
32, 69, 0
32, 28, 0
32, 31, 0
32, 23, 0
32, 16, 0
32, 40, 0
32, 48, 0
32, 46, 0
2, 7, 0
2, 8, 0
2, 38, 0
2, 55, 0
37, 21, 0
37, 15, 0
37, 14, 0
37, 5, 0
37, 22, 0
52, 58, 0
52, 68, 0
52, 13, 0
52, 28, 0
52, 45, 0
52, 16, 0
52, 46, 0
52, 11, 0
52, 12, 0
52, 4, 0
52, 69, 0
52, 48, 0
19, 68, 0
19, 45, 0
19, 62, 0
19, 27, 0
19, 42, 0
19, 55, 0
19, 44, 0
19, 47, 0
19, 12, 0
49, 70, 0
49, 56, 0
49, 6, 0
49, 59, 0
49, 20, 0
49, 67, 0
49, 14, 0
49, 35, 0
49, 61, 0
49, 15, 0
49, 22, 0
49, 36, 0
48, 58, 0
48, 45, 0
48, 28, 0
48, 32, 0
48, 23, 0
48, 16, 0
48, 69, 0
48, 33, 0
48, 4, 0
48, 52, 0
48, 31, 0
48, 25, 0
70, 67, 0
70, 49, 0
70, 14, 0
70, 22, 0
31, 28, 0
31, 32, 0
31, 23, 0
31, 3, 0
31, 6, 0
31, 5, 0
31, 33, 0
31, 69, 0
31, 25, 0
31, 26, 0
31, 21, 0
31, 39, 0
31, 48, 0
28, 68, 0
28, 26, 0
28, 23, 0
28, 45, 0
28, 16, 0
28, 46, 0
28, 32, 0
28, 33, 0
28, 69, 0
28, 25, 0
28, 31, 0
28, 52, 0
28, 48, 0
45, 68, 0
45, 28, 0
45, 52, 0
45, 16, 0
45, 27, 0
45, 55, 0
45, 44, 1
45, 11, 0
45, 46, 0
45, 12, 0
45, 25, 0
45, 26, 0
45, 42, 0
45, 43, 0
45, 19, 0
45, 48, 0
60, 18, 0
60, 0, 0
60, 71, 0
60, 38, 0
60, 34, 0
40, 69, 0
40, 25, 0
40, 32, 0
40, 26, 0
40, 16, 0
40, 39, 0
40, 46, 0
40, 41, 1
71, 18, 0
71, 34, 0
71, 38, 0
71, 50, 0
71, 60, 0
59, 20, 0
59, 51, 0
59, 64, 0
59, 5, 0
59, 30, 0
59, 57, 0
59, 3, 0
59, 14, 0
59, 35, 0
59, 61, 0
59, 49, 0
59, 65, 0
59, 9, 0
11, 68, 0
11, 13, 0
11, 52, 0
11, 4, 0
11, 45, 0
11, 16, 0
11, 46, 0
5, 37, 0
5, 56, 0
5, 51, 0
5, 3, 0
5, 6, 0
5, 59, 0
5, 20, 0
5, 67, 0
5, 23, 0
5, 21, 0
5, 25, 0
5, 31, 0
5, 61, 0
5, 15, 0
5, 22, 0
5, 36, 0
61, 20, 0
61, 3, 0
61, 51, 0
61, 67, 0
61, 21, 0
61, 49, 0
61, 59, 0
61, 5, 0
61, 22, 0
29, 0, 0
29, 54, 0
29, 50, 0
29, 24, 0
29, 53, 0
29, 38, 0
29, 10, 0
29, 1, 0
4, 58, 0
4, 68, 0
4, 69, 0
4, 13, 0
4, 23, 0
4, 12, 0
4, 16, 0
4, 52, 0
4, 46, 0
4, 11, 0
4, 48, 0
39, 25, 0
39, 69, 0
39, 14, 0
39, 26, 0
39, 31, 0
39, 16, 0
39, 6, 0
39, 40, 0
39, 46, 0
39, 41, 0
35, 20, 0
35, 25, 0
35, 14, 0
35, 49, 0
35, 64, 0
35, 59, 0
35, 22, 0
35, 65, 0
30, 57, 0
30, 3, 0
30, 59, 0
30, 51, 0
30, 65, 0
8, 7, 1
8, 55, 0
8, 38, 0
8, 2, 0
38, 0, 0
38, 7, 0
38, 8, 0
38, 2, 0
38, 34, 0
38, 29, 0
38, 71, 0
38, 60, 0
38, 55, 0
22, 21, 0
22, 3, 0
22, 61, 0
22, 14, 0
22, 35, 0
22, 37, 0
22, 70, 0
22, 49, 0
22, 5, 0
22, 67, 0
36, 20, 0
36, 67, 0
36, 49, 0
36, 14, 0
36, 5, 0
25, 45, 0
25, 63, 0
25, 28, 0
25, 31, 0
25, 23, 0
25, 3, 0
25, 16, 0
25, 6, 0
25, 40, 0
25, 5, 0
25, 46, 0
25, 41, 0
25, 33, 0
25, 14, 0
25, 26, 0
25, 35, 0
25, 21, 0
25, 39, 0
25, 48, 0
57, 59, 0
57, 51, 0
57, 30, 0
56, 14, 0
56, 66, 0
56, 21, 0
56, 6, 0
56, 49, 0
56, 15, 0
56, 5, 0
16, 58, 0
16, 45, 0
16, 13, 0
16, 28, 0
16, 26, 0
16, 23, 0
16, 68, 0
16, 69, 0
16, 40, 0
16, 46, 0
16, 11, 0
16, 4, 0
16, 25, 0
16, 32, 0
16, 52, 0
16, 39, 0
16, 48, 0
27, 45, 0
27, 43, 0
27, 68, 0
27, 42, 0
27, 19, 0
27, 55, 0
27, 44, 0
27, 47, 0
1, 0, 1
1, 50, 0
1, 29, 0
1, 53, 0
1, 24, 0
1, 10, 0
55, 45, 0
55, 62, 0
55, 27, 0
55, 44, 0
55, 47, 0
55, 7, 0
55, 12, 0
55, 43, 0
55, 2, 0
55, 42, 0
55, 19, 0
55, 8, 0
55, 38, 0
44, 45, 1
44, 43, 0
44, 27, 0
44, 42, 0
44, 19, 0
44, 55, 0
44, 68, 0
44, 12, 0
12, 68, 0
12, 13, 0
12, 52, 0
12, 62, 0
12, 23, 0
12, 45, 0
12, 4, 0
12, 19, 0
12, 55, 0
12, 44, 0
12, 47, 0
18, 60, 0
18, 34, 0
18, 71, 0
18, 50, 0
18, 0, 0
21, 3, 0
21, 61, 0
21, 25, 0
21, 31, 0
21, 56, 0
21, 66, 0
21, 37, 0
21, 6, 0
21, 15, 0
21, 5, 0
21, 22, 0
54, 29, 0
54, 10, 0
54, 50, 0
54, 24, 0
50, 0, 0
50, 34, 0
50, 53, 0
50, 54, 0
50, 24, 0
50, 18, 0
50, 29, 0
50, 71, 0
50, 10, 0
50, 1, 0
26, 33, 0
26, 69, 0
26, 25, 0
26, 23, 0
26, 31, 0
26, 45, 0
26, 16, 0
26, 28, 0
26, 39, 0
26, 40, 0
26, 46, 0
43, 45, 0
43, 68, 0
43, 42, 1
43, 55, 0
43, 44, 0
43, 27, 0
67, 20, 0
67, 14, 0
67, 61, 0
67, 70, 0
67, 49, 0
67, 5, 0
67, 22, 0
67, 36, 0
9, 59, 0
9, 64, 0
9, 51, 0
9, 65, 0
