12, 18, 0
12, 17, 0
12, 26, 0
12, 16, 0
12, 6, 0
12, 15, 0
13, 27, 0
13, 30, 0
13, 8, 0
13, 31, 0
13, 29, 0
17, 18, 1
17, 12, 0
17, 16, 0
17, 35, 0
31, 3, 0
31, 13, 0
31, 29, 0
31, 27, 0
31, 36, 0
31, 8, 0
31, 30, 1
23, 34, 0
23, 5, 0
23, 32, 0
24, 27, 0
24, 25, 0
24, 26, 0
24, 30, 0
5, 33, 0
5, 23, 0
5, 32, 0
11, 22, 0
11, 2, 0
1, 7, 0
1, 3, 0
1, 4, 0
1, 28, 0
20, 16, 0
20, 10, 0
20, 35, 0
4, 7, 0
4, 3, 0
4, 14, 0
4, 28, 0
4, 1, 0
4, 36, 0
14, 7, 0
14, 3, 0
14, 4, 0
14, 29, 0
14, 8, 0
14, 36, 0
35, 20, 0
35, 16, 0
35, 15, 0
35, 17, 0
28, 19, 0
28, 4, 0
28, 1, 0
30, 7, 0
30, 3, 0
30, 13, 0
30, 25, 0
30, 31, 1
30, 26, 0
30, 29, 0
30, 6, 0
30, 8, 0
30, 24, 0
30, 27, 0
8, 7, 0
8, 13, 0
8, 14, 0
8, 31, 0
8, 29, 0
8, 30, 0
8, 36, 0
15, 0, 0
15, 12, 0
15, 26, 0
15, 35, 0
15, 16, 0
15, 6, 0
22, 3, 0
22, 11, 0
22, 9, 0
36, 7, 0
36, 3, 0
36, 4, 0
36, 14, 0
36, 31, 0
36, 8, 0
0, 16, 0
0, 25, 0
0, 15, 0
0, 26, 0
0, 6, 0
6, 0, 0
6, 12, 0
6, 25, 0
6, 26, 0
6, 27, 0
6, 15, 0
6, 30, 0
3, 7, 0
3, 4, 0
3, 14, 0
3, 31, 0
3, 1, 0
3, 30, 0
3, 22, 0
3, 36, 0
16, 20, 0
16, 12, 0
16, 17, 0
16, 26, 0
16, 35, 0
16, 25, 0
16, 0, 0
16, 15, 0
16, 10, 0
27, 13, 0
27, 26, 0
27, 31, 0
27, 24, 0
27, 6, 0
27, 30, 0
10, 20, 0
10, 16, 0
7, 3, 0
7, 4, 0
7, 14, 0
7, 29, 0
7, 1, 0
7, 8, 0
7, 30, 0
7, 36, 0
34, 23, 0
34, 32, 0
34, 9, 0
25, 0, 0
25, 26, 0
25, 24, 0
25, 16, 0
25, 6, 0
25, 30, 0
33, 21, 0
33, 5, 0
33, 32, 0
32, 21, 0
32, 33, 0
32, 5, 0
32, 23, 0
32, 34, 0
2, 19, 0
2, 11, 0
21, 33, 0
21, 32, 0
29, 7, 0
29, 13, 0
29, 14, 0
29, 31, 0
29, 8, 0
29, 30, 0
19, 28, 0
19, 2, 0
26, 0, 0
26, 12, 0
26, 25, 0
26, 27, 0
26, 16, 0
26, 6, 0
26, 24, 0
26, 15, 0
26, 30, 0
18, 12, 0
18, 17, 1
9, 34, 0
9, 22, 0
