0, 15, 0
0, 19, 0
0, 14, 0
0, 17, 0
13, 19, 0
13, 8, 0
13, 5, 0
13, 11, 0
13, 1, 0
17, 0, 0
17, 2, 0
17, 19, 0
17, 8, 0
17, 15, 0
17, 10, 0
3, 18, 0
3, 12, 0
3, 4, 1
16, 6, 0
16, 9, 0
6, 16, 0
6, 9, 0
8, 12, 0
8, 13, 0
8, 17, 0
8, 19, 0
8, 11, 0
8, 1, 0
5, 18, 0
5, 13, 0
5, 1, 0
11, 19, 0
11, 8, 0
11, 13, 0
10, 7, 0
10, 15, 0
10, 17, 0
10, 2, 0
7, 2, 0
7, 10, 0
12, 18, 0
12, 3, 0
12, 8, 0
12, 4, 0
12, 9, 0
4, 18, 0
4, 12, 0
4, 3, 1
14, 0, 0
14, 19, 0
14, 15, 0
2, 7, 0
2, 17, 0
2, 10, 0
19, 0, 0
19, 13, 0
19, 14, 0
19, 17, 0
19, 8, 0
19, 11, 0
1, 18, 0
1, 8, 0
1, 13, 0
1, 5, 0
15, 0, 0
15, 14, 0
15, 17, 0
15, 10, 0
18, 12, 0
18, 3, 0
18, 4, 0
18, 5, 0
18, 1, 0
9, 16, 0
9, 12, 0
9, 6, 0
