13, 7, 0
13, 12, 0
13, 23, 0
13, 2, 0
13, 8, 0
13, 11, 0
13, 1, 0
17, 3, 0
17, 4, 0
17, 14, 0
17, 10, 0
23, 7, 0
23, 12, 0
23, 13, 0
23, 14, 0
23, 18, 0
23, 6, 0
23, 8, 0
23, 5, 0
23, 11, 0
5, 6, 0
5, 4, 0
5, 14, 0
5, 11, 0
5, 23, 0
11, 7, 0
11, 12, 0
11, 13, 0
11, 23, 0
11, 4, 0
11, 20, 0
11, 8, 0
11, 5, 0
11, 22, 0
1, 13, 0
1, 2, 1
20, 7, 0
20, 12, 0
20, 4, 0
20, 22, 0
20, 8, 0
20, 11, 0
4, 20, 0
4, 3, 1
4, 17, 0
4, 14, 0
4, 11, 0
4, 21, 0
4, 6, 0
4, 5, 0
4, 18, 0
4, 22, 0
4, 10, 0
14, 3, 0
14, 16, 0
14, 4, 0
14, 17, 0
14, 23, 0
14, 21, 0
14, 6, 0
14, 9, 0
14, 5, 0
14, 18, 0
14, 10, 0
8, 20, 0
8, 7, 1
8, 13, 0
8, 11, 0
8, 23, 0
8, 12, 0
8, 22, 0
15, 16, 1
15, 18, 0
15, 19, 0
15, 9, 0
15, 0, 0
22, 20, 0
22, 7, 0
22, 4, 0
22, 12, 0
22, 8, 0
22, 11, 0
0, 16, 0
0, 18, 0
0, 19, 0
0, 15, 0
3, 21, 0
3, 4, 1
3, 14, 0
3, 16, 0
3, 17, 0
3, 10, 0
3, 18, 0
3, 9, 0
16, 0, 0
16, 3, 0
16, 14, 0
16, 18, 0
16, 19, 0
16, 15, 1
16, 9, 0
6, 4, 0
6, 14, 0
6, 5, 0
6, 23, 0
10, 3, 0
10, 4, 0
10, 14, 0
10, 21, 0
10, 17, 0
10, 18, 0
10, 9, 0
7, 20, 0
7, 12, 0
7, 13, 0
7, 11, 0
7, 23, 0
7, 8, 1
7, 22, 0
12, 20, 0
12, 7, 0
12, 13, 0
12, 22, 0
12, 23, 0
12, 8, 0
12, 11, 0
2, 13, 0
2, 1, 1
21, 3, 0
21, 4, 0
21, 14, 0
21, 18, 0
21, 10, 0
21, 9, 0
19, 0, 0
19, 16, 0
19, 15, 0
19, 18, 0
18, 0, 0
18, 3, 0
18, 4, 0
18, 14, 0
18, 23, 0
18, 21, 0
18, 16, 0
18, 19, 0
18, 10, 0
18, 15, 0
18, 9, 0
9, 3, 0
9, 14, 0
9, 21, 0
9, 16, 0
9, 15, 0
9, 18, 0
9, 10, 0
