0, 7, 0
0, 3, 0
0, 2, 0
0, 11, 0
0, 10, 0
6, 7, 1
6, 3, 0
6, 2, 0
6, 10, 0
1, 11, 0
1, 8, 0
1, 5, 0
1, 4, 0
1, 9, 0
5, 4, 1
5, 9, 0
5, 1, 0
11, 0, 0
11, 2, 0
11, 8, 0
11, 1, 0
10, 7, 0
10, 6, 0
10, 0, 0
10, 3, 0
10, 2, 0
7, 0, 0
7, 6, 1
7, 2, 0
7, 3, 0
7, 10, 0
3, 0, 0
3, 6, 0
3, 2, 0
3, 7, 0
3, 10, 0
4, 9, 0
4, 5, 1
4, 1, 0
2, 7, 0
2, 0, 0
2, 3, 0
2, 6, 0
2, 11, 0
2, 10, 0
8, 11, 0
8, 1, 0
9, 4, 0
9, 5, 0
9, 1, 0
