2, 7, 0
2, 3, 0
2, 13, 0
2, 14, 0
2, 26, 0
2, 17, 0
2, 19, 0
2, 25, 0
2, 1, 0
13, 9, 0
13, 18, 0
13, 25, 0
13, 23, 0
13, 26, 0
13, 2, 0
13, 21, 0
13, 14, 1
13, 24, 0
13, 1, 0
17, 7, 0
17, 3, 0
17, 25, 0
17, 23, 0
17, 26, 0
17, 2, 0
17, 19, 0
31, 18, 0
31, 34, 0
31, 29, 1
31, 30, 1
23, 25, 0
23, 13, 0
23, 17, 0
23, 26, 0
24, 13, 0
24, 28, 0
24, 3, 0
24, 16, 0
24, 18, 0
24, 30, 0
24, 34, 0
24, 4, 0
24, 32, 0
24, 29, 0
24, 21, 0
24, 19, 0
24, 1, 0
24, 10, 0
24, 22, 0
24, 9, 0
5, 20, 0
5, 3, 0
5, 7, 0
5, 32, 0
5, 27, 0
5, 6, 0
5, 8, 0
11, 7, 0
11, 12, 1
11, 4, 0
11, 28, 0
11, 32, 0
11, 3, 0
11, 18, 0
11, 6, 0
11, 8, 0
1, 13, 0
1, 16, 0
1, 2, 0
1, 7, 0
1, 3, 0
1, 14, 0
1, 24, 0
1, 21, 0
1, 25, 0
1, 19, 0
1, 18, 0
1, 22, 0
1, 9, 0
20, 7, 0
20, 3, 0
20, 32, 0
20, 27, 0
20, 8, 0
20, 5, 0
34, 21, 0
34, 31, 0
34, 24, 0
34, 18, 0
34, 19, 0
34, 29, 0
34, 10, 0
34, 22, 0
34, 30, 0
4, 3, 1
4, 28, 0
4, 22, 0
4, 32, 0
4, 24, 0
4, 18, 0
4, 6, 0
4, 11, 0
4, 12, 0
14, 2, 0
14, 13, 1
14, 25, 0
14, 1, 0
35, 0, 0
35, 33, 0
35, 7, 0
35, 3, 0
35, 27, 0
35, 8, 0
28, 3, 0
28, 4, 0
28, 22, 0
28, 29, 0
28, 18, 0
28, 6, 0
28, 24, 0
28, 11, 0
28, 12, 0
30, 34, 0
30, 31, 1
30, 29, 1
30, 18, 0
30, 24, 0
30, 22, 0
8, 0, 0
8, 7, 1
8, 12, 0
8, 18, 0
8, 6, 0
8, 5, 0
8, 11, 0
8, 27, 0
8, 20, 0
8, 33, 0
8, 32, 0
8, 35, 0
15, 33, 0
22, 28, 0
22, 3, 0
22, 16, 0
22, 29, 0
22, 10, 0
22, 34, 0
22, 4, 0
22, 9, 0
22, 32, 0
22, 24, 0
22, 21, 1
22, 19, 0
22, 1, 0
22, 18, 0
22, 30, 0
0, 7, 0
0, 27, 0
0, 8, 0
0, 3, 0
0, 35, 0
3, 0, 0
3, 20, 0
3, 17, 0
3, 32, 0
3, 33, 0
3, 18, 0
3, 6, 0
3, 35, 0
3, 5, 0
3, 11, 0
3, 1, 0
3, 7, 0
3, 12, 0
3, 29, 0
3, 4, 1
3, 27, 0
3, 24, 0
3, 2, 0
3, 28, 0
3, 10, 0
3, 22, 0
16, 9, 0
16, 24, 0
16, 21, 0
16, 19, 0
16, 1, 0
16, 22, 0
16, 10, 0
27, 20, 0
27, 0, 0
27, 7, 0
27, 3, 0
27, 35, 0
27, 33, 0
27, 8, 0
27, 5, 0
10, 7, 0
10, 3, 0
10, 16, 0
10, 24, 0
10, 21, 0
10, 29, 0
10, 19, 0
10, 34, 0
10, 18, 0
10, 22, 0
10, 9, 1
7, 0, 0
7, 2, 0
7, 17, 0
7, 12, 0
7, 18, 0
7, 27, 0
7, 35, 0
7, 5, 0
7, 11, 0
7, 1, 0
7, 20, 0
7, 3, 0
7, 29, 0
7, 32, 0
7, 6, 0
7, 33, 0
7, 8, 1
7, 10, 0
12, 7, 0
12, 3, 0
12, 4, 0
12, 28, 0
12, 32, 0
12, 29, 0
12, 18, 0
12, 6, 0
12, 8, 0
12, 11, 1
25, 13, 0
25, 14, 0
25, 26, 1
25, 23, 0
25, 2, 0
25, 18, 0
25, 17, 0
25, 1, 0
33, 7, 0
33, 3, 0
33, 35, 0
33, 27, 0
33, 8, 0
33, 15, 0
32, 20, 0
32, 12, 0
32, 18, 0
32, 6, 0
32, 5, 0
32, 11, 0
32, 7, 0
32, 3, 0
32, 4, 0
32, 24, 0
32, 8, 0
32, 22, 0
6, 7, 0
6, 3, 0
6, 4, 0
6, 28, 0
6, 32, 0
6, 12, 0
6, 18, 0
6, 29, 0
6, 8, 0
6, 5, 0
6, 11, 0
21, 34, 0
21, 13, 0
21, 1, 0
21, 24, 0
21, 16, 0
21, 19, 0
21, 10, 0
21, 22, 1
21, 9, 0
29, 28, 0
29, 34, 0
29, 18, 0
29, 6, 0
29, 12, 0
29, 7, 0
29, 3, 0
29, 31, 1
29, 24, 0
29, 30, 1
29, 10, 0
29, 22, 0
19, 34, 0
19, 16, 0
19, 17, 0
19, 2, 0
19, 21, 0
19, 1, 0
19, 24, 0
19, 18, 0
19, 22, 0
19, 10, 0
26, 25, 1
26, 13, 0
26, 17, 0
26, 23, 0
26, 2, 0
18, 13, 0
18, 28, 0
18, 31, 0
18, 34, 0
18, 1, 0
18, 6, 0
18, 8, 0
18, 24, 0
18, 11, 0
18, 12, 0
18, 7, 0
18, 3, 0
18, 4, 0
18, 25, 0
18, 32, 0
18, 29, 0
18, 19, 0
18, 30, 0
18, 10, 0
18, 22, 0
18, 9, 0
9, 21, 0
9, 13, 0
9, 24, 0
9, 16, 0
9, 1, 0
9, 18, 0
9, 22, 0
9, 10, 1
