0, 16, 0
0, 3, 0
0, 4, 0
13, 7, 0
13, 4, 0
13, 14, 0
13, 1, 0
13, 5, 0
13, 11, 0
13, 10, 0
17, 15, 0
3, 0, 0
3, 16, 0
16, 0, 0
16, 12, 0
16, 4, 0
16, 15, 0
16, 3, 0
6, 11, 0
6, 1, 0
8, 14, 0
8, 10, 0
5, 7, 0
5, 13, 0
5, 14, 0
5, 4, 0
5, 2, 0
11, 6, 0
11, 13, 0
11, 9, 0
11, 10, 0
11, 1, 0
10, 8, 0
10, 13, 0
10, 11, 0
10, 9, 0
7, 13, 0
7, 5, 0
7, 4, 0
12, 16, 0
12, 15, 0
4, 0, 0
4, 7, 0
4, 13, 0
4, 2, 0
4, 16, 0
4, 5, 0
14, 8, 0
14, 13, 0
14, 5, 0
14, 2, 0
2, 4, 0
2, 14, 0
2, 5, 0
1, 6, 0
1, 13, 0
1, 11, 0
15, 16, 0
15, 12, 0
15, 17, 0
9, 11, 0
9, 10, 0
