0, 7, 0
0, 15, 0
0, 5, 0
13, 12, 0
3, 7, 0
3, 6, 0
6, 7, 0
6, 3, 0
6, 9, 0
8, 9, 0
8, 10, 0
8, 11, 0
8, 1, 0
5, 0, 0
5, 7, 0
5, 15, 0
11, 1, 0
11, 8, 0
11, 9, 0
11, 10, 1
10, 1, 0
10, 8, 0
10, 11, 1
10, 9, 0
7, 0, 0
7, 6, 0
7, 5, 0
7, 3, 0
12, 13, 0
12, 4, 0
12, 2, 0
4, 12, 0
4, 2, 0
4, 1, 0
14, 15, 0
2, 12, 0
2, 4, 0
1, 8, 0
1, 4, 0
1, 11, 0
1, 10, 0
15, 0, 0
15, 14, 0
15, 5, 0
9, 6, 0
9, 8, 0
9, 11, 0
9, 10, 0
