0, 6, 0
0, 2, 0
0, 11, 0
0, 1, 0
13, 8, 0
13, 15, 0
3, 7, 0
3, 12, 0
6, 0, 0
6, 2, 0
6, 11, 0
6, 1, 0
8, 15, 0
8, 13, 0
8, 14, 0
8, 9, 0
8, 10, 0
5, 7, 0
5, 4, 1
5, 2, 0
11, 0, 0
11, 6, 0
11, 1, 0
11, 2, 0
10, 8, 0
10, 14, 0
10, 9, 0
7, 2, 0
7, 12, 0
7, 4, 0
7, 5, 0
7, 3, 0
12, 7, 0
12, 3, 0
4, 7, 0
4, 5, 1
4, 2, 0
14, 10, 0
14, 8, 0
14, 9, 0
14, 1, 0
2, 0, 0
2, 7, 0
2, 4, 0
2, 6, 0
2, 5, 0
2, 11, 0
1, 0, 0
1, 6, 0
1, 14, 0
1, 11, 0
1, 9, 0
15, 8, 0
15, 13, 0
9, 1, 0
9, 8, 0
9, 14, 0
9, 10, 0
