0, 3, 0
0, 8, 0
0, 6, 0
13, 7, 0
13, 12, 1
13, 8, 0
13, 6, 0
3, 0, 0
3, 6, 0
3, 4, 0
3, 5, 0
6, 0, 0
6, 3, 0
6, 4, 0
6, 13, 0
6, 7, 0
6, 5, 1
8, 0, 0
8, 12, 0
8, 13, 0
8, 7, 0
5, 6, 1
5, 4, 0
5, 3, 0
11, 2, 0
11, 10, 0
11, 1, 0
10, 2, 0
10, 9, 0
10, 11, 0
10, 1, 0
7, 12, 0
7, 8, 0
7, 13, 0
7, 9, 0
7, 6, 0
12, 7, 0
12, 8, 0
12, 13, 1
4, 6, 0
4, 5, 0
4, 3, 0
2, 10, 0
2, 11, 0
2, 1, 1
1, 10, 0
1, 11, 0
1, 2, 1
9, 7, 0
9, 10, 0
