58, 57, 0
58, 34, 0
58, 26, 0
58, 23, 0
58, 29, 0
58, 48, 0
58, 11, 0
58, 36, 0
13, 0, 0
13, 12, 1
13, 21, 0
13, 43, 0
13, 32, 0
13, 31, 0
13, 3, 0
13, 61, 0
13, 54, 0
13, 8, 0
13, 10, 0
17, 28, 0
17, 62, 0
17, 16, 0
17, 27, 0
17, 35, 0
17, 46, 0
17, 47, 0
17, 33, 0
17, 11, 0
17, 2, 0
17, 29, 0
17, 36, 0
17, 38, 0
17, 48, 0
17, 18, 0
17, 9, 0
23, 7, 0
23, 58, 0
23, 57, 0
23, 33, 0
23, 16, 0
23, 6, 0
23, 15, 0
23, 59, 0
23, 11, 0
23, 9, 0
63, 53, 0
63, 25, 0
63, 56, 0
63, 32, 0
63, 61, 0
63, 42, 0
63, 19, 0
63, 8, 0
63, 64, 0
63, 22, 0
63, 39, 0
42, 25, 0
42, 56, 0
42, 63, 0
42, 14, 0
42, 19, 0
42, 39, 0
42, 41, 1
46, 57, 0
46, 28, 0
46, 62, 0
46, 29, 0
46, 16, 0
46, 17, 0
46, 47, 0
20, 18, 0
20, 57, 0
20, 38, 0
20, 29, 0
34, 58, 0
34, 48, 0
34, 11, 0
34, 36, 0
14, 45, 0
14, 56, 0
14, 51, 0
14, 60, 0
14, 64, 0
14, 55, 0
14, 1, 0
14, 61, 0
14, 4, 0
14, 52, 0
14, 32, 0
14, 24, 0
14, 37, 0
14, 42, 0
14, 19, 0
14, 49, 0
14, 39, 0
14, 41, 0
14, 48, 0
24, 45, 0
24, 49, 0
24, 14, 0
24, 4, 0
24, 55, 0
24, 48, 0
24, 30, 0
28, 57, 0
28, 17, 0
28, 46, 0
28, 47, 0
28, 29, 0
15, 7, 0
15, 33, 0
15, 26, 0
15, 23, 0
15, 35, 0
15, 16, 0
15, 6, 0
15, 27, 0
15, 11, 0
15, 9, 0
41, 25, 0
41, 14, 0
41, 56, 0
41, 37, 0
41, 42, 1
41, 19, 0
41, 39, 0
0, 37, 0
0, 12, 0
0, 13, 0
0, 50, 0
0, 3, 0
0, 61, 0
0, 8, 0
0, 40, 0
0, 44, 0
0, 10, 0
37, 0, 0
37, 61, 0
37, 14, 0
37, 21, 0
37, 64, 0
37, 19, 0
37, 10, 0
37, 39, 0
37, 41, 0
37, 1, 0
38, 20, 0
38, 57, 0
38, 17, 0
38, 62, 0
38, 29, 0
38, 16, 0
38, 18, 0
62, 16, 0
62, 38, 0
62, 17, 0
62, 46, 0
62, 29, 0
51, 60, 0
51, 4, 0
51, 14, 0
51, 48, 0
33, 7, 0
33, 17, 0
33, 23, 0
33, 35, 0
33, 16, 0
33, 27, 0
33, 15, 0
33, 11, 0
33, 9, 0
39, 56, 0
39, 21, 0
39, 63, 0
39, 41, 0
39, 12, 0
39, 25, 0
39, 32, 0
39, 37, 0
39, 42, 0
39, 14, 0
39, 8, 0
39, 64, 0
39, 19, 0
39, 22, 0
54, 3, 0
54, 13, 0
54, 32, 0
54, 12, 0
54, 61, 0
54, 8, 0
54, 53, 0
54, 5, 0
47, 57, 0
47, 28, 0
47, 29, 0
47, 16, 0
47, 17, 0
47, 46, 0
10, 0, 0
10, 37, 0
10, 61, 0
10, 13, 0
10, 50, 0
10, 12, 0
10, 21, 0
10, 8, 0
10, 64, 0
7, 33, 0
7, 23, 0
7, 16, 0
7, 6, 1
7, 15, 0
7, 9, 0
3, 0, 0
3, 12, 0
3, 13, 0
3, 43, 0
3, 31, 0
3, 21, 0
3, 61, 0
3, 54, 0
3, 8, 0
3, 44, 0
53, 61, 0
53, 43, 0
53, 54, 0
53, 56, 0
53, 32, 0
53, 31, 0
53, 63, 0
53, 25, 0
53, 8, 0
53, 5, 0
32, 61, 0
32, 13, 0
32, 14, 0
32, 22, 0
32, 63, 0
32, 54, 0
32, 19, 0
32, 53, 0
32, 39, 0
32, 8, 0
32, 1, 0
2, 57, 0
2, 16, 0
2, 17, 0
2, 29, 0
2, 18, 0
2, 59, 0
21, 3, 0
21, 61, 0
21, 13, 0
21, 39, 0
21, 37, 0
21, 25, 0
21, 8, 0
21, 64, 0
21, 22, 1
21, 10, 0
25, 63, 0
25, 53, 0
25, 56, 0
25, 21, 0
25, 61, 0
25, 42, 0
25, 19, 0
25, 8, 0
25, 39, 0
25, 41, 0
25, 22, 0
19, 25, 0
19, 37, 0
19, 14, 0
19, 32, 0
19, 56, 0
19, 64, 0
19, 63, 0
19, 42, 0
19, 39, 0
19, 41, 0
19, 1, 0
49, 4, 0
49, 14, 0
49, 48, 0
49, 24, 0
48, 58, 0
48, 34, 0
48, 4, 0
48, 17, 0
48, 51, 0
48, 24, 0
48, 60, 0
48, 14, 0
48, 49, 0
48, 11, 0
48, 36, 0
31, 3, 0
31, 13, 0
31, 43, 0
31, 53, 0
31, 12, 0
31, 61, 0
31, 8, 0
31, 5, 0
45, 4, 0
45, 14, 0
45, 24, 0
45, 52, 0
45, 55, 0
45, 30, 0
60, 4, 0
60, 14, 0
60, 48, 0
60, 51, 0
59, 57, 0
59, 16, 0
59, 23, 0
59, 2, 0
29, 58, 0
29, 57, 0
29, 28, 0
29, 62, 0
29, 18, 0
29, 46, 0
29, 11, 0
29, 20, 0
29, 47, 0
29, 2, 0
29, 17, 0
29, 38, 0
40, 0, 0
40, 44, 0
11, 58, 0
11, 17, 0
11, 23, 0
11, 34, 0
11, 16, 0
11, 29, 0
11, 57, 0
11, 33, 0
11, 26, 0
11, 35, 0
11, 15, 0
11, 48, 0
11, 36, 0
5, 61, 0
5, 12, 0
5, 53, 0
5, 54, 0
5, 31, 0
61, 0, 0
61, 13, 0
61, 31, 0
61, 56, 0
61, 12, 0
61, 63, 0
61, 53, 0
61, 54, 0
61, 5, 0
61, 10, 0
61, 3, 0
61, 21, 0
61, 43, 0
61, 50, 0
61, 32, 0
61, 37, 0
61, 25, 0
61, 14, 0
61, 8, 0
61, 64, 0
4, 45, 0
4, 55, 0
4, 14, 0
4, 51, 0
4, 24, 0
4, 60, 0
4, 52, 0
4, 49, 0
4, 48, 0
4, 30, 0
35, 33, 0
35, 17, 0
35, 26, 0
35, 16, 0
35, 27, 0
35, 15, 0
35, 11, 0
35, 9, 0
8, 0, 0
8, 13, 0
8, 31, 0
8, 56, 0
8, 12, 0
8, 63, 0
8, 64, 0
8, 53, 0
8, 10, 0
8, 3, 0
8, 61, 0
8, 25, 0
8, 32, 0
8, 21, 0
8, 54, 0
8, 39, 0
8, 22, 0
30, 45, 0
30, 55, 0
30, 52, 0
30, 4, 0
30, 24, 0
64, 63, 0
64, 37, 0
64, 14, 0
64, 1, 0
64, 21, 0
64, 61, 0
64, 19, 0
64, 8, 0
64, 39, 0
64, 22, 0
64, 10, 0
22, 21, 1
22, 25, 0
22, 56, 0
22, 32, 0
22, 63, 0
22, 39, 0
22, 8, 0
22, 64, 0
36, 58, 0
36, 34, 0
36, 17, 0
36, 48, 0
36, 11, 0
57, 58, 0
57, 28, 0
57, 23, 0
57, 18, 0
57, 29, 0
57, 59, 0
57, 46, 0
57, 47, 0
57, 20, 0
57, 11, 0
57, 26, 0
57, 2, 0
57, 38, 0
57, 9, 0
56, 25, 0
56, 63, 0
56, 53, 0
56, 1, 0
56, 14, 0
56, 61, 0
56, 42, 0
56, 19, 0
56, 8, 0
56, 39, 0
56, 41, 0
56, 22, 0
16, 17, 0
16, 62, 0
16, 23, 0
16, 6, 0
16, 2, 0
16, 59, 0
16, 46, 0
16, 11, 0
16, 27, 0
16, 7, 0
16, 33, 0
16, 38, 0
16, 47, 0
16, 35, 0
16, 15, 0
16, 9, 0
27, 33, 0
27, 17, 0
27, 26, 1
27, 35, 0
27, 16, 0
27, 15, 0
27, 9, 0
1, 14, 0
1, 56, 0
1, 32, 0
1, 37, 0
1, 19, 0
1, 64, 0
55, 45, 0
55, 30, 0
55, 4, 0
55, 14, 0
55, 24, 0
44, 0, 0
44, 3, 0
44, 43, 0
44, 40, 0
12, 0, 0
12, 3, 0
12, 13, 1
12, 54, 0
12, 31, 0
12, 61, 0
12, 8, 0
12, 39, 0
12, 5, 0
12, 10, 0
18, 20, 0
18, 57, 0
18, 17, 0
18, 2, 0
18, 29, 0
18, 38, 0
52, 45, 0
52, 4, 0
52, 14, 0
52, 30, 0
50, 0, 0
50, 61, 0
50, 10, 0
26, 57, 0
26, 58, 0
26, 35, 0
26, 27, 1
26, 15, 0
26, 11, 0
26, 9, 0
6, 7, 1
6, 16, 0
6, 15, 0
6, 23, 0
6, 9, 0
43, 3, 0
43, 13, 0
43, 31, 0
43, 61, 0
43, 53, 0
43, 44, 0
9, 7, 0
9, 33, 0
9, 57, 0
9, 17, 0
9, 26, 0
9, 23, 0
9, 35, 0
9, 16, 0
9, 27, 0
9, 15, 0
9, 6, 0
