13, 12, 0
13, 4, 0
13, 14, 0
13, 31, 0
13, 32, 0
13, 29, 0
13, 19, 0
13, 15, 0
13, 11, 0
17, 0, 0
17, 8, 0
17, 14, 0
17, 26, 0
17, 29, 0
17, 27, 0
17, 30, 0
17, 1, 0
17, 24, 0
17, 11, 0
17, 9, 0
31, 16, 0
31, 12, 0
31, 13, 0
23, 20, 0
23, 12, 0
23, 4, 0
23, 14, 0
23, 32, 0
23, 21, 0
10, 0, 0
10, 12, 0
10, 28, 0
10, 26, 0
10, 6, 0
10, 27, 0
10, 14, 0
10, 8, 0
10, 22, 0
2, 3, 1
2, 25, 0
2, 21, 0
2, 8, 0
2, 5, 0
2, 22, 0
5, 3, 0
5, 25, 0
5, 32, 0
5, 2, 0
5, 21, 0
5, 6, 0
5, 8, 0
5, 22, 0
11, 0, 0
11, 13, 0
11, 14, 0
11, 29, 0
11, 17, 0
11, 24, 0
11, 15, 0
11, 1, 0
1, 0, 1
1, 12, 0
1, 14, 0
1, 29, 0
1, 17, 0
1, 24, 0
1, 11, 0
1, 9, 0
20, 12, 0
20, 4, 0
20, 14, 0
20, 32, 0
20, 23, 0
20, 21, 0
20, 8, 0
4, 20, 0
4, 12, 0
4, 13, 0
4, 14, 0
4, 32, 0
4, 23, 0
4, 21, 0
4, 15, 0
14, 13, 0
14, 17, 0
14, 26, 0
14, 23, 0
14, 29, 0
14, 11, 0
14, 1, 0
14, 20, 0
14, 4, 0
14, 24, 0
14, 28, 0
14, 30, 0
14, 8, 0
14, 15, 0
14, 22, 0
14, 0, 0
14, 6, 0
14, 10, 0
14, 12, 0
14, 32, 0
14, 27, 0
14, 21, 0
14, 19, 0
14, 9, 0
24, 14, 0
24, 26, 0
24, 29, 0
24, 27, 0
24, 30, 0
24, 9, 0
24, 17, 0
24, 11, 0
24, 1, 0
28, 0, 0
28, 14, 0
28, 9, 0
28, 26, 0
28, 27, 0
28, 10, 0
28, 22, 0
28, 30, 0
30, 0, 0
30, 28, 0
30, 26, 0
30, 24, 0
30, 14, 0
30, 27, 0
30, 29, 0
30, 17, 0
30, 22, 0
30, 9, 0
8, 0, 0
8, 17, 0
8, 26, 0
8, 6, 0
8, 5, 0
8, 10, 0
8, 20, 0
8, 12, 0
8, 25, 0
8, 32, 0
8, 2, 0
8, 21, 0
8, 14, 0
8, 22, 0
8, 9, 0
15, 12, 0
15, 4, 0
15, 13, 0
15, 32, 0
15, 29, 0
15, 14, 0
15, 19, 0
15, 11, 0
22, 28, 0
22, 27, 0
22, 2, 0
22, 5, 0
22, 30, 0
22, 3, 0
22, 25, 0
22, 26, 0
22, 6, 0
22, 14, 0
22, 8, 0
22, 10, 0
0, 6, 0
0, 8, 0
0, 28, 0
0, 27, 0
0, 11, 0
0, 30, 0
0, 12, 0
0, 14, 0
0, 26, 0
0, 29, 0
0, 17, 0
0, 1, 1
0, 10, 0
0, 9, 0
12, 0, 0
12, 7, 0
12, 6, 0
12, 13, 0
12, 31, 0
12, 23, 0
12, 16, 0
12, 27, 0
12, 1, 0
12, 20, 0
12, 18, 0
12, 4, 0
12, 14, 0
12, 32, 0
12, 29, 0
12, 26, 0
12, 19, 0
12, 8, 0
12, 15, 0
12, 10, 0
12, 9, 0
16, 18, 0
16, 12, 0
16, 7, 0
16, 31, 0
6, 0, 0
6, 12, 0
6, 25, 0
6, 9, 0
6, 26, 0
6, 3, 0
6, 14, 0
6, 8, 0
6, 5, 0
6, 22, 0
6, 10, 0
27, 0, 0
27, 12, 0
27, 28, 0
27, 9, 0
27, 26, 1
27, 24, 0
27, 14, 0
27, 10, 0
27, 17, 0
27, 22, 0
27, 30, 0
7, 16, 0
7, 12, 0
7, 18, 0
3, 6, 0
3, 25, 0
3, 5, 0
3, 22, 0
3, 2, 1
25, 3, 0
25, 2, 0
25, 6, 0
25, 8, 0
25, 5, 0
25, 22, 0
32, 20, 0
32, 12, 0
32, 4, 0
32, 14, 0
32, 23, 0
32, 21, 0
32, 19, 0
32, 8, 0
32, 15, 0
32, 5, 0
32, 13, 0
29, 0, 0
29, 13, 0
29, 17, 0
29, 11, 0
29, 30, 0
29, 12, 0
29, 14, 0
29, 26, 0
29, 24, 0
29, 19, 0
29, 1, 0
29, 15, 0
21, 20, 0
21, 4, 0
21, 14, 0
21, 32, 0
21, 23, 0
21, 2, 0
21, 8, 0
21, 5, 0
26, 0, 0
26, 28, 0
26, 6, 0
26, 24, 0
26, 30, 0
26, 12, 0
26, 14, 0
26, 27, 1
26, 29, 0
26, 17, 0
26, 8, 0
26, 10, 0
26, 22, 0
26, 9, 0
19, 12, 0
19, 13, 0
19, 14, 0
19, 32, 0
19, 29, 0
19, 15, 0
18, 16, 0
18, 12, 0
18, 7, 0
9, 0, 0
9, 8, 0
9, 28, 0
9, 27, 0
9, 24, 0
9, 30, 0
9, 12, 0
9, 14, 0
9, 26, 0
9, 6, 0
9, 17, 0
9, 1, 0
