13, 16, 0
13, 20, 0
13, 4, 0
13, 24, 0
13, 9, 0
17, 27, 0
17, 15, 0
23, 20, 0
23, 8, 0
23, 24, 0
2, 3, 0
2, 25, 0
2, 18, 0
2, 6, 0
2, 10, 0
2, 1, 0
5, 7, 0
5, 10, 0
11, 0, 0
11, 27, 0
11, 16, 0
1, 3, 0
1, 25, 0
1, 2, 0
1, 18, 0
1, 6, 0
1, 10, 0
20, 4, 0
20, 13, 0
20, 23, 0
20, 24, 0
20, 16, 0
20, 9, 0
4, 20, 0
4, 27, 0
4, 13, 0
4, 9, 0
14, 0, 0
14, 16, 0
14, 27, 0
24, 20, 0
24, 13, 0
24, 23, 0
8, 12, 0
8, 19, 0
8, 23, 0
15, 27, 0
15, 17, 0
22, 3, 0
22, 19, 0
22, 26, 0
0, 16, 0
0, 14, 0
0, 11, 0
3, 18, 0
3, 26, 0
3, 2, 0
3, 21, 0
3, 19, 0
3, 22, 0
3, 1, 0
16, 20, 0
16, 0, 0
16, 13, 0
16, 14, 0
16, 27, 0
16, 11, 0
16, 9, 0
6, 2, 0
6, 10, 0
6, 1, 0
10, 7, 0
10, 25, 0
10, 2, 0
10, 6, 0
10, 5, 0
10, 1, 0
7, 5, 0
7, 10, 0
12, 19, 0
12, 8, 0
25, 18, 0
25, 2, 0
25, 10, 0
25, 1, 0
26, 21, 0
26, 3, 0
26, 19, 0
26, 22, 0
27, 4, 0
27, 14, 0
27, 16, 0
27, 17, 0
27, 15, 0
27, 11, 0
21, 3, 0
21, 19, 0
21, 26, 0
19, 12, 0
19, 26, 0
19, 3, 0
19, 21, 0
19, 8, 0
19, 22, 0
18, 3, 0
18, 2, 0
18, 25, 0
18, 1, 0
9, 20, 0
9, 16, 0
9, 13, 0
9, 4, 0
