13, 12, 1
13, 15, 0
13, 23, 0
13, 9, 0
17, 15, 0
17, 5, 0
23, 12, 0
23, 13, 0
23, 15, 0
23, 9, 0
2, 0, 0
2, 14, 0
2, 26, 0
2, 6, 0
2, 19, 0
2, 22, 0
2, 1, 0
5, 3, 0
5, 4, 0
5, 25, 0
5, 24, 0
5, 18, 0
5, 17, 0
5, 15, 0
5, 11, 0
5, 10, 0
11, 3, 0
11, 4, 0
11, 25, 0
11, 24, 0
11, 15, 0
11, 5, 0
11, 10, 1
1, 0, 1
1, 20, 0
1, 14, 0
1, 26, 0
1, 2, 0
1, 6, 0
1, 19, 0
1, 8, 0
1, 25, 0
1, 22, 0
20, 0, 0
20, 25, 0
20, 18, 0
20, 6, 0
20, 14, 0
20, 19, 1
20, 1, 0
4, 3, 1
4, 25, 0
4, 24, 0
4, 18, 0
4, 5, 0
4, 11, 0
4, 10, 0
14, 20, 0
14, 0, 0
14, 2, 0
14, 18, 0
14, 6, 0
14, 19, 0
14, 22, 0
14, 1, 0
24, 3, 0
24, 4, 0
24, 25, 1
24, 18, 0
24, 5, 0
24, 11, 0
24, 10, 0
8, 7, 1
8, 21, 0
8, 26, 0
8, 6, 0
8, 16, 0
8, 27, 0
8, 22, 0
8, 1, 0
15, 12, 0
15, 13, 0
15, 25, 0
15, 23, 0
15, 17, 0
15, 5, 0
15, 11, 0
22, 0, 0
22, 16, 0
22, 14, 0
22, 26, 0
22, 2, 0
22, 21, 1
22, 6, 0
22, 8, 0
22, 1, 0
0, 20, 0
0, 14, 0
0, 2, 0
0, 18, 0
0, 6, 0
0, 19, 0
0, 22, 0
0, 1, 1
3, 4, 1
3, 25, 0
3, 24, 0
3, 18, 0
3, 5, 0
3, 11, 0
3, 10, 0
16, 26, 0
16, 27, 0
16, 21, 0
16, 6, 0
16, 8, 0
16, 22, 0
6, 0, 0
6, 16, 0
6, 27, 0
6, 1, 0
6, 20, 0
6, 18, 0
6, 14, 0
6, 26, 0
6, 2, 0
6, 21, 0
6, 19, 0
6, 8, 0
6, 22, 0
10, 3, 0
10, 4, 0
10, 25, 0
10, 24, 0
10, 18, 0
10, 5, 0
10, 11, 1
7, 27, 0
7, 8, 1
7, 26, 0
12, 13, 1
12, 15, 0
12, 23, 0
12, 9, 0
25, 20, 0
25, 3, 0
25, 4, 0
25, 24, 1
25, 18, 0
25, 1, 0
25, 15, 0
25, 5, 0
25, 11, 0
25, 10, 0
26, 7, 0
26, 21, 0
26, 27, 0
26, 16, 0
26, 6, 0
26, 2, 0
26, 8, 0
26, 22, 0
26, 1, 0
27, 7, 0
27, 21, 0
27, 26, 0
27, 16, 0
27, 6, 0
27, 8, 0
21, 26, 0
21, 27, 0
21, 16, 0
21, 6, 0
21, 8, 0
21, 22, 1
19, 20, 1
19, 0, 0
19, 14, 0
19, 2, 0
19, 18, 0
19, 6, 0
19, 1, 0
18, 20, 0
18, 0, 0
18, 4, 0
18, 14, 0
18, 3, 0
18, 6, 0
18, 19, 0
18, 24, 0
18, 25, 0
18, 5, 0
18, 10, 0
9, 12, 0
9, 13, 0
9, 23, 0
