13, 21, 0
13, 31, 0
13, 26, 0
13, 18, 0
13, 5, 0
13, 36, 0
17, 7, 0
17, 43, 0
17, 23, 0
17, 42, 0
17, 14, 0
17, 36, 0
23, 14, 0
23, 42, 0
23, 43, 0
23, 19, 0
23, 17, 0
23, 9, 0
42, 7, 0
42, 14, 0
42, 23, 0
42, 18, 0
42, 17, 0
42, 38, 0
42, 36, 0
5, 13, 0
5, 25, 0
20, 27, 0
20, 8, 0
14, 0, 0
14, 17, 0
14, 23, 0
14, 24, 0
14, 38, 0
14, 19, 0
14, 39, 0
14, 42, 0
14, 27, 0
24, 38, 0
24, 19, 0
24, 14, 0
28, 21, 0
28, 3, 0
28, 22, 0
28, 29, 0
39, 0, 0
39, 14, 0
39, 37, 0
39, 1, 0
39, 11, 0
39, 10, 0
41, 0, 0
41, 19, 0
41, 11, 0
41, 10, 0
0, 14, 0
0, 37, 0
0, 27, 0
0, 19, 0
0, 39, 0
0, 41, 0
0, 1, 0
8, 20, 0
8, 30, 0
12, 34, 0
12, 30, 0
15, 33, 0
15, 35, 0
15, 40, 0
15, 32, 0
15, 2, 0
10, 35, 0
10, 37, 0
10, 19, 0
10, 39, 0
10, 41, 0
10, 11, 1
10, 1, 0
7, 42, 0
7, 25, 0
7, 17, 0
7, 36, 0
3, 21, 0
3, 4, 0
3, 28, 0
3, 22, 0
3, 29, 0
32, 40, 0
32, 33, 1
32, 2, 0
32, 15, 0
32, 35, 0
2, 40, 0
2, 33, 0
2, 15, 0
2, 32, 0
2, 35, 0
21, 18, 0
21, 3, 0
21, 13, 0
21, 28, 0
21, 31, 0
33, 40, 0
33, 2, 0
33, 15, 0
33, 32, 1
33, 35, 0
19, 0, 0
19, 14, 0
19, 23, 0
19, 24, 0
19, 37, 0
19, 41, 0
19, 10, 0
18, 21, 0
18, 42, 0
18, 13, 0
18, 31, 0
18, 36, 0
31, 18, 0
31, 21, 0
31, 13, 0
31, 26, 0
29, 3, 0
29, 4, 0
29, 28, 0
29, 22, 0
40, 33, 0
40, 35, 0
40, 15, 0
40, 32, 0
40, 2, 0
11, 39, 0
11, 41, 0
11, 10, 1
1, 0, 0
1, 37, 0
1, 39, 0
1, 10, 0
37, 0, 0
37, 27, 0
37, 19, 0
37, 10, 0
37, 39, 0
37, 1, 0
4, 3, 0
4, 22, 0
4, 29, 0
35, 40, 0
35, 33, 0
35, 32, 0
35, 2, 0
35, 16, 0
35, 6, 0
35, 15, 0
35, 10, 0
30, 12, 0
30, 8, 0
38, 42, 0
38, 9, 0
38, 14, 0
38, 24, 0
22, 3, 0
22, 4, 0
22, 28, 0
22, 29, 0
36, 7, 0
36, 13, 0
36, 17, 0
36, 42, 0
36, 18, 0
36, 25, 0
16, 6, 0
16, 34, 0
16, 35, 0
27, 20, 0
27, 0, 0
27, 37, 0
27, 14, 0
34, 16, 0
34, 12, 0
34, 6, 0
25, 7, 0
25, 5, 0
25, 36, 0
26, 13, 0
26, 31, 0
6, 16, 0
6, 34, 0
6, 35, 0
43, 17, 0
43, 23, 0
9, 38, 0
9, 23, 0
