0, 7, 0
0, 6, 0
0, 14, 0
0, 5, 0
0, 2, 0
13, 12, 0
3, 7, 0
3, 2, 0
3, 1, 0
6, 0, 0
6, 14, 0
6, 5, 1
8, 12, 0
8, 11, 0
5, 0, 0
5, 6, 1
5, 14, 0
11, 8, 0
11, 4, 0
11, 9, 0
10, 4, 0
10, 14, 0
10, 9, 0
7, 0, 0
7, 3, 0
7, 2, 0
7, 1, 0
12, 8, 0
12, 13, 0
4, 9, 0
4, 14, 0
4, 11, 0
4, 10, 0
14, 0, 0
14, 6, 0
14, 4, 0
14, 5, 0
14, 10, 0
2, 7, 0
2, 3, 0
2, 0, 0
2, 1, 1
1, 7, 0
1, 3, 0
1, 2, 1
9, 4, 0
9, 11, 0
9, 10, 0
