13, 21, 0
13, 0, 0
13, 16, 0
17, 20, 0
17, 10, 0
23, 16, 0
23, 15, 0
23, 11, 0
23, 22, 0
23, 2, 0
5, 8, 0
5, 15, 0
5, 2, 0
11, 15, 0
11, 22, 0
11, 23, 0
11, 2, 0
1, 0, 0
1, 6, 0
20, 19, 0
20, 17, 0
20, 10, 0
4, 3, 1
4, 8, 0
4, 14, 0
14, 3, 0
14, 8, 0
14, 4, 0
24, 7, 0
24, 12, 0
24, 6, 0
24, 18, 0
24, 9, 0
8, 3, 0
8, 4, 0
8, 14, 0
8, 5, 0
15, 23, 0
15, 5, 0
15, 11, 0
15, 2, 0
22, 16, 0
22, 11, 0
22, 23, 0
22, 2, 0
0, 13, 0
0, 1, 0
3, 8, 0
3, 14, 0
3, 4, 1
16, 21, 0
16, 13, 0
16, 25, 0
16, 22, 0
16, 23, 0
6, 12, 0
6, 24, 0
6, 1, 0
10, 20, 0
10, 18, 0
10, 19, 0
10, 7, 0
10, 17, 0
7, 18, 0
7, 12, 0
7, 24, 0
7, 9, 0
7, 10, 0
12, 7, 0
12, 6, 0
12, 9, 0
12, 24, 0
25, 16, 0
25, 21, 0
2, 11, 0
2, 15, 0
2, 22, 0
2, 23, 0
2, 5, 0
21, 16, 0
21, 13, 0
21, 25, 0
19, 20, 0
19, 10, 0
18, 7, 0
18, 24, 0
18, 10, 0
18, 9, 0
9, 7, 0
9, 12, 0
9, 18, 0
9, 24, 0
