12, 22, 0
12, 11, 1
13, 0, 0
13, 8, 0
13, 29, 0
17, 20, 0
17, 7, 0
17, 28, 0
17, 22, 0
17, 26, 0
17, 16, 1
17, 27, 0
17, 8, 0
17, 11, 0
17, 1, 0
26, 7, 0
26, 28, 0
26, 8, 0
26, 17, 0
26, 31, 0
23, 7, 0
23, 28, 0
23, 22, 1
2, 21, 0
2, 25, 0
2, 4, 0
2, 28, 0
2, 24, 0
5, 21, 0
5, 6, 1
5, 4, 0
5, 9, 0
11, 12, 1
11, 28, 0
11, 17, 0
11, 8, 0
11, 22, 0
11, 1, 0
1, 20, 0
1, 17, 0
1, 16, 0
1, 28, 0
1, 15, 0
1, 11, 0
20, 0, 0
20, 17, 0
20, 16, 0
20, 28, 0
20, 8, 0
20, 15, 0
20, 1, 0
4, 6, 0
4, 28, 0
4, 27, 0
4, 2, 0
4, 21, 0
4, 25, 0
4, 8, 0
4, 5, 0
4, 9, 0
14, 3, 0
14, 19, 0
14, 30, 0
24, 28, 0
24, 25, 0
24, 2, 0
28, 17, 0
28, 31, 0
28, 23, 0
28, 2, 0
28, 11, 0
28, 1, 0
28, 20, 0
28, 4, 0
28, 24, 0
28, 30, 0
28, 22, 0
28, 0, 0
28, 8, 0
28, 16, 0
28, 27, 0
28, 7, 0
28, 18, 0
28, 25, 0
28, 26, 0
28, 6, 0
28, 21, 0
28, 9, 0
30, 3, 0
30, 14, 0
30, 6, 0
30, 18, 0
30, 28, 0
30, 19, 0
30, 9, 0
30, 10, 0
8, 0, 0
8, 7, 0
8, 6, 0
8, 13, 0
8, 17, 0
8, 31, 0
8, 16, 0
8, 27, 0
8, 11, 0
8, 20, 0
8, 4, 0
8, 26, 0
8, 29, 0
8, 28, 0
8, 15, 0
8, 22, 0
15, 20, 0
15, 16, 1
15, 8, 0
15, 1, 0
22, 7, 0
22, 12, 0
22, 28, 0
22, 23, 1
22, 17, 0
22, 8, 0
22, 11, 0
0, 20, 0
0, 8, 0
0, 28, 0
0, 13, 0
3, 14, 0
3, 9, 0
3, 6, 0
3, 19, 0
3, 30, 0
3, 10, 0
16, 20, 0
16, 28, 0
16, 27, 0
16, 8, 0
16, 15, 1
16, 17, 1
16, 1, 0
6, 3, 0
6, 4, 0
6, 28, 0
6, 9, 0
6, 21, 0
6, 19, 0
6, 8, 0
6, 5, 1
6, 18, 0
6, 30, 0
27, 4, 0
27, 25, 0
27, 31, 0
27, 16, 0
27, 28, 0
27, 8, 0
27, 17, 0
7, 28, 0
7, 26, 0
7, 23, 0
7, 17, 0
7, 8, 0
7, 22, 0
18, 6, 0
18, 19, 0
18, 28, 0
18, 30, 0
25, 2, 0
25, 27, 0
25, 4, 0
25, 28, 0
25, 24, 0
31, 27, 0
31, 8, 0
31, 28, 0
31, 26, 0
29, 8, 0
29, 13, 0
21, 4, 0
21, 28, 0
21, 2, 0
21, 6, 0
21, 5, 0
21, 9, 0
19, 3, 0
19, 14, 0
19, 18, 0
19, 6, 0
19, 30, 0
19, 9, 0
10, 3, 0
10, 9, 0
10, 30, 0
9, 3, 0
9, 4, 0
9, 28, 0
9, 21, 0
9, 6, 0
9, 19, 0
9, 10, 0
9, 5, 0
9, 30, 0
