12, 42, 0
12, 15, 0
12, 14, 0
12, 26, 0
13, 7, 0
13, 34, 0
13, 17, 0
13, 23, 0
13, 35, 0
13, 16, 0
13, 42, 0
13, 38, 0
13, 18, 0
13, 1, 0
17, 7, 0
17, 18, 1
17, 13, 0
17, 34, 0
17, 16, 1
17, 42, 0
17, 38, 0
17, 1, 0
31, 20, 0
31, 34, 0
31, 38, 0
31, 21, 0
31, 39, 0
31, 19, 0
31, 1, 0
31, 40, 0
31, 5, 0
31, 22, 0
31, 10, 0
23, 40, 0
23, 13, 0
23, 32, 0
23, 6, 0
23, 38, 0
23, 22, 1
23, 10, 0
24, 3, 0
24, 4, 0
24, 25, 1
24, 41, 0
40, 31, 0
40, 23, 0
40, 21, 0
40, 39, 0
40, 10, 0
40, 38, 0
40, 22, 0
40, 1, 0
5, 20, 0
5, 28, 0
5, 31, 0
5, 32, 0
5, 29, 0
5, 37, 0
5, 19, 0
5, 8, 0
5, 30, 0
5, 36, 0
11, 14, 0
11, 15, 0
11, 26, 0
11, 2, 0
30, 33, 0
30, 32, 0
30, 29, 1
30, 36, 0
30, 8, 0
30, 5, 0
30, 9, 0
20, 19, 1
20, 5, 0
20, 31, 0
21, 40, 0
21, 31, 0
21, 38, 0
21, 39, 0
21, 22, 1
21, 10, 0
4, 3, 1
4, 25, 0
4, 41, 0
4, 24, 0
14, 12, 0
14, 26, 0
14, 2, 0
14, 42, 0
14, 15, 0
14, 11, 0
35, 34, 1
35, 13, 0
35, 38, 0
35, 42, 0
42, 13, 0
42, 17, 0
42, 12, 0
42, 16, 0
42, 38, 0
42, 1, 0
42, 34, 0
42, 14, 0
42, 26, 0
42, 35, 0
42, 39, 0
42, 18, 0
1, 7, 0
1, 34, 0
1, 38, 0
1, 13, 0
1, 17, 0
1, 31, 0
1, 16, 0
1, 42, 0
1, 39, 0
1, 40, 0
1, 18, 0
15, 12, 0
15, 14, 0
15, 26, 0
15, 11, 0
15, 2, 0
41, 0, 0
41, 3, 0
41, 6, 0
41, 4, 0
41, 25, 0
41, 33, 0
41, 27, 0
41, 8, 0
41, 24, 0
41, 36, 0
22, 23, 1
22, 31, 0
22, 21, 1
22, 38, 0
22, 40, 0
22, 10, 0
36, 41, 0
36, 33, 0
36, 28, 0
36, 9, 0
36, 32, 0
36, 29, 0
36, 37, 1
36, 8, 0
36, 5, 0
36, 30, 0
0, 6, 0
0, 8, 0
0, 41, 0
7, 34, 0
7, 13, 0
7, 17, 0
7, 16, 0
7, 38, 0
7, 18, 0
7, 1, 0
6, 0, 0
6, 27, 0
6, 8, 0
6, 41, 0
6, 23, 0
8, 0, 0
8, 28, 0
8, 6, 0
8, 36, 0
8, 5, 0
8, 27, 0
8, 33, 0
8, 32, 0
8, 29, 0
8, 30, 0
8, 41, 0
8, 9, 0
38, 13, 0
38, 17, 0
38, 26, 0
38, 23, 0
38, 16, 0
38, 40, 0
38, 10, 0
38, 7, 0
38, 34, 0
38, 31, 0
38, 35, 0
38, 21, 0
38, 42, 0
38, 1, 0
38, 39, 1
38, 18, 0
38, 22, 0
3, 4, 1
3, 25, 0
3, 41, 0
3, 24, 0
16, 7, 0
16, 34, 0
16, 13, 0
16, 17, 1
16, 42, 0
16, 38, 0
16, 1, 0
39, 40, 0
39, 34, 0
39, 31, 0
39, 21, 0
39, 42, 0
39, 10, 0
39, 38, 1
39, 1, 0
18, 7, 0
18, 34, 0
18, 13, 0
18, 17, 1
18, 42, 0
18, 38, 0
18, 1, 0
27, 33, 0
27, 32, 0
27, 6, 0
27, 8, 0
27, 41, 0
27, 9, 0
28, 33, 0
28, 9, 0
28, 32, 0
28, 29, 1
28, 8, 0
28, 5, 0
28, 36, 0
34, 7, 0
34, 18, 0
34, 38, 0
34, 13, 0
34, 17, 0
34, 31, 0
34, 35, 1
34, 16, 0
34, 42, 0
34, 39, 0
34, 1, 0
25, 3, 0
25, 4, 0
25, 41, 0
25, 24, 1
33, 28, 0
33, 9, 0
33, 32, 0
33, 29, 0
33, 27, 0
33, 30, 0
33, 8, 0
33, 41, 0
33, 36, 0
32, 33, 0
32, 8, 0
32, 28, 0
32, 23, 0
32, 29, 0
32, 37, 0
32, 27, 0
32, 30, 0
32, 36, 0
32, 5, 0
32, 9, 0
2, 14, 0
2, 15, 0
2, 26, 0
2, 11, 0
37, 5, 0
37, 32, 0
37, 36, 1
29, 33, 0
29, 28, 1
29, 9, 0
29, 32, 0
29, 30, 1
29, 8, 0
29, 5, 0
29, 36, 0
19, 20, 1
19, 5, 0
19, 31, 0
26, 12, 0
26, 14, 0
26, 2, 0
26, 42, 0
26, 15, 0
26, 38, 0
26, 11, 0
10, 38, 0
10, 31, 0
10, 23, 0
10, 21, 0
10, 40, 0
10, 39, 0
10, 22, 0
9, 33, 0
9, 28, 0
9, 32, 0
9, 29, 0
9, 27, 0
9, 30, 0
9, 8, 0
9, 36, 0
