13, 7, 0
13, 23, 0
13, 21, 0
13, 8, 0
13, 5, 0
13, 22, 0
13, 1, 0
17, 9, 0
17, 25, 0
17, 22, 0
17, 24, 0
17, 16, 1
17, 8, 0
17, 5, 0
17, 11, 0
17, 10, 0
23, 7, 0
23, 13, 0
23, 18, 0
23, 27, 0
23, 20, 0
23, 12, 0
23, 14, 0
23, 26, 0
23, 19, 0
23, 8, 0
23, 15, 0
23, 22, 1
2, 0, 0
2, 3, 0
2, 4, 0
2, 25, 0
2, 12, 0
2, 16, 0
2, 6, 0
2, 9, 0
2, 5, 0
2, 11, 0
2, 10, 0
5, 13, 0
5, 17, 0
5, 3, 0
5, 16, 0
5, 6, 1
5, 24, 0
5, 11, 0
5, 10, 0
5, 7, 0
5, 12, 0
5, 4, 0
5, 25, 0
5, 2, 0
5, 8, 0
5, 15, 0
5, 18, 0
5, 9, 0
11, 0, 0
11, 3, 0
11, 21, 0
11, 25, 0
11, 9, 0
11, 24, 0
11, 16, 0
11, 17, 0
11, 2, 0
11, 5, 0
11, 10, 0
1, 21, 0
1, 13, 0
20, 27, 0
20, 19, 1
20, 8, 0
20, 22, 0
20, 23, 0
4, 3, 1
4, 2, 0
4, 18, 0
4, 6, 0
4, 5, 0
4, 9, 0
14, 7, 0
14, 19, 0
14, 15, 0
14, 23, 0
24, 3, 0
24, 17, 0
24, 25, 1
24, 9, 0
24, 16, 0
24, 6, 0
24, 8, 0
24, 5, 0
24, 11, 0
24, 10, 0
8, 16, 0
8, 13, 0
8, 17, 0
8, 23, 0
8, 18, 0
8, 6, 0
8, 5, 0
8, 10, 0
8, 7, 0
8, 12, 0
8, 25, 0
8, 24, 0
8, 20, 0
8, 15, 0
8, 19, 0
8, 22, 0
8, 9, 0
15, 0, 0
15, 23, 0
15, 18, 0
15, 27, 0
15, 5, 0
15, 14, 0
15, 26, 0
15, 21, 0
15, 19, 0
15, 8, 0
15, 22, 0
15, 9, 0
22, 7, 0
22, 13, 0
22, 17, 0
22, 23, 1
22, 18, 0
22, 27, 0
22, 20, 0
22, 12, 0
22, 25, 0
22, 19, 0
22, 8, 0
22, 15, 0
0, 7, 0
0, 12, 0
0, 21, 0
0, 2, 0
0, 18, 0
0, 15, 0
0, 11, 0
0, 10, 0
3, 12, 0
3, 4, 1
3, 24, 0
3, 18, 0
3, 6, 0
3, 2, 0
3, 5, 0
3, 11, 0
3, 9, 0
16, 12, 0
16, 8, 0
16, 25, 0
16, 2, 0
16, 17, 1
16, 24, 0
16, 5, 0
16, 11, 0
16, 10, 0
6, 3, 0
6, 4, 0
6, 25, 0
6, 9, 0
6, 24, 0
6, 18, 0
6, 2, 0
6, 8, 0
6, 5, 1
6, 12, 0
10, 0, 0
10, 17, 0
10, 16, 0
10, 24, 0
10, 5, 0
10, 11, 0
10, 12, 0
10, 25, 0
10, 2, 0
10, 21, 0
10, 8, 0
10, 9, 0
7, 0, 0
7, 13, 0
7, 14, 0
7, 23, 0
7, 21, 0
7, 19, 0
7, 8, 0
7, 5, 0
7, 22, 0
7, 9, 0
12, 0, 0
12, 23, 0
12, 16, 0
12, 6, 0
12, 5, 0
12, 10, 0
12, 3, 0
12, 25, 0
12, 2, 0
12, 21, 0
12, 19, 0
12, 8, 0
12, 18, 0
12, 22, 0
12, 9, 0
25, 17, 0
25, 16, 0
25, 6, 0
25, 24, 1
25, 5, 0
25, 11, 0
25, 10, 0
25, 12, 0
25, 2, 0
25, 8, 0
25, 22, 0
25, 9, 0
26, 18, 0
26, 27, 1
26, 15, 0
26, 23, 0
26, 21, 0
27, 20, 0
27, 23, 0
27, 26, 1
27, 18, 0
27, 19, 0
27, 15, 0
27, 22, 0
21, 0, 0
21, 12, 0
21, 7, 0
21, 13, 0
21, 26, 0
21, 18, 0
21, 10, 0
21, 15, 0
21, 11, 0
21, 1, 0
19, 20, 1
19, 12, 0
19, 7, 0
19, 14, 0
19, 23, 0
19, 18, 0
19, 27, 0
19, 8, 0
19, 15, 0
19, 22, 0
18, 0, 0
18, 23, 0
18, 12, 0
18, 6, 0
18, 5, 0
18, 3, 0
18, 4, 0
18, 26, 0
18, 27, 0
18, 21, 0
18, 19, 0
18, 8, 0
18, 15, 0
18, 22, 0
18, 9, 0
9, 17, 0
9, 12, 0
9, 18, 0
9, 6, 0
9, 2, 0
9, 5, 0
9, 11, 0
9, 10, 0
9, 7, 0
9, 3, 0
9, 4, 0
9, 25, 0
9, 24, 0
9, 8, 0
9, 15, 0
