0, 6, 0
0, 3, 0
0, 1, 0
3, 0, 0
3, 6, 0
4, 7, 0
4, 8, 0
4, 5, 0
7, 8, 0
7, 5, 0
7, 4, 0
7, 1, 0
2, 8, 0
2, 5, 0
6, 0, 0
6, 3, 0
8, 7, 0
8, 4, 0
8, 5, 0
8, 2, 0
5, 7, 0
5, 8, 0
5, 4, 0
5, 2, 0
1, 0, 0
1, 7, 0
