0, 7, 0
0, 3, 0
0, 11, 0
0, 9, 0
8, 3, 0
8, 11, 0
3, 0, 0
3, 8, 0
3, 11, 0
6, 7, 0
6, 1, 0
5, 12, 0
5, 4, 0
5, 2, 0
11, 0, 0
11, 3, 0
11, 8, 0
10, 4, 0
10, 2, 0
7, 0, 0
7, 6, 0
7, 9, 0
12, 4, 0
12, 5, 0
12, 1, 0
4, 12, 0
4, 2, 0
4, 5, 0
4, 10, 0
2, 1, 0
2, 4, 0
2, 5, 0
2, 10, 0
1, 12, 0
1, 2, 0
1, 6, 0
9, 0, 0
9, 7, 0
