0, 7, 0
0, 6, 0
0, 5, 0
0, 9, 0
6, 0, 0
6, 3, 0
6, 2, 0
1, 8, 0
5, 0, 0
5, 7, 0
5, 11, 0
5, 9, 0
11, 7, 0
11, 5, 0
11, 9, 0
10, 7, 0
10, 9, 0
7, 0, 0
7, 3, 0
7, 10, 0
7, 8, 0
7, 5, 0
7, 11, 0
7, 9, 0
3, 7, 0
3, 6, 0
3, 8, 0
3, 4, 0
3, 2, 0
4, 3, 0
4, 8, 0
2, 6, 0
2, 3, 0
8, 7, 0
8, 3, 0
8, 4, 0
8, 1, 0
9, 7, 0
9, 0, 0
9, 5, 0
9, 11, 0
9, 10, 0
