0, 7, 0
0, 4, 0
0, 1, 1
3, 7, 0
3, 6, 0
4, 0, 0
4, 7, 0
4, 2, 0
4, 1, 0
7, 0, 0
7, 3, 0
7, 4, 0
7, 2, 0
7, 6, 0
7, 1, 0
2, 7, 0
2, 4, 0
2, 1, 1
6, 7, 0
6, 3, 0
6, 5, 0
5, 6, 0
1, 0, 1
1, 7, 0
1, 4, 0
1, 2, 1
