0, 13, 0
0, 17, 0
0, 18, 0
0, 14, 0
0, 11, 0
0, 1, 0
13, 0, 0
13, 17, 0
13, 14, 0
13, 2, 0
17, 0, 0
17, 13, 0
17, 14, 0
3, 7, 0
3, 6, 0
3, 5, 0
16, 8, 0
16, 15, 1
16, 9, 0
16, 2, 0
6, 7, 0
6, 3, 0
6, 5, 0
8, 14, 0
8, 2, 0
8, 16, 0
8, 15, 0
8, 5, 0
8, 9, 0
5, 7, 0
5, 3, 0
5, 4, 0
5, 2, 0
5, 6, 0
5, 8, 0
5, 15, 0
11, 18, 0
11, 12, 1
11, 0, 0
11, 10, 0
10, 18, 0
10, 12, 0
10, 11, 0
7, 6, 0
7, 5, 0
7, 3, 0
12, 18, 0
12, 11, 1
12, 10, 0
4, 5, 0
4, 2, 0
14, 0, 0
14, 13, 0
14, 17, 0
14, 2, 0
14, 8, 0
14, 9, 0
2, 4, 0
2, 14, 0
2, 16, 0
2, 13, 0
2, 8, 0
2, 15, 0
2, 5, 0
2, 9, 0
1, 0, 0
1, 18, 0
15, 16, 1
15, 8, 0
15, 5, 0
15, 2, 0
18, 0, 0
18, 12, 0
18, 10, 0
18, 11, 0
18, 1, 0
9, 16, 0
9, 8, 0
9, 14, 0
9, 2, 0
