0, 3, 0
0, 4, 0
0, 16, 0
0, 15, 0
0, 5, 0
0, 10, 0
13, 19, 0
13, 17, 0
13, 10, 0
17, 7, 0
17, 13, 0
17, 14, 0
17, 18, 1
17, 6, 0
17, 19, 0
17, 9, 0
3, 0, 0
3, 14, 0
3, 16, 0
3, 6, 0
3, 15, 0
3, 5, 0
16, 0, 0
16, 12, 0
16, 4, 0
16, 3, 0
16, 6, 0
16, 15, 1
16, 5, 0
16, 10, 0
6, 12, 0
6, 14, 0
6, 3, 0
6, 16, 0
6, 17, 0
6, 8, 0
6, 15, 0
6, 11, 0
6, 1, 0
8, 12, 0
8, 2, 0
8, 6, 0
8, 9, 0
8, 11, 0
8, 1, 0
5, 0, 0
5, 3, 0
5, 4, 1
5, 16, 0
5, 15, 0
5, 10, 0
11, 12, 1
11, 8, 0
11, 6, 0
10, 0, 0
10, 7, 0
10, 4, 0
10, 14, 0
10, 16, 0
10, 19, 0
10, 5, 0
10, 18, 0
10, 13, 0
7, 18, 0
7, 14, 0
7, 17, 0
7, 10, 0
12, 2, 0
12, 16, 0
12, 6, 0
12, 1, 0
12, 8, 0
12, 11, 1
12, 9, 0
4, 0, 0
4, 16, 0
4, 5, 1
4, 10, 0
14, 7, 0
14, 3, 0
14, 17, 0
14, 18, 0
14, 6, 0
14, 10, 0
2, 12, 0
2, 8, 0
2, 9, 0
2, 1, 1
19, 18, 0
19, 13, 0
19, 17, 0
19, 10, 0
1, 12, 0
1, 6, 0
1, 8, 0
1, 9, 0
1, 2, 1
15, 0, 0
15, 16, 1
15, 6, 0
15, 5, 0
15, 3, 0
18, 7, 0
18, 14, 0
18, 19, 0
18, 17, 1
18, 10, 0
9, 2, 0
9, 12, 0
9, 8, 0
9, 17, 0
9, 1, 0
