0, 3, 0
0, 8, 0
0, 1, 0
3, 0, 0
3, 1, 0
3, 2, 0
4, 7, 0
4, 6, 0
4, 8, 0
4, 5, 0
4, 9, 0
2, 7, 0
2, 3, 0
6, 4, 0
6, 9, 0
1, 0, 0
1, 3, 0
1, 7, 0
8, 0, 0
8, 4, 0
8, 5, 0
5, 7, 0
5, 8, 0
5, 4, 0
7, 1, 0
7, 4, 0
7, 5, 0
7, 2, 0
9, 6, 0
9, 4, 0
