13, 20, 0
13, 23, 0
13, 18, 0
13, 19, 0
13, 8, 0
13, 5, 0
13, 1, 0
17, 12, 0
17, 25, 0
17, 3, 0
17, 21, 0
17, 19, 0
17, 8, 0
17, 11, 0
17, 1, 0
23, 18, 0
23, 19, 0
23, 13, 0
23, 8, 0
23, 1, 0
5, 0, 0
5, 12, 0
5, 13, 0
5, 25, 0
5, 4, 0
5, 21, 0
5, 6, 0
5, 8, 0
5, 22, 0
5, 9, 0
11, 3, 0
11, 14, 0
11, 12, 0
11, 17, 0
11, 15, 0
11, 10, 0
1, 18, 0
1, 19, 0
1, 13, 0
1, 17, 0
1, 23, 0
20, 12, 0
20, 13, 0
20, 26, 0
20, 21, 0
20, 19, 0
20, 8, 0
20, 22, 0
4, 0, 0
4, 21, 0
4, 6, 0
4, 8, 0
4, 5, 0
4, 22, 0
14, 3, 0
14, 15, 1
14, 11, 0
14, 10, 0
24, 7, 0
24, 12, 0
24, 25, 0
24, 3, 0
24, 2, 0
24, 8, 0
24, 22, 0
8, 0, 0
8, 13, 0
8, 17, 0
8, 23, 0
8, 12, 0
8, 6, 0
8, 5, 0
8, 20, 0
8, 3, 0
8, 4, 0
8, 25, 0
8, 26, 0
8, 24, 0
8, 21, 0
8, 19, 0
8, 22, 0
15, 16, 1
15, 3, 0
15, 14, 1
15, 11, 0
15, 10, 0
22, 0, 0
22, 6, 0
22, 5, 0
22, 20, 0
22, 12, 0
22, 4, 0
22, 25, 0
22, 26, 0
22, 24, 0
22, 21, 1
22, 19, 0
22, 8, 0
22, 9, 0
0, 12, 0
0, 4, 0
0, 26, 0
0, 21, 0
0, 6, 0
0, 8, 0
0, 5, 0
0, 22, 0
3, 12, 0
3, 14, 0
3, 24, 0
3, 16, 0
3, 25, 0
3, 8, 0
3, 15, 0
3, 17, 0
3, 11, 0
3, 10, 0
16, 3, 0
16, 15, 1
16, 10, 0
6, 0, 0
6, 12, 0
6, 4, 0
6, 25, 0
6, 21, 0
6, 8, 0
6, 5, 0
6, 22, 0
10, 16, 0
10, 15, 0
10, 14, 0
10, 11, 0
10, 3, 0
7, 2, 0
7, 9, 0
7, 25, 0
7, 24, 0
12, 0, 0
12, 17, 0
12, 6, 0
12, 2, 0
12, 5, 0
12, 11, 0
12, 20, 0
12, 3, 0
12, 25, 0
12, 26, 0
12, 24, 0
12, 21, 0
12, 19, 0
12, 8, 0
12, 22, 0
12, 9, 0
25, 7, 0
25, 3, 0
25, 17, 0
25, 9, 0
25, 24, 0
25, 2, 0
25, 6, 0
25, 8, 0
25, 5, 0
25, 22, 0
25, 12, 0
26, 20, 0
26, 0, 0
26, 8, 0
26, 22, 0
26, 12, 0
2, 7, 0
2, 12, 0
2, 9, 0
2, 25, 0
2, 24, 0
21, 0, 0
21, 12, 0
21, 4, 0
21, 17, 0
21, 6, 0
21, 20, 0
21, 8, 0
21, 5, 0
21, 22, 1
21, 19, 0
19, 20, 0
19, 12, 0
19, 13, 0
19, 17, 0
19, 23, 0
19, 21, 0
19, 8, 0
19, 18, 1
19, 22, 0
19, 1, 0
18, 19, 1
18, 13, 0
18, 23, 0
18, 1, 0
9, 7, 0
9, 12, 0
9, 25, 0
9, 2, 0
9, 5, 0
9, 22, 0
