0, 16, 0
0, 8, 0
0, 11, 0
13, 6, 0
13, 1, 0
13, 10, 0
13, 2, 0
3, 7, 0
3, 4, 0
3, 14, 0
3, 11, 0
16, 0, 0
16, 12, 0
16, 8, 0
16, 11, 0
6, 2, 0
6, 12, 0
6, 13, 0
6, 10, 0
6, 1, 0
8, 0, 0
8, 16, 0
8, 11, 0
8, 12, 0
5, 7, 0
5, 4, 0
5, 9, 0
11, 0, 0
11, 16, 0
11, 8, 0
11, 4, 0
11, 3, 0
10, 12, 0
10, 13, 0
10, 2, 0
10, 6, 0
10, 15, 0
10, 1, 0
7, 3, 0
7, 4, 0
7, 14, 0
7, 5, 0
12, 16, 0
12, 6, 0
12, 8, 0
12, 15, 0
12, 10, 0
12, 1, 0
4, 7, 0
4, 3, 0
4, 14, 0
4, 5, 0
4, 11, 0
14, 7, 0
14, 3, 0
14, 4, 0
2, 6, 0
2, 13, 0
2, 10, 0
2, 1, 1
1, 6, 0
1, 13, 0
1, 12, 0
1, 10, 0
1, 2, 1
15, 12, 0
15, 10, 0
9, 5, 0
