0, 2, 0
0, 1, 0
3, 7, 0
3, 8, 0
3, 4, 1
3, 1, 0
4, 7, 0
4, 3, 1
4, 8, 0
4, 1, 0
2, 0, 0
2, 7, 0
2, 6, 0
2, 1, 0
2, 5, 0
2, 9, 0
6, 2, 0
6, 5, 0
6, 9, 0
1, 0, 0
1, 3, 0
1, 4, 0
1, 2, 0
1, 8, 0
1, 7, 0
8, 7, 1
8, 3, 0
8, 4, 0
8, 1, 0
5, 6, 0
5, 2, 0
5, 9, 0
7, 2, 0
7, 3, 0
7, 8, 1
7, 4, 0
7, 1, 0
9, 6, 0
9, 5, 0
9, 2, 0
