0, 3, 0
0, 13, 0
0, 2, 0
0, 10, 0
0, 11, 0
0, 12, 0
13, 0, 0
13, 12, 0
13, 9, 0
13, 8, 0
13, 5, 0
13, 10, 0
3, 0, 0
3, 12, 0
3, 2, 0
3, 10, 0
6, 12, 0
6, 11, 0
6, 2, 0
8, 7, 1
8, 12, 0
8, 4, 0
8, 13, 0
8, 1, 0
8, 10, 0
8, 9, 1
5, 7, 0
5, 13, 0
5, 9, 0
5, 10, 0
5, 1, 0
11, 0, 0
11, 6, 0
11, 9, 0
11, 2, 0
10, 0, 0
10, 12, 0
10, 13, 0
10, 9, 0
10, 4, 0
10, 3, 0
10, 2, 0
10, 8, 0
10, 5, 0
10, 7, 0
10, 1, 0
7, 10, 0
7, 8, 1
7, 5, 0
7, 4, 0
7, 1, 0
12, 0, 0
12, 3, 0
12, 13, 0
12, 9, 0
12, 2, 0
12, 6, 0
12, 8, 0
12, 10, 0
4, 7, 0
4, 10, 0
4, 8, 0
4, 9, 0
4, 1, 0
2, 0, 0
2, 12, 0
2, 3, 0
2, 6, 0
2, 9, 0
2, 11, 0
2, 10, 0
1, 7, 0
1, 4, 0
1, 10, 0
1, 8, 0
1, 5, 0
1, 9, 0
9, 12, 0
9, 4, 0
9, 13, 0
9, 2, 0
9, 1, 0
9, 8, 1
9, 5, 0
9, 11, 0
9, 10, 0
