12, 11, 0
12, 2, 0
13, 16, 0
13, 10, 0
17, 29, 0
17, 8, 0
17, 5, 0
17, 9, 0
26, 3, 0
26, 14, 0
26, 24, 0
26, 6, 0
26, 15, 0
26, 1, 0
23, 4, 0
23, 25, 0
23, 31, 0
23, 18, 0
23, 28, 0
23, 19, 0
23, 22, 0
23, 30, 0
2, 20, 0
2, 12, 0
2, 21, 0
2, 0, 0
5, 27, 0
5, 17, 0
5, 6, 0
11, 12, 0
11, 10, 0
1, 3, 0
1, 14, 0
1, 26, 0
1, 24, 0
1, 6, 0
1, 15, 0
20, 21, 1
20, 0, 0
20, 2, 0
4, 23, 0
4, 31, 0
14, 3, 0
14, 26, 0
14, 24, 0
14, 6, 0
14, 15, 1
14, 1, 0
24, 7, 0
24, 3, 0
24, 14, 0
24, 26, 0
24, 6, 0
24, 1, 0
28, 25, 0
28, 23, 0
28, 29, 0
28, 18, 0
28, 22, 0
28, 30, 0
30, 25, 0
30, 23, 0
30, 18, 0
30, 28, 0
30, 19, 0
30, 22, 0
8, 9, 1
8, 17, 0
8, 29, 0
15, 6, 0
15, 14, 1
15, 3, 0
15, 26, 0
15, 1, 0
22, 25, 0
22, 23, 0
22, 18, 0
22, 28, 0
22, 19, 0
22, 30, 0
0, 20, 0
0, 21, 0
0, 31, 0
0, 2, 0
3, 14, 0
3, 26, 0
3, 24, 0
3, 6, 0
3, 15, 0
3, 1, 0
16, 13, 0
16, 10, 0
6, 3, 0
6, 14, 0
6, 26, 0
6, 24, 0
6, 27, 0
6, 15, 0
6, 5, 0
6, 1, 0
27, 6, 0
27, 5, 0
7, 24, 0
18, 25, 0
18, 23, 0
18, 28, 0
18, 19, 1
18, 22, 0
18, 30, 0
25, 28, 0
25, 23, 0
25, 18, 0
25, 19, 0
25, 22, 0
25, 30, 0
31, 0, 0
31, 4, 0
31, 23, 0
29, 28, 0
29, 8, 0
29, 17, 0
29, 9, 0
21, 20, 1
21, 0, 0
21, 2, 0
19, 18, 1
19, 25, 0
19, 22, 0
19, 23, 0
19, 30, 0
10, 16, 0
10, 13, 0
10, 11, 0
9, 8, 1
9, 17, 0
9, 29, 0
