13, 7, 0
13, 27, 0
13, 8, 0
13, 9, 0
13, 1, 0
17, 7, 0
17, 27, 0
17, 28, 0
17, 9, 0
31, 20, 0
31, 12, 0
31, 29, 0
31, 16, 0
31, 33, 0
31, 5, 0
23, 0, 0
23, 2, 0
23, 4, 0
23, 14, 0
23, 24, 1
10, 14, 0
10, 30, 0
2, 0, 0
2, 12, 0
2, 25, 0
2, 23, 0
2, 24, 0
2, 18, 0
2, 6, 0
2, 19, 0
2, 9, 0
5, 16, 0
5, 31, 0
5, 29, 0
11, 16, 0
11, 12, 1
11, 32, 0
1, 6, 0
1, 13, 0
20, 3, 0
20, 12, 0
20, 33, 0
20, 31, 0
20, 29, 0
4, 0, 0
4, 14, 0
4, 23, 0
4, 24, 0
14, 0, 0
14, 4, 0
14, 24, 0
14, 23, 0
14, 10, 0
24, 0, 0
24, 12, 0
24, 4, 0
24, 14, 0
24, 23, 1
24, 2, 0
28, 7, 0
28, 27, 0
28, 17, 0
28, 9, 0
30, 22, 0
30, 10, 0
8, 7, 0
8, 27, 0
8, 13, 0
8, 9, 1
15, 26, 0
15, 32, 0
22, 33, 0
22, 30, 0
0, 4, 0
0, 14, 0
0, 23, 0
0, 2, 0
0, 18, 0
0, 25, 0
0, 24, 0
12, 20, 0
12, 33, 0
12, 31, 0
12, 32, 0
12, 24, 0
12, 16, 0
12, 2, 0
12, 11, 1
16, 12, 0
16, 31, 0
16, 32, 0
16, 29, 0
16, 5, 0
16, 11, 0
6, 18, 0
6, 19, 0
6, 2, 0
6, 25, 0
6, 1, 0
27, 7, 0
27, 13, 0
27, 28, 0
27, 17, 0
27, 8, 0
27, 9, 0
7, 13, 0
7, 28, 0
7, 27, 0
7, 8, 0
7, 17, 0
7, 9, 0
3, 20, 0
3, 33, 0
3, 29, 0
25, 0, 0
25, 6, 0
25, 19, 0
25, 18, 0
25, 2, 0
32, 16, 0
32, 12, 0
32, 15, 0
32, 11, 0
29, 20, 0
29, 3, 0
29, 31, 0
29, 33, 0
29, 16, 0
29, 5, 0
21, 26, 0
33, 20, 0
33, 12, 0
33, 3, 0
33, 31, 0
33, 29, 0
33, 22, 0
19, 18, 1
19, 6, 0
19, 25, 0
19, 2, 0
26, 21, 0
26, 15, 0
18, 0, 0
18, 6, 0
18, 19, 1
18, 25, 0
18, 2, 0
9, 7, 0
9, 13, 0
9, 17, 0
9, 2, 0
9, 28, 0
9, 8, 1
9, 27, 0
