0, 12, 0
0, 11, 0
8, 7, 1
8, 4, 0
8, 5, 0
3, 12, 0
3, 10, 0
6, 9, 0
6, 2, 0
5, 7, 0
5, 8, 0
5, 11, 0
5, 4, 0
11, 0, 0
11, 5, 0
10, 3, 0
10, 12, 0
10, 1, 0
7, 8, 1
7, 5, 0
7, 4, 0
12, 0, 0
12, 3, 0
12, 10, 0
12, 1, 0
4, 7, 0
4, 8, 0
4, 5, 0
4, 9, 0
2, 6, 0
1, 12, 0
1, 10, 0
9, 6, 0
9, 4, 0
