13, 12, 1
13, 14, 1
13, 5, 0
17, 7, 0
17, 33, 0
17, 4, 0
17, 43, 0
17, 37, 0
17, 27, 0
17, 18, 0
23, 33, 0
23, 25, 0
23, 31, 0
23, 35, 0
23, 16, 0
23, 52, 0
23, 29, 0
23, 42, 0
23, 18, 0
23, 22, 1
23, 41, 0
46, 7, 0
46, 25, 0
46, 26, 0
46, 35, 0
46, 21, 0
46, 43, 0
46, 9, 0
46, 40, 0
46, 52, 0
46, 47, 1
46, 41, 0
20, 7, 0
20, 18, 0
20, 4, 0
20, 26, 0
20, 21, 0
20, 27, 0
34, 50, 0
34, 16, 0
34, 6, 0
34, 8, 0
34, 48, 0
34, 11, 0
34, 44, 0
14, 13, 1
14, 5, 0
24, 0, 0
24, 38, 0
24, 51, 0
24, 18, 0
24, 15, 0
24, 40, 0
24, 5, 0
24, 7, 0
24, 3, 0
24, 32, 0
24, 29, 0
24, 9, 0
24, 39, 0
24, 36, 0
28, 45, 0
28, 25, 0
28, 2, 0
28, 16, 0
28, 19, 0
28, 41, 0
28, 10, 0
15, 0, 0
15, 51, 0
15, 32, 0
15, 24, 0
15, 40, 0
15, 36, 0
41, 45, 0
41, 28, 0
41, 23, 0
41, 16, 0
41, 2, 0
41, 46, 0
41, 47, 0
41, 1, 0
41, 25, 0
41, 31, 0
41, 35, 0
41, 42, 0
41, 19, 0
41, 10, 0
0, 3, 0
0, 51, 0
0, 32, 0
0, 24, 0
0, 15, 0
0, 36, 0
8, 34, 0
8, 50, 0
8, 16, 0
8, 6, 0
8, 48, 0
8, 11, 0
51, 0, 0
51, 3, 0
51, 32, 0
51, 24, 0
51, 40, 0
51, 9, 0
51, 15, 0
51, 36, 0
3, 0, 0
3, 32, 0
3, 51, 0
3, 24, 0
3, 39, 0
3, 5, 0
3, 36, 0
38, 21, 0
38, 35, 0
38, 52, 0
38, 29, 0
38, 18, 0
38, 43, 0
38, 42, 0
38, 24, 0
38, 40, 0
38, 5, 0
47, 46, 1
47, 25, 0
47, 41, 0
47, 1, 0
10, 45, 0
10, 28, 0
10, 2, 0
10, 16, 0
10, 19, 0
10, 41, 0
10, 1, 0
7, 45, 0
7, 17, 0
7, 32, 0
7, 40, 0
7, 46, 0
7, 1, 0
7, 20, 0
7, 4, 0
7, 26, 0
7, 24, 0
7, 37, 0
7, 49, 0
7, 9, 0
33, 21, 0
33, 4, 0
33, 43, 0
33, 23, 0
33, 31, 0
33, 52, 0
33, 37, 0
33, 27, 0
33, 18, 0
33, 17, 0
32, 0, 0
32, 7, 0
32, 3, 0
32, 51, 0
32, 24, 0
32, 40, 0
32, 36, 0
32, 15, 0
32, 5, 0
32, 9, 0
2, 45, 0
2, 25, 0
2, 28, 0
2, 19, 0
2, 10, 0
2, 41, 0
2, 1, 0
21, 20, 0
21, 33, 0
21, 4, 0
21, 52, 0
21, 26, 0
21, 35, 0
21, 18, 0
21, 43, 0
21, 38, 0
21, 46, 0
25, 28, 0
25, 23, 0
25, 16, 0
25, 35, 0
25, 46, 0
25, 47, 0
25, 1, 0
25, 18, 0
25, 52, 0
25, 2, 0
25, 42, 0
25, 41, 0
25, 22, 0
19, 45, 0
19, 28, 0
19, 2, 0
19, 10, 0
19, 41, 0
19, 1, 0
49, 7, 0
49, 16, 0
49, 48, 0
49, 45, 0
48, 34, 0
48, 49, 0
48, 50, 0
48, 45, 0
48, 16, 0
48, 6, 0
48, 8, 0
48, 44, 0
48, 11, 0
48, 30, 0
31, 33, 0
31, 43, 0
31, 23, 0
31, 29, 0
31, 16, 0
31, 42, 0
31, 18, 0
31, 22, 0
31, 41, 0
39, 3, 0
39, 5, 0
39, 24, 0
29, 40, 0
29, 52, 0
29, 23, 0
29, 31, 0
29, 24, 0
29, 18, 0
29, 42, 0
29, 38, 0
29, 5, 0
40, 51, 0
40, 52, 0
40, 18, 0
40, 38, 0
40, 29, 0
40, 46, 0
40, 5, 0
40, 7, 0
40, 43, 0
40, 32, 0
40, 24, 0
40, 42, 0
40, 15, 0
40, 9, 0
11, 34, 0
11, 50, 0
11, 16, 0
11, 6, 0
11, 8, 0
11, 48, 0
11, 44, 0
5, 3, 0
5, 38, 0
5, 13, 0
5, 14, 0
5, 32, 0
5, 24, 0
5, 39, 0
5, 29, 0
5, 40, 0
5, 12, 0
37, 7, 0
37, 33, 0
37, 4, 0
37, 17, 0
37, 27, 0
4, 20, 0
4, 33, 0
4, 7, 0
4, 17, 0
4, 37, 0
4, 21, 0
4, 27, 0
4, 18, 0
35, 21, 0
35, 52, 0
35, 23, 0
35, 18, 0
35, 25, 0
35, 38, 0
35, 46, 0
35, 22, 0
35, 41, 0
30, 16, 0
30, 48, 0
30, 44, 0
42, 18, 0
42, 38, 0
42, 25, 0
42, 23, 0
42, 31, 0
42, 29, 0
42, 16, 0
42, 52, 0
42, 40, 0
42, 41, 0
42, 22, 0
22, 25, 0
22, 31, 0
22, 23, 1
22, 35, 0
22, 42, 0
22, 52, 0
36, 0, 0
36, 3, 0
36, 32, 0
36, 51, 0
36, 24, 0
36, 15, 0
45, 7, 0
45, 28, 0
45, 1, 0
45, 2, 0
45, 16, 0
45, 10, 0
45, 19, 0
45, 49, 0
45, 41, 0
45, 48, 0
16, 45, 0
16, 8, 0
16, 28, 0
16, 48, 0
16, 23, 0
16, 6, 0
16, 44, 0
16, 11, 0
16, 30, 0
16, 34, 0
16, 25, 0
16, 50, 0
16, 31, 0
16, 42, 0
16, 49, 0
16, 41, 0
16, 10, 0
27, 20, 0
27, 33, 0
27, 4, 0
27, 17, 0
27, 37, 0
27, 43, 0
27, 18, 0
1, 7, 0
1, 45, 0
1, 25, 0
1, 2, 0
1, 19, 0
1, 41, 0
1, 47, 0
1, 10, 0
44, 16, 0
44, 34, 0
44, 48, 0
44, 11, 0
44, 30, 0
12, 13, 1
12, 5, 0
18, 35, 0
18, 17, 0
18, 26, 0
18, 23, 0
18, 27, 0
18, 42, 0
18, 24, 0
18, 40, 0
18, 52, 0
18, 20, 0
18, 33, 0
18, 4, 0
18, 43, 0
18, 31, 0
18, 29, 0
18, 21, 0
18, 25, 0
18, 38, 0
18, 9, 0
52, 23, 0
52, 18, 0
52, 38, 0
52, 35, 0
52, 40, 0
52, 46, 0
52, 33, 0
52, 43, 0
52, 29, 0
52, 21, 0
52, 25, 0
52, 42, 0
52, 22, 0
50, 34, 0
50, 16, 0
50, 6, 0
50, 8, 0
50, 48, 0
50, 11, 0
26, 20, 0
26, 7, 0
26, 46, 0
26, 18, 0
26, 21, 0
6, 34, 0
6, 50, 0
6, 16, 0
6, 8, 0
6, 48, 0
6, 11, 0
43, 33, 0
43, 38, 0
43, 17, 0
43, 31, 0
43, 21, 0
43, 27, 0
43, 40, 0
43, 52, 0
43, 18, 0
43, 46, 0
9, 7, 0
9, 32, 0
9, 51, 0
9, 24, 0
9, 18, 0
9, 40, 0
9, 46, 0
