0, 3, 0
0, 13, 0
0, 12, 0
0, 4, 0
0, 2, 0
0, 6, 0
0, 8, 0
0, 10, 0
13, 0, 0
13, 3, 0
13, 4, 0
13, 12, 0
13, 2, 0
13, 6, 0
13, 1, 0
13, 8, 0
13, 5, 0
13, 11, 0
13, 10, 0
3, 0, 0
3, 12, 0
3, 13, 0
3, 9, 0
3, 4, 1
3, 2, 1
3, 1, 0
3, 5, 0
3, 10, 0
6, 0, 0
6, 8, 0
6, 13, 0
8, 0, 0
8, 12, 0
8, 13, 0
8, 9, 0
8, 6, 0
8, 10, 0
8, 5, 0
8, 11, 0
8, 1, 0
5, 7, 0
5, 12, 0
5, 13, 0
5, 4, 0
5, 3, 0
5, 2, 0
5, 1, 0
5, 8, 0
5, 9, 0
11, 12, 0
11, 13, 0
11, 9, 0
11, 8, 0
11, 10, 1
11, 1, 0
10, 0, 0
10, 12, 0
10, 13, 0
10, 9, 0
10, 4, 0
10, 3, 0
10, 2, 0
10, 8, 0
10, 11, 1
10, 1, 0
7, 12, 0
7, 5, 0
7, 9, 0
12, 0, 0
12, 13, 0
12, 1, 0
12, 5, 0
12, 11, 0
12, 10, 0
12, 7, 0
12, 3, 0
12, 4, 0
12, 2, 0
12, 8, 0
12, 9, 0
4, 0, 0
4, 3, 1
4, 13, 0
4, 12, 0
4, 1, 0
4, 5, 0
4, 10, 0
2, 0, 0
2, 12, 0
2, 13, 0
2, 9, 0
2, 3, 1
2, 1, 0
2, 5, 0
2, 10, 0
1, 12, 0
1, 13, 0
1, 4, 0
1, 3, 0
1, 10, 0
1, 8, 0
1, 2, 0
1, 5, 0
1, 11, 0
1, 9, 0
9, 7, 0
9, 12, 0
9, 3, 0
9, 2, 0
9, 1, 0
9, 8, 0
9, 5, 0
9, 11, 0
9, 10, 0
