0, 6, 0
0, 5, 0
0, 10, 0
6, 0, 0
6, 9, 0
1, 7, 0
1, 8, 0
5, 0, 0
5, 10, 0
11, 4, 0
11, 9, 0
10, 0, 0
10, 7, 0
10, 5, 0
7, 1, 0
7, 8, 0
7, 10, 0
3, 2, 0
4, 11, 0
4, 2, 0
2, 3, 0
2, 4, 0
8, 7, 0
8, 1, 0
9, 6, 0
9, 11, 0
