0, 3, 0
0, 9, 0
0, 2, 0
3, 0, 0
3, 1, 0
3, 9, 0
3, 5, 0
3, 2, 0
4, 6, 0
4, 10, 0
2, 0, 0
2, 3, 0
2, 10, 0
2, 1, 0
6, 7, 0
6, 8, 0
6, 4, 0
6, 10, 0
1, 3, 0
1, 10, 0
1, 5, 0
1, 2, 0
8, 7, 1
8, 6, 0
8, 5, 0
5, 3, 0
5, 8, 0
5, 10, 0
5, 1, 0
7, 6, 0
7, 8, 1
10, 6, 0
10, 1, 0
10, 4, 0
10, 5, 0
10, 2, 0
9, 0, 0
9, 3, 0
