13, 16, 0
13, 12, 1
13, 3, 0
17, 0, 0
17, 27, 0
17, 26, 0
31, 4, 0
31, 28, 0
31, 32, 0
31, 8, 0
31, 5, 0
31, 1, 0
23, 8, 0
23, 22, 0
23, 4, 0
23, 29, 0
10, 6, 0
10, 2, 0
10, 1, 0
2, 18, 0
2, 6, 0
2, 10, 0
2, 1, 1
5, 4, 1
5, 8, 0
5, 32, 0
5, 31, 0
11, 0, 0
11, 6, 0
11, 19, 0
1, 28, 0
1, 31, 0
1, 2, 1
1, 18, 0
1, 6, 0
1, 10, 0
20, 7, 0
20, 15, 0
20, 16, 0
20, 14, 0
20, 25, 0
4, 31, 0
4, 23, 0
4, 29, 0
4, 5, 1
4, 30, 0
4, 25, 0
4, 32, 0
4, 24, 0
4, 21, 0
4, 8, 0
4, 22, 0
4, 9, 0
14, 20, 0
14, 7, 0
14, 16, 0
14, 15, 0
24, 21, 0
24, 8, 0
24, 25, 0
24, 4, 0
28, 18, 0
28, 31, 0
28, 1, 0
30, 21, 0
30, 8, 0
30, 4, 0
30, 9, 0
8, 31, 0
8, 23, 0
8, 29, 0
8, 5, 0
8, 30, 0
8, 4, 0
8, 25, 0
8, 32, 0
8, 24, 0
8, 21, 0
8, 22, 0
8, 9, 1
15, 20, 0
15, 7, 0
15, 16, 0
15, 14, 0
22, 4, 0
22, 8, 0
22, 23, 0
22, 9, 0
0, 27, 0
0, 17, 0
0, 26, 0
0, 11, 0
12, 16, 0
12, 3, 0
12, 13, 1
16, 20, 0
16, 12, 0
16, 13, 0
16, 14, 0
16, 15, 0
16, 7, 0
6, 2, 0
6, 19, 0
6, 1, 0
6, 11, 0
6, 10, 0
27, 0, 0
27, 17, 0
27, 26, 1
7, 20, 0
7, 16, 0
7, 15, 0
7, 14, 0
3, 12, 0
3, 13, 0
25, 20, 0
25, 21, 0
25, 8, 0
25, 4, 0
25, 24, 0
32, 31, 0
32, 8, 0
32, 5, 0
32, 4, 0
32, 29, 0
29, 4, 0
29, 8, 0
29, 32, 0
29, 23, 0
21, 30, 0
21, 8, 0
21, 25, 0
21, 4, 0
21, 24, 0
26, 0, 0
26, 27, 1
26, 17, 0
19, 6, 0
19, 11, 0
18, 2, 0
18, 28, 0
18, 1, 0
9, 4, 0
9, 8, 1
9, 22, 0
9, 30, 0
