0, 7, 0
0, 12, 0
0, 2, 0
0, 10, 0
0, 8, 0
0, 5, 0
0, 11, 0
0, 9, 0
13, 3, 0
13, 4, 0
13, 9, 0
3, 13, 0
3, 4, 1
3, 9, 0
6, 7, 0
6, 2, 0
6, 1, 0
8, 7, 0
8, 0, 0
8, 2, 0
8, 5, 0
8, 11, 0
8, 10, 0
5, 0, 0
5, 7, 0
5, 9, 0
5, 8, 0
5, 11, 0
5, 10, 0
11, 0, 0
11, 12, 1
11, 7, 0
11, 2, 0
11, 8, 0
11, 5, 0
11, 10, 1
10, 0, 0
10, 7, 0
10, 8, 0
10, 5, 0
10, 11, 1
7, 0, 0
7, 12, 0
7, 2, 0
7, 6, 0
7, 10, 0
7, 8, 0
7, 5, 0
7, 11, 0
7, 1, 0
12, 0, 0
12, 7, 0
12, 11, 1
12, 2, 0
4, 3, 1
4, 13, 0
4, 9, 0
2, 0, 0
2, 12, 0
2, 7, 0
2, 6, 0
2, 8, 0
2, 11, 0
2, 1, 0
1, 7, 0
1, 6, 0
1, 2, 0
9, 0, 0
9, 3, 0
9, 13, 0
9, 5, 0
9, 4, 0
