0, 4, 0
3, 7, 0
3, 8, 0
4, 0, 0
4, 6, 0
2, 10, 0
2, 1, 0
6, 4, 0
6, 5, 0
6, 10, 0
1, 2, 0
1, 9, 0
1, 10, 0
8, 7, 0
8, 3, 0
5, 6, 0
5, 10, 0
7, 3, 0
7, 8, 0
7, 9, 0
10, 6, 0
10, 1, 0
10, 9, 0
10, 5, 0
10, 2, 0
9, 7, 0
9, 10, 0
9, 1, 0
