2, 7, 0
2, 6, 0
2, 8, 0
13, 28, 0
13, 24, 0
17, 20, 0
17, 24, 0
23, 14, 0
23, 30, 0
29, 3, 0
29, 25, 0
29, 26, 0
29, 12, 0
5, 16, 0
5, 30, 0
11, 27, 0
11, 10, 0
1, 4, 0
20, 17, 0
4, 0, 0
4, 25, 0
4, 1, 0
14, 15, 0
14, 23, 0
24, 13, 0
24, 17, 0
28, 13, 0
28, 22, 0
30, 5, 0
30, 23, 0
8, 7, 0
8, 6, 0
8, 21, 0
8, 2, 0
15, 7, 0
15, 14, 0
22, 16, 0
22, 28, 0
22, 9, 0
0, 3, 0
0, 4, 0
12, 19, 0
12, 25, 0
12, 26, 0
12, 29, 0
16, 5, 0
16, 22, 0
16, 9, 0
6, 21, 0
6, 7, 0
6, 8, 0
6, 2, 0
10, 21, 0
10, 11, 0
7, 6, 0
7, 8, 0
7, 15, 0
7, 2, 0
3, 0, 0
3, 29, 0
25, 12, 0
25, 4, 0
25, 26, 1
25, 29, 0
26, 12, 0
26, 25, 1
26, 29, 0
27, 18, 0
27, 11, 0
21, 6, 0
21, 8, 0
21, 10, 0
19, 18, 0
19, 12, 0
18, 27, 0
18, 19, 0
9, 16, 0
9, 22, 0
