13, 6, 0
13, 43, 0
13, 27, 0
17, 16, 0
17, 45, 0
17, 38, 0
17, 25, 0
17, 35, 0
23, 19, 0
23, 1, 0
23, 14, 0
23, 46, 0
23, 24, 1
42, 8, 0
42, 32, 0
46, 14, 0
46, 23, 0
46, 1, 0
20, 4, 0
20, 19, 0
20, 8, 0
20, 32, 0
20, 36, 0
34, 15, 0
34, 5, 0
34, 48, 0
14, 33, 0
14, 46, 0
14, 23, 0
14, 47, 0
24, 19, 0
24, 23, 1
24, 1, 0
28, 45, 0
28, 35, 0
28, 9, 0
28, 25, 0
28, 29, 1
39, 0, 0
39, 31, 0
39, 26, 0
39, 16, 0
39, 44, 0
39, 11, 0
39, 10, 0
41, 33, 0
41, 47, 0
0, 16, 0
0, 39, 0
0, 38, 0
0, 44, 0
0, 11, 0
0, 10, 0
8, 20, 0
8, 32, 0
8, 21, 0
8, 42, 0
8, 40, 0
8, 22, 0
8, 36, 0
33, 14, 0
33, 41, 0
33, 47, 0
33, 30, 0
15, 12, 0
15, 45, 0
15, 25, 0
15, 5, 0
15, 34, 0
47, 33, 0
47, 14, 0
47, 41, 0
47, 30, 0
10, 0, 0
10, 16, 0
10, 39, 0
10, 38, 0
10, 44, 0
10, 11, 0
7, 27, 0
7, 5, 0
7, 48, 0
3, 31, 0
3, 2, 0
32, 20, 0
32, 37, 0
32, 4, 0
32, 21, 0
32, 42, 0
32, 8, 0
32, 40, 0
32, 22, 0
2, 3, 0
2, 31, 0
21, 8, 0
21, 40, 0
21, 22, 1
21, 32, 0
21, 36, 0
19, 20, 0
19, 1, 0
19, 23, 0
19, 24, 0
18, 12, 0
18, 25, 0
18, 9, 0
31, 3, 0
31, 26, 0
31, 2, 0
31, 39, 0
31, 44, 0
31, 11, 0
29, 25, 0
29, 45, 0
29, 9, 0
29, 28, 1
29, 35, 0
40, 21, 0
40, 32, 0
40, 37, 0
40, 8, 0
40, 22, 0
40, 36, 0
11, 0, 0
11, 31, 0
11, 26, 0
11, 16, 0
11, 39, 0
11, 44, 0
11, 10, 0
5, 7, 0
5, 34, 0
5, 15, 0
5, 48, 0
37, 4, 0
37, 40, 0
37, 32, 0
37, 36, 1
4, 20, 0
4, 37, 0
4, 32, 0
4, 36, 0
35, 45, 0
35, 25, 0
35, 29, 0
35, 28, 0
35, 38, 0
35, 17, 0
35, 9, 0
30, 33, 0
30, 47, 0
30, 6, 0
38, 0, 0
38, 17, 0
38, 35, 0
38, 16, 0
38, 44, 0
38, 10, 0
22, 21, 1
22, 8, 0
22, 40, 0
22, 32, 0
36, 20, 0
36, 21, 0
36, 4, 0
36, 37, 1
36, 8, 0
36, 40, 0
45, 12, 0
45, 25, 0
45, 35, 0
45, 16, 0
45, 28, 0
45, 29, 0
45, 15, 0
45, 17, 0
45, 9, 0
16, 0, 0
16, 45, 0
16, 38, 0
16, 25, 0
16, 17, 0
16, 39, 0
16, 44, 0
16, 11, 0
16, 10, 0
27, 7, 0
27, 6, 0
27, 13, 0
27, 43, 0
27, 48, 0
1, 19, 0
1, 46, 0
1, 23, 0
1, 24, 0
44, 0, 0
44, 31, 0
44, 16, 0
44, 38, 0
44, 39, 0
44, 11, 0
44, 10, 0
48, 7, 0
48, 34, 0
48, 5, 0
48, 27, 0
12, 18, 0
12, 45, 0
12, 15, 0
12, 25, 0
12, 9, 0
25, 12, 0
25, 45, 0
25, 28, 0
25, 29, 0
25, 16, 0
25, 17, 0
25, 35, 0
25, 15, 0
25, 18, 0
25, 9, 0
26, 39, 0
26, 11, 0
26, 31, 0
6, 27, 0
6, 13, 0
6, 30, 0
43, 27, 0
43, 13, 0
9, 12, 0
9, 45, 0
9, 25, 0
9, 29, 0
9, 18, 0
9, 28, 0
9, 35, 0
