13, 28, 0
13, 14, 1
13, 26, 0
13, 11, 0
17, 16, 0
17, 10, 0
17, 2, 0
31, 28, 0
31, 23, 0
23, 20, 0
23, 28, 0
23, 31, 0
10, 16, 0
10, 17, 0
10, 32, 0
10, 2, 0
2, 0, 0
2, 17, 0
2, 24, 0
2, 16, 0
2, 22, 0
2, 10, 0
5, 3, 0
5, 1, 0
5, 29, 0
11, 28, 0
11, 19, 0
11, 13, 0
11, 14, 0
11, 26, 0
1, 18, 0
1, 3, 0
1, 5, 0
1, 24, 0
20, 27, 0
20, 23, 0
4, 12, 0
4, 34, 0
4, 30, 0
14, 13, 1
14, 28, 0
14, 26, 0
14, 11, 0
24, 18, 0
24, 0, 0
24, 2, 0
24, 22, 0
24, 1, 0
28, 13, 0
28, 14, 0
28, 11, 0
28, 23, 0
28, 31, 0
30, 34, 0
30, 4, 0
30, 12, 0
8, 7, 1
8, 33, 0
8, 12, 0
8, 29, 0
15, 21, 0
15, 6, 0
15, 26, 0
22, 0, 0
22, 2, 0
22, 24, 0
0, 16, 0
0, 24, 0
0, 22, 0
0, 2, 0
3, 12, 0
3, 33, 0
3, 5, 0
3, 1, 0
34, 6, 0
34, 4, 0
34, 12, 0
34, 30, 0
16, 0, 0
16, 2, 0
16, 17, 0
16, 32, 0
16, 10, 0
6, 34, 0
6, 15, 0
27, 20, 0
27, 25, 0
7, 33, 0
7, 29, 0
7, 8, 1
7, 9, 1
7, 12, 0
12, 7, 0
12, 3, 0
12, 4, 0
12, 33, 0
12, 29, 0
12, 8, 0
12, 34, 0
12, 30, 0
25, 27, 0
32, 16, 0
32, 10, 0
29, 7, 0
29, 33, 0
29, 12, 0
29, 8, 0
29, 5, 0
29, 9, 0
21, 15, 0
21, 26, 0
33, 7, 0
33, 12, 0
33, 3, 0
33, 29, 0
33, 8, 0
33, 9, 0
19, 26, 0
19, 11, 0
26, 13, 0
26, 14, 0
26, 21, 0
26, 19, 0
26, 15, 0
26, 11, 0
18, 24, 0
18, 1, 0
9, 7, 1
9, 33, 0
9, 29, 0
