0, 5, 0
13, 7, 0
13, 4, 0
13, 17, 0
13, 16, 0
13, 6, 0
13, 8, 0
13, 9, 0
17, 6, 0
17, 8, 0
17, 13, 0
17, 9, 0
3, 15, 0
3, 11, 0
3, 2, 1
16, 7, 0
16, 12, 0
16, 4, 0
16, 13, 0
16, 8, 0
16, 9, 0
6, 13, 0
6, 17, 0
6, 9, 0
8, 7, 0
8, 12, 0
8, 13, 0
8, 17, 0
8, 16, 0
8, 9, 0
8, 15, 0
8, 1, 0
5, 0, 0
5, 14, 0
5, 11, 0
5, 10, 0
11, 3, 0
11, 14, 0
11, 2, 0
11, 15, 0
11, 5, 0
11, 10, 0
10, 14, 0
10, 5, 0
10, 11, 0
7, 16, 0
7, 12, 0
7, 8, 0
7, 13, 0
7, 4, 0
12, 7, 0
12, 4, 0
12, 9, 0
12, 16, 0
12, 8, 0
12, 15, 0
12, 1, 0
4, 16, 0
4, 7, 0
4, 13, 0
4, 12, 0
14, 5, 0
14, 11, 0
14, 10, 0
2, 3, 1
2, 15, 0
2, 11, 0
1, 12, 0
1, 8, 0
1, 15, 0
15, 12, 0
15, 3, 0
15, 2, 0
15, 8, 0
15, 11, 0
15, 1, 0
9, 12, 0
9, 13, 0
9, 17, 0
9, 16, 0
9, 6, 0
9, 8, 0
