0, 7, 0
0, 3, 0
0, 14, 0
0, 2, 0
0, 8, 0
0, 10, 0
0, 9, 0
13, 7, 0
13, 12, 1
13, 4, 0
13, 1, 0
3, 0, 0
3, 7, 0
3, 2, 0
3, 8, 0
3, 10, 0
3, 9, 0
6, 4, 0
6, 15, 0
6, 5, 0
8, 0, 0
8, 7, 0
8, 14, 0
8, 9, 0
8, 3, 0
8, 2, 0
8, 10, 0
8, 1, 0
5, 7, 0
5, 12, 0
5, 4, 0
5, 6, 0
5, 15, 0
5, 11, 0
11, 12, 1
11, 4, 0
11, 5, 0
11, 1, 0
10, 0, 0
10, 3, 0
10, 2, 0
10, 8, 0
10, 9, 1
7, 0, 0
7, 3, 0
7, 13, 0
7, 14, 0
7, 9, 0
7, 4, 0
7, 2, 0
7, 8, 0
7, 5, 0
7, 1, 0
12, 4, 0
12, 13, 1
12, 5, 0
12, 11, 1
12, 1, 0
4, 7, 0
4, 12, 0
4, 13, 0
4, 6, 0
4, 15, 0
4, 5, 0
4, 11, 0
4, 1, 0
14, 0, 0
14, 7, 0
14, 8, 0
14, 2, 0
2, 0, 0
2, 7, 0
2, 14, 0
2, 9, 0
2, 3, 0
2, 8, 0
2, 10, 0
2, 1, 0
1, 7, 0
1, 12, 0
1, 13, 0
1, 4, 0
1, 2, 0
1, 8, 0
1, 11, 0
15, 6, 0
15, 4, 0
15, 5, 0
9, 0, 0
9, 7, 0
9, 3, 0
9, 2, 0
9, 8, 0
9, 10, 1
