58, 18, 0
58, 2, 0
58, 52, 0
58, 66, 0
13, 12, 1
13, 19, 0
13, 49, 0
13, 77, 0
17, 16, 1
17, 60, 0
17, 41, 0
17, 29, 0
29, 60, 0
29, 17, 0
29, 72, 0
29, 56, 0
29, 16, 0
29, 74, 0
29, 63, 0
29, 41, 0
23, 34, 0
23, 53, 0
23, 28, 0
23, 63, 0
23, 33, 0
23, 21, 0
23, 6, 0
23, 2, 0
23, 52, 0
23, 22, 0
23, 30, 0
63, 2, 0
63, 28, 0
63, 56, 0
63, 23, 0
63, 78, 0
63, 60, 0
63, 6, 0
63, 53, 0
63, 74, 0
63, 12, 0
63, 52, 0
63, 54, 0
63, 29, 0
63, 21, 0
63, 42, 0
63, 72, 0
63, 41, 0
63, 22, 0
63, 36, 0
79, 57, 0
79, 78, 1
79, 36, 0
79, 61, 0
79, 66, 0
66, 58, 0
66, 3, 0
66, 18, 0
66, 79, 0
66, 5, 0
66, 73, 0
66, 57, 0
66, 78, 0
66, 52, 0
66, 61, 0
66, 64, 0
66, 48, 0
66, 36, 0
46, 61, 0
46, 64, 0
46, 40, 0
46, 48, 0
46, 73, 0
65, 40, 0
65, 64, 1
65, 5, 0
65, 48, 0
20, 0, 0
20, 62, 0
20, 31, 0
20, 5, 0
14, 27, 0
14, 2, 0
14, 5, 0
14, 31, 0
14, 62, 0
53, 63, 0
53, 28, 0
53, 23, 0
53, 2, 0
53, 21, 0
53, 54, 1
53, 22, 0
53, 30, 0
24, 49, 0
24, 32, 0
24, 51, 0
24, 38, 0
24, 59, 0
24, 44, 0
24, 11, 0
24, 9, 0
24, 7, 0
24, 43, 0
24, 47, 0
24, 26, 0
24, 37, 0
24, 8, 0
24, 15, 0
24, 50, 0
75, 76, 0
75, 71, 0
75, 62, 0
75, 31, 0
75, 5, 0
42, 63, 0
42, 60, 0
42, 41, 1
42, 56, 0
15, 7, 0
15, 37, 0
15, 59, 0
15, 32, 0
15, 24, 0
41, 60, 0
41, 17, 0
41, 56, 0
41, 29, 0
41, 63, 0
41, 42, 1
0, 20, 0
0, 71, 0
0, 62, 0
0, 31, 0
0, 5, 0
68, 45, 0
68, 69, 1
68, 70, 0
68, 67, 0
68, 35, 0
62, 20, 0
62, 0, 0
62, 14, 0
62, 31, 0
62, 76, 0
62, 75, 0
62, 27, 0
62, 71, 0
62, 5, 0
51, 9, 0
51, 43, 0
51, 77, 0
51, 24, 0
51, 38, 0
51, 19, 0
51, 49, 0
51, 39, 0
51, 44, 0
51, 50, 0
12, 45, 0
12, 13, 1
12, 31, 0
12, 4, 0
12, 63, 0
12, 19, 0
12, 49, 0
6, 34, 0
6, 23, 0
6, 2, 0
6, 21, 0
6, 33, 0
6, 63, 0
6, 22, 0
74, 63, 0
74, 72, 0
74, 16, 0
74, 29, 0
47, 7, 0
47, 8, 0
47, 59, 0
47, 55, 0
47, 24, 0
10, 45, 0
10, 4, 0
10, 25, 0
10, 49, 0
7, 11, 0
7, 55, 0
7, 32, 0
7, 26, 0
7, 24, 0
7, 37, 0
7, 59, 0
7, 8, 0
7, 15, 0
7, 47, 0
3, 18, 0
3, 78, 0
3, 36, 0
3, 52, 0
3, 66, 0
69, 68, 1
69, 67, 0
69, 70, 0
69, 45, 0
69, 35, 0
32, 7, 0
32, 59, 0
32, 15, 0
32, 24, 0
2, 58, 0
2, 55, 0
2, 28, 0
2, 23, 0
2, 33, 0
2, 63, 0
2, 6, 0
2, 53, 0
2, 5, 0
2, 30, 0
2, 34, 0
2, 54, 0
2, 21, 0
2, 52, 0
2, 14, 0
2, 22, 0
37, 7, 0
37, 26, 0
37, 24, 0
37, 59, 0
37, 55, 0
37, 15, 0
37, 11, 0
33, 34, 1
33, 28, 0
33, 23, 0
33, 2, 0
33, 6, 0
33, 36, 0
33, 52, 0
33, 30, 0
19, 12, 0
19, 13, 0
19, 50, 0
19, 51, 0
19, 49, 0
19, 38, 0
19, 77, 0
49, 45, 0
49, 13, 0
49, 77, 0
49, 51, 0
49, 10, 0
49, 12, 0
49, 4, 0
49, 25, 0
49, 50, 0
49, 24, 0
49, 43, 0
49, 19, 0
49, 38, 0
48, 57, 0
48, 66, 0
48, 61, 0
48, 64, 0
48, 5, 0
48, 65, 0
48, 40, 0
48, 46, 0
48, 73, 0
16, 60, 0
16, 74, 0
16, 17, 1
16, 29, 0
70, 45, 0
70, 69, 0
70, 31, 0
70, 35, 0
70, 67, 0
70, 68, 0
70, 1, 0
31, 0, 0
31, 45, 0
31, 35, 0
31, 70, 0
31, 62, 0
31, 67, 0
31, 75, 0
31, 27, 0
31, 71, 0
31, 5, 0
31, 1, 0
31, 20, 0
31, 12, 0
31, 14, 0
31, 76, 0
28, 33, 0
28, 53, 0
28, 52, 0
28, 23, 0
28, 78, 0
28, 21, 0
28, 30, 0
28, 2, 0
28, 63, 0
28, 22, 0
28, 36, 0
45, 68, 0
45, 69, 0
45, 70, 0
45, 31, 0
45, 4, 0
45, 12, 0
45, 25, 0
45, 49, 0
45, 67, 0
45, 10, 0
60, 63, 0
60, 17, 0
60, 56, 0
60, 29, 0
60, 16, 0
60, 42, 0
60, 41, 0
40, 48, 0
40, 46, 0
40, 65, 0
40, 64, 0
40, 5, 0
40, 73, 0
71, 0, 0
71, 62, 0
71, 31, 0
71, 75, 0
71, 76, 0
71, 5, 0
59, 7, 0
59, 55, 0
59, 11, 0
59, 26, 0
59, 24, 0
59, 37, 0
59, 8, 0
59, 15, 0
59, 47, 0
59, 32, 0
52, 58, 0
52, 28, 0
52, 23, 0
52, 78, 0
52, 18, 0
52, 2, 0
52, 30, 0
52, 3, 0
52, 66, 0
52, 21, 0
52, 33, 0
52, 34, 0
52, 63, 0
52, 36, 0
11, 7, 0
11, 37, 0
11, 59, 0
11, 26, 0
11, 24, 0
5, 0, 0
5, 76, 0
5, 62, 0
5, 75, 0
5, 27, 0
5, 71, 0
5, 40, 0
5, 65, 0
5, 20, 0
5, 14, 0
5, 31, 0
5, 66, 0
5, 2, 0
5, 73, 0
5, 64, 0
5, 48, 0
5, 36, 0
61, 57, 0
61, 66, 0
61, 46, 0
61, 64, 0
61, 79, 0
61, 48, 0
61, 73, 0
78, 57, 0
78, 3, 0
78, 52, 0
78, 66, 0
78, 63, 0
78, 28, 0
78, 79, 1
78, 36, 0
4, 12, 0
4, 49, 0
4, 45, 0
4, 10, 0
39, 43, 0
39, 77, 0
39, 51, 0
39, 9, 0
39, 38, 1
39, 50, 0
35, 68, 0
35, 69, 0
35, 70, 0
35, 31, 0
35, 67, 0
30, 33, 0
30, 28, 0
30, 23, 0
30, 2, 0
30, 52, 0
30, 53, 0
30, 22, 0
30, 36, 0
8, 7, 0
8, 55, 0
8, 59, 0
8, 47, 0
8, 24, 0
38, 77, 0
38, 43, 0
38, 50, 0
38, 51, 0
38, 24, 0
38, 19, 0
38, 49, 0
38, 39, 1
38, 44, 0
38, 9, 0
22, 21, 1
22, 28, 0
22, 23, 0
22, 2, 0
22, 63, 0
22, 6, 0
22, 53, 0
22, 54, 0
22, 30, 0
36, 28, 0
36, 78, 0
36, 63, 0
36, 55, 0
36, 79, 0
36, 5, 0
36, 30, 0
36, 57, 0
36, 3, 0
36, 52, 0
36, 66, 0
36, 33, 0
36, 34, 0
25, 45, 0
25, 49, 0
25, 10, 0
57, 78, 0
57, 66, 0
57, 61, 0
57, 64, 0
57, 36, 0
57, 79, 0
57, 48, 0
57, 73, 0
77, 13, 0
77, 43, 0
77, 50, 0
77, 51, 0
77, 39, 0
77, 19, 0
77, 49, 0
77, 38, 0
64, 57, 0
64, 73, 0
64, 48, 0
64, 66, 0
64, 61, 0
64, 65, 1
64, 40, 0
64, 5, 0
64, 46, 0
18, 58, 0
18, 3, 0
18, 52, 0
18, 66, 0
27, 14, 0
27, 62, 0
27, 31, 0
27, 5, 0
1, 70, 0
1, 31, 0
55, 7, 0
55, 50, 0
55, 2, 0
55, 37, 0
55, 8, 0
55, 59, 0
55, 47, 0
55, 36, 0
44, 43, 1
44, 9, 0
44, 38, 0
44, 51, 0
44, 24, 0
73, 57, 0
73, 46, 0
73, 66, 0
73, 61, 0
73, 64, 0
73, 40, 0
73, 48, 0
73, 5, 0
34, 33, 1
34, 52, 0
34, 23, 0
34, 2, 0
34, 21, 0
34, 6, 0
34, 36, 0
56, 63, 0
56, 42, 0
56, 60, 0
56, 41, 0
56, 29, 0
21, 28, 0
21, 34, 0
21, 54, 0
21, 23, 0
21, 2, 0
21, 63, 0
21, 6, 0
21, 53, 0
21, 52, 0
21, 22, 1
54, 21, 0
54, 63, 0
54, 53, 1
54, 22, 0
54, 2, 0
50, 55, 0
50, 43, 0
50, 77, 0
50, 51, 0
50, 24, 0
50, 38, 0
50, 19, 0
50, 49, 0
50, 39, 0
50, 9, 0
26, 37, 0
26, 7, 0
26, 59, 0
26, 11, 0
26, 24, 0
76, 75, 0
76, 71, 0
76, 62, 0
76, 31, 0
76, 5, 0
72, 63, 0
72, 74, 0
72, 29, 0
43, 77, 0
43, 50, 0
43, 51, 0
43, 24, 0
43, 39, 0
43, 49, 0
43, 38, 0
43, 44, 1
43, 9, 0
67, 68, 0
67, 69, 0
67, 70, 0
67, 31, 0
67, 45, 0
67, 35, 0
9, 43, 0
9, 50, 0
9, 51, 0
9, 24, 0
9, 39, 0
9, 38, 0
9, 44, 0
