0, 7, 0
0, 1, 1
0, 4, 0
0, 2, 1
6, 11, 0
1, 0, 1
1, 7, 0
1, 2, 1
5, 3, 0
5, 8, 0
5, 4, 0
5, 10, 0
11, 6, 0
11, 9, 0
10, 3, 0
10, 8, 0
10, 5, 0
7, 0, 0
7, 2, 0
7, 9, 0
7, 1, 0
3, 8, 0
3, 5, 0
3, 10, 0
4, 0, 0
4, 5, 0
4, 2, 0
2, 0, 1
2, 7, 0
2, 4, 0
2, 1, 1
8, 3, 0
8, 5, 0
8, 10, 0
9, 7, 0
9, 11, 0
