0, 12, 0
0, 13, 0
0, 14, 0
0, 6, 0
0, 15, 0
0, 11, 0
0, 10, 0
13, 0, 0
13, 12, 0
13, 17, 0
13, 16, 0
13, 15, 1
13, 5, 0
13, 11, 0
17, 12, 0
17, 13, 0
17, 14, 0
17, 16, 0
17, 6, 0
17, 15, 0
17, 5, 0
17, 11, 0
3, 7, 0
3, 4, 1
3, 2, 0
3, 16, 0
3, 8, 0
3, 1, 0
16, 13, 0
16, 17, 0
16, 5, 0
16, 11, 0
16, 1, 0
16, 7, 0
16, 3, 0
16, 4, 0
16, 14, 0
16, 2, 0
16, 8, 0
16, 15, 0
6, 0, 0
6, 17, 0
6, 11, 0
6, 10, 0
8, 7, 1
8, 3, 0
8, 4, 0
8, 2, 0
8, 16, 0
8, 9, 0
8, 1, 0
5, 13, 0
5, 14, 0
5, 16, 0
5, 17, 0
5, 15, 0
5, 11, 0
11, 0, 0
11, 12, 0
11, 13, 0
11, 14, 0
11, 16, 0
11, 6, 0
11, 15, 0
11, 5, 0
11, 17, 0
11, 10, 0
10, 0, 0
10, 6, 0
10, 11, 0
7, 3, 0
7, 4, 0
7, 2, 0
7, 16, 0
7, 8, 1
7, 1, 0
12, 0, 0
12, 13, 0
12, 14, 0
12, 17, 0
12, 15, 0
12, 11, 0
4, 7, 0
4, 3, 1
4, 2, 0
4, 16, 0
4, 8, 0
4, 1, 0
14, 0, 0
14, 12, 0
14, 17, 0
14, 16, 0
14, 15, 1
14, 5, 0
14, 11, 0
2, 7, 0
2, 3, 0
2, 4, 0
2, 9, 0
2, 16, 0
2, 8, 0
2, 1, 0
1, 7, 0
1, 3, 0
1, 4, 0
1, 2, 0
1, 16, 0
1, 8, 0
1, 9, 0
15, 0, 0
15, 12, 0
15, 13, 1
15, 14, 1
15, 16, 0
15, 17, 0
15, 5, 0
15, 11, 0
9, 2, 0
9, 8, 0
9, 1, 0
