0, 10, 0
0, 1, 0
0, 8, 0
0, 5, 0
0, 2, 0
3, 10, 0
3, 4, 1
3, 5, 1
3, 2, 1
4, 3, 1
4, 10, 0
4, 5, 1
4, 2, 1
2, 0, 0
2, 3, 1
2, 4, 1
2, 5, 1
2, 10, 0
6, 7, 1
6, 10, 0
6, 9, 0
1, 0, 0
1, 8, 0
8, 0, 0
8, 1, 0
5, 0, 0
5, 3, 1
5, 4, 1
5, 10, 0
5, 2, 1
7, 6, 1
7, 10, 0
7, 9, 0
10, 7, 0
10, 3, 0
10, 4, 0
10, 2, 0
10, 6, 0
10, 0, 0
10, 5, 0
10, 9, 0
9, 7, 0
9, 6, 0
9, 10, 0
