0, 7, 0
0, 12, 0
0, 4, 0
0, 5, 0
8, 6, 0
8, 9, 1
8, 10, 0
3, 2, 0
3, 1, 0
6, 7, 0
6, 8, 0
6, 10, 0
6, 4, 0
6, 9, 0
5, 0, 0
5, 12, 0
11, 12, 0
10, 6, 0
10, 8, 0
10, 9, 0
10, 1, 0
7, 0, 0
7, 6, 0
7, 4, 0
7, 12, 0
12, 0, 0
12, 7, 0
12, 5, 0
12, 11, 0
4, 0, 0
4, 6, 0
4, 7, 0
2, 3, 0
1, 3, 0
1, 10, 0
9, 6, 0
9, 8, 1
9, 10, 0
