0, 12, 0
0, 11, 0
0, 1, 1
8, 7, 0
8, 11, 0
3, 2, 0
6, 4, 0
6, 9, 0
6, 10, 0
5, 12, 0
5, 9, 0
11, 0, 0
11, 12, 0
11, 8, 0
11, 9, 0
11, 1, 0
10, 6, 0
10, 9, 0
7, 8, 0
7, 2, 0
12, 0, 0
12, 5, 0
12, 11, 0
12, 1, 0
4, 6, 0
4, 9, 0
2, 7, 0
2, 3, 0
1, 0, 1
1, 12, 0
1, 11, 0
9, 6, 0
9, 4, 0
9, 5, 0
9, 11, 0
9, 10, 0
