13, 25, 0
13, 9, 0
17, 20, 0
17, 3, 0
17, 26, 0
17, 12, 0
17, 18, 0
17, 1, 0
23, 5, 0
23, 10, 0
5, 23, 0
5, 10, 0
11, 4, 0
11, 10, 0
11, 22, 0
11, 24, 0
1, 21, 0
1, 20, 0
1, 17, 0
1, 18, 0
1, 26, 0
20, 18, 0
20, 17, 0
20, 26, 0
20, 1, 0
4, 16, 0
4, 24, 0
4, 22, 0
4, 11, 0
4, 10, 0
14, 16, 0
14, 12, 0
24, 4, 0
24, 22, 0
24, 11, 0
24, 10, 0
8, 7, 0
8, 2, 0
8, 15, 0
8, 9, 0
15, 21, 0
15, 7, 0
15, 8, 0
15, 9, 0
15, 2, 0
22, 16, 0
22, 4, 0
22, 10, 0
22, 11, 0
22, 24, 0
0, 3, 0
0, 12, 0
3, 0, 0
3, 12, 0
3, 17, 0
16, 4, 0
16, 14, 0
16, 22, 0
16, 10, 0
6, 19, 0
6, 25, 0
10, 12, 0
10, 4, 0
10, 22, 0
10, 23, 0
10, 24, 0
10, 16, 0
10, 5, 0
10, 11, 0
7, 8, 0
7, 15, 0
7, 9, 0
7, 2, 0
12, 0, 0
12, 3, 0
12, 14, 0
12, 17, 0
12, 10, 0
25, 6, 0
25, 19, 0
25, 13, 0
26, 20, 0
26, 18, 0
26, 21, 0
26, 17, 0
26, 1, 0
2, 7, 0
2, 8, 0
2, 15, 0
2, 9, 0
21, 15, 0
21, 26, 0
21, 1, 0
19, 6, 0
19, 25, 0
18, 20, 0
18, 17, 0
18, 26, 0
18, 1, 0
9, 7, 0
9, 2, 0
9, 8, 0
9, 15, 0
9, 13, 0
