0, 6, 0
0, 1, 0
0, 5, 0
0, 2, 0
3, 8, 0
3, 5, 0
4, 7, 0
4, 8, 0
4, 5, 0
4, 9, 0
2, 0, 0
2, 5, 0
2, 1, 1
6, 0, 0
1, 0, 0
1, 5, 0
1, 2, 1
8, 3, 0
8, 4, 0
8, 5, 0
5, 0, 0
5, 3, 0
5, 4, 0
5, 2, 0
5, 8, 0
5, 1, 0
7, 4, 0
7, 9, 0
9, 7, 0
9, 4, 0
