0, 7, 0
0, 8, 0
0, 1, 0
3, 6, 0
3, 4, 0
3, 5, 0
4, 3, 0
4, 6, 0
4, 1, 0
4, 8, 0
4, 5, 1
4, 9, 0
2, 7, 0
2, 8, 0
2, 9, 0
6, 3, 0
6, 4, 0
1, 0, 0
1, 8, 0
1, 5, 0
1, 4, 0
8, 7, 0
8, 0, 0
8, 4, 0
8, 2, 0
8, 9, 0
8, 1, 0
5, 3, 0
5, 4, 1
5, 1, 0
7, 0, 0
7, 2, 0
7, 8, 0
7, 9, 0
9, 7, 0
9, 8, 0
9, 4, 0
9, 2, 0
