0, 7, 0
0, 3, 0
0, 8, 0
0, 10, 0
3, 0, 0
3, 8, 0
3, 10, 0
4, 1, 0
4, 9, 0
2, 7, 0
6, 5, 0
1, 4, 0
1, 5, 0
8, 0, 0
8, 3, 0
8, 10, 0
5, 6, 0
5, 1, 0
7, 0, 0
7, 2, 0
10, 0, 0
10, 3, 0
10, 8, 0
10, 9, 0
9, 4, 0
9, 10, 0
