0, 3, 0
0, 13, 0
0, 4, 0
0, 6, 0
0, 1, 1
0, 10, 0
13, 0, 0
13, 4, 0
13, 1, 0
3, 0, 0
3, 9, 0
3, 10, 0
6, 0, 0
6, 1, 0
6, 2, 0
8, 11, 0
8, 9, 0
5, 7, 0
5, 11, 0
11, 7, 0
11, 8, 0
11, 5, 0
10, 0, 0
10, 12, 0
10, 3, 0
7, 5, 0
7, 11, 0
12, 10, 0
12, 2, 0
4, 0, 0
4, 13, 0
2, 12, 0
2, 6, 0
1, 0, 1
1, 6, 0
1, 13, 0
9, 3, 0
9, 8, 0
