0, 6, 0
0, 10, 0
0, 2, 0
3, 7, 0
3, 6, 0
3, 8, 0
3, 10, 0
4, 2, 0
4, 10, 0
4, 1, 0
4, 5, 0
4, 9, 0
2, 0, 0
2, 4, 0
2, 6, 0
2, 1, 0
2, 5, 0
2, 10, 0
2, 9, 0
6, 0, 0
6, 3, 0
6, 7, 0
6, 2, 0
6, 8, 0
6, 10, 0
1, 2, 0
1, 9, 0
1, 5, 0
1, 4, 0
1, 10, 0
8, 7, 1
8, 3, 0
8, 10, 0
8, 6, 0
5, 1, 0
5, 4, 0
5, 10, 0
5, 2, 0
7, 3, 0
7, 8, 1
7, 6, 0
10, 0, 0
10, 3, 0
10, 4, 0
10, 2, 0
10, 6, 0
10, 1, 0
10, 8, 0
10, 5, 0
10, 9, 0
9, 2, 0
9, 4, 0
9, 10, 0
9, 1, 0
