0, 7, 0
0, 11, 0
0, 1, 1
8, 7, 0
8, 6, 0
8, 9, 0
8, 2, 0
3, 2, 0
3, 12, 0
3, 10, 0
3, 4, 0
3, 9, 0
6, 8, 0
6, 9, 0
6, 2, 0
5, 12, 0
5, 4, 0
5, 10, 0
11, 0, 0
11, 7, 0
11, 1, 0
10, 3, 0
10, 4, 0
10, 5, 0
7, 0, 0
7, 9, 0
7, 2, 0
7, 8, 0
7, 11, 0
7, 1, 0
12, 3, 0
12, 4, 0
12, 5, 0
4, 12, 0
4, 3, 0
4, 5, 0
4, 10, 0
2, 7, 0
2, 6, 0
2, 8, 0
2, 3, 0
2, 9, 0
1, 0, 1
1, 7, 0
1, 11, 0
9, 7, 0
9, 6, 0
9, 2, 0
9, 8, 0
9, 3, 0
