13, 4, 0
13, 42, 0
13, 6, 0
13, 49, 0
13, 40, 0
13, 30, 0
17, 12, 0
17, 44, 0
17, 21, 0
17, 18, 0
17, 11, 0
17, 1, 0
23, 0, 0
23, 33, 0
23, 27, 0
23, 20, 0
23, 9, 0
23, 40, 0
23, 22, 1
23, 30, 0
46, 14, 0
46, 35, 0
46, 10, 0
46, 39, 0
46, 41, 0
46, 48, 0
20, 0, 0
20, 45, 0
20, 23, 0
20, 16, 0
20, 2, 0
20, 7, 0
20, 33, 0
20, 43, 0
20, 50, 0
20, 31, 0
20, 29, 0
20, 19, 0
20, 8, 0
20, 39, 0
20, 41, 0
20, 9, 0
34, 18, 0
34, 43, 0
34, 39, 0
34, 26, 0
14, 52, 0
14, 32, 0
14, 51, 0
14, 35, 0
14, 46, 0
14, 39, 0
14, 41, 0
14, 10, 0
24, 6, 0
24, 42, 0
24, 40, 0
24, 27, 0
24, 30, 0
28, 18, 0
28, 12, 0
28, 15, 0
28, 39, 0
28, 21, 0
15, 21, 0
15, 28, 0
15, 4, 0
15, 39, 0
15, 18, 0
41, 45, 0
41, 51, 0
41, 6, 0
41, 39, 0
41, 2, 0
41, 46, 0
41, 47, 0
41, 10, 0
41, 20, 0
41, 33, 0
41, 29, 0
41, 4, 0
41, 52, 0
41, 50, 0
41, 31, 0
41, 35, 0
41, 14, 0
41, 8, 0
41, 5, 0
41, 48, 0
0, 20, 0
0, 33, 0
0, 23, 0
0, 31, 0
0, 6, 0
0, 40, 0
0, 5, 0
0, 22, 0
8, 20, 0
8, 45, 0
8, 7, 0
8, 31, 0
8, 19, 0
8, 41, 0
8, 47, 0
8, 9, 0
51, 52, 0
51, 32, 0
51, 35, 0
51, 14, 0
51, 39, 0
51, 41, 0
51, 10, 0
3, 42, 0
3, 6, 0
3, 40, 0
3, 27, 0
3, 30, 0
38, 37, 1
38, 26, 0
47, 7, 0
47, 19, 0
47, 8, 0
47, 41, 0
47, 9, 0
10, 52, 0
10, 51, 0
10, 32, 0
10, 35, 0
10, 14, 0
10, 39, 0
10, 46, 0
10, 41, 0
7, 20, 0
7, 45, 0
7, 50, 0
7, 19, 0
7, 8, 0
7, 5, 0
7, 47, 0
7, 9, 0
33, 20, 0
33, 0, 0
33, 50, 0
33, 23, 0
33, 31, 0
33, 2, 0
33, 40, 0
33, 41, 0
33, 22, 0
33, 9, 0
32, 14, 0
32, 51, 0
32, 35, 0
32, 52, 0
32, 39, 0
32, 10, 0
2, 20, 0
2, 33, 0
2, 50, 0
2, 31, 0
2, 29, 0
2, 6, 0
2, 41, 0
2, 5, 0
21, 12, 0
21, 28, 0
21, 26, 0
21, 18, 0
21, 17, 0
21, 15, 0
21, 39, 0
21, 44, 0
21, 11, 0
21, 1, 0
25, 18, 0
25, 26, 0
25, 11, 0
19, 7, 0
19, 20, 0
19, 50, 0
19, 8, 0
19, 5, 0
19, 47, 0
19, 9, 0
49, 6, 0
49, 13, 0
49, 4, 0
48, 35, 0
48, 41, 0
48, 46, 0
31, 0, 0
31, 45, 0
31, 16, 0
31, 6, 0
31, 5, 0
31, 20, 0
31, 33, 0
31, 50, 0
31, 2, 0
31, 8, 0
31, 41, 0
31, 9, 0
39, 28, 0
39, 51, 0
39, 34, 0
39, 18, 0
39, 46, 0
39, 1, 0
39, 20, 0
39, 12, 0
39, 4, 0
39, 43, 0
39, 32, 0
39, 35, 0
39, 21, 0
39, 52, 0
39, 14, 0
39, 10, 0
39, 15, 0
39, 41, 0
29, 20, 0
29, 41, 0
29, 2, 0
40, 0, 0
40, 33, 0
40, 13, 0
40, 23, 0
40, 3, 0
40, 6, 0
40, 27, 0
40, 24, 0
40, 42, 0
40, 22, 0
40, 30, 0
11, 12, 0
11, 25, 0
11, 26, 0
11, 21, 0
11, 17, 0
11, 18, 0
11, 44, 0
5, 7, 0
5, 0, 0
5, 4, 0
5, 50, 0
5, 31, 0
5, 2, 0
5, 16, 0
5, 6, 0
5, 19, 0
5, 41, 0
37, 38, 1
37, 26, 0
37, 36, 1
4, 13, 0
4, 26, 0
4, 35, 0
4, 6, 0
4, 39, 0
4, 49, 0
4, 15, 0
4, 41, 0
4, 5, 0
35, 4, 0
35, 52, 0
35, 32, 0
35, 51, 0
35, 14, 0
35, 10, 0
35, 39, 0
35, 41, 0
35, 48, 0
35, 46, 0
30, 3, 0
30, 13, 0
30, 23, 0
30, 6, 0
30, 42, 0
30, 24, 0
30, 40, 0
30, 27, 0
42, 3, 0
42, 6, 0
42, 13, 0
42, 24, 0
42, 27, 0
42, 40, 0
42, 30, 0
22, 0, 0
22, 33, 0
22, 40, 0
22, 23, 1
36, 37, 1
36, 26, 0
45, 20, 0
45, 7, 0
45, 31, 0
45, 16, 0
45, 8, 0
45, 41, 0
16, 20, 0
16, 45, 0
16, 5, 0
16, 31, 0
16, 6, 0
27, 3, 0
27, 6, 0
27, 23, 0
27, 24, 0
27, 42, 0
27, 40, 0
27, 30, 0
1, 12, 0
1, 17, 0
1, 26, 0
1, 21, 0
1, 39, 0
1, 18, 0
1, 44, 0
44, 12, 0
44, 17, 0
44, 26, 0
44, 21, 0
44, 18, 0
44, 11, 0
44, 1, 0
12, 21, 0
12, 17, 0
12, 18, 0
12, 28, 0
12, 39, 0
12, 44, 0
12, 11, 0
12, 1, 0
18, 25, 0
18, 28, 0
18, 34, 0
18, 39, 0
18, 44, 0
18, 11, 0
18, 1, 0
18, 12, 0
18, 43, 0
18, 26, 0
18, 21, 0
18, 17, 0
18, 15, 0
52, 14, 0
52, 51, 0
52, 32, 0
52, 35, 0
52, 39, 0
52, 41, 0
52, 10, 0
50, 20, 0
50, 33, 0
50, 7, 0
50, 31, 0
50, 2, 0
50, 19, 0
50, 5, 0
50, 41, 0
50, 9, 0
26, 21, 0
26, 18, 0
26, 44, 0
26, 11, 0
26, 1, 0
26, 34, 0
26, 4, 0
26, 25, 0
26, 37, 0
26, 43, 0
26, 38, 0
26, 36, 0
6, 0, 0
6, 13, 0
6, 16, 0
6, 27, 0
6, 2, 0
6, 40, 0
6, 5, 0
6, 30, 0
6, 3, 0
6, 4, 0
6, 31, 0
6, 24, 0
6, 42, 0
6, 49, 0
6, 41, 0
43, 18, 0
43, 34, 0
43, 20, 0
43, 39, 0
43, 26, 0
9, 20, 0
9, 33, 0
9, 7, 0
9, 50, 0
9, 23, 0
9, 31, 0
9, 19, 0
9, 8, 0
9, 47, 0
