0, 6, 0
0, 4, 0
0, 13, 0
0, 10, 0
0, 12, 0
13, 0, 0
13, 6, 0
3, 2, 0
3, 8, 0
3, 14, 0
3, 9, 0
3, 1, 0
6, 0, 0
6, 12, 0
6, 13, 0
6, 4, 0
8, 7, 0
8, 3, 0
8, 9, 0
8, 10, 0
5, 2, 0
5, 14, 0
5, 11, 0
5, 1, 0
11, 2, 0
11, 14, 0
11, 5, 0
11, 1, 0
10, 0, 0
10, 12, 0
10, 7, 0
10, 4, 0
10, 8, 0
10, 9, 0
7, 12, 0
7, 8, 0
7, 9, 0
7, 10, 0
12, 0, 0
12, 7, 0
12, 4, 0
12, 6, 0
12, 10, 0
12, 9, 0
4, 0, 0
4, 12, 0
4, 10, 0
4, 6, 0
14, 3, 0
14, 2, 0
14, 5, 0
14, 11, 0
14, 1, 0
2, 3, 0
2, 14, 0
2, 5, 0
2, 11, 0
2, 1, 1
1, 3, 0
1, 14, 0
1, 5, 0
1, 11, 0
1, 2, 1
9, 7, 0
9, 12, 0
9, 8, 0
9, 3, 0
9, 10, 0
