0, 7, 0
0, 3, 0
0, 4, 0
3, 0, 0
3, 6, 0
3, 2, 0
3, 1, 0
4, 0, 0
4, 7, 0
4, 5, 0
7, 0, 0
7, 6, 0
7, 4, 0
7, 5, 0
2, 3, 0
2, 6, 0
2, 1, 0
6, 7, 0
6, 3, 0
6, 5, 0
6, 2, 0
5, 7, 0
5, 6, 0
5, 4, 0
1, 3, 0
1, 2, 0
