0, 7, 0
0, 4, 0
0, 15, 0
13, 16, 0
13, 6, 0
13, 15, 0
13, 9, 0
17, 15, 0
17, 14, 0
17, 11, 0
17, 9, 0
3, 6, 0
3, 15, 0
3, 10, 0
16, 6, 0
16, 13, 0
16, 15, 0
16, 11, 0
16, 9, 0
6, 3, 0
6, 13, 0
6, 2, 0
6, 16, 0
6, 1, 0
6, 15, 0
6, 5, 0
6, 11, 0
6, 10, 0
8, 7, 0
8, 12, 0
8, 15, 0
8, 2, 0
5, 4, 0
5, 2, 0
5, 6, 0
5, 1, 0
5, 15, 0
5, 11, 0
5, 10, 0
11, 17, 0
11, 2, 0
11, 16, 0
11, 6, 0
11, 1, 0
11, 15, 0
11, 5, 0
11, 9, 0
10, 3, 0
10, 2, 0
10, 6, 0
10, 15, 0
10, 5, 0
10, 1, 0
7, 0, 0
7, 12, 0
7, 8, 0
7, 15, 0
12, 7, 0
12, 8, 0
12, 15, 0
4, 0, 0
4, 2, 0
4, 15, 0
4, 5, 0
4, 1, 0
14, 15, 0
14, 17, 0
14, 9, 0
2, 4, 0
2, 6, 0
2, 1, 1
2, 8, 0
2, 15, 0
2, 5, 0
2, 11, 0
2, 10, 0
1, 4, 0
1, 2, 1
1, 6, 0
1, 15, 0
1, 5, 0
1, 11, 0
1, 10, 0
15, 0, 0
15, 13, 0
15, 17, 0
15, 3, 0
15, 16, 0
15, 6, 0
15, 8, 0
15, 5, 0
15, 11, 0
15, 10, 0
15, 7, 0
15, 12, 0
15, 4, 0
15, 14, 0
15, 2, 0
15, 1, 0
15, 9, 0
9, 13, 0
9, 14, 0
9, 16, 0
9, 17, 0
9, 15, 0
9, 11, 0
