13, 20, 0
13, 8, 0
13, 5, 0
13, 23, 0
13, 1, 0
17, 18, 1
17, 14, 0
17, 23, 0
17, 1, 0
23, 13, 0
23, 14, 0
23, 18, 0
23, 17, 0
23, 8, 0
23, 1, 0
5, 20, 0
5, 13, 0
5, 4, 0
5, 16, 0
5, 8, 0
5, 1, 0
11, 12, 0
11, 19, 0
11, 8, 0
1, 20, 0
1, 13, 0
1, 14, 0
1, 23, 0
1, 18, 0
1, 17, 0
1, 8, 0
1, 15, 0
1, 5, 0
1, 22, 0
20, 13, 0
20, 14, 0
20, 5, 0
20, 1, 0
4, 16, 0
4, 15, 0
4, 5, 0
4, 24, 0
14, 20, 0
14, 8, 0
14, 17, 0
14, 23, 0
14, 1, 0
24, 16, 0
24, 4, 0
24, 15, 0
8, 13, 0
8, 23, 0
8, 3, 0
8, 6, 0
8, 5, 0
8, 11, 0
8, 1, 0
8, 12, 0
8, 14, 0
8, 21, 0
8, 19, 0
8, 15, 0
8, 22, 0
15, 7, 0
15, 4, 0
15, 24, 0
15, 16, 1
15, 8, 0
15, 1, 0
22, 21, 0
22, 7, 0
22, 19, 0
22, 8, 0
22, 1, 0
0, 3, 0
0, 9, 0
0, 2, 0
3, 0, 0
3, 2, 0
3, 8, 0
3, 9, 0
3, 10, 0
16, 4, 0
16, 15, 1
16, 5, 0
16, 24, 0
6, 12, 0
6, 8, 0
6, 9, 0
10, 3, 0
10, 2, 0
7, 15, 0
7, 22, 0
12, 6, 0
12, 8, 0
12, 11, 0
2, 0, 0
2, 3, 0
2, 9, 0
2, 10, 0
21, 19, 0
21, 8, 0
21, 22, 0
19, 21, 0
19, 8, 0
19, 22, 0
19, 11, 0
18, 17, 1
18, 23, 0
18, 1, 0
9, 0, 0
9, 3, 0
9, 2, 0
9, 6, 0
