13, 20, 0
17, 18, 1
17, 16, 0
17, 19, 0
17, 15, 0
5, 0, 0
5, 6, 0
5, 8, 0
5, 1, 0
11, 21, 0
11, 14, 0
11, 1, 0
1, 0, 1
1, 14, 0
1, 2, 0
1, 6, 0
1, 5, 0
1, 11, 0
20, 13, 0
20, 9, 0
4, 18, 0
4, 3, 0
4, 8, 0
14, 0, 0
14, 6, 0
14, 2, 0
14, 11, 0
14, 1, 0
8, 16, 0
8, 3, 0
8, 19, 0
8, 4, 0
8, 5, 0
15, 16, 1
15, 18, 0
15, 19, 0
15, 17, 0
15, 3, 0
0, 6, 0
0, 2, 0
0, 14, 0
0, 5, 0
0, 1, 1
3, 18, 0
3, 4, 0
3, 16, 0
3, 19, 0
3, 8, 0
3, 15, 0
16, 3, 0
16, 17, 0
16, 18, 0
16, 19, 0
16, 8, 0
16, 15, 1
6, 0, 0
6, 2, 0
6, 14, 0
6, 5, 0
6, 1, 0
10, 7, 0
10, 12, 0
10, 21, 0
7, 9, 0
7, 10, 0
12, 21, 0
12, 10, 0
2, 0, 0
2, 6, 0
2, 14, 0
2, 1, 0
21, 12, 0
21, 11, 0
21, 10, 0
19, 3, 0
19, 17, 0
19, 16, 0
19, 8, 0
19, 15, 0
19, 18, 0
18, 3, 0
18, 4, 0
18, 17, 1
18, 16, 0
18, 19, 0
18, 15, 0
9, 20, 0
9, 7, 0
