13, 0, 0
13, 17, 0
13, 16, 0
13, 11, 0
13, 1, 0
13, 7, 0
13, 12, 0
13, 4, 0
13, 21, 0
13, 8, 0
13, 15, 0
13, 10, 0
17, 0, 0
17, 7, 0
17, 13, 0
17, 16, 0
17, 1, 0
17, 10, 0
17, 20, 0
17, 12, 0
17, 4, 0
17, 14, 0
17, 21, 0
17, 19, 0
17, 8, 0
17, 15, 0
17, 18, 0
5, 0, 0
5, 7, 0
5, 11, 0
11, 0, 0
11, 7, 0
11, 13, 0
11, 14, 0
11, 4, 0
11, 8, 0
11, 5, 0
11, 1, 0
1, 0, 0
1, 16, 0
1, 4, 0
1, 13, 0
1, 9, 0
1, 21, 0
1, 17, 0
1, 8, 0
1, 18, 0
1, 11, 0
1, 10, 0
20, 12, 0
20, 14, 0
20, 21, 0
20, 17, 0
20, 19, 1
20, 8, 0
20, 15, 0
20, 18, 0
20, 10, 0
20, 9, 0
4, 0, 0
4, 7, 0
4, 13, 0
4, 17, 0
4, 9, 0
4, 21, 0
4, 14, 0
4, 8, 0
4, 10, 0
4, 11, 0
4, 1, 0
14, 17, 0
14, 12, 0
14, 6, 0
14, 11, 0
14, 20, 0
14, 3, 0
14, 4, 0
14, 2, 0
14, 19, 0
14, 8, 0
14, 15, 0
14, 9, 0
8, 0, 0
8, 7, 0
8, 13, 0
8, 17, 0
8, 16, 0
8, 11, 0
8, 10, 0
8, 20, 0
8, 12, 0
8, 4, 0
8, 14, 0
8, 21, 0
8, 19, 0
8, 1, 0
8, 15, 0
8, 18, 0
8, 9, 0
15, 20, 0
15, 12, 0
15, 13, 0
15, 14, 0
15, 9, 0
15, 18, 0
15, 17, 0
15, 19, 0
15, 8, 0
15, 10, 0
0, 7, 0
0, 16, 0
0, 4, 0
0, 13, 0
0, 10, 0
0, 21, 0
0, 17, 0
0, 8, 0
0, 5, 0
0, 11, 0
0, 1, 0
3, 6, 0
3, 14, 0
3, 2, 1
16, 0, 0
16, 7, 0
16, 13, 0
16, 17, 0
16, 21, 0
16, 1, 0
16, 8, 0
16, 10, 0
6, 3, 0
6, 14, 0
6, 2, 0
10, 20, 0
10, 12, 0
10, 13, 0
10, 17, 0
10, 4, 0
10, 21, 0
10, 16, 0
10, 0, 0
10, 8, 0
10, 15, 0
10, 1, 0
7, 0, 0
7, 12, 0
7, 4, 0
7, 13, 0
7, 16, 0
7, 17, 0
7, 8, 0
7, 5, 0
7, 11, 0
12, 7, 0
12, 13, 0
12, 17, 0
12, 18, 0
12, 10, 0
12, 20, 0
12, 14, 0
12, 21, 0
12, 19, 0
12, 8, 0
12, 15, 0
12, 9, 0
2, 3, 1
2, 14, 0
2, 6, 0
21, 20, 0
21, 0, 0
21, 13, 0
21, 17, 0
21, 4, 0
21, 12, 0
21, 16, 0
21, 8, 0
21, 10, 0
21, 1, 0
19, 20, 1
19, 12, 0
19, 14, 0
19, 18, 0
19, 17, 0
19, 8, 0
19, 15, 0
19, 9, 0
18, 20, 0
18, 12, 0
18, 17, 0
18, 9, 0
18, 19, 0
18, 8, 0
18, 15, 0
18, 1, 0
9, 20, 0
9, 12, 0
9, 4, 0
9, 14, 0
9, 18, 0
9, 19, 0
9, 8, 0
9, 15, 0
9, 1, 0
