0, 3, 0
0, 8, 0
3, 0, 0
3, 8, 0
3, 1, 0
4, 7, 0
4, 6, 0
4, 8, 0
4, 1, 0
2, 7, 0
2, 8, 0
2, 5, 0
2, 9, 0
6, 7, 0
6, 4, 0
6, 5, 0
6, 9, 0
1, 3, 0
1, 8, 0
1, 4, 0
8, 7, 0
8, 3, 0
8, 4, 0
8, 2, 0
8, 0, 0
8, 1, 0
5, 7, 0
5, 6, 0
5, 2, 0
5, 9, 0
7, 4, 0
7, 2, 0
7, 6, 0
7, 8, 0
7, 5, 0
7, 9, 0
9, 7, 0
9, 6, 0
9, 5, 0
9, 2, 0
