0, 10, 0
0, 9, 0
6, 3, 0
6, 4, 0
6, 2, 0
6, 8, 0
6, 11, 0
6, 1, 0
1, 6, 0
1, 8, 0
1, 5, 0
1, 11, 0
1, 3, 0
5, 4, 0
5, 1, 0
11, 6, 0
11, 3, 0
11, 1, 0
10, 0, 0
10, 7, 0
10, 4, 0
10, 9, 0
10, 2, 0
7, 2, 0
7, 8, 0
7, 4, 0
7, 10, 0
3, 6, 0
3, 11, 0
3, 1, 0
4, 7, 0
4, 2, 0
4, 6, 0
4, 8, 0
4, 5, 0
4, 10, 0
2, 7, 0
2, 4, 0
2, 6, 0
2, 8, 0
2, 10, 0
2, 9, 0
8, 7, 0
8, 6, 0
8, 1, 0
8, 4, 0
8, 2, 0
9, 0, 0
9, 2, 0
9, 10, 0
