13, 7, 0
13, 3, 0
13, 14, 0
13, 26, 0
13, 2, 0
13, 16, 0
17, 0, 0
17, 26, 0
17, 16, 0
17, 6, 0
17, 27, 0
17, 5, 0
17, 47, 0
17, 46, 0
17, 20, 0
17, 14, 0
17, 31, 0
17, 24, 0
17, 21, 0
17, 30, 0
17, 15, 0
17, 10, 0
23, 12, 0
23, 4, 0
23, 32, 0
23, 35, 0
23, 16, 0
23, 19, 0
23, 49, 0
23, 38, 0
23, 48, 0
23, 11, 0
23, 44, 0
42, 26, 0
42, 24, 0
42, 39, 0
42, 46, 0
42, 47, 0
42, 10, 0
46, 0, 0
46, 17, 0
46, 26, 0
46, 31, 0
46, 42, 0
46, 10, 0
46, 39, 0
46, 47, 1
46, 30, 0
20, 0, 0
20, 37, 0
20, 17, 0
20, 16, 0
20, 6, 0
20, 15, 0
20, 5, 0
20, 27, 0
20, 41, 0
20, 34, 0
20, 29, 0
20, 21, 0
20, 1, 0
20, 39, 0
20, 10, 0
34, 0, 0
34, 45, 0
34, 28, 0
34, 18, 0
34, 15, 0
34, 29, 0
34, 40, 0
34, 10, 0
34, 20, 0
34, 21, 0
34, 24, 0
34, 37, 0
34, 1, 0
34, 39, 0
34, 41, 0
34, 36, 0
14, 7, 0
14, 3, 0
14, 13, 0
14, 17, 0
14, 31, 0
14, 26, 0
14, 2, 0
14, 16, 0
14, 40, 0
14, 47, 0
24, 0, 0
24, 45, 0
24, 37, 0
24, 17, 0
24, 28, 0
24, 16, 0
24, 27, 0
24, 15, 0
24, 47, 0
24, 1, 0
24, 34, 0
24, 29, 0
24, 21, 0
24, 42, 0
24, 10, 0
24, 39, 0
24, 41, 0
24, 18, 0
24, 36, 0
28, 34, 0
28, 21, 0
28, 29, 1
28, 37, 0
28, 24, 0
28, 39, 0
28, 41, 0
28, 18, 0
28, 36, 0
39, 0, 0
39, 28, 0
39, 16, 0
39, 29, 0
39, 46, 0
39, 47, 0
39, 1, 0
39, 20, 0
39, 34, 0
39, 26, 0
39, 24, 0
39, 21, 0
39, 42, 0
39, 30, 0
39, 41, 0
39, 10, 0
41, 0, 0
41, 28, 0
41, 39, 0
41, 21, 0
41, 16, 0
41, 27, 0
41, 24, 0
41, 1, 0
41, 20, 0
41, 34, 0
41, 26, 0
41, 6, 0
41, 37, 0
41, 29, 0
41, 10, 0
41, 15, 0
0, 17, 0
0, 26, 0
0, 16, 0
0, 6, 0
0, 5, 0
0, 29, 0
0, 46, 0
0, 47, 0
0, 30, 0
0, 20, 0
0, 34, 0
0, 31, 0
0, 24, 0
0, 37, 0
0, 10, 0
0, 1, 0
0, 39, 0
0, 41, 0
0, 27, 0
8, 25, 0
8, 50, 0
8, 35, 0
8, 16, 0
8, 49, 0
8, 38, 0
8, 44, 0
8, 9, 1
33, 12, 0
33, 4, 0
33, 32, 1
33, 35, 0
33, 38, 0
33, 11, 0
15, 17, 0
15, 21, 0
15, 6, 0
15, 29, 0
15, 5, 0
15, 27, 0
15, 20, 0
15, 34, 0
15, 26, 0
15, 24, 0
15, 37, 0
15, 1, 0
15, 41, 0
47, 0, 0
47, 17, 0
47, 31, 0
47, 46, 1
47, 10, 0
47, 7, 0
47, 14, 0
47, 26, 0
47, 24, 0
47, 42, 0
47, 30, 0
47, 39, 0
10, 0, 0
10, 17, 0
10, 46, 0
10, 47, 0
10, 30, 0
10, 20, 0
10, 34, 0
10, 26, 0
10, 24, 0
10, 42, 0
10, 39, 0
10, 41, 0
7, 3, 0
7, 13, 0
7, 14, 0
7, 31, 0
7, 26, 0
7, 2, 0
7, 16, 0
7, 40, 0
7, 47, 0
3, 7, 0
3, 13, 0
3, 14, 0
3, 26, 0
3, 2, 1
3, 16, 0
3, 40, 0
32, 12, 0
32, 4, 0
32, 23, 0
32, 33, 1
32, 19, 0
32, 35, 0
32, 38, 0
32, 11, 0
2, 7, 0
2, 3, 1
2, 13, 0
2, 14, 0
2, 26, 0
2, 16, 0
2, 40, 0
21, 45, 0
21, 28, 0
21, 18, 0
21, 39, 0
21, 29, 0
21, 5, 0
21, 20, 0
21, 34, 0
21, 26, 0
21, 24, 0
21, 37, 0
21, 17, 0
21, 15, 0
21, 41, 0
21, 36, 0
19, 43, 0
19, 32, 0
19, 23, 0
19, 35, 0
19, 25, 0
19, 38, 0
19, 48, 0
19, 11, 0
49, 4, 0
49, 50, 1
49, 23, 0
49, 35, 0
49, 16, 0
49, 8, 0
49, 38, 0
49, 44, 0
49, 22, 0
49, 9, 0
18, 45, 0
18, 34, 0
18, 28, 0
18, 21, 0
18, 37, 0
18, 24, 0
18, 36, 0
31, 0, 0
31, 7, 0
31, 14, 0
31, 26, 0
31, 16, 0
31, 17, 0
31, 40, 0
31, 46, 0
31, 47, 0
31, 30, 1
29, 20, 0
29, 0, 0
29, 21, 0
29, 28, 1
29, 24, 0
29, 37, 0
29, 15, 0
29, 34, 0
29, 39, 0
29, 41, 0
29, 36, 0
40, 7, 0
40, 3, 0
40, 14, 0
40, 31, 0
40, 2, 0
40, 16, 0
40, 34, 0
11, 12, 1
11, 4, 0
11, 23, 0
11, 32, 0
11, 33, 0
11, 16, 0
11, 19, 0
11, 35, 0
11, 38, 0
11, 48, 0
5, 20, 0
5, 0, 0
5, 17, 0
5, 26, 0
5, 27, 0
5, 21, 0
5, 6, 1
5, 15, 0
37, 0, 0
37, 45, 0
37, 28, 0
37, 18, 0
37, 29, 0
37, 20, 0
37, 34, 0
37, 24, 0
37, 21, 0
37, 15, 0
37, 41, 0
37, 36, 1
4, 23, 0
4, 33, 0
4, 16, 0
4, 44, 0
4, 11, 0
4, 12, 0
4, 50, 0
4, 32, 0
4, 35, 0
4, 49, 0
4, 38, 0
4, 48, 0
4, 22, 0
35, 8, 0
35, 23, 0
35, 33, 0
35, 16, 0
35, 44, 0
35, 11, 0
35, 12, 0
35, 4, 0
35, 43, 0
35, 50, 0
35, 32, 0
35, 25, 0
35, 19, 0
35, 49, 0
35, 38, 0
35, 48, 0
35, 22, 0
30, 0, 0
30, 17, 0
30, 26, 0
30, 31, 1
30, 39, 0
30, 46, 0
30, 47, 0
30, 10, 0
38, 8, 0
38, 23, 0
38, 33, 0
38, 44, 0
38, 11, 0
38, 12, 0
38, 4, 0
38, 25, 0
38, 50, 0
38, 32, 0
38, 35, 0
38, 43, 0
38, 19, 0
38, 49, 0
38, 48, 0
22, 49, 0
22, 50, 0
22, 4, 0
22, 35, 0
36, 34, 0
36, 21, 0
36, 28, 0
36, 29, 0
36, 37, 1
36, 24, 0
36, 18, 0
36, 45, 0
45, 37, 0
45, 34, 0
45, 21, 0
45, 24, 0
45, 18, 0
45, 36, 0
16, 13, 0
16, 17, 0
16, 26, 0
16, 23, 0
16, 24, 0
16, 40, 0
16, 11, 0
16, 20, 0
16, 4, 0
16, 14, 0
16, 35, 0
16, 8, 0
16, 39, 0
16, 41, 0
16, 0, 0
16, 6, 0
16, 44, 0
16, 7, 0
16, 3, 0
16, 25, 0
16, 50, 0
16, 31, 0
16, 2, 0
16, 43, 0
16, 49, 0
16, 48, 0
27, 20, 0
27, 0, 0
27, 17, 0
27, 24, 0
27, 6, 0
27, 1, 0
27, 15, 0
27, 5, 0
27, 41, 0
1, 20, 0
1, 0, 0
1, 24, 0
1, 15, 0
1, 34, 0
1, 39, 0
1, 41, 0
1, 27, 0
44, 49, 0
44, 4, 0
44, 25, 0
44, 50, 0
44, 23, 0
44, 35, 0
44, 16, 0
44, 8, 0
44, 38, 0
44, 9, 0
48, 12, 0
48, 4, 0
48, 23, 0
48, 35, 0
48, 16, 0
48, 19, 0
48, 38, 0
48, 11, 0
12, 33, 0
12, 4, 0
12, 32, 0
12, 23, 0
12, 35, 0
12, 38, 0
12, 48, 0
12, 11, 1
25, 43, 0
25, 35, 0
25, 16, 0
25, 19, 0
25, 8, 0
25, 38, 0
25, 44, 0
50, 49, 1
50, 4, 0
50, 35, 0
50, 16, 0
50, 8, 0
50, 38, 0
50, 44, 0
50, 22, 0
50, 9, 0
26, 0, 0
26, 13, 0
26, 17, 0
26, 16, 0
26, 6, 0
26, 15, 0
26, 5, 0
26, 47, 0
26, 10, 0
26, 7, 0
26, 3, 0
26, 46, 0
26, 31, 0
26, 2, 0
26, 21, 0
26, 42, 0
26, 14, 0
26, 30, 0
26, 39, 0
26, 41, 0
6, 20, 0
6, 0, 0
6, 17, 0
6, 26, 0
6, 16, 0
6, 27, 0
6, 15, 0
6, 41, 0
6, 5, 1
43, 16, 0
43, 38, 0
43, 19, 0
43, 25, 0
43, 35, 0
9, 44, 0
9, 8, 1
9, 49, 0
9, 50, 0
