0, 12, 0
0, 13, 0
0, 4, 0
0, 6, 0
0, 8, 0
0, 10, 0
0, 9, 0
13, 0, 0
13, 12, 0
13, 10, 0
13, 5, 0
13, 9, 0
3, 11, 0
6, 0, 0
6, 12, 0
6, 8, 0
6, 4, 0
8, 0, 0
8, 6, 0
8, 4, 0
8, 14, 0
5, 13, 0
5, 9, 0
5, 10, 0
11, 7, 0
11, 3, 0
10, 0, 0
10, 13, 0
10, 5, 0
10, 9, 0
7, 11, 0
7, 1, 0
12, 0, 0
12, 6, 0
12, 13, 0
4, 0, 0
4, 6, 0
4, 8, 0
14, 8, 0
14, 2, 0
2, 14, 0
2, 1, 0
1, 7, 0
1, 2, 0
9, 0, 0
9, 13, 0
9, 5, 0
9, 10, 0
