13, 7, 0
13, 12, 1
13, 4, 0
13, 25, 0
13, 26, 0
13, 16, 0
13, 14, 0
13, 30, 0
13, 15, 0
13, 1, 0
17, 28, 0
17, 11, 0
17, 32, 0
17, 5, 0
31, 24, 0
31, 23, 0
31, 29, 0
23, 20, 0
23, 0, 0
23, 31, 0
23, 29, 0
23, 21, 0
23, 24, 0
10, 24, 0
10, 1, 0
10, 9, 1
10, 22, 0
10, 29, 0
2, 20, 0
2, 0, 0
2, 21, 0
2, 3, 1
2, 18, 0
2, 27, 0
2, 1, 0
5, 20, 0
5, 28, 0
5, 17, 0
5, 32, 0
5, 16, 0
5, 6, 0
5, 14, 0
5, 8, 0
5, 15, 0
5, 19, 0
5, 11, 0
11, 28, 0
11, 17, 0
11, 5, 0
1, 0, 0
1, 13, 0
1, 16, 0
1, 27, 0
1, 2, 0
1, 10, 0
1, 7, 0
1, 3, 0
1, 4, 0
1, 25, 0
1, 26, 0
1, 24, 0
1, 15, 0
20, 0, 0
20, 23, 0
20, 18, 0
20, 27, 0
20, 24, 0
20, 5, 0
20, 7, 0
20, 3, 0
20, 4, 0
20, 14, 0
20, 2, 0
20, 21, 1
4, 0, 0
4, 7, 0
4, 13, 0
4, 16, 0
4, 6, 0
4, 8, 0
4, 30, 0
4, 20, 0
4, 12, 0
4, 14, 0
4, 25, 0
4, 19, 0
4, 1, 0
4, 15, 0
14, 0, 0
14, 7, 0
14, 13, 0
14, 16, 0
14, 27, 0
14, 5, 0
14, 30, 0
14, 20, 0
14, 12, 0
14, 4, 0
14, 21, 0
14, 15, 0
14, 18, 0
24, 20, 0
24, 18, 0
24, 31, 0
24, 23, 0
24, 29, 0
24, 21, 0
24, 0, 0
24, 10, 0
24, 1, 0
28, 17, 0
28, 32, 0
28, 16, 0
28, 15, 0
28, 5, 0
28, 11, 0
30, 0, 0
30, 7, 0
30, 4, 0
30, 14, 0
30, 12, 0
30, 13, 0
30, 27, 0
30, 18, 0
8, 16, 0
8, 6, 0
8, 19, 0
8, 4, 0
8, 5, 0
15, 13, 0
15, 28, 0
15, 3, 0
15, 16, 1
15, 27, 0
15, 5, 0
15, 1, 0
15, 7, 0
15, 12, 0
15, 4, 0
15, 14, 0
15, 26, 0
15, 25, 0
22, 9, 0
22, 10, 0
22, 29, 0
0, 7, 0
0, 23, 0
0, 18, 0
0, 27, 0
0, 24, 0
0, 30, 0
0, 20, 0
0, 12, 0
0, 4, 0
0, 14, 0
0, 2, 0
0, 21, 0
0, 29, 0
0, 1, 0
0, 9, 0
12, 0, 0
12, 7, 0
12, 13, 1
12, 14, 0
12, 4, 0
12, 16, 0
12, 25, 0
12, 15, 0
12, 30, 0
16, 13, 0
16, 28, 0
16, 3, 0
16, 5, 0
16, 1, 0
16, 7, 0
16, 12, 0
16, 4, 0
16, 25, 0
16, 26, 0
16, 14, 0
16, 8, 0
16, 15, 1
6, 19, 0
6, 8, 0
6, 5, 0
6, 4, 0
27, 0, 0
27, 7, 0
27, 18, 0
27, 1, 0
27, 20, 0
27, 3, 0
27, 14, 0
27, 2, 0
27, 21, 0
27, 25, 0
27, 30, 0
27, 15, 0
7, 0, 0
7, 13, 0
7, 3, 0
7, 16, 0
7, 27, 0
7, 30, 0
7, 20, 0
7, 12, 0
7, 4, 0
7, 14, 0
7, 21, 0
7, 25, 0
7, 1, 0
7, 15, 0
3, 20, 0
3, 7, 0
3, 25, 0
3, 2, 1
3, 16, 0
3, 27, 0
3, 15, 0
3, 18, 0
3, 1, 0
25, 7, 0
25, 3, 0
25, 13, 0
25, 26, 1
25, 4, 0
25, 12, 0
25, 16, 0
25, 27, 0
25, 15, 0
25, 1, 0
32, 28, 0
32, 17, 0
32, 5, 0
29, 0, 0
29, 23, 0
29, 31, 0
29, 24, 0
29, 10, 0
29, 22, 0
29, 9, 0
21, 20, 1
21, 0, 0
21, 7, 0
21, 14, 0
21, 23, 0
21, 24, 0
21, 18, 0
21, 27, 0
21, 2, 0
26, 16, 0
26, 25, 1
26, 13, 0
26, 15, 0
26, 1, 0
19, 6, 0
19, 8, 0
19, 5, 0
19, 4, 0
18, 20, 0
18, 0, 0
18, 14, 0
18, 3, 0
18, 24, 0
18, 21, 0
18, 27, 0
18, 2, 0
18, 30, 0
9, 0, 0
9, 10, 1
9, 22, 0
9, 29, 0
