0, 3, 0
0, 2, 0
3, 0, 0
3, 7, 0
3, 4, 0
3, 5, 0
3, 2, 1
4, 3, 0
4, 6, 0
4, 2, 0
2, 0, 0
2, 3, 1
2, 4, 0
6, 4, 0
6, 10, 0
1, 8, 0
8, 7, 0
8, 1, 0
8, 9, 0
5, 7, 0
5, 3, 0
5, 10, 0
7, 3, 0
7, 8, 0
7, 5, 0
7, 10, 0
7, 9, 0
10, 7, 0
10, 6, 0
10, 5, 0
9, 7, 0
9, 8, 0
