2, 21, 0
2, 27, 0
2, 19, 0
2, 14, 0
2, 9, 0
13, 3, 0
13, 4, 0
13, 25, 0
13, 22, 0
13, 10, 0
17, 21, 0
17, 20, 0
23, 11, 0
23, 10, 0
29, 0, 0
29, 8, 0
29, 24, 0
5, 20, 0
5, 28, 0
11, 7, 0
11, 10, 0
11, 23, 0
11, 1, 0
1, 7, 0
1, 11, 0
20, 21, 0
20, 28, 0
20, 17, 0
20, 5, 0
4, 3, 0
4, 13, 0
4, 25, 0
4, 22, 0
4, 10, 0
14, 21, 0
14, 27, 0
14, 19, 0
14, 2, 0
24, 0, 0
24, 8, 0
24, 25, 0
24, 29, 0
28, 20, 0
28, 18, 0
28, 5, 0
28, 26, 0
8, 0, 0
8, 24, 0
8, 29, 0
15, 16, 1
15, 7, 0
15, 9, 0
22, 3, 0
22, 13, 0
22, 25, 0
22, 4, 0
22, 10, 0
0, 24, 0
0, 8, 0
0, 29, 0
12, 18, 0
12, 6, 0
16, 7, 0
16, 15, 1
16, 9, 0
6, 18, 0
6, 12, 0
10, 3, 0
10, 4, 0
10, 13, 0
10, 11, 0
10, 23, 0
10, 22, 0
7, 16, 0
7, 9, 0
7, 15, 0
7, 11, 0
7, 1, 0
3, 25, 0
3, 4, 0
3, 13, 0
3, 22, 0
3, 10, 0
25, 3, 0
25, 13, 0
25, 22, 0
25, 4, 0
25, 24, 0
26, 18, 0
26, 28, 0
27, 21, 0
27, 19, 0
27, 2, 0
27, 14, 0
27, 9, 0
21, 20, 0
21, 14, 0
21, 2, 0
21, 17, 0
21, 27, 0
19, 27, 0
19, 9, 0
19, 14, 0
19, 2, 0
18, 6, 0
18, 28, 0
18, 26, 0
18, 12, 0
9, 7, 0
9, 2, 0
9, 16, 0
9, 27, 0
9, 19, 0
9, 15, 0
