13, 1, 0
13, 9, 0
13, 17, 0
13, 10, 0
17, 20, 0
17, 3, 0
17, 16, 0
17, 13, 0
17, 4, 0
17, 21, 0
17, 5, 0
17, 10, 0
23, 7, 0
23, 16, 0
23, 24, 1
5, 20, 0
5, 3, 0
5, 16, 0
5, 4, 1
5, 17, 0
5, 21, 0
5, 10, 0
11, 12, 1
11, 25, 0
11, 2, 0
11, 6, 0
11, 19, 0
11, 8, 0
11, 22, 0
1, 13, 0
1, 9, 0
20, 21, 1
20, 16, 0
20, 4, 0
20, 17, 0
20, 5, 0
4, 20, 0
4, 3, 0
4, 17, 0
4, 21, 0
4, 16, 0
4, 5, 1
14, 0, 0
14, 15, 0
24, 7, 0
24, 16, 0
24, 23, 1
24, 3, 0
8, 7, 0
8, 12, 0
8, 25, 0
8, 22, 0
8, 2, 0
8, 18, 0
8, 6, 0
8, 19, 0
8, 11, 0
15, 14, 0
22, 12, 0
22, 25, 0
22, 2, 0
22, 6, 0
22, 8, 0
22, 11, 0
0, 6, 0
0, 14, 0
3, 7, 0
3, 4, 0
3, 17, 0
3, 24, 0
3, 16, 0
3, 5, 0
3, 10, 0
16, 20, 0
16, 3, 0
16, 4, 0
16, 17, 0
16, 23, 0
16, 24, 0
16, 7, 0
16, 5, 0
6, 0, 0
6, 12, 0
6, 25, 0
6, 11, 0
6, 8, 0
6, 22, 0
10, 3, 0
10, 13, 0
10, 17, 0
10, 21, 0
10, 5, 0
10, 9, 0
7, 3, 0
7, 25, 0
7, 23, 0
7, 24, 0
7, 16, 0
7, 19, 0
7, 8, 0
7, 18, 0
12, 25, 0
12, 11, 1
12, 2, 0
12, 6, 0
12, 8, 0
12, 22, 0
25, 7, 0
25, 12, 0
25, 11, 0
25, 18, 0
25, 6, 0
25, 19, 0
25, 8, 0
25, 22, 0
2, 12, 0
2, 19, 0
2, 8, 0
2, 22, 0
2, 11, 0
21, 20, 1
21, 4, 0
21, 17, 0
21, 5, 0
21, 10, 0
19, 7, 0
19, 25, 0
19, 2, 0
19, 18, 1
19, 8, 0
19, 11, 0
18, 7, 0
18, 19, 1
18, 8, 0
18, 25, 0
9, 13, 0
9, 10, 0
9, 1, 0
