0, 7, 0
0, 3, 0
0, 9, 0
0, 2, 0
0, 10, 0
0, 8, 0
0, 5, 0
0, 1, 0
3, 0, 0
3, 7, 0
3, 4, 0
3, 2, 0
3, 10, 0
3, 8, 0
3, 5, 0
3, 9, 0
4, 7, 0
4, 3, 0
4, 8, 0
4, 9, 0
2, 0, 0
2, 3, 0
2, 7, 0
2, 5, 0
2, 6, 0
6, 7, 0
6, 1, 0
6, 5, 0
6, 2, 0
1, 0, 0
1, 7, 0
1, 5, 0
1, 6, 0
8, 0, 0
8, 3, 0
8, 4, 0
8, 10, 0
8, 7, 0
8, 9, 0
5, 0, 0
5, 3, 0
5, 7, 0
5, 2, 0
5, 6, 0
5, 1, 0
7, 0, 0
7, 3, 0
7, 4, 0
7, 2, 0
7, 6, 0
7, 8, 0
7, 5, 0
7, 1, 0
10, 0, 0
10, 3, 0
10, 8, 0
10, 9, 0
9, 0, 0
9, 3, 0
9, 8, 0
9, 4, 0
9, 10, 0
