0, 6, 0
0, 1, 0
0, 8, 0
0, 10, 0
13, 5, 0
13, 9, 0
3, 7, 0
3, 12, 0
3, 5, 0
3, 11, 0
3, 2, 0
6, 0, 0
6, 12, 0
6, 4, 0
6, 2, 0
6, 5, 0
6, 1, 0
8, 0, 0
8, 10, 0
8, 1, 0
5, 7, 0
5, 3, 0
5, 13, 0
5, 2, 0
5, 6, 0
5, 11, 0
5, 9, 0
11, 7, 0
11, 3, 0
11, 5, 0
11, 9, 0
10, 0, 0
10, 8, 0
7, 3, 0
7, 5, 0
7, 11, 0
7, 9, 0
12, 6, 0
12, 1, 0
12, 4, 0
12, 3, 0
12, 2, 0
4, 2, 0
4, 12, 0
4, 1, 0
4, 6, 0
2, 12, 0
2, 3, 0
2, 4, 0
2, 5, 0
2, 6, 0
1, 0, 0
1, 6, 0
1, 8, 0
1, 4, 0
1, 12, 0
9, 7, 0
9, 13, 0
9, 5, 0
9, 11, 0
