12, 0, 0
12, 21, 0
12, 4, 0
12, 5, 0
12, 6, 0
13, 4, 0
13, 14, 1
13, 26, 0
13, 24, 0
13, 6, 0
13, 30, 0
17, 19, 0
17, 28, 0
17, 23, 0
17, 11, 0
17, 29, 0
26, 6, 0
26, 4, 0
26, 13, 0
26, 23, 0
26, 24, 0
26, 8, 0
26, 25, 0
26, 14, 0
26, 29, 0
26, 30, 0
23, 28, 0
23, 31, 0
23, 16, 0
23, 27, 0
23, 29, 0
23, 24, 0
23, 5, 0
23, 11, 0
23, 30, 0
23, 7, 0
23, 3, 0
23, 25, 0
23, 26, 0
23, 2, 0
23, 21, 0
23, 17, 0
23, 8, 0
23, 15, 0
23, 18, 0
23, 9, 0
2, 20, 0
2, 9, 0
2, 23, 0
2, 24, 0
2, 18, 0
2, 6, 0
2, 8, 0
2, 30, 0
5, 12, 0
5, 4, 0
5, 23, 0
5, 29, 0
5, 21, 0
5, 22, 0
5, 30, 0
11, 20, 0
11, 3, 0
11, 7, 0
11, 28, 0
11, 23, 0
11, 6, 0
11, 27, 0
11, 19, 0
11, 17, 0
1, 19, 0
1, 15, 0
20, 3, 0
20, 4, 0
20, 31, 0
20, 2, 0
20, 16, 0
20, 6, 0
20, 19, 0
20, 24, 0
20, 15, 0
20, 11, 0
4, 20, 0
4, 12, 0
4, 13, 0
4, 14, 0
4, 26, 0
4, 29, 0
4, 6, 0
4, 24, 0
4, 5, 0
4, 30, 0
14, 4, 0
14, 13, 1
14, 9, 0
14, 26, 0
14, 29, 0
14, 8, 0
14, 24, 0
14, 30, 0
24, 7, 0
24, 13, 0
24, 23, 0
24, 6, 0
24, 2, 0
24, 30, 0
24, 20, 0
24, 4, 0
24, 14, 0
24, 26, 0
24, 29, 0
24, 8, 0
28, 7, 0
28, 3, 0
28, 17, 0
28, 31, 0
28, 23, 0
28, 29, 0
28, 27, 1
28, 11, 0
28, 10, 0
30, 0, 0
30, 13, 0
30, 23, 0
30, 24, 0
30, 5, 0
30, 7, 0
30, 4, 0
30, 25, 0
30, 26, 0
30, 2, 0
30, 21, 0
30, 29, 1
30, 14, 0
30, 8, 0
30, 22, 0
30, 9, 0
8, 7, 0
8, 21, 0
8, 14, 0
8, 26, 0
8, 23, 0
8, 2, 0
8, 18, 0
8, 29, 0
8, 24, 0
8, 9, 1
8, 30, 0
15, 20, 0
15, 16, 0
15, 6, 0
15, 23, 0
15, 1, 0
22, 25, 0
22, 5, 0
22, 30, 0
0, 21, 0
0, 12, 0
0, 6, 0
0, 30, 0
3, 20, 0
3, 7, 0
3, 28, 0
3, 31, 0
3, 23, 0
3, 27, 0
3, 6, 0
3, 11, 0
3, 10, 0
16, 20, 0
16, 6, 0
16, 15, 0
16, 23, 0
16, 29, 0
6, 0, 0
6, 13, 0
6, 31, 0
6, 12, 0
6, 16, 0
6, 2, 0
6, 11, 0
6, 20, 0
6, 3, 0
6, 4, 0
6, 26, 0
6, 24, 0
6, 19, 0
6, 15, 0
6, 18, 0
27, 7, 0
27, 3, 0
27, 28, 1
27, 11, 0
27, 23, 0
7, 3, 0
7, 8, 0
7, 28, 0
7, 31, 0
7, 23, 0
7, 24, 0
7, 27, 0
7, 30, 0
7, 29, 0
7, 11, 0
7, 10, 0
18, 2, 0
18, 31, 0
18, 23, 0
18, 29, 0
18, 6, 0
18, 8, 0
25, 26, 0
25, 30, 0
25, 22, 0
25, 23, 0
25, 29, 0
31, 7, 0
31, 3, 0
31, 28, 0
31, 23, 0
31, 29, 0
31, 18, 0
31, 6, 0
31, 20, 0
31, 10, 0
29, 28, 0
29, 26, 0
29, 23, 0
29, 18, 0
29, 5, 0
29, 17, 0
29, 30, 1
29, 7, 0
29, 16, 0
29, 4, 0
29, 25, 0
29, 31, 0
29, 24, 0
29, 21, 0
29, 14, 0
29, 8, 0
29, 9, 0
21, 0, 0
21, 12, 0
21, 23, 0
21, 29, 0
21, 8, 0
21, 5, 0
21, 30, 0
19, 20, 0
19, 6, 0
19, 17, 0
19, 11, 0
19, 1, 0
10, 7, 0
10, 3, 0
10, 28, 0
10, 31, 0
9, 2, 0
9, 14, 0
9, 23, 0
9, 29, 0
9, 8, 1
9, 30, 0
