0, 3, 0
0, 1, 0
3, 0, 0
3, 9, 0
4, 8, 0
4, 5, 0
4, 9, 0
2, 7, 0
2, 10, 0
6, 7, 0
6, 1, 0
1, 0, 0
1, 6, 0
8, 4, 0
8, 5, 0
8, 9, 0
5, 8, 0
5, 4, 0
7, 6, 0
7, 2, 0
7, 10, 0
10, 7, 0
10, 2, 0
9, 3, 0
9, 8, 0
9, 4, 0
