0, 5, 0
0, 10, 0
3, 6, 0
3, 1, 0
3, 2, 0
4, 2, 0
4, 8, 0
4, 9, 0
4, 1, 0
2, 3, 0
2, 4, 0
2, 9, 0
2, 6, 0
2, 8, 0
2, 1, 0
6, 3, 0
6, 1, 0
6, 9, 0
6, 10, 0
6, 2, 0
1, 3, 0
1, 4, 0
1, 2, 0
1, 6, 0
1, 8, 0
1, 9, 0
8, 2, 0
8, 9, 1
8, 4, 0
8, 1, 0
5, 0, 0
5, 7, 0
5, 10, 0
7, 5, 0
10, 0, 0
10, 6, 0
10, 5, 0
9, 2, 0
9, 6, 0
9, 8, 1
9, 4, 0
9, 1, 0
