2, 18, 0
2, 13, 0
2, 17, 0
2, 22, 0
2, 23, 0
13, 4, 0
13, 14, 0
13, 23, 0
13, 2, 0
13, 18, 0
13, 22, 0
13, 10, 0
17, 20, 0
17, 18, 0
17, 23, 0
17, 2, 0
23, 18, 0
23, 13, 0
23, 17, 0
23, 10, 0
23, 2, 0
29, 0, 0
29, 25, 0
29, 27, 0
29, 21, 0
29, 6, 0
29, 30, 0
29, 15, 0
29, 1, 0
5, 16, 0
5, 18, 0
5, 4, 0
5, 28, 0
5, 10, 0
11, 20, 0
11, 12, 1
11, 21, 0
11, 24, 0
1, 0, 0
1, 3, 0
1, 25, 0
1, 29, 0
1, 6, 0
1, 15, 0
1, 27, 0
20, 12, 0
20, 17, 0
20, 21, 0
20, 15, 0
20, 18, 0
20, 11, 0
20, 10, 0
4, 18, 0
4, 13, 0
4, 14, 0
4, 5, 0
4, 10, 0
14, 16, 0
14, 4, 0
14, 13, 0
14, 22, 0
14, 10, 0
24, 21, 0
24, 12, 0
24, 18, 0
24, 11, 0
28, 16, 0
28, 18, 0
28, 15, 0
28, 5, 0
28, 26, 0
30, 7, 0
30, 3, 0
30, 29, 0
30, 18, 0
30, 27, 0
30, 8, 0
30, 15, 0
8, 7, 1
8, 3, 0
8, 19, 0
8, 9, 0
8, 30, 0
15, 28, 0
15, 18, 0
15, 6, 0
15, 1, 0
15, 27, 0
15, 20, 0
15, 3, 0
15, 26, 0
15, 29, 0
15, 21, 0
15, 30, 0
15, 9, 0
22, 2, 0
22, 13, 0
22, 14, 0
22, 10, 0
0, 12, 0
0, 25, 0
0, 29, 0
0, 21, 0
0, 6, 0
0, 1, 0
12, 20, 0
12, 21, 0
12, 0, 0
12, 11, 1
12, 24, 0
16, 28, 0
16, 14, 0
16, 5, 0
16, 26, 0
6, 0, 0
6, 21, 0
6, 1, 0
6, 15, 0
6, 29, 0
10, 20, 0
10, 4, 0
10, 13, 0
10, 23, 0
10, 18, 0
10, 14, 0
10, 5, 0
10, 22, 0
7, 8, 1
7, 9, 0
7, 30, 0
3, 25, 0
3, 27, 0
3, 30, 0
3, 8, 0
3, 15, 0
3, 1, 0
25, 0, 0
25, 3, 0
25, 1, 0
25, 29, 0
26, 16, 0
26, 15, 0
26, 28, 0
26, 18, 0
27, 3, 0
27, 30, 0
27, 1, 0
27, 15, 0
27, 29, 0
21, 20, 0
21, 0, 0
21, 24, 0
21, 18, 0
21, 6, 0
21, 29, 0
21, 15, 0
21, 11, 0
21, 12, 0
19, 8, 0
19, 9, 0
18, 13, 0
18, 28, 0
18, 23, 0
18, 24, 0
18, 5, 0
18, 10, 0
18, 20, 0
18, 4, 0
18, 26, 0
18, 2, 0
18, 21, 0
18, 17, 0
18, 30, 0
18, 15, 0
9, 7, 0
9, 19, 0
9, 8, 0
9, 15, 0
