0, 3, 0
0, 13, 0
0, 5, 0
0, 4, 0
13, 0, 0
13, 12, 0
13, 5, 0
13, 3, 0
3, 0, 0
3, 13, 0
3, 5, 0
3, 4, 0
3, 9, 0
6, 7, 0
6, 10, 0
6, 14, 0
6, 11, 0
6, 2, 0
8, 2, 0
8, 12, 0
8, 10, 0
8, 14, 0
8, 1, 0
5, 0, 0
5, 3, 0
5, 13, 0
5, 12, 0
11, 7, 0
11, 6, 0
10, 7, 0
10, 6, 0
10, 8, 0
10, 2, 0
7, 6, 0
7, 2, 0
7, 11, 0
7, 10, 0
12, 8, 0
12, 13, 0
12, 5, 0
12, 1, 0
4, 0, 0
4, 3, 0
4, 9, 0
14, 6, 0
14, 8, 0
14, 2, 0
2, 7, 0
2, 6, 0
2, 8, 0
2, 14, 0
2, 10, 0
1, 12, 0
1, 8, 0
9, 3, 0
9, 4, 0
