0, 7, 0
0, 3, 0
0, 13, 0
0, 14, 0
0, 2, 0
0, 11, 0
13, 0, 0
13, 3, 0
13, 14, 1
13, 2, 0
3, 0, 0
3, 7, 0
3, 13, 0
3, 14, 0
3, 4, 0
3, 2, 0
3, 6, 0
3, 10, 0
6, 7, 1
6, 3, 0
6, 2, 0
6, 10, 0
8, 12, 0
8, 2, 0
8, 9, 0
8, 5, 0
8, 11, 0
8, 1, 0
5, 12, 0
5, 8, 0
5, 9, 0
5, 1, 0
11, 0, 0
11, 8, 0
10, 7, 0
10, 6, 0
10, 2, 0
10, 4, 0
10, 3, 0
7, 0, 0
7, 6, 1
7, 3, 0
7, 10, 0
12, 1, 0
12, 8, 0
12, 5, 0
12, 9, 0
4, 3, 0
4, 2, 0
4, 10, 0
14, 0, 0
14, 3, 0
14, 13, 1
2, 0, 0
2, 3, 0
2, 13, 0
2, 4, 0
2, 6, 0
2, 1, 0
2, 8, 0
2, 10, 0
1, 2, 0
1, 12, 0
1, 8, 0
1, 5, 0
1, 9, 0
9, 12, 0
9, 8, 0
9, 5, 0
9, 1, 0
