13, 37, 0
13, 12, 0
13, 14, 1
13, 36, 0
17, 10, 0
17, 54, 0
17, 32, 0
17, 9, 0
23, 0, 0
23, 6, 0
23, 5, 0
23, 2, 0
46, 42, 0
46, 4, 0
20, 31, 0
20, 21, 1
20, 42, 0
20, 8, 0
20, 15, 0
20, 30, 0
34, 43, 0
34, 38, 0
34, 40, 0
14, 37, 0
14, 12, 0
14, 13, 1
14, 36, 0
24, 45, 0
24, 47, 0
28, 38, 0
28, 48, 0
28, 11, 0
15, 20, 0
15, 31, 0
15, 21, 0
15, 42, 0
15, 8, 0
15, 30, 0
41, 7, 0
41, 5, 0
41, 50, 0
0, 6, 0
0, 23, 0
8, 20, 0
8, 31, 0
8, 21, 0
8, 42, 0
8, 15, 0
8, 30, 0
51, 2, 0
51, 35, 0
51, 25, 0
51, 29, 0
3, 4, 0
3, 25, 0
38, 11, 0
38, 34, 0
38, 43, 0
38, 48, 0
38, 28, 0
47, 45, 0
47, 39, 0
47, 24, 0
10, 54, 0
10, 17, 0
10, 9, 1
7, 12, 0
7, 50, 0
7, 41, 0
33, 39, 0
33, 44, 0
32, 40, 0
32, 19, 0
32, 17, 0
2, 25, 0
2, 51, 0
2, 23, 0
2, 29, 0
2, 16, 0
2, 6, 0
2, 53, 0
2, 5, 0
2, 1, 1
21, 20, 1
21, 31, 0
21, 42, 0
21, 8, 0
21, 15, 0
21, 30, 0
52, 18, 0
52, 49, 0
19, 40, 0
19, 32, 0
49, 18, 0
49, 52, 0
49, 30, 0
48, 38, 0
48, 28, 0
31, 20, 0
31, 21, 0
31, 8, 0
31, 15, 0
31, 30, 0
39, 33, 0
39, 47, 0
29, 16, 0
29, 2, 0
29, 51, 0
29, 35, 0
40, 34, 0
40, 19, 0
40, 32, 0
11, 43, 0
11, 38, 0
11, 28, 0
5, 6, 0
5, 53, 0
5, 41, 0
5, 23, 0
5, 2, 0
37, 12, 0
37, 13, 0
37, 14, 0
37, 53, 0
37, 36, 0
4, 3, 0
4, 46, 0
35, 16, 0
35, 53, 0
35, 25, 0
35, 51, 0
35, 29, 0
30, 20, 0
30, 49, 0
30, 31, 0
30, 21, 0
30, 8, 0
30, 15, 0
42, 20, 0
42, 21, 0
42, 8, 0
42, 15, 0
42, 46, 0
22, 27, 0
22, 54, 0
36, 37, 0
36, 45, 0
36, 13, 0
36, 14, 0
36, 12, 0
25, 3, 0
25, 35, 0
25, 51, 0
25, 2, 0
45, 36, 0
45, 47, 0
45, 24, 0
16, 2, 0
16, 35, 0
16, 1, 0
16, 53, 0
16, 29, 0
27, 44, 0
27, 22, 0
1, 16, 0
1, 6, 0
1, 53, 0
1, 2, 1
53, 37, 0
53, 35, 0
53, 16, 0
53, 6, 0
53, 2, 0
53, 5, 0
53, 1, 0
44, 33, 0
44, 27, 0
12, 7, 0
12, 37, 0
12, 13, 0
12, 14, 0
12, 36, 0
18, 49, 0
18, 52, 0
18, 26, 0
54, 9, 0
54, 17, 0
54, 22, 0
54, 10, 0
50, 7, 0
50, 41, 0
26, 18, 0
6, 0, 0
6, 23, 0
6, 2, 0
6, 53, 0
6, 5, 0
6, 1, 0
43, 34, 0
43, 38, 0
43, 11, 0
9, 54, 0
9, 17, 0
9, 10, 1
