12, 7, 0
12, 32, 0
12, 2, 0
12, 16, 0
12, 42, 0
12, 8, 0
12, 10, 0
12, 1, 0
13, 42, 0
13, 15, 0
13, 17, 0
13, 26, 0
13, 9, 0
17, 42, 0
17, 29, 0
17, 13, 0
17, 30, 0
31, 0, 0
31, 34, 0
31, 6, 0
31, 35, 0
31, 42, 0
31, 41, 0
31, 22, 0
31, 5, 0
23, 42, 0
23, 14, 0
23, 4, 0
23, 40, 0
23, 9, 0
24, 21, 0
24, 42, 0
24, 5, 0
24, 22, 0
40, 7, 0
40, 4, 0
40, 14, 0
40, 23, 0
40, 42, 0
40, 1, 0
5, 0, 0
5, 3, 0
5, 6, 0
5, 27, 0
5, 24, 0
5, 1, 0
5, 20, 0
5, 34, 0
5, 31, 0
5, 35, 0
5, 42, 0
5, 8, 0
5, 41, 0
5, 22, 0
5, 36, 0
11, 29, 0
11, 18, 0
11, 42, 0
11, 15, 0
11, 38, 0
11, 30, 0
30, 42, 0
30, 15, 0
30, 17, 0
30, 11, 0
30, 29, 1
20, 3, 0
20, 33, 0
20, 27, 0
20, 42, 0
20, 8, 0
20, 5, 0
21, 42, 0
21, 8, 0
21, 39, 0
21, 22, 0
21, 24, 0
4, 7, 0
4, 14, 0
4, 9, 0
4, 23, 0
4, 42, 0
4, 8, 0
4, 40, 0
4, 1, 0
14, 42, 0
14, 4, 0
14, 40, 0
14, 23, 0
14, 9, 0
35, 0, 0
35, 34, 0
35, 28, 0
35, 31, 0
35, 3, 0
35, 37, 0
35, 42, 0
35, 5, 0
35, 36, 0
42, 13, 0
42, 17, 0
42, 32, 0
42, 23, 0
42, 15, 0
42, 24, 0
42, 40, 0
42, 5, 0
42, 11, 0
42, 1, 0
42, 20, 0
42, 21, 0
42, 4, 0
42, 14, 0
42, 27, 0
42, 35, 0
42, 28, 0
42, 30, 0
42, 8, 0
42, 39, 0
42, 41, 0
42, 22, 0
42, 36, 0
42, 0, 0
42, 6, 0
42, 3, 0
42, 12, 0
42, 16, 0
42, 38, 0
42, 10, 0
42, 7, 0
42, 34, 0
42, 25, 0
42, 33, 0
42, 31, 0
42, 2, 0
42, 37, 0
42, 29, 0
42, 19, 0
42, 26, 0
42, 18, 0
42, 9, 0
1, 7, 0
1, 12, 0
1, 4, 0
1, 25, 0
1, 16, 0
1, 42, 0
1, 8, 0
1, 40, 0
1, 5, 0
15, 13, 0
15, 26, 0
15, 42, 0
15, 9, 0
15, 38, 0
15, 11, 0
15, 30, 0
41, 34, 0
41, 31, 0
41, 42, 0
41, 6, 0
41, 5, 0
41, 22, 0
22, 31, 0
22, 42, 0
22, 21, 0
22, 6, 0
22, 24, 0
22, 41, 0
22, 5, 0
36, 0, 0
36, 34, 0
36, 35, 0
36, 37, 0
36, 42, 0
36, 5, 0
0, 34, 0
0, 31, 0
0, 35, 0
0, 42, 0
0, 5, 0
0, 36, 0
7, 12, 0
7, 4, 0
7, 25, 0
7, 26, 0
7, 32, 0
7, 16, 0
7, 42, 0
7, 8, 1
7, 40, 0
7, 1, 0
6, 41, 0
6, 42, 0
6, 5, 0
6, 22, 0
6, 31, 0
8, 20, 0
8, 16, 0
8, 27, 0
8, 5, 0
8, 1, 0
8, 7, 1
8, 12, 0
8, 4, 0
8, 25, 0
8, 32, 0
8, 21, 0
8, 42, 0
8, 39, 0
38, 18, 0
38, 42, 0
38, 15, 0
38, 11, 0
3, 20, 0
3, 28, 0
3, 35, 0
3, 37, 0
3, 42, 0
3, 5, 0
16, 7, 0
16, 12, 0
16, 2, 0
16, 42, 0
16, 8, 0
16, 10, 0
16, 1, 0
39, 21, 0
39, 42, 0
39, 8, 0
18, 42, 0
18, 38, 0
18, 11, 0
27, 20, 0
27, 42, 0
27, 8, 0
27, 25, 0
27, 5, 0
28, 37, 0
28, 42, 0
28, 33, 0
28, 3, 0
28, 35, 0
34, 0, 0
34, 31, 0
34, 35, 0
34, 42, 0
34, 5, 0
34, 41, 0
34, 36, 0
25, 7, 0
25, 33, 0
25, 32, 0
25, 27, 0
25, 42, 0
25, 19, 0
25, 8, 0
25, 1, 0
33, 20, 0
33, 25, 0
33, 28, 0
33, 32, 0
33, 42, 0
33, 19, 0
32, 7, 0
32, 12, 0
32, 8, 0
32, 25, 0
32, 33, 0
32, 42, 0
32, 19, 0
32, 2, 0
2, 12, 0
2, 32, 0
2, 16, 0
2, 42, 0
2, 19, 0
2, 10, 0
37, 3, 0
37, 42, 0
37, 36, 0
37, 28, 0
37, 35, 0
29, 42, 0
29, 17, 0
29, 11, 0
29, 30, 1
19, 33, 0
19, 42, 0
19, 25, 0
19, 32, 0
19, 2, 0
26, 7, 0
26, 42, 0
26, 13, 0
26, 15, 0
26, 9, 0
10, 16, 0
10, 12, 0
10, 42, 0
10, 2, 0
9, 4, 0
9, 13, 0
9, 26, 0
9, 23, 0
9, 42, 0
9, 14, 0
9, 15, 0
