0, 9, 0
0, 2, 0
13, 12, 0
13, 8, 0
13, 3, 0
13, 11, 0
13, 1, 0
3, 7, 0
3, 12, 0
3, 13, 0
3, 4, 0
3, 6, 0
3, 5, 0
3, 10, 0
6, 12, 0
6, 4, 0
6, 5, 0
6, 3, 0
8, 13, 0
8, 11, 0
8, 1, 0
5, 12, 0
5, 4, 1
5, 3, 0
5, 6, 0
11, 12, 0
11, 8, 0
11, 13, 0
11, 1, 0
10, 7, 0
10, 3, 0
7, 3, 0
7, 2, 0
7, 10, 0
12, 3, 0
12, 4, 0
12, 13, 0
12, 6, 0
12, 5, 0
12, 11, 0
4, 12, 0
4, 3, 0
4, 5, 1
4, 6, 0
2, 0, 0
2, 7, 0
1, 8, 0
1, 13, 0
1, 11, 0
9, 0, 0
