12, 16, 0
12, 13, 0
12, 17, 0
12, 23, 0
12, 18, 0
12, 6, 0
12, 1, 0
12, 27, 0
12, 3, 0
12, 4, 0
12, 2, 0
12, 30, 0
13, 6, 0
13, 4, 0
13, 12, 0
13, 5, 0
13, 27, 0
17, 3, 0
17, 23, 0
17, 12, 0
17, 27, 0
17, 30, 0
17, 1, 0
31, 7, 0
31, 34, 0
31, 35, 0
31, 28, 0
31, 32, 1
31, 24, 0
31, 29, 0
31, 36, 0
31, 8, 0
31, 0, 0
23, 12, 0
23, 1, 0
23, 30, 0
23, 17, 0
23, 2, 0
24, 7, 0
24, 34, 0
24, 31, 0
24, 29, 0
24, 35, 0
24, 0, 0
5, 27, 0
5, 13, 0
5, 4, 1
5, 6, 0
11, 18, 0
11, 6, 0
11, 9, 0
1, 3, 0
1, 17, 0
1, 23, 0
1, 12, 0
1, 27, 0
1, 30, 0
20, 21, 1
20, 18, 0
20, 19, 0
20, 16, 0
4, 27, 0
4, 6, 0
4, 13, 0
4, 5, 1
4, 12, 0
14, 15, 1
14, 22, 0
14, 25, 0
14, 26, 0
14, 28, 0
35, 7, 0
35, 34, 0
35, 31, 0
35, 32, 0
35, 29, 0
35, 24, 0
28, 0, 0
28, 25, 0
28, 32, 0
28, 30, 0
28, 34, 0
28, 14, 0
28, 31, 0
28, 29, 0
28, 26, 0
28, 8, 0
28, 15, 0
28, 22, 0
30, 28, 0
30, 23, 0
30, 3, 0
30, 16, 0
30, 6, 0
30, 29, 0
30, 1, 0
30, 12, 0
30, 32, 0
30, 2, 0
30, 17, 0
30, 34, 0
30, 18, 0
30, 22, 0
30, 36, 0
8, 0, 0
8, 28, 0
8, 31, 0
8, 32, 0
8, 29, 0
15, 25, 0
15, 14, 1
15, 28, 0
15, 22, 0
15, 26, 0
22, 34, 0
22, 25, 0
22, 32, 0
22, 26, 0
22, 33, 0
22, 28, 0
22, 14, 0
22, 10, 0
22, 15, 0
22, 30, 0
36, 7, 0
36, 34, 0
36, 31, 0
36, 30, 0
0, 24, 0
0, 28, 0
0, 32, 0
0, 31, 0
0, 29, 0
0, 8, 0
6, 12, 0
6, 4, 0
6, 13, 0
6, 18, 0
6, 27, 0
6, 9, 0
6, 5, 0
6, 11, 0
6, 30, 0
3, 12, 0
3, 17, 0
3, 32, 0
3, 27, 0
3, 1, 0
3, 30, 0
16, 20, 0
16, 12, 0
16, 32, 0
16, 21, 0
16, 19, 0
16, 30, 0
27, 3, 0
27, 13, 0
27, 17, 0
27, 4, 0
27, 12, 0
27, 6, 0
27, 5, 0
27, 1, 0
10, 33, 0
10, 22, 0
10, 2, 0
7, 34, 0
7, 36, 0
7, 35, 0
7, 31, 0
7, 24, 0
34, 7, 0
34, 28, 0
34, 31, 0
34, 29, 0
34, 30, 0
34, 35, 0
34, 24, 0
34, 22, 0
34, 36, 0
25, 14, 0
25, 22, 0
25, 15, 0
25, 26, 1
25, 28, 0
33, 22, 0
33, 10, 0
32, 0, 0
32, 3, 0
32, 35, 0
32, 28, 0
32, 31, 1
32, 2, 0
32, 16, 0
32, 29, 0
32, 8, 0
32, 22, 0
32, 30, 0
2, 12, 0
2, 30, 0
2, 32, 0
2, 23, 0
2, 10, 0
21, 20, 1
21, 18, 0
21, 19, 0
21, 16, 0
21, 9, 0
29, 0, 0
29, 34, 0
29, 28, 0
29, 32, 0
29, 31, 0
29, 35, 0
29, 8, 0
29, 24, 0
29, 30, 0
19, 20, 0
19, 16, 0
19, 9, 0
19, 18, 0
19, 21, 0
26, 25, 1
26, 15, 0
26, 14, 0
26, 28, 0
26, 22, 0
18, 20, 0
18, 12, 0
18, 21, 0
18, 6, 0
18, 19, 0
18, 9, 0
18, 11, 0
18, 30, 0
9, 21, 0
9, 18, 0
9, 19, 0
9, 11, 0
9, 6, 0
