13, 0, 0
13, 12, 0
13, 4, 0
13, 14, 0
13, 23, 0
13, 18, 0
13, 6, 0
13, 17, 0
17, 13, 0
17, 23, 0
17, 12, 0
17, 6, 0
17, 11, 0
17, 1, 0
17, 20, 0
17, 3, 0
17, 4, 0
17, 14, 0
17, 21, 0
17, 19, 0
17, 15, 0
23, 17, 0
23, 13, 0
23, 14, 0
5, 16, 0
5, 12, 0
5, 25, 0
5, 22, 0
5, 24, 0
11, 0, 0
11, 3, 0
11, 4, 0
11, 17, 0
11, 12, 0
11, 21, 0
11, 19, 0
1, 20, 0
1, 3, 0
1, 4, 0
1, 17, 0
1, 2, 0
1, 12, 0
1, 0, 0
20, 7, 0
20, 0, 0
20, 4, 0
20, 17, 0
20, 12, 0
20, 1, 0
20, 8, 0
20, 2, 0
20, 10, 0
20, 9, 0
4, 20, 0
4, 3, 0
4, 7, 0
4, 17, 0
4, 13, 0
4, 21, 0
4, 14, 0
4, 19, 0
4, 0, 0
4, 11, 0
4, 1, 0
14, 0, 0
14, 12, 0
14, 4, 0
14, 13, 0
14, 23, 0
14, 21, 0
14, 17, 0
14, 19, 0
24, 16, 0
24, 12, 0
24, 5, 0
24, 22, 0
24, 6, 0
8, 20, 0
8, 7, 0
8, 3, 0
8, 2, 0
8, 0, 0
8, 10, 0
8, 9, 0
15, 16, 0
15, 25, 0
15, 17, 0
15, 22, 0
15, 12, 0
22, 12, 0
22, 25, 0
22, 24, 0
22, 16, 0
22, 15, 0
22, 5, 0
0, 7, 0
0, 13, 0
0, 6, 0
0, 11, 0
0, 1, 0
0, 20, 0
0, 3, 0
0, 4, 0
0, 14, 0
0, 19, 0
0, 8, 0
0, 10, 0
0, 9, 0
3, 0, 0
3, 12, 0
3, 4, 0
3, 17, 0
3, 21, 0
3, 8, 0
3, 10, 0
3, 11, 0
3, 1, 0
16, 12, 0
16, 25, 0
16, 24, 0
16, 6, 0
16, 15, 0
16, 5, 0
16, 22, 0
6, 0, 0
6, 18, 0
6, 13, 0
6, 17, 0
6, 24, 0
6, 16, 0
6, 12, 0
10, 20, 0
10, 0, 0
10, 7, 0
10, 3, 0
10, 8, 0
10, 9, 1
7, 20, 0
7, 0, 0
7, 4, 0
7, 9, 0
7, 12, 0
7, 8, 0
7, 10, 0
12, 7, 0
12, 13, 0
12, 17, 0
12, 16, 0
12, 6, 0
12, 5, 0
12, 11, 0
12, 1, 0
12, 20, 0
12, 3, 0
12, 25, 0
12, 24, 0
12, 14, 0
12, 15, 0
12, 22, 0
25, 16, 0
25, 12, 0
25, 15, 0
25, 5, 0
25, 22, 0
2, 20, 0
2, 8, 0
2, 1, 0
21, 3, 0
21, 4, 0
21, 14, 0
21, 17, 0
21, 19, 0
21, 11, 0
19, 0, 0
19, 4, 0
19, 14, 0
19, 21, 0
19, 17, 0
19, 11, 0
18, 6, 0
18, 13, 0
9, 20, 0
9, 0, 0
9, 8, 0
9, 7, 0
9, 10, 1
