0, 8, 0
0, 4, 0
3, 7, 0
3, 1, 0
3, 9, 0
3, 2, 0
4, 0, 0
4, 8, 0
4, 5, 0
2, 3, 0
2, 1, 0
6, 1, 0
1, 3, 0
1, 6, 0
1, 2, 0
8, 0, 0
8, 4, 0
8, 5, 0
8, 9, 0
5, 8, 0
5, 4, 0
5, 9, 0
7, 3, 0
7, 9, 0
9, 7, 0
9, 3, 0
9, 8, 0
9, 5, 0
