58, 20, 0
58, 45, 0
58, 43, 0
58, 42, 0
58, 54, 0
58, 44, 0
58, 9, 0
13, 0, 0
13, 34, 0
13, 17, 0
13, 47, 0
13, 3, 0
13, 16, 0
13, 2, 0
13, 24, 0
13, 48, 0
13, 22, 0
17, 13, 0
17, 51, 0
17, 23, 0
17, 39, 0
17, 8, 0
17, 55, 0
17, 46, 0
17, 10, 0
17, 21, 0
17, 53, 0
17, 25, 0
17, 31, 0
17, 35, 0
17, 37, 0
17, 52, 0
17, 19, 0
17, 1, 0
17, 26, 0
17, 36, 0
23, 17, 0
23, 21, 0
23, 6, 0
23, 55, 0
23, 5, 0
23, 46, 0
23, 7, 0
23, 12, 0
23, 25, 0
23, 26, 0
23, 37, 0
23, 49, 0
46, 45, 0
46, 17, 0
46, 51, 0
46, 23, 0
46, 21, 0
46, 6, 0
46, 55, 0
46, 5, 0
46, 11, 0
46, 10, 0
46, 7, 0
46, 12, 0
46, 54, 0
46, 26, 0
46, 37, 0
46, 25, 0
46, 20, 0
46, 49, 0
20, 58, 0
20, 45, 0
20, 43, 0
20, 32, 0
20, 44, 0
20, 42, 0
20, 49, 0
20, 25, 0
20, 46, 0
20, 9, 0
34, 33, 1
34, 13, 0
34, 14, 0
34, 22, 0
34, 3, 0
34, 16, 0
34, 2, 0
34, 49, 0
34, 48, 0
34, 47, 0
14, 0, 0
14, 34, 0
14, 47, 0
14, 56, 0
14, 33, 0
14, 16, 0
14, 15, 1
14, 49, 0
14, 40, 0
14, 41, 0
14, 22, 0
24, 0, 0
24, 13, 0
24, 56, 0
24, 40, 0
24, 15, 0
24, 41, 0
24, 22, 0
28, 35, 0
28, 52, 0
28, 31, 0
28, 29, 1
28, 21, 0
28, 27, 1
28, 1, 0
28, 8, 0
28, 10, 0
28, 36, 0
15, 0, 0
15, 33, 0
15, 14, 1
15, 47, 0
15, 56, 0
15, 24, 0
15, 40, 0
15, 41, 0
15, 22, 0
41, 14, 0
41, 56, 0
41, 24, 0
41, 15, 0
41, 40, 1
41, 47, 0
0, 13, 0
0, 14, 0
0, 56, 0
0, 24, 0
0, 40, 0
0, 15, 0
0, 22, 0
8, 28, 0
8, 27, 0
8, 29, 0
8, 1, 0
8, 4, 0
8, 52, 0
8, 31, 0
8, 35, 0
8, 21, 0
8, 17, 0
8, 10, 0
8, 36, 0
51, 17, 0
51, 53, 0
51, 46, 0
51, 10, 0
51, 33, 0
51, 25, 0
51, 50, 1
51, 26, 0
51, 35, 0
51, 37, 0
51, 52, 0
51, 1, 0
3, 33, 0
3, 13, 0
3, 34, 0
3, 16, 0
3, 2, 1
3, 22, 0
38, 18, 0
38, 59, 0
38, 19, 0
38, 39, 1
47, 13, 0
47, 56, 0
47, 34, 0
47, 16, 0
47, 40, 0
47, 41, 0
47, 33, 0
47, 14, 0
47, 2, 0
47, 49, 0
47, 15, 0
47, 48, 1
47, 22, 0
10, 17, 0
10, 31, 0
10, 51, 0
10, 27, 0
10, 53, 0
10, 46, 0
10, 1, 0
10, 57, 0
10, 33, 0
10, 4, 0
10, 25, 0
10, 26, 0
10, 35, 0
10, 28, 0
10, 29, 0
10, 8, 0
7, 12, 0
7, 37, 0
7, 25, 0
7, 26, 0
7, 23, 0
7, 21, 0
7, 6, 1
7, 55, 0
7, 46, 0
7, 49, 0
33, 45, 0
33, 51, 0
33, 34, 1
33, 16, 0
33, 47, 0
33, 10, 0
33, 3, 0
33, 14, 0
33, 26, 0
33, 2, 0
33, 37, 0
33, 25, 0
33, 49, 0
33, 15, 0
33, 48, 0
33, 22, 0
53, 52, 0
53, 50, 0
53, 51, 0
53, 35, 0
53, 21, 0
53, 25, 0
53, 1, 0
53, 10, 0
53, 26, 0
53, 17, 0
53, 36, 0
32, 20, 0
32, 16, 0
32, 49, 0
32, 9, 0
2, 33, 0
2, 13, 0
2, 22, 0
2, 3, 1
2, 16, 0
2, 34, 0
2, 47, 0
21, 53, 0
21, 17, 0
21, 26, 0
21, 23, 0
21, 6, 0
21, 8, 0
21, 55, 0
21, 46, 0
21, 5, 0
21, 7, 0
21, 25, 0
21, 49, 0
21, 31, 0
21, 27, 0
21, 37, 0
21, 52, 0
21, 28, 0
21, 1, 0
21, 36, 0
25, 45, 0
25, 53, 0
25, 17, 0
25, 51, 0
25, 23, 0
25, 6, 0
25, 55, 0
25, 46, 0
25, 11, 0
25, 5, 0
25, 7, 0
25, 33, 0
25, 50, 0
25, 26, 0
25, 35, 0
25, 21, 0
25, 37, 0
25, 1, 0
25, 10, 0
25, 20, 0
19, 57, 0
19, 38, 0
19, 17, 0
19, 18, 1
19, 59, 0
19, 39, 0
19, 30, 0
49, 26, 0
49, 23, 0
49, 40, 0
49, 46, 0
49, 11, 0
49, 5, 0
49, 20, 0
49, 21, 0
49, 43, 0
49, 14, 0
49, 42, 0
49, 22, 0
49, 45, 0
49, 56, 0
49, 34, 0
49, 16, 0
49, 6, 0
49, 55, 0
49, 44, 0
49, 47, 0
49, 7, 0
49, 12, 0
49, 54, 0
49, 32, 0
49, 37, 0
49, 33, 0
49, 48, 0
49, 9, 0
48, 33, 0
48, 13, 0
48, 47, 1
48, 34, 0
48, 49, 0
48, 22, 0
31, 17, 0
31, 27, 0
31, 35, 0
31, 1, 0
31, 4, 0
31, 52, 0
31, 29, 0
31, 21, 0
31, 28, 0
31, 8, 0
31, 10, 0
31, 36, 0
39, 17, 0
39, 18, 0
39, 59, 0
39, 19, 0
39, 38, 1
39, 30, 0
45, 58, 0
45, 25, 0
45, 46, 0
45, 44, 0
45, 20, 0
45, 33, 0
45, 43, 0
45, 42, 0
45, 37, 0
45, 54, 0
45, 49, 0
45, 9, 0
59, 35, 0
59, 18, 0
59, 39, 0
59, 19, 0
59, 38, 0
59, 30, 0
29, 28, 1
29, 31, 0
29, 35, 0
29, 52, 0
29, 1, 0
29, 8, 0
29, 10, 0
29, 36, 0
40, 0, 0
40, 14, 0
40, 22, 0
40, 56, 0
40, 24, 0
40, 49, 0
40, 15, 0
40, 41, 1
40, 47, 0
52, 53, 0
52, 28, 0
52, 51, 0
52, 27, 0
52, 35, 0
52, 1, 0
52, 31, 0
52, 29, 0
52, 21, 0
52, 17, 0
52, 8, 0
52, 36, 0
11, 12, 1
11, 49, 0
11, 25, 0
11, 46, 0
11, 55, 0
5, 12, 0
5, 55, 0
5, 25, 0
5, 26, 0
5, 23, 0
5, 21, 0
5, 37, 0
5, 6, 1
5, 49, 0
5, 46, 0
37, 45, 0
37, 17, 0
37, 51, 0
37, 23, 0
37, 12, 0
37, 6, 0
37, 55, 0
37, 5, 0
37, 46, 0
37, 7, 0
37, 33, 0
37, 54, 0
37, 26, 0
37, 21, 0
37, 25, 0
37, 49, 0
4, 57, 0
4, 31, 0
4, 35, 0
4, 1, 0
4, 8, 0
4, 10, 0
35, 17, 0
35, 26, 0
35, 51, 0
35, 27, 0
35, 53, 0
35, 59, 0
35, 52, 0
35, 1, 0
35, 57, 0
35, 4, 0
35, 25, 0
35, 50, 0
35, 31, 0
35, 29, 0
35, 28, 0
35, 8, 0
35, 10, 0
30, 57, 0
30, 39, 0
30, 19, 0
30, 59, 0
42, 58, 0
42, 20, 0
42, 45, 0
42, 49, 0
42, 44, 1
42, 9, 0
22, 0, 0
22, 13, 0
22, 33, 0
22, 16, 0
22, 24, 0
22, 40, 0
22, 47, 0
22, 3, 0
22, 14, 0
22, 49, 0
22, 2, 0
22, 34, 0
22, 15, 0
22, 48, 0
36, 53, 0
36, 28, 0
36, 26, 0
36, 31, 0
36, 29, 0
36, 21, 0
36, 17, 0
36, 1, 0
36, 8, 0
36, 52, 0
36, 27, 0
57, 35, 0
57, 19, 0
57, 4, 0
57, 10, 0
57, 30, 0
56, 0, 0
56, 14, 0
56, 24, 0
56, 40, 0
56, 49, 0
56, 15, 0
56, 41, 0
56, 47, 0
16, 33, 0
16, 13, 0
16, 14, 0
16, 22, 0
16, 32, 0
16, 3, 0
16, 34, 0
16, 2, 0
16, 49, 0
16, 47, 0
27, 52, 0
27, 26, 0
27, 31, 0
27, 35, 0
27, 21, 0
27, 28, 1
27, 1, 0
27, 8, 0
27, 10, 0
27, 36, 0
1, 53, 0
1, 28, 0
1, 51, 0
1, 27, 0
1, 29, 0
1, 17, 0
1, 10, 0
1, 4, 0
1, 25, 0
1, 31, 0
1, 35, 0
1, 21, 0
1, 52, 0
1, 8, 0
1, 36, 0
55, 37, 0
55, 17, 0
55, 23, 0
55, 6, 0
55, 46, 0
55, 11, 0
55, 5, 0
55, 7, 0
55, 12, 0
55, 54, 0
55, 26, 0
55, 21, 0
55, 25, 0
55, 49, 0
44, 58, 0
44, 20, 0
44, 43, 1
44, 45, 0
44, 42, 1
44, 49, 0
44, 9, 0
12, 7, 0
12, 55, 0
12, 54, 0
12, 23, 0
12, 37, 0
12, 6, 0
12, 49, 0
12, 46, 0
12, 11, 1
12, 5, 0
18, 59, 0
18, 19, 1
18, 38, 0
18, 39, 0
54, 58, 0
54, 45, 0
54, 55, 0
54, 12, 0
54, 37, 0
54, 49, 0
54, 46, 0
50, 53, 0
50, 25, 0
50, 51, 1
50, 35, 0
26, 6, 0
26, 53, 0
26, 17, 0
26, 51, 0
26, 23, 0
26, 27, 0
26, 55, 0
26, 5, 0
26, 46, 0
26, 7, 0
26, 33, 0
26, 25, 0
26, 37, 0
26, 35, 0
26, 21, 0
26, 49, 0
26, 10, 0
26, 36, 0
6, 7, 1
6, 12, 0
6, 55, 0
6, 25, 0
6, 26, 0
6, 23, 0
6, 21, 0
6, 37, 0
6, 49, 0
6, 5, 1
6, 46, 0
43, 58, 0
43, 20, 0
43, 45, 0
43, 49, 0
43, 44, 1
43, 9, 0
9, 58, 0
9, 20, 0
9, 43, 0
9, 32, 0
9, 45, 0
9, 42, 0
9, 49, 0
9, 44, 0
