12, 3, 0
12, 4, 0
12, 25, 0
12, 26, 0
12, 27, 0
12, 14, 0
12, 38, 0
12, 1, 0
13, 0, 0
13, 18, 0
13, 36, 0
17, 0, 0
17, 18, 0
17, 28, 0
31, 20, 0
31, 19, 0
31, 23, 0
31, 24, 0
23, 20, 0
23, 19, 0
23, 31, 0
23, 24, 0
24, 6, 0
24, 19, 0
24, 31, 0
24, 23, 0
24, 33, 0
5, 18, 0
5, 9, 0
5, 32, 0
5, 29, 0
11, 7, 0
11, 10, 0
1, 12, 0
1, 38, 0
1, 25, 0
1, 27, 0
1, 3, 0
20, 37, 0
20, 18, 0
20, 31, 0
20, 23, 0
21, 37, 0
21, 18, 0
21, 36, 0
4, 27, 0
4, 14, 0
4, 26, 0
4, 12, 0
14, 27, 0
14, 4, 0
14, 12, 0
14, 35, 0
35, 27, 0
35, 14, 0
28, 18, 0
28, 17, 0
28, 10, 0
30, 29, 0
30, 8, 0
30, 2, 0
8, 30, 0
15, 16, 1
15, 34, 0
15, 38, 0
15, 18, 0
15, 3, 0
19, 33, 0
19, 23, 0
19, 31, 0
19, 24, 0
19, 6, 0
19, 32, 0
22, 7, 0
22, 34, 0
22, 3, 0
36, 21, 0
36, 0, 0
36, 13, 0
36, 18, 0
0, 18, 0
0, 13, 0
0, 17, 0
0, 36, 0
38, 3, 0
38, 25, 0
38, 12, 0
38, 18, 0
38, 27, 0
38, 15, 0
38, 1, 0
3, 7, 0
3, 12, 0
3, 25, 0
3, 34, 0
3, 18, 0
3, 27, 0
3, 15, 0
3, 10, 0
3, 38, 0
3, 22, 0
3, 1, 0
16, 34, 0
16, 15, 1
6, 33, 0
6, 19, 0
6, 32, 0
6, 24, 0
10, 18, 0
10, 3, 0
10, 28, 0
10, 11, 0
7, 18, 0
7, 3, 0
7, 22, 0
7, 11, 0
34, 16, 0
34, 3, 0
34, 15, 0
34, 18, 0
34, 22, 0
25, 3, 0
25, 26, 0
25, 12, 0
25, 27, 0
25, 38, 0
25, 1, 0
33, 6, 0
33, 19, 0
33, 2, 0
33, 32, 0
33, 24, 0
32, 33, 0
32, 18, 0
32, 6, 0
32, 19, 0
32, 5, 0
32, 9, 0
27, 3, 0
27, 4, 0
27, 14, 0
27, 26, 0
27, 35, 0
27, 25, 0
27, 12, 0
27, 38, 0
27, 1, 0
37, 20, 0
37, 21, 0
29, 2, 0
29, 5, 0
29, 30, 0
2, 33, 0
2, 29, 0
2, 30, 0
26, 12, 0
26, 4, 0
26, 25, 0
26, 27, 0
18, 0, 0
18, 7, 0
18, 13, 0
18, 28, 0
18, 3, 0
18, 38, 0
18, 5, 0
18, 10, 0
18, 20, 0
18, 34, 0
18, 32, 0
18, 21, 0
18, 17, 0
18, 15, 0
18, 36, 0
9, 5, 0
9, 32, 0
