0, 1, 0
0, 9, 0
13, 12, 0
13, 14, 1
13, 6, 0
3, 12, 0
3, 15, 0
6, 12, 0
6, 13, 0
6, 14, 0
6, 4, 0
6, 1, 0
8, 2, 0
8, 10, 0
8, 15, 0
8, 4, 0
8, 1, 0
5, 7, 0
5, 9, 0
5, 1, 0
11, 2, 0
11, 10, 1
11, 4, 0
11, 1, 0
10, 2, 0
10, 4, 0
10, 8, 0
10, 11, 1
10, 1, 0
7, 9, 0
7, 5, 0
7, 1, 0
12, 3, 0
12, 13, 0
12, 14, 0
12, 4, 0
12, 6, 0
12, 15, 0
4, 12, 0
4, 14, 0
4, 2, 0
4, 6, 0
4, 1, 0
4, 8, 0
4, 15, 0
4, 11, 0
4, 10, 0
14, 12, 0
14, 13, 1
14, 4, 0
14, 6, 0
2, 4, 0
2, 1, 0
2, 8, 0
2, 15, 0
2, 11, 0
2, 10, 0
1, 0, 0
1, 7, 0
1, 4, 0
1, 2, 0
1, 6, 0
1, 10, 0
1, 8, 0
1, 15, 0
1, 5, 0
1, 11, 0
1, 9, 0
15, 12, 0
15, 4, 0
15, 3, 0
15, 2, 0
15, 8, 0
15, 1, 0
9, 0, 0
9, 7, 0
9, 5, 0
9, 1, 0
