13, 37, 0
13, 5, 0
13, 26, 0
17, 7, 0
17, 34, 0
17, 8, 0
17, 52, 0
17, 23, 0
17, 30, 0
17, 53, 0
17, 44, 0
17, 36, 0
23, 17, 0
23, 2, 0
23, 1, 0
23, 8, 0
23, 40, 0
23, 36, 0
46, 36, 0
46, 40, 0
46, 31, 0
46, 1, 0
20, 45, 0
20, 32, 0
20, 33, 0
34, 7, 0
34, 8, 0
34, 25, 0
34, 52, 0
34, 30, 0
34, 53, 0
34, 17, 0
34, 36, 0
14, 0, 0
14, 53, 0
14, 16, 0
14, 6, 0
14, 24, 0
14, 44, 0
14, 47, 0
14, 30, 0
14, 25, 0
14, 35, 0
14, 15, 0
14, 22, 0
24, 28, 0
24, 6, 0
24, 35, 0
24, 25, 0
24, 26, 0
24, 29, 0
24, 43, 0
24, 14, 0
24, 49, 0
24, 15, 0
24, 48, 0
24, 22, 0
28, 24, 0
28, 29, 1
28, 43, 0
28, 22, 0
28, 26, 0
28, 35, 0
28, 6, 0
28, 49, 0
28, 48, 0
28, 47, 0
15, 0, 0
15, 14, 0
15, 24, 0
15, 16, 1
15, 25, 0
15, 35, 0
15, 44, 0
15, 22, 0
15, 30, 0
41, 12, 0
41, 4, 0
41, 32, 0
41, 3, 0
41, 21, 0
41, 42, 0
41, 19, 0
41, 45, 0
41, 39, 0
41, 10, 0
41, 9, 0
0, 14, 0
0, 47, 0
0, 6, 0
0, 25, 0
0, 15, 0
0, 44, 0
0, 22, 0
8, 7, 0
8, 12, 0
8, 53, 0
8, 52, 0
8, 23, 0
8, 2, 0
8, 17, 0
8, 30, 0
8, 34, 0
8, 40, 0
8, 36, 0
51, 42, 0
51, 45, 0
51, 50, 1
51, 32, 0
51, 27, 0
3, 19, 0
3, 9, 0
3, 41, 0
3, 10, 0
38, 12, 0
38, 39, 0
38, 11, 0
38, 30, 0
47, 0, 0
47, 25, 0
47, 43, 0
47, 26, 0
47, 6, 0
47, 28, 0
47, 14, 0
47, 49, 0
47, 48, 0
47, 22, 0
47, 44, 0
10, 3, 0
10, 12, 0
10, 21, 0
10, 42, 0
10, 19, 0
10, 39, 0
10, 41, 0
10, 9, 0
7, 34, 0
7, 17, 0
7, 12, 0
7, 52, 0
7, 8, 0
7, 30, 0
33, 20, 0
33, 27, 0
33, 36, 0
33, 32, 0
33, 45, 0
32, 20, 0
32, 33, 0
32, 50, 0
32, 51, 0
32, 45, 0
32, 21, 0
32, 27, 0
32, 19, 0
32, 42, 0
32, 41, 0
2, 8, 0
2, 40, 0
2, 23, 0
2, 1, 0
21, 45, 0
21, 50, 0
21, 32, 0
21, 27, 0
21, 42, 0
21, 19, 0
21, 41, 0
21, 10, 0
25, 0, 0
25, 16, 0
25, 24, 0
25, 44, 0
25, 47, 0
25, 30, 0
25, 34, 0
25, 14, 0
25, 35, 0
25, 49, 0
25, 15, 0
25, 22, 0
19, 3, 0
19, 50, 0
19, 32, 0
19, 21, 0
19, 41, 0
19, 10, 0
49, 6, 0
49, 43, 0
49, 47, 0
49, 26, 0
49, 35, 0
49, 28, 0
49, 25, 0
49, 24, 0
49, 48, 0
49, 22, 0
48, 24, 0
48, 6, 0
48, 28, 0
48, 22, 0
48, 26, 0
48, 35, 0
48, 43, 0
48, 49, 0
48, 47, 0
31, 12, 0
31, 1, 0
31, 40, 0
31, 46, 0
31, 11, 0
31, 30, 0
39, 12, 0
39, 4, 0
39, 38, 0
39, 41, 0
39, 10, 0
29, 28, 1
29, 26, 0
29, 24, 0
40, 12, 0
40, 31, 0
40, 23, 0
40, 2, 0
40, 30, 0
40, 8, 0
40, 46, 0
40, 1, 0
11, 12, 0
11, 38, 0
11, 31, 0
11, 30, 0
5, 37, 0
5, 18, 0
5, 13, 0
5, 26, 0
37, 18, 0
37, 13, 0
37, 5, 0
37, 26, 0
4, 12, 0
4, 39, 0
4, 41, 0
4, 9, 0
35, 43, 0
35, 28, 0
35, 24, 0
35, 16, 0
35, 25, 0
35, 14, 0
35, 49, 0
35, 15, 0
35, 48, 0
35, 22, 0
30, 45, 0
30, 52, 0
30, 17, 0
30, 12, 0
30, 38, 0
30, 40, 0
30, 44, 0
30, 11, 0
30, 7, 0
30, 34, 0
30, 25, 0
30, 31, 0
30, 14, 0
30, 8, 0
30, 15, 0
42, 45, 0
42, 50, 0
42, 51, 0
42, 21, 0
42, 27, 0
42, 32, 0
42, 41, 0
42, 10, 0
22, 0, 0
22, 53, 0
22, 28, 0
22, 16, 0
22, 6, 0
22, 24, 0
22, 44, 0
22, 47, 0
22, 25, 0
22, 26, 0
22, 35, 0
22, 43, 0
22, 14, 0
22, 49, 0
22, 15, 0
22, 48, 0
36, 45, 0
36, 17, 0
36, 23, 0
36, 34, 0
36, 6, 0
36, 1, 0
36, 53, 0
36, 44, 0
36, 46, 0
36, 33, 0
36, 52, 0
36, 8, 0
45, 20, 0
45, 33, 0
45, 50, 0
45, 51, 0
45, 21, 0
45, 42, 0
45, 32, 0
45, 36, 0
45, 41, 0
45, 30, 0
16, 25, 0
16, 14, 0
16, 15, 1
16, 22, 0
16, 35, 0
27, 33, 0
27, 51, 0
27, 32, 0
27, 21, 0
27, 42, 0
27, 50, 0
1, 31, 0
1, 23, 0
1, 2, 0
1, 40, 0
1, 46, 0
1, 36, 0
53, 34, 0
53, 14, 0
53, 6, 0
53, 17, 0
53, 36, 0
53, 8, 0
53, 52, 0
53, 22, 0
53, 44, 0
44, 0, 0
44, 17, 0
44, 6, 0
44, 53, 0
44, 47, 0
44, 30, 0
44, 25, 0
44, 43, 0
44, 14, 0
44, 15, 0
44, 22, 0
44, 36, 0
12, 39, 0
12, 40, 0
12, 11, 0
12, 10, 0
12, 7, 0
12, 4, 0
12, 31, 0
12, 30, 0
12, 8, 0
12, 38, 0
12, 41, 0
12, 9, 0
18, 37, 0
18, 5, 0
18, 26, 0
52, 7, 0
52, 34, 0
52, 53, 0
52, 17, 0
52, 36, 0
52, 8, 0
52, 30, 0
50, 45, 0
50, 51, 1
50, 32, 0
50, 27, 0
50, 21, 0
50, 42, 0
50, 19, 0
26, 13, 0
26, 28, 0
26, 18, 0
26, 24, 0
26, 5, 0
26, 47, 0
26, 43, 0
26, 29, 0
26, 37, 0
26, 49, 0
26, 48, 0
26, 22, 0
6, 0, 0
6, 53, 0
6, 14, 0
6, 22, 0
6, 24, 0
6, 28, 0
6, 49, 0
6, 48, 0
6, 44, 0
6, 47, 0
6, 36, 0
43, 35, 0
43, 28, 0
43, 22, 0
43, 26, 0
43, 24, 0
43, 49, 0
43, 48, 0
43, 47, 0
43, 44, 0
9, 3, 0
9, 4, 0
9, 12, 0
9, 41, 0
9, 10, 0
