0, 7, 0
0, 3, 0
0, 4, 0
0, 5, 0
0, 1, 1
3, 0, 0
3, 7, 0
3, 4, 0
3, 5, 0
3, 1, 0
4, 0, 0
4, 3, 0
4, 7, 0
4, 5, 1
4, 1, 0
2, 7, 0
2, 6, 0
2, 8, 0
2, 9, 0
6, 7, 0
6, 8, 0
6, 2, 0
1, 0, 1
1, 3, 0
1, 4, 0
1, 7, 0
1, 5, 0
8, 6, 0
8, 2, 0
8, 9, 1
5, 0, 0
5, 3, 0
5, 4, 1
5, 7, 0
5, 1, 0
7, 0, 0
7, 3, 0
7, 4, 0
7, 2, 0
7, 6, 0
7, 1, 0
7, 5, 0
7, 9, 0
9, 7, 0
9, 8, 1
9, 2, 0
