0, 3, 0
0, 5, 0
0, 6, 0
13, 4, 0
13, 10, 0
13, 1, 0
13, 5, 0
13, 11, 0
13, 9, 0
3, 0, 0
3, 6, 0
3, 11, 0
3, 1, 0
16, 15, 0
16, 2, 0
6, 0, 0
6, 3, 0
6, 5, 0
6, 1, 0
8, 7, 0
8, 15, 0
8, 2, 0
5, 0, 0
5, 13, 0
5, 4, 0
5, 6, 0
5, 1, 0
5, 11, 0
5, 10, 0
11, 3, 0
11, 13, 0
11, 5, 0
11, 10, 0
11, 1, 0
10, 4, 0
10, 13, 0
10, 5, 0
10, 11, 0
7, 12, 0
7, 8, 0
7, 15, 0
12, 7, 0
12, 14, 0
4, 9, 0
4, 13, 0
4, 14, 0
4, 5, 0
4, 10, 0
14, 12, 0
14, 4, 0
14, 9, 0
2, 16, 0
2, 8, 0
2, 15, 0
1, 6, 0
1, 13, 0
1, 5, 0
1, 11, 0
1, 3, 0
15, 7, 0
15, 16, 0
15, 8, 0
15, 2, 0
9, 13, 0
9, 14, 0
9, 4, 0
