0, 12, 0
0, 2, 0
0, 11, 0
0, 10, 0
13, 7, 0
13, 3, 0
13, 8, 0
3, 13, 0
3, 9, 0
6, 11, 0
6, 1, 0
8, 7, 1
8, 13, 0
8, 15, 0
5, 2, 0
5, 4, 1
5, 10, 0
11, 0, 0
11, 6, 0
10, 0, 0
10, 12, 0
10, 4, 0
10, 5, 0
10, 2, 0
7, 13, 0
7, 8, 1
7, 15, 0
12, 0, 0
12, 10, 0
4, 2, 0
4, 5, 1
4, 10, 0
14, 2, 0
2, 0, 0
2, 4, 0
2, 14, 0
2, 5, 0
2, 10, 0
1, 6, 0
1, 9, 0
15, 7, 0
15, 8, 0
9, 3, 0
9, 1, 0
