0, 7, 0
0, 8, 0
3, 6, 0
3, 4, 1
3, 2, 0
4, 3, 1
4, 6, 0
4, 2, 0
2, 3, 0
2, 6, 0
2, 8, 0
2, 4, 0
2, 1, 0
6, 3, 0
6, 4, 0
6, 2, 0
1, 8, 0
1, 2, 0
8, 0, 0
8, 2, 0
8, 1, 0
5, 7, 0
5, 9, 0
7, 0, 0
7, 5, 0
7, 9, 0
9, 7, 0
9, 5, 0
