13, 25, 0
13, 22, 0
13, 10, 0
17, 18, 0
17, 11, 0
17, 9, 0
23, 7, 0
23, 15, 0
23, 22, 1
5, 19, 0
5, 14, 0
5, 2, 0
11, 18, 0
11, 19, 0
11, 17, 0
11, 9, 0
1, 0, 0
1, 3, 0
1, 15, 0
1, 22, 0
1, 12, 0
20, 21, 1
20, 6, 0
20, 16, 0
20, 8, 0
20, 2, 0
4, 3, 1
4, 12, 0
4, 24, 0
14, 18, 0
14, 19, 0
14, 2, 0
14, 5, 0
14, 9, 0
24, 3, 0
24, 4, 0
24, 12, 0
8, 20, 0
8, 16, 0
8, 2, 0
8, 21, 0
8, 6, 0
8, 22, 0
8, 9, 0
15, 0, 0
15, 22, 0
15, 23, 0
15, 1, 0
22, 7, 0
22, 13, 0
22, 25, 0
22, 23, 1
22, 2, 0
22, 16, 0
22, 8, 0
22, 15, 0
22, 10, 0
22, 1, 0
0, 15, 0
0, 1, 0
3, 24, 0
3, 12, 0
3, 4, 1
3, 1, 0
16, 20, 0
16, 25, 0
16, 2, 0
16, 21, 0
16, 6, 0
16, 8, 0
16, 22, 0
6, 20, 0
6, 21, 0
6, 2, 0
6, 16, 0
6, 8, 0
6, 9, 0
10, 7, 0
10, 13, 0
10, 22, 0
7, 22, 0
7, 23, 0
7, 10, 0
12, 3, 0
12, 1, 0
12, 4, 0
12, 24, 0
25, 16, 0
25, 13, 0
25, 22, 0
2, 20, 0
2, 18, 0
2, 14, 0
2, 16, 0
2, 6, 0
2, 8, 0
2, 5, 0
2, 22, 0
2, 9, 0
21, 20, 1
21, 16, 0
21, 8, 0
21, 6, 0
19, 18, 0
19, 14, 0
19, 5, 0
19, 11, 0
18, 14, 0
18, 2, 0
18, 17, 0
18, 19, 0
18, 11, 0
18, 9, 0
9, 14, 0
9, 2, 0
9, 18, 0
9, 6, 0
9, 8, 0
9, 17, 0
9, 11, 0
