0, 6, 0
0, 1, 0
0, 10, 0
0, 5, 0
0, 11, 0
0, 9, 0
6, 0, 0
6, 3, 0
6, 9, 0
6, 1, 0
1, 0, 0
1, 7, 0
1, 4, 0
1, 6, 0
1, 8, 0
1, 5, 0
1, 10, 0
1, 9, 0
5, 0, 0
5, 3, 0
5, 7, 0
5, 2, 0
5, 1, 0
5, 10, 0
5, 9, 0
11, 0, 0
10, 7, 0
10, 0, 0
10, 2, 0
10, 1, 0
10, 8, 0
10, 5, 0
10, 9, 1
7, 4, 0
7, 9, 0
7, 2, 0
7, 1, 0
7, 8, 0
7, 5, 0
7, 10, 0
3, 6, 0
3, 5, 0
3, 2, 0
4, 7, 0
4, 1, 0
2, 7, 0
2, 3, 0
2, 10, 0
2, 8, 0
2, 5, 0
2, 9, 0
8, 7, 0
8, 2, 0
8, 10, 0
8, 9, 0
8, 1, 0
9, 7, 0
9, 0, 0
9, 2, 0
9, 6, 0
9, 1, 0
9, 8, 0
9, 5, 0
9, 10, 1
