0, 7, 0
0, 6, 0
0, 5, 0
0, 10, 0
8, 3, 0
8, 4, 0
8, 6, 0
8, 9, 0
8, 11, 0
8, 10, 0
3, 8, 0
3, 4, 0
6, 0, 0
6, 7, 1
6, 8, 0
6, 12, 0
6, 2, 0
6, 10, 0
6, 9, 0
6, 5, 0
6, 1, 0
5, 0, 0
5, 12, 0
5, 10, 0
5, 6, 0
11, 8, 0
11, 10, 1
11, 9, 0
10, 0, 0
10, 12, 0
10, 2, 0
10, 6, 0
10, 1, 0
10, 8, 0
10, 5, 0
10, 11, 1
10, 9, 0
7, 0, 0
7, 6, 1
7, 1, 0
12, 6, 0
12, 10, 0
12, 5, 0
12, 9, 0
4, 3, 0
4, 8, 0
2, 6, 0
2, 10, 0
2, 1, 0
1, 7, 0
1, 6, 0
1, 10, 0
1, 2, 0
9, 12, 0
9, 8, 0
9, 10, 0
9, 11, 0
9, 6, 0
