13, 6, 0
13, 19, 0
13, 15, 0
13, 31, 0
17, 18, 0
17, 27, 0
17, 26, 0
17, 31, 0
17, 0, 0
31, 13, 0
31, 17, 0
31, 26, 0
31, 23, 0
31, 29, 0
31, 5, 0
31, 11, 0
31, 30, 0
31, 20, 0
31, 14, 0
31, 24, 0
31, 28, 0
31, 15, 0
31, 0, 0
31, 12, 0
31, 16, 0
31, 6, 0
31, 10, 0
31, 7, 0
31, 3, 0
31, 25, 0
31, 32, 0
31, 27, 0
31, 19, 0
31, 18, 0
23, 6, 0
23, 31, 0
23, 32, 0
10, 20, 0
10, 7, 0
10, 31, 0
10, 30, 0
2, 21, 0
2, 8, 0
2, 22, 0
2, 1, 0
5, 7, 0
5, 12, 0
5, 14, 0
5, 31, 0
5, 24, 0
11, 20, 0
11, 16, 0
11, 31, 0
1, 0, 0
1, 4, 0
1, 2, 0
1, 21, 0
1, 8, 0
1, 22, 0
1, 9, 0
20, 10, 0
20, 31, 0
20, 11, 0
20, 30, 0
4, 21, 0
4, 8, 0
4, 22, 0
4, 1, 0
14, 7, 0
14, 12, 0
14, 26, 0
14, 31, 0
14, 24, 0
14, 5, 0
14, 0, 0
24, 7, 0
24, 12, 0
24, 14, 0
24, 31, 0
24, 26, 0
24, 27, 0
24, 5, 0
24, 0, 0
28, 3, 0
28, 25, 0
28, 31, 0
28, 29, 0
30, 20, 0
30, 31, 0
30, 10, 0
8, 2, 0
8, 4, 0
8, 22, 0
8, 1, 0
15, 0, 0
15, 13, 0
15, 31, 0
15, 27, 0
15, 6, 0
15, 19, 0
22, 21, 0
22, 2, 0
22, 8, 0
22, 4, 0
22, 1, 0
0, 14, 0
0, 31, 0
0, 26, 0
0, 6, 0
0, 27, 0
0, 1, 0
0, 24, 0
0, 15, 0
0, 17, 0
0, 9, 0
12, 7, 0
12, 14, 0
12, 5, 0
12, 31, 0
12, 24, 0
16, 3, 0
16, 31, 0
16, 11, 0
6, 0, 0
6, 13, 0
6, 23, 0
6, 31, 0
6, 19, 0
6, 15, 0
27, 0, 0
27, 17, 0
27, 26, 1
27, 31, 0
27, 24, 0
27, 19, 0
27, 15, 0
7, 12, 0
7, 14, 0
7, 31, 0
7, 24, 0
7, 5, 0
7, 10, 0
3, 16, 0
3, 25, 0
3, 28, 0
3, 31, 0
3, 29, 0
25, 3, 0
25, 28, 0
25, 31, 0
25, 29, 0
32, 18, 0
32, 31, 0
32, 23, 0
29, 28, 0
29, 25, 0
29, 31, 0
29, 3, 0
21, 2, 0
21, 4, 0
21, 22, 0
21, 1, 0
26, 0, 0
26, 14, 0
26, 31, 0
26, 24, 0
26, 27, 1
26, 17, 0
19, 6, 0
19, 13, 0
19, 15, 0
19, 31, 0
19, 27, 0
18, 17, 0
18, 31, 0
18, 32, 0
9, 0, 0
9, 1, 0
