0, 7, 0
0, 3, 0
0, 2, 0
0, 8, 0
0, 10, 0
0, 9, 0
3, 0, 0
3, 7, 0
3, 2, 0
3, 8, 0
3, 9, 0
4, 8, 0
2, 0, 0
2, 3, 0
2, 8, 0
2, 7, 0
2, 9, 0
6, 7, 0
6, 5, 0
6, 1, 0
1, 7, 0
1, 6, 0
8, 0, 0
8, 3, 0
8, 4, 0
8, 10, 0
8, 2, 0
5, 7, 0
5, 6, 0
7, 0, 0
7, 3, 0
7, 2, 0
7, 6, 0
7, 5, 0
7, 1, 0
10, 0, 0
10, 8, 0
10, 9, 0
9, 0, 0
9, 3, 0
9, 10, 0
9, 2, 0
