0, 3, 0
0, 4, 0
0, 2, 0
13, 7, 0
13, 14, 0
13, 2, 0
13, 6, 0
13, 8, 0
13, 15, 0
13, 1, 0
17, 16, 0
17, 6, 0
17, 14, 0
17, 10, 0
3, 0, 0
3, 2, 1
3, 4, 0
3, 10, 0
16, 15, 0
16, 14, 0
16, 17, 0
6, 7, 1
6, 13, 0
6, 14, 0
6, 2, 0
6, 17, 0
6, 15, 0
6, 10, 0
8, 7, 1
8, 15, 0
8, 13, 0
8, 14, 0
8, 1, 0
5, 12, 0
5, 19, 0
5, 11, 0
11, 12, 0
11, 19, 0
11, 5, 0
10, 3, 0
10, 4, 0
10, 17, 0
10, 2, 0
10, 6, 0
10, 14, 0
7, 13, 0
7, 14, 0
7, 6, 1
7, 8, 1
7, 15, 0
7, 1, 0
12, 18, 0
12, 9, 0
12, 5, 0
12, 11, 0
12, 1, 0
4, 0, 0
4, 3, 0
4, 2, 0
4, 10, 0
14, 7, 0
14, 13, 0
14, 17, 0
14, 2, 0
14, 16, 0
14, 6, 0
14, 1, 0
14, 8, 0
14, 15, 1
14, 10, 0
2, 0, 0
2, 3, 1
2, 4, 0
2, 14, 0
2, 13, 0
2, 6, 0
2, 1, 0
2, 10, 0
19, 5, 0
19, 11, 0
1, 7, 0
1, 12, 0
1, 13, 0
1, 14, 0
1, 2, 0
1, 8, 0
1, 15, 0
1, 9, 0
15, 7, 0
15, 13, 0
15, 14, 1
15, 16, 0
15, 6, 0
15, 8, 0
15, 1, 0
18, 12, 0
18, 9, 0
9, 18, 0
9, 12, 0
9, 1, 0
