0, 7, 0
0, 6, 0
0, 13, 0
0, 3, 0
13, 0, 0
13, 7, 0
13, 6, 0
13, 14, 0
13, 1, 0
3, 0, 0
3, 6, 0
3, 8, 0
3, 7, 0
3, 9, 0
6, 0, 0
6, 12, 0
6, 13, 0
6, 3, 0
8, 3, 0
8, 9, 0
5, 12, 0
5, 4, 1
5, 9, 0
5, 11, 0
5, 2, 0
11, 12, 1
11, 4, 0
11, 5, 0
11, 9, 0
10, 12, 0
10, 4, 0
10, 2, 0
7, 0, 0
7, 3, 0
7, 13, 0
7, 14, 0
12, 4, 0
12, 2, 0
12, 6, 0
12, 10, 0
12, 5, 0
12, 11, 1
12, 9, 0
4, 12, 0
4, 2, 0
4, 9, 0
4, 5, 1
4, 11, 0
4, 10, 0
14, 7, 0
14, 13, 0
14, 1, 0
2, 12, 0
2, 4, 0
2, 5, 0
2, 10, 0
1, 13, 0
1, 14, 0
9, 12, 0
9, 4, 0
9, 3, 0
9, 8, 0
9, 5, 0
9, 11, 0
