13, 0, 0
13, 12, 0
13, 7, 0
13, 21, 0
13, 19, 0
13, 15, 0
13, 11, 0
13, 9, 0
17, 16, 1
17, 20, 0
17, 8, 0
17, 14, 0
17, 2, 0
5, 7, 0
5, 6, 1
5, 4, 0
5, 22, 0
11, 12, 1
11, 19, 0
11, 13, 0
11, 15, 0
1, 20, 0
1, 3, 0
1, 15, 0
1, 10, 0
20, 3, 0
20, 14, 0
20, 2, 0
20, 16, 0
20, 17, 0
20, 1, 0
20, 8, 0
20, 15, 0
20, 10, 0
4, 7, 0
4, 6, 0
4, 5, 0
4, 22, 0
14, 20, 0
14, 3, 0
14, 17, 0
14, 2, 0
14, 16, 0
14, 8, 0
8, 20, 0
8, 16, 0
8, 14, 0
8, 2, 0
8, 18, 0
8, 17, 0
15, 20, 0
15, 12, 0
15, 13, 0
15, 19, 0
15, 10, 0
15, 11, 0
15, 1, 0
22, 7, 0
22, 6, 0
22, 4, 0
22, 5, 0
22, 0, 0
0, 7, 0
0, 13, 0
0, 21, 0
0, 6, 0
0, 22, 0
0, 9, 0
3, 20, 0
3, 10, 0
3, 14, 0
3, 1, 0
16, 20, 0
16, 14, 0
16, 8, 0
16, 17, 1
6, 7, 0
6, 0, 0
6, 4, 0
6, 5, 1
6, 22, 0
10, 20, 0
10, 3, 0
10, 12, 0
10, 19, 0
10, 15, 0
10, 1, 0
7, 0, 0
7, 13, 0
7, 4, 0
7, 6, 0
7, 5, 0
7, 22, 0
7, 9, 0
12, 19, 0
12, 13, 0
12, 15, 0
12, 11, 1
12, 10, 0
2, 20, 0
2, 14, 0
2, 8, 0
2, 17, 0
2, 18, 0
21, 0, 0
21, 19, 0
21, 13, 0
21, 9, 0
19, 12, 0
19, 13, 0
19, 21, 0
19, 15, 0
19, 11, 0
19, 10, 0
18, 8, 0
18, 2, 0
9, 0, 0
9, 7, 0
9, 13, 0
9, 21, 0
