12, 18, 0
12, 5, 0
12, 11, 1
13, 20, 0
13, 28, 0
13, 18, 0
13, 27, 0
13, 2, 0
13, 5, 0
13, 10, 0
13, 7, 0
13, 4, 0
13, 25, 0
13, 32, 0
13, 6, 0
13, 37, 0
13, 29, 0
13, 14, 0
13, 36, 0
13, 38, 0
13, 19, 0
13, 22, 0
13, 9, 0
17, 38, 0
17, 15, 0
17, 26, 0
17, 6, 0
31, 16, 0
31, 34, 0
31, 33, 0
23, 0, 0
23, 35, 0
23, 26, 0
23, 24, 1
24, 0, 0
24, 26, 0
24, 23, 1
24, 35, 0
5, 7, 0
5, 12, 0
5, 13, 0
5, 25, 0
5, 18, 0
5, 6, 0
5, 38, 0
5, 11, 0
11, 18, 0
11, 12, 1
11, 5, 0
1, 18, 0
1, 38, 0
1, 15, 0
20, 13, 0
20, 28, 0
20, 27, 0
20, 29, 0
20, 10, 0
20, 4, 0
20, 14, 0
20, 2, 0
20, 37, 0
20, 19, 1
20, 36, 0
20, 22, 0
20, 9, 0
21, 34, 0
21, 39, 0
21, 30, 0
4, 20, 0
4, 13, 0
4, 28, 0
4, 29, 0
4, 37, 0
4, 27, 0
4, 22, 0
4, 36, 0
14, 7, 0
14, 20, 0
14, 13, 0
14, 32, 0
14, 6, 0
14, 8, 0
14, 38, 0
39, 21, 0
39, 38, 0
35, 0, 0
35, 7, 0
35, 23, 0
35, 26, 0
35, 24, 0
35, 6, 0
35, 8, 0
35, 38, 0
28, 20, 0
28, 4, 0
28, 13, 0
28, 29, 1
28, 37, 0
28, 27, 0
28, 36, 0
30, 21, 0
30, 34, 0
30, 33, 0
8, 7, 0
8, 6, 0
8, 14, 0
8, 35, 0
15, 7, 0
15, 17, 0
15, 6, 0
15, 25, 0
15, 38, 0
15, 1, 0
22, 20, 0
22, 4, 0
22, 13, 0
22, 32, 0
22, 2, 0
22, 37, 0
22, 6, 0
22, 19, 0
22, 29, 0
22, 10, 0
22, 9, 0
36, 20, 0
36, 4, 0
36, 28, 0
36, 29, 0
36, 37, 1
36, 27, 0
36, 13, 0
0, 35, 0
0, 26, 0
0, 23, 0
0, 24, 0
6, 13, 0
6, 17, 0
6, 32, 0
6, 18, 0
6, 15, 0
6, 5, 0
6, 7, 1
6, 25, 0
6, 26, 0
6, 35, 0
6, 14, 0
6, 8, 0
6, 38, 0
6, 22, 0
3, 16, 0
3, 34, 0
16, 34, 0
16, 33, 0
16, 31, 0
16, 3, 0
38, 13, 0
38, 17, 0
38, 32, 0
38, 18, 0
38, 6, 0
38, 15, 0
38, 5, 0
38, 1, 0
38, 7, 0
38, 34, 0
38, 14, 0
38, 26, 0
38, 35, 0
38, 25, 0
38, 39, 0
27, 20, 0
27, 7, 0
27, 13, 0
27, 28, 0
27, 4, 0
27, 29, 0
27, 37, 0
27, 36, 0
10, 20, 0
10, 13, 0
10, 32, 0
10, 2, 0
10, 19, 0
10, 22, 0
10, 9, 1
7, 13, 0
7, 38, 0
7, 32, 0
7, 18, 0
7, 6, 1
7, 5, 0
7, 27, 0
7, 25, 0
7, 26, 0
7, 35, 0
7, 14, 0
7, 8, 0
7, 15, 0
34, 33, 0
34, 3, 0
34, 31, 0
34, 21, 0
34, 16, 0
34, 38, 0
34, 30, 0
25, 7, 0
25, 13, 0
25, 38, 0
25, 18, 0
25, 6, 0
25, 15, 0
25, 5, 0
33, 16, 0
33, 34, 0
33, 31, 0
33, 30, 0
32, 7, 0
32, 13, 0
32, 14, 0
32, 2, 0
32, 6, 0
32, 19, 0
32, 9, 0
32, 38, 0
32, 22, 0
32, 10, 0
2, 20, 0
2, 13, 0
2, 32, 0
2, 37, 0
2, 19, 0
2, 10, 0
2, 22, 0
2, 9, 0
37, 20, 0
37, 13, 0
37, 28, 0
37, 9, 0
37, 4, 0
37, 29, 0
37, 27, 0
37, 2, 0
37, 22, 0
37, 36, 1
29, 20, 0
29, 4, 0
29, 28, 1
29, 37, 0
29, 27, 0
29, 13, 0
29, 9, 0
29, 22, 0
29, 36, 0
19, 20, 1
19, 13, 0
19, 32, 0
19, 2, 0
19, 10, 0
19, 22, 0
19, 9, 0
26, 0, 0
26, 7, 0
26, 17, 0
26, 23, 0
26, 35, 0
26, 6, 0
26, 24, 0
26, 38, 0
18, 7, 0
18, 12, 0
18, 13, 0
18, 25, 0
18, 6, 0
18, 38, 0
18, 5, 0
18, 11, 0
18, 1, 0
9, 20, 0
9, 13, 0
9, 32, 0
9, 2, 0
9, 37, 0
9, 19, 0
9, 29, 0
9, 22, 0
9, 10, 1
