13, 0, 0
13, 12, 0
13, 14, 0
13, 5, 0
13, 11, 0
13, 10, 0
17, 12, 0
17, 14, 0
17, 16, 1
17, 6, 0
17, 18, 0
17, 1, 0
5, 0, 0
5, 3, 0
5, 13, 0
5, 6, 0
5, 8, 0
5, 10, 0
5, 11, 0
5, 9, 0
11, 0, 0
11, 12, 0
11, 13, 0
11, 14, 0
11, 5, 0
11, 10, 1
1, 12, 0
1, 14, 0
1, 6, 0
1, 16, 0
1, 17, 0
1, 15, 0
1, 18, 0
20, 21, 1
20, 6, 0
20, 19, 0
20, 7, 0
20, 2, 0
4, 7, 0
4, 6, 0
4, 19, 0
4, 21, 0
4, 2, 0
14, 0, 0
14, 12, 0
14, 13, 0
14, 17, 0
14, 16, 0
14, 6, 0
14, 10, 0
14, 15, 0
14, 7, 0
14, 11, 0
14, 1, 0
8, 3, 0
8, 5, 0
8, 9, 1
15, 12, 0
15, 14, 0
15, 16, 1
15, 6, 0
15, 18, 0
15, 1, 0
0, 13, 0
0, 14, 0
0, 5, 0
0, 11, 0
0, 10, 0
3, 8, 0
3, 5, 0
3, 9, 0
16, 12, 0
16, 14, 0
16, 6, 0
16, 18, 0
16, 17, 1
16, 15, 1
16, 1, 0
6, 7, 0
6, 17, 0
6, 16, 0
6, 5, 0
6, 1, 0
6, 20, 0
6, 12, 0
6, 4, 0
6, 14, 0
6, 2, 0
6, 21, 0
6, 19, 0
6, 15, 0
6, 18, 0
10, 0, 0
10, 13, 0
10, 14, 0
10, 5, 0
10, 11, 1
7, 20, 0
7, 4, 0
7, 14, 0
7, 2, 0
7, 21, 0
7, 6, 0
7, 19, 0
12, 18, 0
12, 13, 0
12, 14, 0
12, 16, 0
12, 6, 0
12, 15, 0
12, 17, 0
12, 11, 0
12, 1, 0
2, 20, 0
2, 7, 0
2, 4, 0
2, 21, 0
2, 6, 0
2, 19, 0
21, 20, 1
21, 7, 0
21, 4, 0
21, 2, 0
21, 6, 0
21, 19, 0
19, 20, 0
19, 18, 0
19, 4, 0
19, 2, 0
19, 21, 0
19, 6, 0
19, 7, 0
18, 12, 0
18, 17, 0
18, 16, 0
18, 6, 0
18, 19, 0
18, 15, 0
18, 1, 0
9, 3, 0
9, 8, 1
9, 5, 0
