0, 4, 0
0, 6, 0
0, 8, 0
0, 5, 0
0, 10, 0
0, 9, 0
6, 0, 0
6, 4, 0
6, 9, 0
6, 5, 0
6, 10, 0
1, 3, 0
1, 11, 0
5, 0, 0
5, 4, 1
5, 9, 0
5, 6, 0
5, 8, 0
5, 10, 0
11, 7, 0
11, 3, 0
11, 2, 0
11, 1, 0
10, 0, 0
10, 6, 0
10, 4, 0
10, 5, 0
10, 9, 0
7, 3, 0
7, 8, 0
7, 9, 0
7, 11, 0
7, 2, 0
3, 7, 0
3, 9, 0
3, 11, 0
3, 1, 0
4, 0, 0
4, 6, 0
4, 9, 0
4, 5, 1
4, 10, 0
2, 7, 0
2, 8, 0
2, 11, 0
2, 9, 0
8, 0, 0
8, 7, 0
8, 9, 0
8, 5, 0
8, 2, 0
9, 0, 0
9, 7, 0
9, 4, 0
9, 3, 0
9, 2, 0
9, 6, 0
9, 8, 0
9, 5, 0
9, 10, 0
