0, 7, 0
0, 12, 0
0, 4, 0
0, 14, 0
0, 13, 0
0, 10, 0
13, 0, 0
13, 7, 0
13, 4, 0
13, 14, 0
13, 12, 0
13, 8, 0
13, 11, 0
3, 2, 1
3, 8, 0
3, 5, 0
3, 1, 0
6, 1, 0
6, 9, 0
6, 10, 0
8, 7, 0
8, 3, 0
8, 13, 0
8, 14, 0
8, 4, 0
8, 5, 0
8, 1, 0
5, 3, 0
5, 14, 0
5, 2, 0
5, 8, 0
5, 10, 0
5, 1, 0
11, 7, 0
11, 12, 0
11, 13, 0
11, 4, 0
11, 10, 0
10, 0, 0
10, 12, 0
10, 14, 0
10, 2, 0
10, 6, 0
10, 5, 0
10, 11, 0
10, 1, 0
7, 0, 0
7, 12, 0
7, 13, 0
7, 4, 0
7, 8, 0
7, 11, 0
12, 0, 0
12, 7, 0
12, 13, 0
12, 4, 0
12, 11, 0
12, 10, 0
4, 0, 0
4, 7, 0
4, 13, 0
4, 14, 0
4, 12, 0
4, 8, 0
4, 11, 0
14, 0, 0
14, 13, 0
14, 4, 0
14, 8, 0
14, 5, 0
14, 10, 0
2, 3, 1
2, 10, 0
2, 5, 0
2, 1, 0
1, 3, 0
1, 2, 0
1, 6, 0
1, 8, 0
1, 5, 0
1, 10, 0
1, 9, 0
9, 6, 0
9, 1, 0
