0, 7, 0
0, 6, 0
0, 2, 0
0, 4, 0
0, 3, 0
3, 0, 0
3, 4, 0
4, 0, 0
4, 3, 0
4, 7, 0
4, 6, 0
7, 0, 0
7, 6, 0
7, 4, 0
2, 0, 0
2, 6, 0
2, 5, 0
2, 1, 1
6, 0, 0
6, 7, 0
6, 4, 0
6, 2, 0
6, 5, 0
6, 1, 0
5, 6, 0
5, 1, 0
5, 2, 0
1, 6, 0
1, 5, 0
1, 2, 1
