0, 8, 0
0, 15, 0
0, 1, 1
7, 18, 0
7, 4, 0
7, 17, 0
7, 9, 0
13, 12, 1
13, 19, 0
13, 8, 0
17, 18, 1
17, 7, 0
17, 16, 0
17, 4, 0
17, 9, 0
3, 20, 0
3, 14, 0
16, 18, 0
16, 15, 0
16, 4, 0
16, 17, 0
16, 9, 0
6, 10, 0
6, 5, 1
6, 2, 0
8, 0, 0
8, 12, 0
8, 13, 0
8, 19, 0
8, 15, 0
8, 11, 0
8, 1, 0
5, 20, 0
5, 6, 1
5, 10, 0
5, 2, 0
11, 12, 1
11, 19, 0
11, 8, 0
10, 20, 0
10, 6, 0
10, 5, 0
10, 2, 0
20, 3, 0
20, 14, 0
20, 5, 0
20, 10, 0
12, 19, 0
12, 8, 0
12, 13, 1
12, 11, 1
4, 7, 0
4, 18, 0
4, 17, 0
4, 16, 0
4, 9, 0
4, 15, 0
4, 1, 0
14, 20, 0
14, 3, 0
2, 6, 0
2, 19, 0
2, 5, 0
2, 10, 0
19, 12, 0
19, 8, 0
19, 13, 0
19, 11, 0
19, 2, 0
1, 0, 1
1, 8, 0
1, 15, 0
1, 4, 0
15, 0, 0
15, 16, 0
15, 8, 0
15, 4, 0
15, 1, 0
18, 7, 0
18, 16, 0
18, 4, 0
18, 17, 1
18, 9, 0
9, 16, 0
9, 7, 0
9, 4, 0
9, 17, 0
9, 18, 0
