0, 6, 0
0, 8, 0
0, 1, 0
3, 4, 0
3, 10, 0
4, 7, 0
4, 3, 0
4, 9, 0
4, 10, 0
4, 2, 0
2, 7, 0
2, 4, 0
2, 9, 0
2, 6, 0
2, 8, 0
2, 5, 0
2, 10, 0
6, 0, 0
6, 9, 0
6, 2, 0
6, 8, 0
6, 5, 0
6, 1, 0
1, 0, 0
1, 6, 0
1, 8, 0
1, 5, 0
8, 0, 0
8, 6, 0
8, 1, 0
8, 9, 0
8, 2, 0
5, 7, 0
5, 6, 0
5, 1, 0
5, 9, 0
5, 2, 0
7, 4, 0
7, 9, 0
7, 5, 0
7, 2, 0
10, 2, 0
10, 3, 0
10, 4, 0
10, 9, 0
9, 7, 0
9, 4, 0
9, 2, 0
9, 6, 0
9, 8, 0
9, 5, 0
9, 10, 0
