0, 2, 0
0, 4, 0
0, 15, 0
0, 5, 0
0, 1, 1
7, 5, 0
7, 10, 0
13, 20, 0
13, 16, 0
13, 14, 1
13, 3, 0
13, 18, 0
13, 17, 0
13, 19, 0
13, 15, 0
13, 9, 0
17, 20, 0
17, 18, 1
17, 13, 0
17, 14, 0
17, 16, 1
17, 19, 0
17, 15, 0
3, 20, 0
3, 12, 0
3, 13, 0
3, 14, 0
3, 6, 0
3, 19, 0
3, 8, 0
3, 15, 0
3, 11, 0
3, 9, 0
16, 20, 0
16, 13, 0
16, 17, 1
16, 14, 0
16, 19, 0
16, 9, 0
6, 12, 0
6, 8, 0
6, 11, 0
6, 3, 0
8, 12, 0
8, 9, 0
8, 3, 0
8, 11, 0
8, 6, 0
5, 0, 0
5, 7, 0
5, 4, 0
5, 2, 0
5, 1, 0
5, 15, 0
5, 10, 0
11, 12, 1
11, 6, 0
11, 8, 0
11, 3, 0
10, 7, 0
10, 4, 0
10, 5, 0
20, 3, 0
20, 13, 0
20, 14, 0
20, 16, 0
20, 17, 0
20, 19, 1
20, 15, 0
20, 18, 0
20, 9, 0
12, 3, 0
12, 8, 0
12, 9, 0
12, 11, 1
12, 6, 0
4, 0, 0
4, 14, 0
4, 18, 0
4, 19, 0
4, 9, 0
4, 15, 0
4, 5, 0
4, 10, 0
14, 20, 0
14, 3, 0
14, 13, 1
14, 17, 0
14, 4, 0
14, 16, 0
14, 19, 0
14, 15, 0
14, 18, 0
14, 9, 0
2, 0, 0
2, 19, 0
2, 5, 0
2, 1, 0
19, 20, 1
19, 3, 0
19, 13, 0
19, 14, 0
19, 4, 0
19, 2, 0
19, 16, 0
19, 17, 0
19, 15, 0
19, 18, 0
19, 9, 0
1, 0, 1
1, 5, 0
1, 2, 0
15, 0, 0
15, 20, 0
15, 13, 0
15, 17, 0
15, 4, 0
15, 3, 0
15, 18, 0
15, 14, 0
15, 19, 0
15, 5, 0
15, 9, 0
18, 20, 0
18, 13, 0
18, 14, 0
18, 4, 0
18, 17, 1
18, 19, 0
18, 15, 0
9, 20, 0
9, 12, 0
9, 13, 0
9, 14, 0
9, 4, 0
9, 3, 0
9, 16, 0
9, 19, 0
9, 8, 0
9, 15, 0
