13, 20, 0
13, 17, 0
13, 23, 0
13, 5, 0
13, 11, 0
13, 1, 0
13, 7, 0
13, 14, 0
13, 2, 0
13, 21, 0
13, 19, 0
13, 10, 0
13, 22, 0
13, 9, 0
17, 20, 0
17, 3, 0
17, 13, 0
17, 2, 0
17, 21, 0
17, 19, 0
17, 1, 0
23, 7, 0
23, 2, 0
23, 13, 0
23, 22, 1
23, 1, 0
5, 7, 0
5, 13, 0
5, 24, 0
5, 19, 0
5, 22, 0
5, 1, 0
11, 0, 0
11, 19, 0
11, 13, 0
11, 15, 0
11, 10, 0
1, 20, 0
1, 13, 0
1, 17, 0
1, 23, 0
1, 16, 0
1, 5, 0
1, 7, 0
1, 3, 0
1, 4, 0
1, 2, 0
1, 8, 0
1, 18, 0
1, 22, 0
20, 21, 0
20, 3, 0
20, 13, 0
20, 17, 0
20, 4, 0
20, 2, 0
20, 16, 0
20, 18, 0
20, 22, 0
20, 1, 0
4, 3, 0
4, 16, 0
4, 6, 0
4, 1, 0
4, 10, 0
4, 20, 0
4, 12, 0
4, 2, 0
4, 21, 0
4, 8, 0
4, 15, 0
4, 18, 0
14, 12, 0
14, 19, 0
14, 13, 0
14, 9, 0
14, 10, 0
24, 7, 0
24, 6, 0
24, 19, 0
24, 5, 0
24, 21, 0
8, 16, 0
8, 3, 0
8, 2, 0
8, 4, 0
8, 1, 0
15, 0, 0
15, 12, 0
15, 4, 0
15, 21, 0
15, 11, 0
15, 10, 0
22, 7, 0
22, 20, 0
22, 13, 0
22, 23, 1
22, 2, 0
22, 18, 0
22, 5, 0
22, 1, 0
0, 15, 0
0, 11, 0
0, 10, 0
3, 20, 0
3, 16, 0
3, 4, 0
3, 17, 0
3, 2, 0
3, 21, 0
3, 8, 0
3, 1, 0
16, 20, 0
16, 3, 0
16, 4, 0
16, 2, 0
16, 21, 0
16, 6, 0
16, 8, 0
16, 18, 0
16, 1, 0
6, 7, 0
6, 12, 0
6, 16, 0
6, 4, 0
6, 24, 0
6, 21, 0
6, 19, 0
6, 2, 0
6, 9, 0
10, 0, 0
10, 12, 0
10, 4, 0
10, 13, 0
10, 21, 0
10, 14, 0
10, 19, 0
10, 15, 0
10, 11, 0
10, 9, 0
7, 13, 0
7, 23, 0
7, 24, 0
7, 21, 0
7, 6, 0
7, 19, 0
7, 2, 0
7, 5, 0
7, 22, 0
7, 1, 0
12, 4, 0
12, 14, 0
12, 21, 0
12, 6, 0
12, 10, 0
12, 15, 0
12, 9, 0
2, 7, 0
2, 13, 0
2, 17, 0
2, 23, 0
2, 16, 0
2, 6, 0
2, 1, 0
2, 20, 0
2, 3, 0
2, 4, 0
2, 21, 0
2, 8, 0
2, 18, 0
2, 22, 0
21, 7, 0
21, 13, 0
21, 17, 0
21, 12, 0
21, 16, 0
21, 6, 0
21, 2, 0
21, 10, 0
21, 20, 0
21, 3, 0
21, 4, 0
21, 24, 0
21, 19, 0
21, 15, 0
19, 7, 0
19, 17, 0
19, 13, 0
19, 14, 0
19, 24, 0
19, 21, 0
19, 6, 0
19, 10, 0
19, 5, 0
19, 11, 0
19, 9, 0
18, 20, 0
18, 4, 0
18, 2, 0
18, 16, 0
18, 22, 0
18, 1, 0
9, 12, 0
9, 13, 0
9, 14, 0
9, 6, 0
9, 19, 0
9, 10, 0
