12, 18, 0
12, 7, 0
12, 40, 0
12, 11, 1
13, 3, 0
13, 4, 0
13, 31, 0
13, 23, 0
13, 2, 0
13, 21, 0
13, 27, 0
13, 19, 0
13, 8, 0
13, 26, 0
17, 33, 0
17, 14, 0
17, 41, 0
17, 24, 0
31, 3, 0
31, 4, 0
31, 13, 0
31, 26, 0
31, 23, 0
31, 2, 0
31, 27, 0
31, 19, 0
31, 8, 0
23, 13, 0
23, 31, 0
23, 26, 0
23, 2, 0
23, 21, 0
23, 4, 0
23, 19, 0
23, 8, 0
23, 27, 0
24, 14, 0
24, 17, 0
24, 41, 0
24, 29, 0
40, 16, 0
40, 28, 0
40, 39, 0
40, 18, 0
40, 6, 0
40, 5, 0
40, 11, 0
40, 10, 0
40, 7, 0
40, 12, 0
40, 38, 0
40, 32, 0
40, 27, 0
40, 37, 0
40, 9, 0
40, 15, 0
40, 22, 0
40, 36, 0
5, 37, 0
5, 38, 0
5, 40, 0
5, 22, 0
5, 9, 0
11, 7, 0
11, 12, 1
11, 28, 0
11, 18, 0
11, 40, 0
11, 22, 0
11, 10, 1
1, 14, 0
1, 41, 0
1, 29, 0
20, 27, 0
20, 30, 0
20, 4, 0
20, 25, 0
20, 35, 0
21, 3, 0
21, 13, 0
21, 26, 0
21, 23, 0
21, 2, 0
21, 4, 0
21, 19, 0
21, 27, 0
4, 13, 0
4, 26, 0
4, 23, 0
4, 3, 0
4, 27, 0
4, 35, 0
4, 30, 0
4, 20, 0
4, 34, 0
4, 25, 0
4, 31, 0
4, 2, 0
4, 21, 0
4, 14, 0
4, 19, 0
4, 8, 0
14, 34, 0
14, 4, 0
14, 17, 0
14, 3, 0
14, 24, 0
14, 33, 0
14, 19, 0
14, 29, 0
14, 41, 0
14, 1, 0
39, 0, 0
39, 27, 0
39, 40, 0
39, 22, 0
39, 32, 0
35, 20, 0
35, 34, 0
35, 4, 0
35, 25, 0
35, 27, 0
35, 30, 0
28, 7, 0
28, 11, 0
28, 27, 0
28, 37, 0
28, 6, 0
28, 40, 0
28, 22, 0
28, 10, 0
30, 20, 0
30, 27, 0
30, 4, 0
30, 25, 0
30, 35, 0
8, 4, 0
8, 13, 0
8, 31, 0
8, 23, 0
8, 2, 0
8, 27, 0
8, 19, 0
15, 16, 0
15, 18, 0
15, 38, 0
15, 10, 0
15, 40, 0
15, 22, 0
15, 36, 0
41, 33, 0
41, 14, 0
41, 29, 0
41, 17, 0
41, 24, 0
41, 1, 0
22, 0, 0
22, 28, 0
22, 39, 0
22, 18, 0
22, 27, 0
22, 40, 0
22, 5, 0
22, 11, 0
22, 10, 0
22, 7, 0
22, 38, 0
22, 32, 0
22, 37, 0
22, 15, 0
22, 9, 0
36, 40, 0
36, 18, 0
36, 16, 0
36, 38, 0
36, 15, 0
36, 10, 0
0, 27, 0
0, 39, 0
0, 38, 0
0, 32, 0
0, 22, 0
6, 7, 0
6, 28, 0
6, 40, 0
6, 10, 0
38, 0, 0
38, 40, 0
38, 32, 0
38, 10, 0
38, 27, 0
38, 9, 0
38, 15, 0
38, 5, 0
38, 22, 0
38, 36, 0
3, 4, 0
3, 14, 0
3, 31, 0
3, 26, 0
3, 2, 0
3, 21, 0
3, 27, 0
3, 19, 0
3, 13, 0
16, 18, 0
16, 15, 0
16, 40, 0
16, 36, 0
27, 0, 0
27, 13, 0
27, 28, 0
27, 31, 0
27, 23, 0
27, 39, 0
27, 35, 0
27, 40, 0
27, 30, 0
27, 20, 0
27, 3, 0
27, 4, 0
27, 32, 0
27, 2, 0
27, 21, 0
27, 37, 0
27, 8, 0
27, 38, 0
27, 22, 0
10, 7, 0
10, 38, 0
10, 28, 0
10, 11, 1
10, 18, 0
10, 6, 0
10, 15, 0
10, 40, 0
10, 22, 0
10, 36, 0
7, 12, 0
7, 28, 0
7, 11, 0
7, 6, 0
7, 40, 0
7, 22, 0
7, 10, 0
34, 4, 0
34, 14, 0
34, 35, 0
25, 20, 0
25, 30, 0
25, 4, 0
25, 35, 0
33, 17, 0
33, 14, 0
33, 41, 0
32, 0, 0
32, 38, 0
32, 39, 0
32, 27, 0
32, 40, 0
32, 22, 0
32, 9, 0
2, 3, 0
2, 13, 0
2, 23, 0
2, 26, 0
2, 31, 0
2, 21, 0
2, 4, 0
2, 19, 0
2, 8, 0
2, 27, 0
37, 28, 0
37, 40, 0
37, 5, 0
37, 22, 0
37, 27, 0
29, 1, 0
29, 14, 0
29, 41, 0
29, 24, 0
19, 3, 0
19, 4, 0
19, 13, 0
19, 26, 0
19, 23, 0
19, 2, 0
19, 21, 0
19, 14, 0
19, 8, 0
19, 31, 0
26, 3, 0
26, 4, 0
26, 13, 0
26, 31, 0
26, 23, 0
26, 2, 0
26, 21, 0
26, 19, 0
18, 12, 0
18, 11, 0
18, 16, 0
18, 40, 0
18, 10, 0
18, 15, 0
18, 22, 0
18, 36, 0
9, 38, 0
9, 40, 0
9, 5, 0
9, 22, 0
9, 32, 0
