0, 4, 0
0, 5, 0
0, 1, 1
13, 7, 0
13, 12, 0
13, 2, 0
13, 6, 0
13, 10, 0
13, 8, 0
13, 5, 0
13, 11, 0
13, 9, 0
3, 12, 0
3, 10, 0
3, 11, 0
3, 6, 0
6, 12, 0
6, 13, 0
6, 9, 0
6, 3, 0
6, 2, 0
6, 8, 0
6, 5, 0
6, 11, 0
6, 10, 0
8, 7, 1
8, 13, 0
8, 2, 0
8, 6, 0
8, 5, 0
8, 11, 0
8, 9, 1
5, 0, 0
5, 7, 0
5, 13, 0
5, 9, 0
5, 4, 0
5, 2, 0
5, 6, 0
5, 8, 0
5, 1, 0
11, 12, 0
11, 13, 0
11, 9, 0
11, 3, 0
11, 6, 0
11, 8, 0
11, 10, 0
10, 12, 0
10, 13, 0
10, 3, 0
10, 11, 0
10, 6, 0
7, 8, 1
7, 13, 0
7, 5, 0
12, 3, 0
12, 6, 0
12, 13, 0
12, 11, 0
12, 10, 0
4, 0, 0
4, 2, 0
4, 9, 0
4, 5, 0
4, 1, 0
2, 4, 0
2, 13, 0
2, 6, 0
2, 1, 1
2, 8, 0
2, 5, 0
2, 9, 0
1, 0, 1
1, 4, 0
1, 9, 0
1, 5, 0
1, 2, 1
9, 13, 0
9, 4, 0
9, 2, 0
9, 6, 0
9, 8, 1
9, 5, 0
9, 11, 0
9, 1, 0
