0, 6, 0
0, 5, 0
0, 1, 1
13, 7, 0
13, 12, 0
13, 4, 0
13, 10, 0
3, 12, 0
3, 11, 0
3, 2, 0
6, 0, 0
6, 7, 0
6, 8, 0
6, 14, 0
6, 10, 0
6, 9, 0
6, 5, 0
6, 1, 0
8, 12, 0
8, 4, 0
8, 2, 0
8, 6, 0
8, 5, 0
8, 11, 0
8, 10, 0
5, 0, 0
5, 6, 0
5, 8, 0
5, 9, 0
5, 1, 0
11, 12, 0
11, 8, 0
11, 3, 0
11, 4, 0
11, 2, 0
10, 7, 0
10, 13, 0
10, 14, 0
10, 4, 0
10, 6, 0
10, 8, 0
10, 9, 0
7, 6, 0
7, 13, 0
7, 9, 0
7, 4, 0
7, 10, 0
12, 3, 0
12, 4, 0
12, 13, 0
12, 2, 0
12, 8, 0
12, 11, 0
4, 7, 0
4, 12, 0
4, 13, 0
4, 8, 0
4, 11, 0
4, 10, 0
14, 6, 0
14, 9, 0
14, 10, 0
2, 12, 0
2, 8, 0
2, 11, 0
2, 3, 0
1, 0, 1
1, 6, 0
1, 5, 0
1, 9, 0
9, 7, 0
9, 14, 0
9, 6, 0
9, 1, 0
9, 5, 0
9, 10, 0
