12, 20, 0
12, 16, 0
12, 13, 0
12, 11, 0
12, 29, 0
13, 23, 0
13, 34, 0
13, 16, 0
13, 11, 0
13, 7, 0
13, 12, 0
13, 14, 0
13, 29, 0
13, 19, 0
13, 36, 0
13, 22, 0
13, 9, 0
17, 20, 0
17, 34, 0
17, 18, 0
17, 7, 0
17, 3, 0
17, 4, 0
17, 14, 0
17, 32, 0
17, 21, 0
17, 25, 0
17, 19, 0
17, 9, 0
31, 0, 0
31, 34, 0
31, 32, 0
31, 2, 0
31, 21, 0
31, 6, 0
31, 5, 0
31, 8, 0
31, 15, 0
31, 18, 0
31, 10, 0
23, 16, 0
23, 13, 0
23, 11, 0
23, 36, 0
24, 0, 0
24, 34, 0
24, 25, 0
24, 3, 0
24, 26, 0
24, 33, 0
24, 2, 0
24, 6, 0
24, 8, 0
24, 15, 0
24, 30, 0
5, 6, 0
5, 31, 0
11, 12, 0
11, 13, 0
11, 14, 0
11, 23, 0
11, 29, 0
11, 16, 0
11, 19, 0
11, 9, 0
11, 36, 0
1, 0, 1
1, 8, 0
20, 7, 0
20, 12, 0
20, 4, 0
20, 14, 0
20, 34, 0
20, 16, 0
20, 17, 0
20, 19, 0
20, 36, 0
4, 20, 0
4, 34, 0
4, 7, 0
4, 17, 0
4, 3, 0
4, 14, 0
4, 19, 0
4, 27, 0
14, 7, 0
14, 13, 0
14, 17, 0
14, 3, 0
14, 16, 0
14, 11, 0
14, 20, 0
14, 34, 0
14, 4, 0
14, 32, 0
14, 21, 0
14, 19, 0
14, 9, 0
14, 18, 0
14, 22, 0
14, 36, 0
35, 7, 0
35, 34, 0
35, 28, 0
35, 26, 0
35, 32, 0
35, 3, 0
35, 21, 0
35, 27, 0
35, 2, 0
35, 18, 0
35, 30, 0
28, 18, 0
28, 27, 1
28, 3, 0
28, 26, 0
28, 35, 0
30, 7, 0
30, 34, 0
30, 35, 0
30, 25, 0
30, 26, 0
30, 32, 0
30, 3, 0
30, 33, 0
30, 2, 0
30, 24, 0
8, 0, 0
8, 25, 0
8, 31, 0
8, 32, 0
8, 24, 0
8, 18, 0
8, 10, 0
8, 15, 0
8, 1, 0
15, 3, 0
15, 25, 0
15, 31, 0
15, 24, 0
15, 18, 0
15, 2, 0
15, 8, 0
15, 10, 0
22, 19, 0
22, 13, 0
22, 14, 0
22, 36, 0
36, 20, 0
36, 34, 0
36, 13, 0
36, 14, 0
36, 22, 0
36, 23, 0
36, 16, 0
36, 19, 0
36, 11, 0
0, 25, 0
0, 31, 0
0, 24, 0
0, 6, 0
0, 8, 0
0, 1, 1
6, 0, 0
6, 3, 0
6, 25, 0
6, 31, 0
6, 32, 0
6, 24, 0
6, 18, 0
6, 5, 0
3, 2, 0
3, 6, 0
3, 28, 0
3, 33, 0
3, 27, 0
3, 35, 0
3, 30, 0
3, 7, 0
3, 34, 0
3, 4, 0
3, 25, 0
3, 24, 0
3, 17, 0
3, 14, 0
3, 15, 0
16, 20, 0
16, 12, 0
16, 13, 0
16, 14, 0
16, 23, 0
16, 29, 0
16, 11, 0
16, 36, 0
27, 7, 0
27, 34, 0
27, 35, 0
27, 4, 0
27, 28, 1
27, 26, 0
27, 3, 0
27, 18, 0
27, 2, 0
10, 18, 0
10, 8, 0
10, 15, 0
10, 31, 0
7, 13, 0
7, 17, 0
7, 3, 0
7, 33, 0
7, 18, 0
7, 27, 0
7, 30, 0
7, 20, 0
7, 34, 0
7, 4, 0
7, 25, 0
7, 32, 0
7, 35, 0
7, 21, 0
7, 14, 0
7, 19, 0
7, 9, 0
34, 13, 0
34, 17, 0
34, 31, 0
34, 35, 0
34, 30, 0
34, 20, 0
34, 4, 0
34, 14, 0
34, 24, 0
34, 36, 0
34, 33, 0
34, 18, 0
34, 27, 0
34, 7, 0
34, 3, 0
34, 25, 0
34, 32, 0
34, 2, 0
34, 21, 0
34, 26, 0
34, 19, 0
34, 9, 0
25, 0, 0
25, 17, 0
25, 3, 0
25, 18, 0
25, 6, 0
25, 2, 0
25, 30, 0
25, 7, 0
25, 34, 0
25, 26, 0
25, 24, 0
25, 33, 0
25, 8, 0
25, 15, 0
33, 7, 0
33, 34, 0
33, 25, 0
33, 26, 0
33, 32, 0
33, 3, 0
33, 2, 0
33, 24, 0
33, 30, 0
32, 17, 0
32, 33, 0
32, 18, 0
32, 6, 0
32, 35, 0
32, 30, 0
32, 7, 0
32, 34, 0
32, 14, 0
32, 31, 0
32, 2, 0
32, 21, 0
32, 8, 0
2, 31, 0
2, 3, 0
2, 18, 0
2, 27, 0
2, 35, 0
2, 30, 0
2, 34, 0
2, 25, 0
2, 32, 0
2, 24, 0
2, 33, 0
2, 15, 0
2, 26, 0
21, 7, 0
21, 34, 0
21, 14, 0
21, 31, 0
21, 32, 0
21, 35, 0
21, 17, 0
21, 9, 0
29, 16, 0
29, 12, 0
29, 13, 0
29, 11, 0
19, 20, 0
19, 34, 0
19, 13, 0
19, 17, 0
19, 22, 0
19, 4, 0
19, 14, 0
19, 7, 0
19, 11, 0
19, 36, 0
26, 34, 0
26, 25, 0
26, 28, 0
26, 35, 0
26, 18, 0
26, 33, 0
26, 2, 0
26, 24, 0
26, 27, 0
26, 30, 0
18, 6, 0
18, 28, 0
18, 31, 0
18, 27, 0
18, 2, 0
18, 10, 0
18, 7, 0
18, 34, 0
18, 25, 0
18, 32, 0
18, 35, 0
18, 17, 0
18, 14, 0
18, 8, 0
18, 15, 0
18, 26, 0
9, 7, 0
9, 34, 0
9, 13, 0
9, 14, 0
9, 21, 0
9, 17, 0
9, 11, 0
