0, 16, 0
0, 1, 0
0, 2, 0
13, 19, 0
13, 10, 0
17, 11, 0
17, 9, 0
3, 18, 0
3, 8, 0
16, 0, 0
16, 2, 0
16, 1, 0
6, 7, 0
6, 12, 0
6, 5, 1
6, 1, 0
8, 18, 0
8, 3, 0
8, 11, 0
5, 7, 0
5, 12, 0
5, 14, 0
5, 6, 1
11, 8, 0
11, 17, 0
10, 18, 0
10, 19, 0
10, 13, 0
10, 15, 0
10, 4, 0
7, 12, 0
7, 14, 0
7, 5, 0
7, 6, 0
12, 7, 0
12, 6, 0
12, 14, 0
12, 5, 0
12, 1, 0
4, 18, 0
4, 15, 0
4, 10, 0
14, 7, 0
14, 12, 0
14, 5, 0
14, 1, 0
2, 0, 0
2, 16, 0
2, 9, 0
19, 13, 0
19, 15, 0
19, 10, 0
1, 0, 0
1, 12, 0
1, 16, 0
1, 14, 0
1, 6, 0
15, 18, 0
15, 19, 0
15, 4, 0
15, 10, 0
18, 3, 0
18, 8, 0
18, 15, 0
18, 4, 0
18, 10, 0
9, 17, 0
9, 2, 0
