13, 34, 0
13, 39, 0
13, 30, 0
17, 7, 0
17, 33, 0
17, 8, 0
17, 11, 0
23, 16, 0
23, 42, 0
23, 9, 0
23, 36, 0
42, 16, 0
42, 19, 0
42, 9, 0
42, 23, 0
42, 36, 0
46, 47, 0
46, 41, 0
46, 11, 0
46, 35, 0
20, 18, 0
20, 48, 0
20, 35, 0
20, 37, 0
20, 6, 0
20, 15, 0
20, 40, 0
20, 5, 0
20, 10, 0
34, 33, 0
34, 13, 0
34, 14, 0
34, 39, 0
34, 43, 0
34, 38, 0
34, 30, 0
14, 7, 0
14, 33, 0
14, 28, 0
14, 31, 0
14, 34, 0
14, 39, 0
14, 8, 0
14, 38, 0
14, 41, 0
24, 7, 0
24, 28, 0
24, 31, 0
24, 35, 0
24, 41, 0
24, 47, 0
28, 7, 0
28, 25, 0
28, 24, 0
28, 14, 0
28, 41, 0
28, 47, 0
39, 34, 0
39, 13, 0
39, 43, 0
39, 14, 0
39, 38, 0
39, 30, 0
41, 28, 0
41, 26, 0
41, 24, 0
41, 46, 0
41, 47, 0
41, 7, 0
41, 14, 0
41, 11, 0
41, 31, 0
41, 35, 0
41, 8, 0
41, 38, 0
0, 19, 0
0, 1, 1
8, 7, 0
8, 33, 0
8, 14, 0
8, 26, 0
8, 17, 0
8, 41, 0
8, 11, 0
33, 7, 0
33, 34, 0
33, 14, 0
33, 17, 0
33, 8, 0
33, 11, 0
33, 30, 0
15, 37, 0
15, 20, 0
15, 48, 0
47, 28, 0
47, 31, 0
47, 35, 0
47, 30, 0
47, 24, 0
47, 38, 0
47, 46, 0
47, 41, 0
10, 20, 0
10, 6, 0
10, 5, 0
10, 18, 0
10, 35, 0
7, 17, 0
7, 31, 0
7, 24, 0
7, 11, 0
7, 33, 0
7, 25, 0
7, 26, 0
7, 35, 0
7, 28, 0
7, 14, 0
7, 8, 0
7, 38, 0
7, 41, 0
3, 32, 0
3, 44, 0
3, 5, 0
3, 22, 0
3, 29, 0
32, 3, 0
32, 16, 0
32, 4, 0
32, 29, 0
32, 21, 0
32, 44, 0
32, 22, 0
32, 5, 0
2, 12, 0
2, 43, 0
2, 45, 0
2, 38, 0
2, 11, 0
2, 30, 0
21, 16, 0
21, 4, 0
21, 32, 0
19, 0, 0
19, 42, 0
19, 36, 0
19, 9, 0
19, 1, 0
49, 27, 0
49, 30, 0
18, 20, 0
18, 6, 0
18, 35, 0
18, 5, 0
18, 10, 0
31, 7, 0
31, 14, 0
31, 11, 0
31, 24, 0
31, 35, 0
31, 41, 0
31, 47, 0
29, 3, 0
29, 5, 0
29, 32, 0
40, 20, 0
40, 37, 0
40, 5, 0
11, 45, 0
11, 17, 0
11, 31, 0
11, 2, 0
11, 46, 0
11, 30, 0
11, 7, 0
11, 33, 0
11, 43, 0
11, 26, 0
11, 35, 0
11, 8, 0
11, 41, 0
5, 18, 0
5, 35, 0
5, 40, 0
5, 44, 0
5, 10, 0
5, 20, 0
5, 3, 0
5, 32, 0
5, 29, 0
5, 37, 0
5, 48, 0
5, 22, 0
37, 20, 0
37, 40, 0
37, 15, 0
37, 5, 0
37, 35, 0
4, 21, 0
4, 16, 0
4, 32, 0
35, 7, 0
35, 31, 0
35, 18, 0
35, 6, 0
35, 5, 0
35, 11, 0
35, 46, 0
35, 20, 0
35, 47, 0
35, 26, 0
35, 24, 0
35, 37, 0
35, 10, 0
35, 41, 0
35, 48, 0
30, 33, 0
30, 13, 0
30, 43, 0
30, 11, 0
30, 2, 0
30, 34, 0
30, 38, 0
30, 49, 0
30, 39, 0
30, 47, 0
30, 45, 0
38, 7, 0
38, 34, 0
38, 14, 0
38, 45, 0
38, 43, 0
38, 30, 0
38, 2, 0
38, 39, 0
38, 25, 0
38, 47, 0
38, 41, 0
22, 3, 0
22, 5, 0
22, 32, 0
22, 44, 0
36, 42, 0
36, 19, 0
36, 23, 0
36, 9, 0
45, 30, 0
45, 38, 0
45, 11, 0
45, 2, 0
16, 4, 0
16, 23, 0
16, 32, 0
16, 21, 0
16, 42, 0
16, 9, 0
27, 49, 0
1, 0, 1
1, 19, 0
44, 3, 0
44, 5, 0
44, 22, 0
44, 32, 0
48, 20, 0
48, 15, 0
48, 5, 0
48, 35, 0
12, 43, 0
12, 2, 0
25, 7, 0
25, 38, 0
25, 28, 0
26, 7, 0
26, 8, 0
26, 41, 0
26, 11, 0
26, 35, 0
6, 20, 0
6, 18, 0
6, 35, 0
6, 10, 0
43, 12, 0
43, 2, 0
43, 39, 0
43, 34, 0
43, 38, 0
43, 11, 0
43, 30, 0
9, 16, 0
9, 42, 0
9, 19, 0
9, 23, 0
9, 36, 0
