0, 16, 0
0, 12, 0
0, 5, 0
0, 9, 0
13, 16, 0
13, 5, 0
13, 1, 0
17, 18, 0
3, 19, 0
3, 8, 0
3, 4, 0
16, 0, 0
16, 12, 0
16, 13, 0
16, 5, 0
6, 7, 1
6, 11, 0
6, 9, 0
8, 3, 0
8, 19, 0
8, 14, 0
8, 2, 0
5, 16, 0
5, 12, 0
5, 13, 0
5, 0, 0
11, 7, 0
11, 6, 0
11, 9, 0
10, 4, 0
10, 15, 0
7, 6, 1
7, 11, 0
7, 9, 0
12, 0, 0
12, 16, 0
12, 5, 0
4, 3, 0
4, 10, 0
14, 2, 0
14, 19, 0
14, 8, 0
14, 1, 0
2, 19, 0
2, 8, 0
2, 14, 0
19, 3, 0
19, 8, 0
19, 14, 0
19, 2, 0
1, 13, 0
1, 14, 0
15, 18, 0
15, 10, 0
18, 15, 0
18, 17, 0
9, 0, 0
9, 6, 0
9, 7, 0
9, 11, 0
