13, 34, 0
13, 17, 0
13, 29, 0
13, 37, 0
13, 2, 0
13, 47, 0
17, 34, 0
17, 13, 0
17, 28, 0
17, 6, 0
17, 37, 0
17, 27, 0
17, 19, 0
17, 2, 0
23, 32, 0
23, 6, 0
23, 15, 0
23, 44, 0
23, 11, 0
23, 30, 0
23, 7, 0
23, 14, 0
23, 26, 0
23, 41, 0
23, 39, 0
23, 5, 0
23, 22, 0
23, 36, 0
42, 18, 0
42, 24, 0
46, 45, 0
46, 26, 0
46, 39, 0
46, 6, 0
46, 44, 0
46, 11, 0
46, 10, 0
46, 12, 0
46, 43, 0
46, 32, 0
46, 14, 0
46, 30, 0
46, 15, 0
46, 22, 0
46, 9, 0
20, 0, 0
20, 27, 0
20, 19, 0
20, 28, 0
20, 34, 0
14, 43, 0
14, 26, 0
14, 23, 0
14, 46, 0
14, 15, 1
14, 32, 0
14, 39, 0
14, 44, 0
14, 11, 0
14, 9, 0
24, 18, 0
24, 42, 0
24, 45, 0
24, 10, 0
28, 20, 0
28, 34, 0
28, 17, 0
28, 6, 0
28, 27, 1
28, 19, 0
28, 38, 0
28, 0, 0
39, 45, 0
39, 32, 0
39, 23, 0
39, 18, 0
39, 36, 0
39, 44, 0
39, 11, 0
39, 46, 0
39, 12, 0
39, 14, 0
39, 26, 0
39, 43, 0
39, 10, 0
39, 15, 0
39, 9, 0
41, 12, 0
41, 45, 0
41, 23, 0
41, 2, 0
41, 6, 0
41, 5, 0
41, 30, 0
0, 20, 0
0, 33, 0
0, 28, 0
0, 2, 0
0, 34, 0
0, 27, 0
0, 19, 0
0, 8, 0
0, 40, 0
0, 25, 0
0, 1, 0
8, 0, 0
8, 45, 0
8, 4, 0
8, 25, 0
8, 31, 0
8, 2, 0
8, 40, 0
8, 1, 0
34, 20, 0
34, 0, 0
34, 13, 0
34, 28, 0
34, 37, 0
34, 27, 0
34, 19, 0
34, 38, 0
34, 17, 0
15, 46, 0
15, 26, 0
15, 23, 0
15, 18, 0
15, 44, 0
15, 11, 0
15, 30, 0
15, 43, 0
15, 32, 0
15, 14, 1
15, 39, 0
15, 9, 0
47, 2, 0
47, 6, 0
47, 13, 0
47, 29, 0
10, 45, 0
10, 43, 0
10, 46, 0
10, 24, 0
10, 18, 0
10, 6, 0
10, 12, 0
10, 39, 0
10, 44, 0
10, 11, 0
10, 9, 0
7, 22, 0
7, 32, 0
7, 23, 0
7, 30, 0
3, 33, 0
3, 4, 0
3, 35, 0
3, 16, 0
3, 38, 0
3, 1, 0
32, 23, 0
32, 46, 0
32, 6, 0
32, 15, 0
32, 44, 0
32, 11, 0
32, 30, 0
32, 7, 0
32, 14, 0
32, 26, 0
32, 39, 0
32, 22, 0
32, 9, 0
2, 0, 0
2, 45, 0
2, 13, 0
2, 17, 0
2, 31, 0
2, 6, 0
2, 27, 0
2, 8, 0
2, 41, 0
2, 47, 0
2, 1, 0
21, 19, 0
21, 1, 0
21, 38, 0
21, 35, 0
33, 0, 0
33, 3, 0
33, 4, 0
33, 25, 0
33, 35, 0
33, 16, 0
33, 38, 0
33, 19, 0
33, 40, 0
33, 1, 0
19, 0, 0
19, 28, 0
19, 33, 0
19, 27, 0
19, 35, 0
19, 5, 0
19, 1, 0
19, 20, 0
19, 34, 0
19, 6, 0
19, 21, 0
19, 17, 0
19, 38, 0
18, 45, 0
18, 26, 0
18, 24, 0
18, 42, 0
18, 39, 0
18, 36, 0
18, 15, 0
18, 10, 0
31, 1, 0
31, 8, 0
31, 2, 0
29, 13, 0
29, 47, 0
40, 0, 0
40, 33, 0
40, 4, 0
40, 25, 0
40, 8, 0
40, 1, 0
11, 45, 0
11, 32, 0
11, 23, 0
11, 39, 0
11, 44, 0
11, 46, 0
11, 12, 0
11, 43, 0
11, 26, 0
11, 14, 0
11, 10, 0
11, 15, 0
11, 9, 0
5, 12, 0
5, 23, 0
5, 6, 0
5, 19, 0
5, 38, 0
5, 41, 0
5, 22, 0
5, 30, 0
37, 34, 0
37, 13, 0
37, 38, 0
37, 17, 0
37, 6, 0
4, 3, 0
4, 45, 0
4, 25, 0
4, 33, 0
4, 16, 0
4, 8, 0
4, 40, 0
4, 1, 0
35, 3, 0
35, 33, 0
35, 21, 0
35, 19, 0
35, 38, 0
35, 1, 0
30, 7, 0
30, 12, 0
30, 32, 0
30, 23, 0
30, 45, 0
30, 46, 0
30, 6, 0
30, 15, 0
30, 41, 0
30, 22, 0
30, 5, 0
38, 28, 0
38, 3, 0
38, 16, 0
38, 6, 0
38, 5, 0
38, 1, 0
38, 33, 0
38, 21, 0
38, 35, 0
38, 37, 0
38, 19, 0
38, 34, 0
22, 7, 0
22, 32, 0
22, 23, 0
22, 6, 0
22, 30, 0
22, 46, 0
22, 5, 0
36, 18, 0
36, 39, 0
36, 26, 0
36, 23, 0
45, 18, 0
45, 6, 0
45, 24, 0
45, 46, 0
45, 11, 0
45, 30, 0
45, 12, 0
45, 4, 0
45, 43, 0
45, 2, 0
45, 10, 0
45, 8, 0
45, 39, 0
45, 41, 0
45, 9, 0
16, 3, 0
16, 1, 0
16, 4, 0
16, 38, 0
16, 33, 0
27, 20, 0
27, 34, 0
27, 28, 1
27, 2, 0
27, 17, 0
27, 19, 0
27, 0, 0
1, 0, 0
1, 33, 0
1, 16, 0
1, 2, 0
1, 40, 0
1, 3, 0
1, 4, 0
1, 25, 0
1, 31, 0
1, 35, 0
1, 21, 0
1, 19, 0
1, 8, 0
1, 38, 0
44, 32, 0
44, 14, 0
44, 26, 0
44, 23, 0
44, 43, 1
44, 39, 0
44, 9, 0
44, 15, 0
44, 46, 0
44, 11, 0
44, 10, 0
12, 45, 0
12, 46, 0
12, 6, 0
12, 5, 0
12, 30, 0
12, 39, 0
12, 41, 0
12, 11, 0
12, 10, 0
25, 0, 0
25, 33, 0
25, 4, 0
25, 8, 0
25, 40, 0
25, 1, 0
26, 23, 0
26, 18, 0
26, 39, 0
26, 44, 0
26, 11, 0
26, 46, 0
26, 43, 0
26, 32, 0
26, 14, 0
26, 36, 0
26, 15, 0
26, 9, 0
6, 45, 0
6, 28, 0
6, 23, 0
6, 5, 0
6, 46, 0
6, 47, 0
6, 30, 0
6, 12, 0
6, 32, 0
6, 2, 0
6, 37, 0
6, 17, 0
6, 19, 0
6, 10, 0
6, 38, 0
6, 41, 0
6, 22, 0
43, 45, 0
43, 14, 0
43, 26, 0
43, 46, 0
43, 15, 0
43, 9, 0
43, 39, 0
43, 44, 1
43, 11, 0
43, 10, 0
9, 45, 0
9, 43, 0
9, 26, 0
9, 32, 0
9, 46, 0
9, 14, 0
9, 15, 0
9, 39, 0
9, 44, 0
9, 11, 0
9, 10, 0
