13, 12, 1
13, 3, 0
13, 8, 0
13, 5, 0
13, 22, 0
13, 9, 0
17, 7, 0
17, 20, 0
17, 4, 0
17, 14, 0
17, 6, 0
17, 1, 0
17, 5, 0
17, 0, 0
5, 0, 0
5, 3, 0
5, 13, 0
5, 17, 0
5, 12, 0
5, 18, 0
5, 8, 0
5, 9, 0
11, 0, 0
11, 18, 0
11, 6, 0
11, 1, 0
11, 10, 0
11, 3, 0
11, 4, 0
11, 14, 0
11, 19, 0
11, 8, 0
11, 22, 0
11, 9, 0
1, 4, 0
1, 17, 0
1, 2, 0
1, 21, 0
1, 6, 0
1, 11, 0
1, 10, 0
20, 0, 0
20, 14, 0
20, 19, 1
20, 17, 0
20, 6, 0
4, 7, 0
4, 17, 0
4, 2, 0
4, 21, 0
4, 6, 0
4, 14, 0
4, 1, 0
4, 11, 0
4, 10, 0
14, 20, 0
14, 0, 0
14, 7, 0
14, 17, 0
14, 4, 0
14, 2, 0
14, 6, 0
14, 19, 0
14, 9, 0
14, 11, 0
14, 10, 0
8, 12, 0
8, 13, 0
8, 22, 0
8, 3, 0
8, 18, 0
8, 6, 0
8, 10, 0
8, 5, 0
8, 11, 0
8, 9, 0
15, 16, 0
22, 12, 0
22, 13, 0
22, 16, 0
22, 8, 0
22, 11, 0
22, 9, 0
0, 20, 0
0, 17, 0
0, 14, 0
0, 18, 0
0, 6, 0
0, 19, 0
0, 9, 0
0, 5, 0
0, 11, 0
0, 10, 0
3, 13, 0
3, 18, 0
3, 8, 0
3, 5, 0
3, 11, 0
3, 9, 0
16, 15, 0
16, 22, 0
6, 0, 0
6, 7, 0
6, 17, 0
6, 18, 0
6, 1, 0
6, 11, 0
6, 10, 0
6, 20, 0
6, 4, 0
6, 14, 0
6, 2, 0
6, 19, 0
6, 8, 0
6, 9, 0
10, 7, 0
10, 0, 0
10, 4, 0
10, 14, 0
10, 2, 0
10, 21, 0
10, 6, 0
10, 8, 0
10, 18, 0
10, 11, 0
10, 1, 0
7, 6, 0
7, 14, 0
7, 4, 0
7, 17, 0
7, 10, 0
12, 8, 0
12, 13, 1
12, 5, 0
12, 22, 0
12, 9, 0
2, 4, 0
2, 14, 0
2, 21, 0
2, 6, 0
2, 1, 0
2, 10, 0
21, 2, 0
21, 4, 0
21, 10, 0
21, 1, 0
19, 20, 1
19, 0, 0
19, 14, 0
19, 11, 0
19, 6, 0
18, 0, 0
18, 3, 0
18, 9, 0
18, 6, 0
18, 8, 0
18, 5, 0
18, 11, 0
18, 10, 0
9, 0, 0
9, 3, 0
9, 13, 0
9, 14, 0
9, 11, 0
9, 12, 0
9, 18, 0
9, 6, 0
9, 8, 0
9, 5, 0
9, 22, 0
