12, 13, 0
12, 17, 0
12, 10, 0
13, 21, 0
13, 12, 0
13, 17, 0
13, 10, 0
17, 12, 0
17, 13, 0
17, 5, 0
17, 10, 0
17, 1, 0
31, 3, 0
31, 25, 0
31, 26, 0
31, 27, 0
23, 7, 0
23, 35, 0
23, 16, 0
23, 36, 0
23, 8, 0
23, 15, 0
23, 30, 0
24, 10, 0
24, 2, 0
5, 21, 0
5, 6, 1
5, 17, 0
5, 11, 0
11, 21, 0
11, 6, 0
11, 5, 0
11, 1, 0
1, 17, 0
1, 11, 0
20, 34, 0
20, 28, 0
20, 9, 0
4, 34, 0
4, 14, 0
4, 32, 0
4, 9, 0
14, 18, 0
14, 34, 0
14, 19, 0
14, 4, 0
14, 28, 0
35, 18, 0
35, 7, 0
35, 23, 0
35, 36, 0
28, 20, 0
28, 18, 0
28, 19, 0
28, 14, 0
30, 16, 0
30, 8, 0
30, 15, 0
30, 23, 0
8, 16, 0
8, 23, 0
8, 30, 0
15, 16, 1
15, 23, 0
15, 30, 0
22, 0, 0
22, 33, 0
22, 21, 0
22, 29, 0
36, 7, 0
36, 18, 0
36, 23, 0
36, 35, 0
0, 3, 0
0, 33, 0
0, 22, 0
0, 29, 0
6, 21, 0
6, 5, 1
6, 11, 0
3, 0, 0
3, 27, 0
3, 25, 0
3, 31, 0
3, 26, 0
16, 8, 0
16, 15, 1
16, 23, 0
16, 30, 0
27, 3, 0
27, 26, 1
27, 31, 0
10, 24, 0
10, 12, 0
10, 13, 0
10, 17, 0
10, 2, 0
7, 18, 0
7, 36, 0
7, 23, 0
7, 35, 0
34, 20, 0
34, 4, 0
34, 14, 0
34, 9, 0
25, 3, 0
25, 26, 0
25, 31, 0
33, 21, 0
33, 0, 0
33, 22, 0
33, 29, 0
32, 4, 0
32, 2, 0
2, 10, 0
2, 32, 0
2, 24, 0
21, 33, 0
21, 13, 0
21, 11, 0
21, 29, 0
21, 6, 0
21, 5, 0
21, 22, 0
29, 0, 0
29, 33, 0
29, 22, 0
29, 21, 0
19, 18, 0
19, 28, 0
19, 14, 0
26, 3, 0
26, 25, 0
26, 31, 0
26, 27, 1
18, 7, 0
18, 28, 0
18, 35, 0
18, 14, 0
18, 19, 0
18, 36, 0
9, 20, 0
9, 34, 0
9, 4, 0
