0, 12, 0
0, 4, 0
0, 11, 0
0, 1, 1
13, 8, 0
3, 12, 0
3, 5, 0
6, 7, 0
6, 4, 0
6, 10, 0
8, 7, 0
8, 13, 0
8, 2, 0
5, 3, 0
5, 12, 0
5, 9, 0
11, 0, 0
11, 12, 0
11, 4, 0
11, 1, 0
10, 7, 0
10, 6, 0
7, 2, 0
7, 6, 0
7, 8, 0
7, 4, 0
7, 10, 0
12, 0, 0
12, 3, 0
12, 5, 0
12, 11, 0
12, 1, 0
4, 0, 0
4, 6, 0
4, 7, 0
4, 11, 0
2, 7, 0
2, 8, 0
1, 0, 1
1, 12, 0
1, 11, 0
9, 5, 0
