13, 6, 0
13, 1, 0
13, 8, 0
13, 10, 0
17, 7, 0
17, 8, 0
23, 4, 0
23, 25, 0
23, 26, 0
23, 24, 0
23, 5, 0
23, 11, 0
5, 4, 0
5, 23, 0
11, 25, 0
11, 23, 0
11, 26, 0
11, 24, 0
11, 19, 0
11, 2, 0
11, 22, 0
1, 7, 0
1, 3, 0
1, 13, 0
1, 26, 0
1, 21, 0
1, 6, 0
1, 8, 0
1, 18, 0
1, 10, 0
1, 9, 0
20, 4, 0
20, 14, 0
20, 26, 0
4, 20, 0
4, 26, 0
4, 14, 0
4, 5, 0
4, 23, 0
14, 20, 0
14, 4, 0
24, 26, 0
24, 25, 1
24, 11, 0
24, 23, 0
8, 7, 0
8, 13, 0
8, 17, 0
8, 26, 0
8, 6, 0
8, 1, 0
8, 10, 0
15, 16, 1
15, 21, 0
22, 18, 0
22, 19, 0
22, 11, 0
22, 26, 0
22, 2, 0
0, 3, 0
0, 12, 0
3, 0, 0
3, 21, 0
3, 12, 0
3, 1, 0
16, 21, 0
16, 15, 1
6, 9, 0
6, 8, 0
6, 13, 0
6, 10, 0
6, 1, 0
10, 6, 0
10, 8, 0
10, 13, 0
10, 1, 0
7, 18, 0
7, 8, 0
7, 17, 0
7, 1, 0
12, 0, 0
12, 3, 0
12, 9, 0
25, 11, 0
25, 23, 0
25, 24, 1
26, 20, 0
26, 4, 0
26, 11, 0
26, 23, 0
26, 24, 0
26, 18, 0
26, 19, 0
26, 2, 0
26, 8, 0
26, 22, 0
26, 1, 0
2, 11, 0
2, 19, 0
2, 26, 0
2, 22, 0
21, 16, 0
21, 3, 0
21, 15, 0
21, 1, 0
19, 26, 0
19, 22, 0
19, 11, 0
19, 2, 0
18, 7, 0
18, 26, 0
18, 22, 0
18, 1, 0
9, 6, 0
9, 12, 0
9, 1, 0
