13, 21, 0
13, 17, 0
13, 22, 0
13, 2, 0
17, 13, 0
17, 22, 0
17, 1, 0
23, 16, 0
23, 0, 0
5, 0, 0
5, 20, 0
5, 1, 0
5, 4, 0
5, 10, 0
11, 18, 0
11, 12, 1
11, 15, 0
11, 14, 0
11, 3, 0
1, 0, 0
1, 20, 0
1, 4, 0
1, 17, 0
1, 24, 0
1, 18, 0
1, 19, 0
1, 8, 0
1, 5, 0
1, 22, 0
1, 10, 0
20, 0, 0
20, 5, 0
20, 26, 0
20, 1, 0
4, 0, 0
4, 24, 0
4, 19, 0
4, 1, 0
4, 5, 0
4, 10, 0
14, 18, 0
14, 12, 0
14, 15, 1
14, 11, 0
14, 3, 0
24, 7, 0
24, 4, 0
24, 2, 0
24, 6, 0
24, 19, 0
24, 8, 0
24, 10, 0
24, 1, 0
8, 7, 0
8, 0, 0
8, 2, 0
8, 21, 0
8, 6, 0
8, 24, 0
8, 1, 0
15, 18, 0
15, 12, 0
15, 14, 1
15, 11, 0
15, 3, 0
22, 0, 0
22, 13, 0
22, 17, 0
22, 2, 0
22, 21, 0
22, 1, 0
0, 16, 0
0, 23, 0
0, 18, 0
0, 5, 0
0, 1, 0
0, 20, 0
0, 3, 0
0, 4, 0
0, 19, 0
0, 8, 0
0, 10, 0
0, 22, 0
3, 0, 0
3, 12, 0
3, 14, 0
3, 18, 0
3, 25, 0
3, 15, 0
3, 11, 0
16, 0, 0
16, 25, 0
16, 23, 0
6, 7, 1
6, 8, 0
6, 24, 0
10, 0, 0
10, 4, 0
10, 24, 0
10, 19, 0
10, 5, 0
10, 1, 0
7, 2, 0
7, 6, 1
7, 8, 0
7, 24, 0
12, 18, 0
12, 15, 0
12, 14, 0
12, 11, 1
12, 3, 0
25, 16, 0
25, 3, 0
26, 20, 0
26, 18, 0
26, 9, 0
2, 7, 0
2, 13, 0
2, 24, 0
2, 21, 0
2, 8, 0
2, 22, 0
21, 8, 0
21, 13, 0
21, 22, 0
21, 2, 0
19, 0, 0
19, 4, 0
19, 24, 0
19, 10, 0
19, 1, 0
18, 0, 0
18, 3, 0
18, 14, 0
18, 26, 0
18, 12, 0
18, 9, 0
18, 15, 0
18, 11, 0
18, 1, 0
9, 18, 0
9, 26, 0
