13, 4, 0
13, 15, 0
13, 31, 0
17, 19, 0
17, 25, 0
17, 23, 0
17, 24, 0
31, 13, 0
31, 15, 0
31, 4, 0
23, 25, 0
23, 17, 0
23, 24, 1
10, 16, 0
10, 18, 0
10, 30, 0
2, 20, 0
2, 3, 1
2, 12, 0
2, 27, 0
5, 27, 0
5, 30, 0
5, 33, 0
5, 34, 0
11, 16, 0
11, 21, 0
11, 8, 0
11, 15, 0
11, 18, 0
11, 22, 0
1, 20, 0
1, 12, 0
1, 27, 0
1, 9, 0
20, 2, 0
20, 6, 0
20, 9, 0
20, 12, 0
20, 1, 0
4, 7, 0
4, 15, 0
4, 13, 0
4, 28, 0
4, 31, 0
14, 6, 0
24, 25, 0
24, 17, 0
24, 23, 1
28, 7, 0
28, 4, 0
28, 25, 0
30, 34, 0
30, 16, 0
30, 33, 0
30, 21, 0
30, 5, 0
30, 18, 0
30, 10, 0
8, 15, 0
8, 11, 0
15, 8, 0
15, 4, 0
15, 13, 0
15, 11, 0
15, 31, 0
22, 21, 1
22, 16, 0
22, 11, 0
0, 32, 0
0, 26, 0
0, 29, 0
3, 12, 0
3, 27, 0
3, 2, 1
34, 33, 0
34, 5, 0
34, 27, 0
34, 30, 0
16, 18, 0
16, 11, 0
16, 21, 0
16, 30, 0
16, 22, 0
16, 10, 0
6, 20, 0
6, 14, 0
27, 34, 0
27, 12, 0
27, 3, 0
27, 2, 0
27, 33, 0
27, 5, 0
27, 1, 0
7, 25, 0
7, 4, 0
7, 28, 0
12, 20, 0
12, 3, 0
12, 2, 0
12, 27, 0
12, 1, 0
12, 9, 0
25, 7, 0
25, 28, 0
25, 17, 0
25, 23, 0
25, 24, 0
32, 0, 0
32, 19, 0
32, 26, 0
32, 29, 0
29, 0, 0
29, 32, 0
29, 26, 0
21, 16, 0
21, 22, 1
21, 11, 0
21, 30, 0
33, 34, 0
33, 30, 0
33, 5, 0
33, 27, 0
19, 17, 0
19, 32, 0
26, 0, 0
26, 32, 0
26, 29, 0
18, 16, 0
18, 10, 0
18, 11, 0
18, 30, 0
9, 20, 0
9, 12, 0
9, 1, 0
