0, 7, 0
0, 4, 0
0, 14, 0
0, 6, 0
0, 8, 0
0, 5, 0
0, 10, 0
0, 9, 0
13, 3, 0
13, 4, 0
13, 14, 0
3, 7, 0
3, 13, 0
3, 9, 0
3, 4, 0
3, 8, 0
3, 5, 0
3, 10, 0
6, 7, 1
6, 0, 0
6, 4, 0
6, 14, 0
6, 9, 0
6, 5, 0
6, 10, 0
8, 7, 1
8, 3, 0
8, 4, 0
8, 9, 0
8, 5, 0
8, 0, 0
5, 0, 0
5, 7, 0
5, 4, 0
5, 3, 0
5, 6, 0
5, 8, 0
5, 10, 0
5, 9, 0
11, 2, 0
11, 12, 0
11, 9, 0
11, 1, 0
10, 0, 0
10, 7, 0
10, 4, 0
10, 3, 0
10, 6, 0
10, 5, 0
7, 0, 0
7, 3, 0
7, 4, 0
7, 14, 0
7, 9, 0
7, 6, 1
7, 8, 1
7, 5, 0
7, 10, 0
12, 2, 0
12, 9, 0
12, 11, 0
12, 1, 0
4, 0, 0
4, 7, 0
4, 13, 0
4, 14, 0
4, 9, 0
4, 3, 0
4, 6, 0
4, 8, 0
4, 5, 0
4, 10, 0
14, 0, 0
14, 6, 0
14, 13, 0
14, 7, 0
14, 4, 0
2, 12, 0
2, 9, 0
2, 11, 0
2, 1, 1
1, 12, 0
1, 9, 0
1, 11, 0
1, 2, 1
9, 0, 0
9, 12, 0
9, 7, 0
9, 4, 0
9, 3, 0
9, 6, 0
9, 8, 0
9, 2, 0
9, 5, 0
9, 11, 0
9, 1, 0
