0, 3, 0
0, 13, 0
0, 14, 0
0, 6, 0
0, 8, 0
0, 15, 0
13, 0, 0
13, 3, 0
13, 14, 0
17, 12, 0
17, 11, 0
17, 10, 0
3, 0, 0
3, 13, 0
3, 14, 0
3, 2, 0
3, 9, 0
3, 1, 0
16, 7, 0
16, 4, 0
16, 14, 0
6, 0, 0
6, 14, 0
6, 8, 0
6, 15, 0
6, 4, 0
8, 0, 0
8, 6, 0
8, 4, 0
8, 15, 0
5, 2, 0
5, 9, 0
5, 14, 0
5, 1, 0
11, 7, 0
11, 12, 0
11, 17, 0
11, 10, 1
10, 7, 0
10, 17, 0
10, 11, 1
7, 16, 0
7, 14, 0
7, 11, 0
7, 10, 0
12, 17, 0
12, 11, 0
4, 16, 0
4, 6, 0
4, 8, 0
14, 0, 0
14, 3, 0
14, 13, 0
14, 16, 0
14, 6, 0
14, 5, 0
14, 7, 0
14, 9, 0
2, 3, 0
2, 9, 0
2, 5, 0
2, 1, 1
1, 3, 0
1, 9, 0
1, 5, 0
1, 2, 1
15, 0, 0
15, 6, 0
15, 8, 0
9, 3, 0
9, 2, 0
9, 14, 0
9, 5, 0
9, 1, 0
