13, 39, 0
13, 40, 0
13, 41, 0
17, 27, 0
17, 9, 0
17, 25, 0
17, 22, 0
17, 1, 0
23, 0, 0
23, 12, 0
23, 2, 0
23, 42, 0
23, 20, 0
23, 35, 0
23, 44, 0
42, 0, 0
42, 12, 0
42, 23, 0
42, 2, 0
42, 35, 0
42, 30, 0
5, 7, 0
5, 33, 0
5, 14, 0
5, 3, 0
5, 43, 0
5, 25, 0
5, 1, 0
20, 0, 0
20, 12, 0
20, 23, 0
20, 2, 0
20, 19, 0
20, 30, 0
20, 15, 0
20, 36, 0
14, 7, 0
14, 33, 0
14, 43, 0
14, 9, 0
14, 27, 0
14, 36, 0
14, 15, 0
14, 5, 0
14, 1, 0
24, 8, 0
24, 40, 0
24, 4, 0
28, 39, 0
28, 4, 0
28, 40, 0
28, 41, 0
39, 13, 0
39, 28, 0
39, 16, 0
39, 1, 0
39, 40, 0
39, 44, 0
39, 10, 0
39, 12, 0
39, 31, 0
39, 37, 0
39, 30, 0
39, 41, 0
41, 40, 1
41, 13, 0
41, 28, 0
41, 39, 0
0, 20, 0
0, 12, 0
0, 23, 0
0, 2, 0
0, 42, 0
0, 30, 0
0, 36, 0
8, 26, 0
8, 31, 0
8, 24, 0
8, 38, 0
8, 40, 0
8, 30, 0
12, 20, 0
12, 0, 0
12, 31, 0
12, 23, 0
12, 35, 0
12, 42, 0
12, 39, 0
12, 34, 0
12, 38, 0
12, 44, 0
15, 20, 0
15, 14, 0
15, 22, 0
15, 32, 0
15, 27, 0
15, 6, 0
15, 19, 0
15, 11, 0
15, 36, 0
10, 16, 0
10, 37, 0
10, 39, 0
7, 33, 0
7, 14, 0
7, 3, 0
7, 43, 0
7, 5, 0
7, 9, 0
3, 7, 0
3, 33, 0
3, 43, 0
3, 25, 0
3, 9, 0
3, 5, 0
3, 1, 0
32, 21, 0
32, 6, 0
32, 36, 0
32, 15, 0
32, 22, 0
32, 1, 0
2, 20, 0
2, 0, 0
2, 23, 0
2, 35, 0
2, 42, 0
2, 19, 0
2, 36, 0
21, 11, 0
21, 32, 0
33, 7, 0
33, 3, 0
33, 14, 0
33, 43, 0
33, 5, 0
33, 1, 0
19, 20, 0
19, 2, 0
19, 6, 0
19, 1, 0
19, 36, 0
19, 15, 0
19, 22, 0
19, 30, 0
18, 45, 0
18, 34, 0
18, 44, 0
18, 30, 0
31, 12, 0
31, 26, 0
31, 38, 0
31, 8, 0
31, 39, 0
31, 44, 0
29, 45, 0
29, 38, 0
29, 30, 0
40, 13, 0
40, 28, 0
40, 4, 0
40, 24, 0
40, 8, 0
40, 39, 0
40, 41, 1
40, 30, 0
11, 21, 0
11, 27, 0
11, 36, 0
11, 15, 0
11, 1, 0
1, 17, 0
1, 33, 0
1, 6, 0
1, 5, 0
1, 11, 0
1, 30, 0
1, 3, 0
1, 25, 0
1, 32, 0
1, 27, 0
1, 14, 0
1, 19, 0
1, 34, 0
1, 39, 0
37, 16, 0
37, 39, 0
37, 10, 0
4, 40, 0
4, 28, 0
4, 24, 0
35, 34, 0
35, 23, 0
35, 12, 0
35, 42, 0
35, 36, 0
35, 2, 0
35, 30, 0
30, 0, 0
30, 45, 0
30, 39, 0
30, 18, 0
30, 27, 0
30, 29, 0
30, 40, 0
30, 44, 0
30, 1, 0
30, 20, 0
30, 34, 0
30, 26, 0
30, 35, 0
30, 42, 0
30, 19, 0
30, 8, 0
30, 38, 0
38, 12, 0
38, 31, 0
38, 26, 0
38, 29, 0
38, 8, 0
38, 30, 0
22, 25, 0
22, 32, 0
22, 6, 0
22, 27, 0
22, 19, 0
22, 36, 0
22, 15, 0
22, 44, 0
22, 17, 0
22, 9, 0
36, 0, 0
36, 6, 0
36, 2, 0
36, 11, 0
36, 27, 0
36, 20, 0
36, 14, 0
36, 32, 0
36, 35, 0
36, 19, 0
36, 15, 0
36, 22, 0
45, 18, 0
45, 34, 0
45, 30, 0
45, 44, 0
45, 29, 0
16, 37, 0
16, 39, 0
16, 10, 0
27, 14, 0
27, 11, 0
27, 25, 0
27, 36, 0
27, 1, 0
27, 15, 0
27, 17, 0
27, 22, 0
27, 30, 0
44, 12, 0
44, 45, 0
44, 31, 0
44, 23, 0
44, 34, 0
44, 18, 0
44, 39, 0
44, 22, 0
44, 30, 0
34, 12, 0
34, 45, 0
34, 35, 0
34, 18, 0
34, 1, 0
34, 44, 0
34, 30, 0
25, 3, 0
25, 17, 0
25, 27, 0
25, 9, 0
25, 5, 0
25, 22, 0
25, 1, 0
26, 8, 0
26, 38, 0
26, 31, 0
26, 30, 0
6, 32, 0
6, 19, 0
6, 36, 0
6, 15, 0
6, 22, 0
6, 1, 0
43, 7, 0
43, 33, 0
43, 14, 0
43, 5, 0
43, 3, 0
9, 7, 0
9, 3, 0
9, 14, 0
9, 25, 0
9, 17, 0
9, 22, 0
