0, 7, 0
0, 8, 0
0, 10, 0
7, 0, 0
7, 4, 0
7, 10, 0
13, 12, 0
13, 5, 0
17, 16, 1
17, 8, 0
17, 2, 0
3, 15, 0
16, 8, 0
16, 17, 1
16, 2, 0
6, 18, 0
6, 19, 0
8, 0, 0
8, 16, 0
8, 2, 0
8, 17, 0
8, 10, 0
5, 20, 0
5, 13, 0
11, 20, 0
11, 1, 0
10, 0, 0
10, 7, 0
10, 8, 0
20, 5, 0
20, 11, 0
12, 19, 0
12, 13, 0
4, 7, 0
4, 14, 0
14, 18, 0
14, 4, 0
2, 16, 0
2, 8, 0
2, 17, 0
2, 9, 0
19, 12, 0
19, 6, 0
1, 11, 0
15, 3, 0
15, 9, 0
18, 6, 0
18, 14, 0
9, 15, 0
9, 2, 0
