13, 7, 0
13, 3, 0
13, 15, 0
13, 14, 1
13, 20, 0
17, 10, 0
17, 4, 0
17, 5, 0
17, 2, 0
5, 4, 1
5, 17, 0
5, 2, 0
11, 0, 0
11, 6, 0
11, 8, 0
11, 10, 0
1, 18, 0
1, 20, 0
1, 9, 0
20, 7, 0
20, 3, 0
20, 13, 0
20, 14, 0
20, 18, 0
20, 15, 0
20, 1, 0
4, 2, 0
4, 17, 0
4, 5, 1
4, 10, 0
14, 7, 0
14, 3, 0
14, 20, 0
14, 13, 1
14, 15, 0
8, 0, 0
8, 6, 0
8, 11, 0
8, 10, 0
15, 20, 0
15, 7, 0
15, 13, 0
15, 14, 0
15, 3, 0
15, 19, 0
0, 6, 0
0, 8, 0
0, 11, 0
0, 10, 0
3, 7, 0
3, 12, 0
3, 13, 0
3, 14, 0
3, 16, 0
3, 19, 0
3, 15, 0
3, 20, 0
16, 7, 0
16, 3, 0
16, 19, 0
16, 12, 0
6, 0, 0
6, 8, 0
6, 11, 0
6, 9, 0
10, 0, 0
10, 4, 0
10, 17, 0
10, 2, 0
10, 8, 0
10, 11, 0
7, 20, 0
7, 3, 0
7, 13, 0
7, 14, 0
7, 16, 0
7, 15, 0
12, 16, 0
12, 3, 0
12, 19, 0
2, 4, 0
2, 17, 0
2, 5, 0
2, 10, 0
21, 19, 0
19, 16, 0
19, 3, 0
19, 21, 0
19, 15, 0
19, 12, 0
18, 20, 0
18, 1, 0
9, 6, 0
9, 1, 0
