0, 3, 0
0, 13, 0
0, 14, 0
0, 12, 0
0, 19, 0
0, 9, 0
0, 1, 0
13, 0, 0
13, 12, 1
13, 14, 1
13, 3, 0
13, 9, 0
13, 1, 0
17, 18, 1
17, 16, 0
17, 8, 0
17, 15, 0
17, 11, 0
3, 0, 0
3, 12, 0
3, 13, 0
3, 14, 0
3, 19, 0
3, 9, 0
3, 1, 0
16, 7, 0
16, 17, 0
16, 18, 0
16, 8, 0
16, 15, 1
16, 11, 0
6, 7, 0
6, 10, 0
6, 9, 0
6, 5, 1
6, 2, 0
8, 16, 0
8, 15, 0
8, 17, 0
8, 18, 0
8, 11, 0
5, 7, 0
5, 4, 1
5, 2, 0
5, 6, 1
5, 9, 0
5, 10, 0
11, 18, 0
11, 17, 0
11, 2, 0
11, 16, 0
11, 8, 0
11, 15, 0
11, 10, 0
10, 7, 0
10, 4, 0
10, 2, 0
10, 6, 0
10, 5, 0
10, 11, 0
10, 9, 0
7, 4, 0
7, 2, 0
7, 16, 0
7, 6, 0
7, 1, 0
7, 10, 0
7, 5, 0
7, 9, 0
12, 0, 0
12, 3, 0
12, 13, 1
12, 9, 0
12, 1, 0
4, 7, 0
4, 2, 0
4, 9, 0
4, 5, 1
4, 10, 0
14, 0, 0
14, 3, 0
14, 13, 1
14, 9, 0
14, 1, 0
2, 7, 0
2, 4, 0
2, 6, 0
2, 9, 0
2, 5, 0
2, 11, 0
2, 10, 0
19, 0, 0
19, 3, 0
1, 0, 0
1, 12, 0
1, 13, 0
1, 14, 0
1, 3, 0
1, 7, 0
1, 9, 0
15, 16, 1
15, 18, 0
15, 8, 0
15, 17, 0
15, 11, 0
18, 16, 0
18, 15, 0
18, 8, 0
18, 17, 1
18, 11, 0
9, 0, 0
9, 13, 0
9, 3, 0
9, 6, 0
9, 5, 0
9, 10, 0
9, 7, 0
9, 12, 0
9, 4, 0
9, 14, 0
9, 2, 0
9, 1, 0
