0, 6, 0
0, 8, 0
0, 1, 0
13, 7, 0
13, 3, 0
13, 4, 0
13, 14, 0
13, 2, 0
13, 5, 0
13, 9, 0
3, 7, 0
3, 13, 0
3, 14, 0
3, 4, 0
3, 5, 0
3, 9, 0
6, 0, 0
6, 8, 0
6, 1, 0
8, 0, 0
8, 12, 0
8, 7, 0
8, 6, 0
8, 10, 0
8, 5, 0
8, 11, 0
8, 1, 0
5, 7, 0
5, 3, 0
5, 13, 0
5, 14, 0
5, 9, 0
5, 4, 0
5, 8, 0
5, 1, 0
11, 7, 0
11, 12, 1
11, 8, 0
10, 7, 0
10, 12, 1
10, 8, 0
10, 1, 0
7, 12, 0
7, 13, 0
7, 3, 0
7, 8, 0
7, 5, 0
7, 11, 0
7, 10, 0
12, 7, 0
12, 1, 0
12, 8, 0
12, 11, 1
12, 10, 1
4, 3, 0
4, 13, 0
4, 14, 0
4, 5, 0
4, 9, 0
14, 3, 0
14, 13, 0
14, 4, 0
14, 2, 0
14, 5, 0
14, 9, 0
2, 13, 0
2, 14, 0
1, 0, 0
1, 12, 0
1, 6, 0
1, 8, 0
1, 5, 0
1, 10, 0
9, 3, 0
9, 13, 0
9, 14, 0
9, 5, 0
9, 4, 0
