0, 6, 0
0, 14, 0
0, 5, 0
0, 9, 0
13, 12, 0
13, 4, 0
13, 2, 0
13, 1, 0
13, 11, 0
13, 10, 0
3, 7, 0
3, 8, 0
3, 4, 0
3, 9, 0
6, 0, 0
6, 14, 0
6, 5, 1
6, 9, 0
8, 7, 0
8, 3, 0
8, 4, 0
8, 9, 0
8, 10, 0
5, 0, 0
5, 6, 1
5, 14, 0
5, 10, 0
11, 12, 1
11, 13, 0
11, 2, 0
10, 7, 0
10, 13, 0
10, 14, 0
10, 4, 0
10, 1, 0
10, 8, 0
10, 5, 0
10, 9, 0
7, 3, 0
7, 4, 0
7, 9, 0
7, 1, 0
7, 8, 0
7, 10, 0
12, 4, 0
12, 13, 0
12, 11, 1
12, 2, 0
4, 7, 0
4, 12, 0
4, 13, 0
4, 3, 0
4, 2, 0
4, 1, 0
4, 8, 0
4, 10, 0
14, 0, 0
14, 6, 0
14, 9, 0
14, 5, 0
14, 10, 0
2, 12, 0
2, 13, 0
2, 4, 0
2, 11, 0
1, 7, 0
1, 13, 0
1, 10, 0
1, 4, 0
1, 9, 0
9, 7, 0
9, 3, 0
9, 14, 0
9, 6, 0
9, 1, 0
9, 8, 0
9, 10, 0
9, 0, 0
