0, 3, 0
0, 13, 0
0, 17, 0
0, 6, 0
0, 10, 0
0, 5, 0
0, 11, 0
0, 9, 0
13, 0, 0
13, 18, 0
13, 6, 0
13, 9, 0
13, 11, 0
13, 1, 0
17, 0, 0
17, 12, 0
17, 3, 0
17, 6, 0
17, 19, 0
17, 8, 0
17, 15, 0
17, 5, 0
17, 11, 0
17, 9, 0
3, 0, 0
3, 12, 0
3, 17, 0
3, 9, 0
3, 16, 0
3, 6, 0
3, 19, 0
3, 1, 0
3, 5, 0
3, 11, 0
3, 10, 0
16, 3, 0
16, 12, 0
16, 6, 0
16, 1, 0
16, 9, 0
16, 5, 0
16, 11, 0
16, 10, 0
6, 0, 0
6, 3, 0
6, 13, 0
6, 17, 0
6, 9, 0
6, 16, 0
6, 1, 0
6, 5, 1
6, 11, 0
6, 10, 0
8, 7, 0
8, 12, 0
8, 19, 0
8, 15, 0
8, 17, 0
5, 0, 0
5, 3, 0
5, 17, 0
5, 9, 0
5, 16, 0
5, 6, 1
5, 10, 0
5, 11, 0
5, 1, 0
11, 0, 0
11, 3, 0
11, 13, 0
11, 17, 0
11, 9, 0
11, 16, 0
11, 6, 0
11, 10, 1
11, 5, 0
11, 1, 0
10, 0, 0
10, 3, 0
10, 12, 0
10, 16, 0
10, 6, 0
10, 9, 0
10, 5, 0
10, 11, 1
10, 1, 0
7, 19, 0
7, 8, 0
7, 4, 0
12, 3, 0
12, 17, 0
12, 16, 0
12, 19, 0
12, 8, 0
12, 15, 0
12, 10, 0
4, 7, 0
4, 14, 0
4, 2, 0
14, 4, 0
14, 2, 0
2, 4, 0
2, 14, 0
19, 7, 0
19, 12, 0
19, 8, 0
19, 17, 0
19, 3, 0
1, 3, 0
1, 13, 0
1, 16, 0
1, 6, 0
1, 10, 0
1, 5, 0
1, 18, 0
1, 11, 0
1, 9, 0
15, 12, 0
15, 8, 0
15, 17, 0
18, 13, 0
18, 9, 0
18, 1, 0
9, 0, 0
9, 3, 0
9, 13, 0
9, 17, 0
9, 11, 0
9, 16, 0
9, 6, 0
9, 10, 0
9, 5, 0
9, 18, 0
9, 1, 0
