0, 4, 0
0, 9, 0
8, 7, 1
8, 12, 0
3, 12, 0
3, 2, 0
6, 1, 0
6, 5, 1
6, 10, 0
5, 6, 1
5, 10, 0
5, 1, 0
11, 7, 0
11, 12, 0
11, 4, 0
10, 6, 0
10, 5, 0
10, 1, 0
7, 12, 0
7, 8, 1
7, 4, 0
7, 11, 0
12, 7, 0
12, 3, 0
12, 8, 0
12, 11, 0
4, 0, 0
4, 7, 0
4, 11, 0
4, 9, 0
2, 3, 0
2, 1, 0
1, 6, 0
1, 10, 0
1, 5, 0
1, 2, 0
9, 0, 0
9, 4, 0
