12, 6, 0
12, 5, 0
12, 11, 0
12, 30, 0
12, 7, 0
12, 3, 0
12, 31, 0
12, 19, 0
12, 10, 0
12, 15, 0
12, 22, 0
12, 9, 0
13, 3, 0
13, 28, 0
13, 31, 0
13, 34, 0
13, 27, 0
13, 2, 0
17, 37, 0
17, 28, 0
17, 29, 0
17, 16, 0
17, 27, 0
17, 15, 0
31, 7, 0
31, 3, 0
31, 13, 0
31, 28, 0
31, 12, 0
31, 37, 0
31, 19, 0
31, 36, 0
23, 8, 0
23, 32, 0
23, 10, 0
24, 21, 0
24, 33, 0
24, 8, 0
24, 18, 0
24, 4, 0
5, 12, 0
5, 14, 0
5, 26, 0
5, 9, 0
5, 11, 0
5, 10, 0
11, 3, 0
11, 6, 0
11, 36, 0
11, 5, 0
11, 30, 0
11, 7, 0
11, 12, 0
11, 14, 0
11, 26, 0
11, 1, 0
11, 15, 0
11, 10, 0
11, 22, 0
11, 9, 0
1, 7, 0
1, 6, 0
1, 3, 0
1, 11, 0
1, 36, 0
20, 25, 0
21, 18, 0
21, 33, 0
21, 8, 0
21, 4, 0
21, 24, 0
4, 0, 0
4, 21, 0
4, 33, 0
4, 24, 0
14, 10, 0
14, 5, 0
14, 11, 0
14, 9, 0
35, 16, 0
35, 27, 0
35, 28, 0
28, 13, 0
28, 17, 0
28, 3, 0
28, 16, 0
28, 27, 0
28, 35, 0
28, 7, 0
28, 34, 0
28, 31, 0
28, 2, 0
28, 37, 0
28, 29, 0
28, 15, 0
28, 36, 0
30, 3, 0
30, 12, 0
30, 6, 0
30, 36, 0
30, 11, 0
30, 10, 0
8, 21, 0
8, 32, 0
8, 23, 0
8, 24, 0
8, 18, 0
8, 10, 0
15, 12, 0
15, 28, 0
15, 22, 0
15, 29, 0
15, 37, 0
15, 17, 0
15, 19, 0
15, 11, 0
22, 12, 0
22, 26, 0
22, 29, 0
22, 37, 0
22, 19, 0
22, 15, 0
22, 11, 0
36, 7, 0
36, 3, 0
36, 28, 0
36, 31, 0
36, 6, 0
36, 1, 0
36, 10, 0
36, 11, 0
36, 30, 0
0, 4, 0
6, 7, 0
6, 12, 0
6, 30, 0
6, 36, 0
6, 10, 0
6, 11, 0
6, 1, 0
3, 13, 0
3, 28, 0
3, 12, 0
3, 27, 0
3, 11, 0
3, 1, 0
3, 7, 0
3, 34, 0
3, 31, 0
3, 2, 0
3, 37, 0
3, 19, 0
3, 30, 0
3, 36, 0
16, 28, 0
16, 17, 0
16, 35, 0
27, 34, 0
27, 29, 0
27, 13, 0
27, 28, 0
27, 3, 0
27, 37, 0
27, 25, 0
27, 2, 0
27, 35, 0
27, 17, 0
10, 12, 0
10, 14, 0
10, 32, 0
10, 23, 0
10, 9, 0
10, 6, 0
10, 36, 0
10, 8, 0
10, 5, 0
10, 11, 0
10, 30, 0
7, 3, 0
7, 28, 0
7, 31, 0
7, 12, 0
7, 37, 0
7, 6, 0
7, 19, 0
7, 1, 0
7, 11, 0
7, 36, 0
34, 27, 0
34, 13, 0
34, 28, 0
34, 3, 0
34, 2, 0
25, 20, 0
25, 27, 0
33, 21, 0
33, 18, 0
33, 4, 0
33, 24, 0
32, 8, 0
32, 23, 0
32, 10, 0
2, 34, 0
2, 13, 0
2, 28, 0
2, 3, 0
2, 27, 0
37, 7, 0
37, 3, 0
37, 28, 0
37, 31, 0
37, 29, 0
37, 17, 0
37, 19, 0
37, 15, 0
37, 22, 0
37, 27, 0
29, 28, 0
29, 37, 0
29, 27, 0
29, 15, 0
29, 17, 0
29, 22, 0
19, 7, 0
19, 3, 0
19, 31, 0
19, 12, 0
19, 37, 0
19, 15, 0
19, 22, 0
26, 11, 0
26, 5, 0
26, 22, 0
18, 21, 0
18, 33, 0
18, 8, 0
18, 24, 0
9, 12, 0
9, 14, 0
9, 5, 0
9, 11, 0
9, 10, 0
