0, 6, 0
0, 3, 0
0, 5, 0
0, 2, 0
3, 0, 0
3, 6, 0
3, 4, 1
3, 5, 0
4, 3, 1
4, 5, 0
4, 6, 0
7, 8, 0
2, 0, 0
2, 1, 0
6, 0, 0
6, 3, 0
6, 4, 0
6, 5, 1
8, 7, 0
8, 5, 0
8, 1, 0
5, 0, 0
5, 3, 0
5, 8, 0
5, 4, 0
5, 6, 1
1, 8, 0
1, 2, 0
