0, 11, 0
13, 16, 0
13, 10, 0
13, 1, 0
17, 7, 0
17, 14, 0
3, 12, 0
3, 2, 1
3, 6, 0
16, 13, 0
16, 10, 0
16, 9, 0
6, 18, 0
6, 12, 0
6, 2, 0
6, 3, 0
8, 7, 0
8, 4, 0
8, 5, 0
5, 7, 0
5, 8, 0
5, 4, 1
11, 0, 0
11, 18, 0
10, 16, 0
10, 13, 0
7, 8, 0
7, 17, 0
7, 5, 0
7, 4, 0
12, 3, 0
12, 6, 0
12, 9, 0
12, 2, 0
4, 7, 0
4, 8, 0
4, 5, 1
14, 15, 0
14, 17, 0
2, 12, 0
2, 3, 1
2, 6, 0
1, 13, 0
1, 15, 0
15, 14, 0
15, 1, 0
18, 6, 0
18, 11, 0
9, 16, 0
9, 12, 0
