0, 5, 0
3, 7, 0
3, 6, 0
3, 2, 1
4, 7, 0
4, 10, 0
4, 8, 0
4, 5, 0
4, 9, 0
2, 7, 0
2, 3, 1
2, 6, 0
2, 1, 1
6, 7, 0
6, 3, 0
6, 1, 0
6, 2, 0
1, 7, 0
1, 6, 0
1, 8, 0
1, 2, 1
8, 7, 0
8, 1, 0
8, 4, 0
8, 9, 1
5, 0, 0
5, 4, 0
5, 10, 0
7, 3, 0
7, 4, 0
7, 9, 0
7, 2, 0
7, 6, 0
7, 8, 0
7, 10, 0
7, 1, 0
10, 7, 0
10, 4, 0
10, 5, 0
10, 9, 1
9, 7, 0
9, 8, 1
9, 4, 0
9, 10, 1
