0, 3, 0
0, 5, 0
0, 11, 0
0, 10, 0
6, 7, 0
6, 3, 0
6, 4, 0
6, 9, 0
6, 2, 0
6, 8, 0
6, 5, 0
6, 1, 0
1, 7, 0
1, 6, 0
1, 8, 0
1, 4, 0
1, 2, 1
5, 0, 0
5, 3, 0
5, 4, 0
5, 6, 0
5, 11, 0
5, 9, 0
11, 0, 0
11, 5, 0
11, 10, 0
10, 0, 0
10, 11, 0
7, 2, 0
7, 6, 0
7, 8, 0
7, 4, 0
7, 1, 0
3, 0, 0
3, 6, 0
3, 5, 0
3, 9, 0
4, 7, 0
4, 2, 0
4, 6, 0
4, 8, 0
4, 5, 0
4, 1, 0
2, 7, 0
2, 4, 0
2, 9, 0
2, 6, 0
2, 8, 0
2, 1, 1
8, 7, 0
8, 4, 0
8, 2, 0
8, 6, 0
8, 9, 0
8, 1, 0
9, 2, 0
9, 6, 0
9, 8, 0
9, 5, 0
9, 3, 0
