12, 28, 0
12, 26, 0
12, 23, 0
12, 3, 0
12, 29, 0
12, 11, 0
12, 1, 0
12, 34, 0
12, 4, 0
12, 25, 0
12, 31, 0
12, 35, 0
12, 8, 0
12, 15, 0
12, 10, 0
12, 22, 0
13, 16, 0
13, 33, 0
13, 14, 0
13, 36, 0
17, 16, 0
17, 27, 0
17, 35, 0
31, 3, 0
31, 28, 0
31, 26, 0
31, 23, 0
31, 35, 0
31, 25, 0
31, 11, 0
31, 12, 0
23, 34, 0
23, 25, 0
23, 31, 0
23, 26, 0
23, 3, 0
23, 29, 0
23, 12, 0
23, 8, 0
23, 10, 0
23, 11, 0
23, 1, 0
24, 0, 0
24, 18, 0
24, 35, 0
24, 29, 0
5, 3, 0
5, 4, 0
5, 2, 0
5, 18, 0
5, 10, 0
5, 22, 0
5, 30, 0
11, 12, 0
11, 23, 0
11, 26, 0
11, 31, 0
11, 34, 0
11, 1, 0
1, 12, 0
1, 8, 0
1, 11, 0
1, 23, 0
1, 34, 0
20, 7, 0
20, 33, 0
20, 14, 0
20, 21, 0
20, 6, 0
20, 19, 0
20, 9, 0
4, 12, 0
4, 18, 0
4, 29, 0
4, 5, 0
4, 10, 0
4, 3, 1
4, 25, 0
4, 26, 0
4, 35, 0
4, 30, 0
4, 8, 0
4, 22, 0
14, 20, 0
14, 33, 0
14, 13, 0
14, 32, 0
14, 16, 0
14, 6, 0
14, 36, 0
14, 9, 0
35, 0, 0
35, 17, 0
35, 26, 0
35, 12, 0
35, 16, 0
35, 6, 0
35, 24, 0
35, 10, 0
35, 7, 0
35, 3, 0
35, 4, 0
35, 25, 0
35, 31, 0
35, 29, 0
35, 18, 0
28, 12, 0
28, 25, 0
28, 26, 0
28, 31, 0
30, 7, 0
30, 3, 0
30, 4, 0
30, 25, 0
30, 29, 0
30, 21, 0
30, 19, 0
30, 10, 0
30, 5, 0
30, 18, 0
30, 0, 0
8, 12, 0
8, 4, 0
8, 23, 0
8, 3, 0
8, 10, 0
8, 15, 0
8, 1, 0
15, 12, 0
15, 8, 0
15, 10, 0
22, 3, 0
22, 4, 0
22, 25, 0
22, 12, 0
22, 18, 0
22, 5, 0
22, 10, 0
36, 16, 0
36, 13, 0
36, 14, 0
36, 32, 0
0, 7, 0
0, 3, 0
0, 29, 0
0, 18, 0
0, 19, 0
0, 35, 0
0, 24, 0
0, 30, 0
6, 20, 0
6, 7, 0
6, 14, 0
6, 35, 0
6, 16, 0
6, 19, 0
6, 9, 0
3, 0, 0
3, 23, 0
3, 18, 0
3, 29, 0
3, 5, 0
3, 10, 0
3, 12, 0
3, 4, 1
3, 25, 0
3, 31, 0
3, 35, 0
3, 21, 0
3, 30, 0
3, 8, 0
3, 22, 0
16, 13, 0
16, 14, 0
16, 32, 0
16, 35, 0
16, 6, 0
16, 27, 0
16, 17, 0
16, 36, 0
27, 16, 0
27, 17, 0
10, 3, 0
10, 4, 0
10, 12, 0
10, 23, 0
10, 35, 0
10, 18, 0
10, 8, 0
10, 15, 0
10, 5, 0
10, 22, 0
10, 30, 0
7, 20, 0
7, 0, 0
7, 35, 0
7, 18, 0
7, 6, 0
7, 19, 0
7, 30, 0
34, 12, 0
34, 26, 0
34, 11, 0
34, 23, 0
34, 1, 0
25, 28, 0
25, 26, 0
25, 23, 0
25, 12, 0
25, 18, 0
25, 29, 0
25, 30, 0
25, 3, 0
25, 4, 0
25, 31, 0
25, 35, 0
25, 22, 0
33, 20, 0
33, 13, 0
33, 14, 0
33, 21, 0
33, 19, 0
33, 9, 0
32, 16, 0
32, 14, 0
32, 36, 0
2, 21, 0
2, 18, 0
2, 5, 0
21, 20, 0
21, 3, 0
21, 33, 0
21, 18, 0
21, 19, 0
21, 2, 0
21, 30, 0
29, 0, 0
29, 3, 0
29, 4, 0
29, 25, 0
29, 26, 0
29, 23, 0
29, 12, 0
29, 18, 0
29, 35, 0
29, 24, 0
29, 30, 0
19, 20, 0
19, 0, 0
19, 7, 0
19, 33, 0
19, 21, 0
19, 6, 0
19, 30, 0
26, 34, 0
26, 4, 0
26, 28, 0
26, 31, 0
26, 23, 0
26, 35, 0
26, 18, 0
26, 25, 0
26, 29, 0
26, 11, 0
26, 12, 0
18, 0, 0
18, 2, 0
18, 24, 0
18, 5, 0
18, 10, 0
18, 7, 0
18, 3, 0
18, 4, 0
18, 25, 0
18, 26, 0
18, 35, 0
18, 21, 0
18, 29, 0
18, 30, 0
18, 22, 0
9, 20, 0
9, 6, 0
9, 14, 0
9, 33, 0
