0, 7, 0
0, 3, 0
0, 2, 0
0, 8, 0
0, 5, 0
0, 9, 0
3, 0, 0
3, 8, 0
3, 5, 0
3, 2, 0
4, 6, 0
4, 1, 0
2, 0, 0
2, 3, 0
2, 8, 0
2, 5, 0
2, 9, 0
6, 4, 0
1, 7, 0
1, 8, 0
1, 4, 0
1, 9, 0
8, 0, 0
8, 3, 0
8, 7, 0
8, 2, 0
8, 1, 0
8, 5, 0
8, 9, 0
5, 0, 0
5, 7, 0
5, 3, 0
5, 2, 0
5, 8, 0
5, 9, 0
7, 0, 0
7, 1, 0
7, 8, 0
7, 5, 0
7, 9, 0
9, 0, 0
9, 7, 0
9, 2, 0
9, 8, 0
9, 5, 0
9, 1, 0
