0, 4, 0
0, 5, 0
0, 9, 0
13, 3, 0
13, 8, 0
13, 9, 0
13, 10, 0
3, 8, 0
3, 13, 0
3, 9, 0
6, 7, 1
6, 4, 0
6, 11, 0
8, 3, 0
8, 13, 0
8, 9, 0
8, 10, 0
5, 0, 0
5, 9, 0
11, 2, 0
11, 12, 1
11, 1, 0
11, 14, 0
11, 6, 0
10, 8, 0
10, 13, 0
10, 9, 0
7, 6, 1
7, 4, 0
12, 1, 0
12, 14, 0
12, 11, 1
12, 2, 0
4, 0, 0
4, 6, 0
4, 7, 0
14, 12, 0
14, 2, 0
14, 11, 0
14, 1, 0
2, 12, 0
2, 14, 0
2, 11, 0
2, 1, 1
1, 12, 0
1, 14, 0
1, 11, 0
1, 2, 1
9, 0, 0
9, 3, 0
9, 13, 0
9, 8, 0
9, 5, 0
9, 10, 0
