58, 3, 0
58, 35, 0
58, 17, 0
58, 27, 0
13, 68, 0
13, 19, 0
13, 71, 0
13, 17, 0
17, 58, 0
17, 68, 0
17, 13, 0
17, 28, 0
17, 16, 0
17, 27, 0
17, 71, 0
17, 74, 0
17, 10, 0
17, 57, 0
17, 3, 0
17, 25, 0
17, 35, 0
17, 43, 0
17, 19, 0
17, 15, 0
17, 41, 0
17, 20, 0
29, 63, 0
29, 61, 0
29, 14, 0
29, 15, 0
29, 1, 0
23, 43, 0
23, 56, 0
23, 54, 0
23, 15, 0
23, 52, 0
23, 9, 0
63, 69, 0
63, 14, 0
63, 50, 0
63, 29, 0
63, 61, 0
63, 55, 0
63, 15, 0
66, 78, 0
66, 67, 0
66, 15, 0
66, 24, 0
46, 0, 0
46, 45, 0
46, 62, 0
46, 51, 0
46, 52, 0
46, 75, 0
46, 40, 0
46, 53, 0
46, 59, 0
46, 44, 0
46, 47, 0
46, 43, 0
46, 32, 0
46, 21, 0
46, 42, 0
46, 56, 0
46, 48, 0
46, 36, 0
65, 72, 0
65, 70, 0
65, 51, 0
20, 28, 0
20, 51, 0
20, 18, 0
20, 27, 0
20, 1, 0
20, 74, 0
20, 47, 0
20, 73, 0
20, 3, 0
20, 17, 0
20, 30, 0
20, 64, 0
20, 41, 0
20, 10, 0
34, 31, 0
34, 11, 0
34, 2, 0
14, 37, 0
14, 29, 0
14, 63, 0
14, 76, 0
14, 15, 0
14, 47, 0
14, 1, 0
53, 62, 0
53, 51, 0
53, 40, 0
53, 59, 0
53, 46, 0
53, 47, 0
53, 36, 0
24, 37, 0
24, 67, 0
24, 78, 0
24, 15, 0
24, 66, 0
75, 0, 0
75, 12, 0
75, 56, 0
75, 15, 0
75, 46, 0
75, 36, 0
42, 21, 0
42, 56, 0
42, 46, 0
42, 51, 0
15, 28, 0
15, 23, 0
15, 75, 0
15, 66, 0
15, 1, 0
15, 37, 0
15, 43, 0
15, 24, 0
15, 17, 0
15, 64, 0
15, 36, 0
15, 25, 0
15, 56, 0
15, 12, 0
15, 16, 0
15, 76, 0
15, 55, 0
15, 73, 0
15, 7, 0
15, 78, 0
15, 69, 0
15, 54, 0
15, 50, 0
15, 29, 0
15, 61, 0
15, 33, 0
15, 14, 0
15, 67, 0
15, 63, 0
15, 9, 0
41, 20, 0
41, 3, 0
41, 74, 0
41, 17, 0
41, 35, 0
41, 18, 0
41, 27, 0
41, 8, 0
41, 39, 0
41, 30, 0
0, 75, 0
0, 12, 0
0, 46, 0
0, 32, 0
0, 36, 0
68, 19, 0
68, 13, 0
68, 17, 0
68, 71, 0
68, 2, 0
62, 44, 0
62, 53, 0
62, 59, 0
62, 46, 0
62, 47, 0
62, 48, 0
51, 70, 0
51, 56, 0
51, 40, 0
51, 53, 0
51, 59, 0
51, 44, 0
51, 47, 0
51, 46, 0
51, 20, 0
51, 72, 0
51, 43, 0
51, 21, 0
51, 42, 0
51, 65, 0
51, 36, 0
67, 37, 0
67, 78, 0
67, 66, 0
67, 15, 0
67, 24, 0
6, 5, 1
6, 11, 0
6, 77, 0
74, 7, 0
74, 28, 0
74, 16, 0
74, 27, 0
74, 1, 0
74, 17, 0
74, 10, 0
74, 20, 0
74, 43, 0
74, 35, 0
74, 25, 0
74, 30, 0
74, 73, 0
74, 41, 0
47, 62, 0
47, 51, 0
47, 33, 0
47, 53, 0
47, 40, 0
47, 46, 0
47, 44, 0
47, 20, 0
47, 12, 0
47, 69, 0
47, 14, 0
47, 32, 0
10, 20, 0
10, 17, 0
10, 39, 0
10, 27, 0
10, 18, 0
10, 28, 0
10, 8, 0
10, 74, 0
10, 30, 0
7, 57, 0
7, 25, 0
7, 74, 0
7, 43, 0
7, 16, 0
7, 27, 0
7, 1, 0
7, 15, 0
7, 30, 0
3, 58, 0
3, 20, 0
3, 17, 0
3, 35, 0
3, 27, 0
3, 41, 0
69, 33, 0
69, 50, 0
69, 63, 0
69, 55, 0
69, 15, 0
69, 47, 0
32, 0, 0
32, 46, 0
32, 47, 0
32, 44, 0
2, 34, 0
2, 31, 0
2, 68, 0
2, 19, 0
2, 71, 0
2, 11, 0
37, 67, 0
37, 14, 0
37, 24, 0
37, 76, 0
37, 15, 0
37, 1, 0
33, 12, 0
33, 69, 0
33, 50, 0
33, 61, 0
33, 55, 0
33, 15, 0
33, 47, 0
19, 68, 0
19, 13, 0
19, 17, 0
19, 71, 0
19, 2, 0
49, 60, 0
49, 11, 0
49, 22, 0
49, 26, 0
49, 77, 0
48, 46, 0
48, 59, 0
48, 62, 0
48, 44, 0
16, 7, 0
16, 57, 0
16, 74, 0
16, 43, 0
16, 25, 0
16, 1, 0
16, 15, 0
16, 17, 0
16, 9, 0
70, 72, 0
70, 4, 0
70, 51, 0
70, 65, 0
31, 34, 0
31, 11, 0
31, 2, 0
28, 20, 0
28, 17, 0
28, 73, 0
28, 27, 0
28, 15, 0
28, 1, 0
28, 74, 0
28, 10, 0
28, 30, 0
45, 21, 0
45, 52, 0
45, 46, 0
45, 56, 0
60, 49, 0
60, 22, 0
60, 11, 0
60, 26, 0
40, 51, 0
40, 53, 0
40, 46, 0
40, 47, 0
40, 36, 0
71, 68, 0
71, 19, 0
71, 13, 0
71, 17, 0
71, 2, 0
59, 62, 0
59, 51, 0
59, 46, 0
59, 53, 0
59, 48, 0
59, 44, 0
52, 45, 0
52, 54, 0
52, 23, 0
52, 56, 0
52, 61, 0
52, 43, 0
52, 46, 0
52, 36, 0
11, 34, 0
11, 31, 0
11, 2, 0
11, 60, 0
11, 6, 0
11, 49, 0
11, 22, 0
5, 6, 1
5, 77, 0
61, 56, 0
61, 33, 0
61, 63, 0
61, 55, 0
61, 1, 0
61, 12, 0
61, 43, 0
61, 54, 0
61, 50, 0
61, 29, 0
61, 52, 0
61, 15, 0
61, 36, 0
78, 67, 0
78, 66, 0
78, 64, 0
78, 24, 0
78, 15, 0
78, 1, 0
4, 38, 0
4, 70, 0
39, 18, 0
39, 27, 0
39, 8, 0
39, 41, 0
39, 10, 0
35, 58, 0
35, 3, 0
35, 17, 0
35, 27, 0
35, 74, 0
35, 41, 0
35, 30, 0
30, 20, 0
30, 7, 0
30, 28, 0
30, 35, 0
30, 25, 0
30, 8, 0
30, 74, 0
30, 41, 0
30, 10, 0
30, 27, 0
8, 18, 0
8, 27, 0
8, 30, 0
8, 39, 0
8, 41, 0
8, 10, 0
38, 4, 0
22, 60, 0
22, 11, 0
22, 49, 0
22, 77, 0
22, 26, 0
36, 0, 0
36, 51, 0
36, 56, 0
36, 75, 0
36, 53, 0
36, 40, 0
36, 46, 0
36, 44, 0
36, 12, 0
36, 52, 0
36, 61, 0
36, 43, 0
36, 15, 0
25, 57, 0
25, 7, 0
25, 74, 0
25, 43, 0
25, 16, 0
25, 27, 0
25, 1, 0
25, 15, 0
25, 17, 0
25, 30, 0
57, 7, 0
57, 43, 0
57, 25, 0
57, 16, 0
57, 27, 0
57, 17, 0
77, 6, 0
77, 49, 0
77, 26, 0
77, 5, 0
77, 22, 0
64, 20, 0
64, 78, 0
64, 1, 0
64, 15, 0
64, 73, 0
18, 20, 0
18, 27, 0
18, 8, 0
18, 39, 0
18, 41, 0
18, 10, 0
27, 58, 0
27, 7, 0
27, 17, 0
27, 18, 0
27, 73, 0
27, 74, 0
27, 25, 0
27, 10, 0
27, 57, 0
27, 3, 0
27, 43, 0
27, 35, 0
27, 28, 0
27, 20, 0
27, 8, 0
27, 39, 0
27, 41, 0
27, 30, 0
1, 7, 0
1, 61, 0
1, 28, 0
1, 16, 0
1, 15, 0
1, 74, 0
1, 73, 0
1, 20, 0
1, 78, 0
1, 25, 0
1, 29, 0
1, 37, 0
1, 43, 0
1, 14, 0
1, 64, 0
55, 33, 0
55, 61, 0
55, 50, 0
55, 63, 0
55, 69, 0
55, 15, 0
44, 51, 0
44, 62, 0
44, 32, 0
44, 36, 0
44, 59, 0
44, 46, 0
44, 47, 0
44, 48, 0
73, 20, 0
73, 28, 0
73, 27, 0
73, 74, 0
73, 15, 0
73, 64, 0
73, 1, 0
12, 0, 0
12, 33, 0
12, 75, 0
12, 61, 0
12, 15, 0
12, 47, 0
12, 36, 0
21, 42, 0
21, 51, 0
21, 46, 0
21, 56, 0
21, 45, 0
54, 52, 0
54, 23, 0
54, 56, 0
54, 61, 0
54, 43, 0
54, 15, 0
50, 33, 0
50, 61, 0
50, 63, 0
50, 69, 0
50, 55, 0
50, 15, 0
26, 60, 0
26, 49, 0
26, 77, 0
26, 22, 0
76, 37, 0
76, 14, 0
76, 15, 0
72, 70, 0
72, 51, 0
72, 65, 0
43, 25, 0
43, 57, 0
43, 17, 0
43, 51, 0
43, 56, 0
43, 16, 0
43, 27, 0
43, 74, 0
43, 46, 0
43, 1, 0
43, 7, 0
43, 23, 0
43, 54, 0
43, 61, 0
43, 52, 0
43, 9, 0
43, 15, 0
43, 36, 0
56, 45, 0
56, 23, 0
56, 51, 0
56, 75, 0
56, 54, 0
56, 46, 0
56, 21, 0
56, 43, 0
56, 42, 0
56, 61, 0
56, 52, 0
56, 15, 0
56, 36, 0
9, 16, 0
9, 43, 0
9, 15, 0
9, 23, 0
