0, 7, 0
0, 14, 0
0, 2, 0
0, 15, 0
0, 5, 0
0, 1, 0
13, 3, 0
13, 4, 0
13, 9, 0
13, 2, 0
13, 16, 0
13, 6, 0
13, 8, 0
13, 11, 0
13, 10, 0
3, 8, 0
3, 13, 0
3, 4, 1
3, 10, 0
16, 13, 0
16, 4, 0
16, 6, 0
16, 9, 0
16, 11, 0
16, 10, 0
6, 16, 0
6, 13, 0
6, 11, 0
6, 10, 0
8, 2, 0
8, 3, 0
8, 13, 0
8, 4, 0
8, 10, 0
5, 0, 0
5, 2, 0
5, 15, 0
5, 1, 0
11, 13, 0
11, 14, 0
11, 2, 0
11, 16, 0
11, 6, 0
11, 9, 0
10, 3, 0
10, 13, 0
10, 4, 0
10, 16, 0
10, 6, 0
10, 8, 0
7, 0, 0
7, 12, 0
7, 15, 0
7, 1, 0
12, 7, 0
12, 15, 0
4, 16, 0
4, 3, 1
4, 8, 0
4, 13, 0
4, 10, 0
14, 0, 0
14, 2, 0
14, 15, 0
14, 11, 0
14, 9, 0
2, 0, 0
2, 13, 0
2, 14, 0
2, 8, 0
2, 15, 0
2, 5, 0
2, 11, 0
1, 0, 0
1, 7, 0
1, 15, 0
1, 5, 0
15, 0, 0
15, 12, 0
15, 7, 0
15, 14, 0
15, 2, 0
15, 9, 0
15, 5, 0
15, 1, 0
9, 16, 0
9, 15, 0
9, 13, 0
9, 14, 0
9, 11, 0
