0, 7, 0
0, 6, 0
0, 8, 0
0, 4, 0
0, 2, 0
3, 8, 0
3, 5, 0
4, 0, 0
4, 8, 0
4, 2, 0
2, 0, 0
2, 8, 0
2, 4, 0
6, 7, 0
6, 0, 0
6, 8, 0
6, 9, 0
1, 8, 0
1, 5, 0
1, 10, 0
8, 0, 0
8, 7, 1
8, 4, 0
8, 3, 0
8, 6, 0
8, 1, 0
8, 2, 0
8, 10, 0
8, 9, 0
5, 3, 0
5, 1, 0
7, 0, 0
7, 6, 0
7, 8, 1
7, 9, 0
10, 1, 0
10, 8, 0
10, 9, 0
9, 7, 0
9, 6, 0
9, 8, 0
9, 10, 0
