0, 10, 0
0, 15, 0
0, 5, 0
0, 1, 1
13, 16, 0
13, 7, 0
13, 5, 0
13, 2, 0
17, 7, 0
17, 12, 0
17, 15, 0
17, 2, 0
3, 4, 1
3, 8, 0
3, 14, 0
3, 11, 0
16, 7, 0
16, 13, 0
16, 5, 0
16, 9, 0
6, 7, 1
6, 2, 0
6, 9, 0
6, 15, 0
6, 5, 1
6, 10, 0
8, 3, 0
8, 4, 0
8, 14, 0
5, 0, 0
5, 13, 0
5, 16, 0
5, 6, 1
5, 10, 0
5, 9, 0
11, 3, 0
11, 4, 0
11, 14, 0
10, 0, 0
10, 7, 0
10, 2, 0
10, 6, 0
10, 9, 0
10, 15, 0
10, 5, 0
10, 1, 0
7, 13, 0
7, 17, 0
7, 2, 0
7, 16, 0
7, 6, 1
7, 1, 0
7, 10, 0
7, 15, 0
7, 9, 0
12, 14, 0
12, 15, 0
12, 17, 0
4, 3, 1
4, 8, 0
4, 11, 0
14, 12, 0
14, 8, 0
14, 15, 0
14, 11, 0
14, 3, 0
2, 7, 0
2, 13, 0
2, 17, 0
2, 9, 0
2, 6, 0
2, 10, 0
2, 15, 0
2, 1, 1
1, 0, 1
1, 7, 0
1, 10, 0
1, 15, 0
1, 2, 1
15, 0, 0
15, 12, 0
15, 7, 0
15, 17, 0
15, 2, 0
15, 6, 0
15, 14, 0
15, 10, 0
15, 1, 0
9, 7, 0
9, 2, 0
9, 16, 0
9, 6, 0
9, 5, 0
9, 10, 0
