0, 7, 0
0, 3, 0
0, 4, 0
0, 2, 0
0, 6, 0
0, 8, 0
3, 0, 0
3, 4, 1
3, 2, 0
4, 0, 0
4, 3, 1
4, 8, 0
4, 2, 0
7, 0, 0
7, 6, 0
7, 8, 1
2, 0, 0
2, 3, 0
2, 8, 0
2, 4, 0
6, 0, 0
6, 7, 0
6, 8, 0
6, 1, 0
8, 0, 0
8, 7, 1
8, 6, 0
8, 4, 0
8, 2, 0
5, 1, 0
1, 6, 0
1, 5, 0
