0, 7, 0
0, 3, 0
0, 4, 0
0, 14, 0
0, 2, 0
0, 16, 0
0, 13, 0
0, 15, 0
0, 5, 0
0, 10, 0
13, 0, 0
13, 7, 0
13, 14, 0
13, 3, 0
13, 2, 0
13, 16, 0
13, 15, 0
13, 5, 0
13, 10, 0
17, 7, 0
17, 12, 0
17, 1, 0
17, 8, 0
17, 9, 0
3, 0, 0
3, 7, 0
3, 4, 1
3, 14, 0
3, 2, 0
3, 16, 0
3, 6, 0
3, 13, 0
3, 15, 0
3, 10, 0
16, 0, 0
16, 3, 0
16, 13, 0
16, 14, 0
16, 4, 0
16, 2, 0
16, 6, 0
16, 15, 0
16, 7, 0
16, 10, 0
6, 16, 0
6, 3, 0
6, 4, 0
6, 7, 0
6, 5, 0
8, 7, 0
8, 12, 0
8, 17, 0
8, 9, 0
8, 11, 0
8, 1, 0
5, 0, 0
5, 7, 0
5, 13, 0
5, 14, 0
5, 4, 0
5, 2, 0
5, 6, 0
5, 15, 0
5, 10, 0
11, 7, 0
11, 12, 0
11, 8, 0
11, 9, 0
11, 1, 0
10, 0, 0
10, 3, 0
10, 13, 0
10, 14, 0
10, 2, 0
10, 16, 0
10, 15, 0
10, 5, 0
7, 0, 0
7, 13, 0
7, 17, 0
7, 3, 0
7, 16, 0
7, 6, 0
7, 5, 0
7, 11, 0
7, 1, 0
7, 12, 0
7, 4, 0
7, 14, 0
7, 2, 0
7, 8, 0
7, 15, 0
7, 9, 0
12, 7, 0
12, 17, 0
12, 9, 0
12, 8, 0
12, 11, 0
12, 1, 0
4, 0, 0
4, 3, 1
4, 7, 0
4, 16, 0
4, 6, 0
4, 5, 0
14, 0, 0
14, 3, 0
14, 13, 0
14, 2, 0
14, 16, 0
14, 5, 0
14, 15, 1
14, 7, 0
14, 10, 0
2, 0, 0
2, 3, 0
2, 13, 0
2, 14, 0
2, 16, 0
2, 5, 0
2, 15, 0
2, 7, 0
2, 10, 0
1, 7, 0
1, 12, 0
1, 17, 0
1, 8, 0
1, 11, 0
1, 9, 0
15, 0, 0
15, 3, 0
15, 13, 0
15, 14, 1
15, 2, 0
15, 16, 0
15, 5, 0
15, 7, 0
15, 10, 0
9, 7, 0
9, 12, 0
9, 17, 0
9, 8, 0
9, 11, 0
9, 1, 0
