12, 16, 0
12, 19, 0
12, 13, 1
13, 16, 0
13, 12, 1
13, 19, 0
13, 14, 1
17, 18, 1
17, 15, 0
17, 24, 0
17, 28, 0
17, 1, 0
26, 0, 0
26, 3, 0
26, 4, 0
26, 11, 0
26, 6, 0
26, 8, 0
26, 7, 0
26, 22, 0
23, 2, 0
23, 24, 0
23, 30, 0
23, 9, 0
23, 10, 0
23, 1, 0
2, 1, 0
2, 9, 0
2, 23, 0
2, 10, 0
5, 16, 0
5, 6, 1
5, 22, 0
11, 7, 0
11, 0, 0
11, 26, 0
11, 3, 0
11, 8, 0
11, 22, 0
1, 17, 0
1, 23, 0
1, 2, 0
1, 24, 0
1, 15, 0
1, 10, 0
1, 9, 0
20, 21, 1
20, 31, 0
4, 3, 1
4, 26, 0
4, 22, 0
14, 16, 0
14, 19, 0
14, 13, 1
24, 17, 0
24, 9, 0
24, 23, 0
24, 27, 0
24, 19, 0
24, 30, 0
24, 1, 0
28, 18, 0
28, 15, 0
28, 19, 0
28, 17, 0
30, 25, 0
30, 23, 0
30, 24, 0
30, 27, 0
30, 29, 1
30, 10, 0
8, 7, 1
8, 0, 0
8, 26, 0
8, 11, 0
15, 18, 0
15, 28, 0
15, 17, 0
15, 1, 0
22, 3, 0
22, 4, 0
22, 26, 0
22, 16, 0
22, 6, 0
22, 5, 0
22, 11, 0
0, 7, 0
0, 8, 0
0, 11, 0
0, 26, 0
3, 7, 0
3, 11, 0
3, 4, 1
3, 26, 0
3, 22, 0
16, 12, 0
16, 13, 0
16, 14, 0
16, 6, 0
16, 19, 0
16, 5, 0
16, 22, 0
6, 16, 0
6, 26, 0
6, 5, 1
6, 22, 0
27, 30, 0
27, 24, 0
27, 25, 0
27, 29, 0
7, 0, 0
7, 3, 0
7, 8, 1
7, 26, 0
7, 11, 0
18, 28, 0
18, 15, 0
18, 17, 1
25, 27, 0
25, 30, 0
25, 31, 0
25, 29, 0
31, 21, 0
31, 20, 0
31, 25, 0
31, 29, 0
29, 27, 0
29, 25, 0
29, 31, 0
29, 30, 1
21, 20, 1
21, 31, 0
19, 12, 0
19, 13, 0
19, 14, 0
19, 24, 0
19, 16, 0
19, 28, 0
10, 2, 0
10, 30, 0
10, 9, 1
10, 23, 0
10, 1, 0
9, 24, 0
9, 2, 0
9, 10, 1
9, 23, 0
9, 1, 0
