13, 20, 0
13, 3, 0
13, 14, 1
13, 16, 0
13, 6, 0
13, 19, 0
13, 5, 0
13, 18, 0
13, 11, 0
13, 9, 0
17, 16, 1
17, 0, 0
17, 4, 0
17, 3, 0
5, 7, 0
5, 13, 0
5, 16, 0
5, 6, 0
5, 19, 0
5, 8, 0
5, 11, 0
11, 7, 0
11, 13, 0
11, 14, 0
11, 18, 0
11, 6, 0
11, 8, 0
11, 5, 0
1, 21, 0
1, 15, 0
1, 10, 0
20, 3, 0
20, 13, 0
20, 14, 0
20, 9, 0
4, 0, 0
4, 16, 0
4, 17, 0
14, 20, 0
14, 13, 1
14, 18, 0
14, 8, 0
14, 11, 0
14, 9, 0
8, 7, 1
8, 19, 0
8, 14, 0
8, 5, 0
8, 11, 0
15, 21, 0
15, 1, 0
0, 16, 0
0, 4, 0
0, 17, 0
3, 20, 0
3, 16, 0
3, 13, 0
3, 17, 0
3, 6, 0
16, 0, 0
16, 3, 0
16, 13, 0
16, 17, 1
16, 4, 0
16, 6, 0
16, 5, 0
6, 7, 1
6, 3, 0
6, 13, 0
6, 16, 0
6, 5, 0
6, 11, 0
10, 21, 0
10, 12, 0
10, 19, 0
10, 2, 0
10, 1, 0
7, 6, 1
7, 19, 0
7, 8, 1
7, 5, 0
7, 11, 0
12, 19, 0
12, 10, 0
12, 2, 0
2, 12, 0
2, 10, 0
21, 10, 0
21, 15, 0
21, 1, 0
19, 7, 0
19, 12, 0
19, 13, 0
19, 8, 0
19, 5, 0
19, 10, 0
18, 13, 0
18, 14, 0
18, 11, 0
9, 20, 0
9, 13, 0
9, 14, 0
