13, 0, 0
13, 17, 0
13, 8, 0
13, 14, 1
17, 0, 0
17, 3, 0
17, 8, 0
17, 14, 0
17, 13, 0
5, 6, 0
5, 9, 0
5, 2, 0
11, 18, 0
11, 10, 0
1, 20, 0
1, 16, 0
1, 4, 0
1, 12, 0
1, 21, 0
1, 19, 0
1, 15, 0
1, 9, 0
20, 12, 0
20, 4, 0
20, 21, 0
20, 16, 0
20, 19, 0
20, 15, 0
20, 18, 0
20, 1, 0
4, 20, 0
4, 12, 0
4, 18, 0
4, 19, 0
4, 15, 0
4, 1, 0
14, 0, 0
14, 8, 0
14, 17, 0
14, 13, 1
8, 0, 0
8, 14, 0
8, 13, 0
8, 17, 0
15, 20, 0
15, 21, 0
15, 4, 0
15, 12, 0
15, 16, 1
15, 19, 0
15, 1, 0
0, 7, 0
0, 3, 0
0, 13, 0
0, 14, 0
0, 2, 0
0, 6, 0
0, 8, 0
0, 17, 0
3, 0, 0
3, 7, 0
3, 17, 0
3, 2, 0
16, 20, 0
16, 21, 0
16, 19, 0
16, 15, 1
16, 1, 0
6, 0, 0
6, 7, 0
6, 2, 0
6, 21, 0
6, 5, 0
6, 9, 0
10, 18, 0
10, 11, 0
7, 0, 0
7, 3, 0
7, 6, 0
7, 2, 0
12, 20, 0
12, 4, 0
12, 18, 0
12, 19, 0
12, 15, 0
12, 1, 0
2, 0, 0
2, 3, 0
2, 7, 0
2, 6, 0
2, 5, 0
2, 9, 0
21, 20, 0
21, 16, 0
21, 6, 0
21, 19, 0
21, 9, 0
21, 15, 0
21, 1, 0
19, 20, 0
19, 12, 0
19, 4, 0
19, 21, 0
19, 16, 0
19, 15, 0
19, 1, 0
18, 20, 0
18, 12, 0
18, 4, 0
18, 11, 0
18, 10, 0
9, 21, 0
9, 6, 0
9, 2, 0
9, 5, 0
9, 1, 0
