0, 4, 0
0, 5, 0
0, 11, 0
0, 1, 1
13, 12, 1
13, 4, 0
13, 9, 0
13, 2, 0
13, 16, 0
13, 6, 0
13, 8, 0
13, 15, 0
13, 10, 0
3, 7, 0
3, 15, 0
3, 2, 0
3, 14, 0
3, 10, 0
16, 12, 0
16, 13, 0
16, 4, 0
16, 2, 0
16, 6, 0
16, 8, 0
16, 15, 1
16, 9, 0
6, 12, 0
6, 13, 0
6, 4, 0
6, 2, 0
6, 16, 0
6, 8, 0
6, 15, 0
6, 11, 0
8, 12, 0
8, 13, 0
8, 16, 0
8, 6, 0
8, 15, 0
8, 9, 1
5, 0, 0
5, 4, 0
5, 11, 0
5, 1, 0
11, 0, 0
11, 6, 0
11, 4, 0
11, 5, 0
11, 1, 0
10, 12, 0
10, 13, 0
10, 3, 0
10, 2, 0
10, 15, 0
10, 9, 1
7, 3, 0
7, 14, 0
7, 2, 0
12, 13, 1
12, 4, 0
12, 2, 0
12, 16, 0
12, 6, 0
12, 8, 0
12, 15, 0
12, 10, 0
12, 9, 0
4, 0, 0
4, 12, 0
4, 13, 0
4, 2, 0
4, 16, 0
4, 6, 0
4, 9, 0
4, 15, 0
4, 5, 0
4, 11, 0
4, 1, 0
14, 7, 0
14, 3, 0
14, 2, 0
2, 7, 0
2, 12, 0
2, 13, 0
2, 14, 0
2, 4, 0
2, 3, 0
2, 16, 0
2, 6, 0
2, 9, 0
2, 15, 0
2, 10, 0
1, 0, 1
1, 4, 0
1, 5, 0
1, 11, 0
15, 12, 0
15, 13, 0
15, 9, 0
15, 3, 0
15, 4, 0
15, 2, 0
15, 16, 1
15, 6, 0
15, 8, 0
15, 10, 0
9, 12, 0
9, 13, 0
9, 4, 0
9, 2, 0
9, 16, 0
9, 8, 1
9, 15, 0
9, 10, 1
