0, 12, 0
13, 16, 0
13, 8, 0
3, 7, 0
3, 6, 0
3, 9, 0
3, 5, 0
3, 12, 0
16, 13, 0
16, 15, 0
16, 10, 0
6, 7, 1
6, 3, 0
6, 9, 0
8, 13, 0
8, 14, 0
8, 11, 0
8, 1, 0
5, 12, 0
5, 3, 0
11, 8, 0
11, 9, 0
11, 1, 0
10, 16, 0
10, 4, 0
10, 15, 0
10, 2, 0
7, 6, 1
7, 9, 0
7, 3, 0
12, 0, 0
12, 3, 0
12, 5, 0
4, 10, 0
4, 15, 0
4, 2, 0
14, 8, 0
14, 1, 0
2, 4, 0
2, 15, 0
2, 10, 0
1, 8, 0
1, 14, 0
1, 11, 0
15, 16, 0
15, 4, 0
15, 10, 0
15, 2, 0
9, 7, 0
9, 6, 0
9, 11, 0
9, 3, 0
