0, 3, 0
0, 4, 0
3, 0, 0
3, 2, 0
3, 8, 0
3, 4, 1
3, 9, 0
4, 0, 0
4, 3, 1
4, 9, 0
2, 3, 0
2, 8, 0
2, 9, 0
6, 8, 0
6, 5, 0
6, 1, 0
1, 7, 0
1, 6, 0
1, 5, 0
8, 3, 0
8, 6, 0
8, 5, 0
8, 2, 0
5, 7, 0
5, 6, 0
5, 8, 0
5, 1, 0
7, 5, 0
7, 1, 0
9, 3, 0
9, 4, 0
9, 2, 0
