0, 3, 0
0, 4, 0
0, 2, 0
0, 16, 0
0, 1, 1
0, 8, 0
0, 15, 0
0, 5, 0
0, 10, 0
13, 15, 0
13, 14, 0
13, 11, 0
13, 2, 0
3, 0, 0
3, 8, 0
3, 15, 0
3, 1, 0
16, 0, 0
16, 1, 0
16, 4, 0
16, 15, 0
16, 10, 0
6, 7, 0
6, 12, 0
6, 15, 0
6, 14, 0
6, 11, 0
8, 0, 0
8, 3, 0
8, 15, 0
8, 5, 0
5, 0, 0
5, 8, 0
5, 15, 0
5, 2, 0
11, 2, 0
11, 12, 1
11, 13, 0
11, 14, 0
11, 6, 0
10, 0, 0
10, 16, 0
10, 4, 0
10, 15, 0
10, 1, 0
7, 6, 0
7, 9, 0
12, 6, 0
12, 14, 0
12, 11, 1
4, 0, 0
4, 16, 0
4, 2, 0
4, 10, 0
4, 1, 0
14, 12, 0
14, 13, 0
14, 15, 0
14, 11, 0
14, 6, 0
2, 0, 0
2, 4, 0
2, 13, 0
2, 15, 0
2, 5, 0
2, 11, 0
1, 0, 1
1, 3, 0
1, 4, 0
1, 16, 0
1, 15, 0
1, 10, 0
15, 0, 0
15, 13, 0
15, 16, 0
15, 6, 0
15, 1, 0
15, 5, 0
15, 10, 0
15, 3, 0
15, 14, 0
15, 2, 0
15, 8, 0
15, 9, 0
9, 7, 0
9, 15, 0
