12, 4, 0
12, 13, 1
12, 31, 0
12, 16, 0
12, 30, 0
12, 11, 1
12, 10, 1
13, 16, 0
13, 12, 1
13, 4, 0
13, 31, 0
17, 20, 0
17, 0, 0
17, 8, 0
17, 1, 0
17, 26, 0
17, 29, 0
17, 19, 0
17, 2, 0
17, 9, 0
26, 20, 0
26, 0, 0
26, 14, 0
26, 29, 0
26, 17, 0
26, 19, 0
26, 15, 0
23, 20, 0
23, 28, 0
23, 31, 0
23, 24, 1
23, 27, 0
23, 5, 0
23, 22, 0
2, 8, 0
2, 17, 0
2, 9, 0
2, 1, 0
5, 7, 1
5, 20, 0
5, 28, 0
5, 31, 0
5, 23, 0
5, 24, 0
5, 6, 1
5, 30, 0
5, 25, 0
5, 22, 0
5, 27, 0
11, 12, 1
11, 4, 0
11, 31, 0
11, 16, 0
11, 30, 0
11, 10, 1
1, 17, 0
1, 2, 0
1, 18, 0
1, 19, 0
1, 8, 0
1, 9, 0
20, 0, 0
20, 17, 0
20, 31, 0
20, 23, 0
20, 6, 0
20, 5, 0
20, 7, 0
20, 4, 0
20, 25, 0
20, 26, 0
20, 24, 0
20, 28, 0
20, 14, 0
20, 15, 0
4, 20, 0
4, 12, 0
4, 13, 0
4, 31, 0
4, 16, 0
4, 27, 0
4, 30, 0
4, 11, 0
4, 10, 0
14, 20, 0
14, 15, 1
14, 26, 0
24, 20, 0
24, 25, 1
24, 28, 0
24, 31, 0
24, 23, 1
24, 27, 0
24, 5, 0
24, 22, 0
28, 7, 0
28, 20, 0
28, 25, 0
28, 31, 0
28, 23, 0
28, 24, 0
28, 6, 0
28, 5, 0
28, 22, 0
28, 27, 0
30, 12, 0
30, 4, 0
30, 31, 0
30, 16, 0
30, 27, 0
30, 5, 0
30, 11, 0
30, 10, 0
8, 3, 0
8, 17, 0
8, 2, 0
8, 21, 0
8, 1, 0
8, 18, 0
8, 9, 0
15, 20, 0
15, 14, 1
15, 26, 0
22, 28, 0
22, 31, 0
22, 23, 0
22, 24, 0
22, 25, 0
22, 5, 0
22, 27, 0
0, 20, 0
0, 17, 0
0, 26, 0
0, 29, 0
3, 18, 0
3, 8, 0
16, 12, 0
16, 4, 0
16, 13, 0
16, 31, 0
16, 27, 0
16, 10, 0
16, 11, 0
16, 30, 0
6, 7, 1
6, 20, 0
6, 28, 0
6, 5, 1
27, 4, 0
27, 25, 0
27, 31, 0
27, 23, 0
27, 24, 0
27, 16, 0
27, 28, 0
27, 5, 0
27, 22, 0
27, 30, 0
7, 20, 0
7, 6, 1
7, 28, 0
7, 5, 1
18, 3, 0
18, 8, 0
18, 1, 0
25, 20, 0
25, 28, 0
25, 31, 0
25, 24, 1
25, 27, 0
25, 5, 0
25, 22, 0
31, 13, 0
31, 28, 0
31, 23, 0
31, 16, 0
31, 27, 0
31, 5, 0
31, 11, 0
31, 30, 0
31, 20, 0
31, 12, 0
31, 4, 0
31, 25, 0
31, 24, 0
31, 10, 0
31, 22, 0
29, 0, 0
29, 19, 0
29, 17, 0
29, 26, 0
21, 8, 0
21, 9, 0
19, 1, 0
19, 9, 0
19, 17, 0
19, 26, 0
19, 29, 0
10, 12, 1
10, 4, 0
10, 31, 0
10, 16, 0
10, 11, 1
10, 30, 0
9, 17, 0
9, 2, 0
9, 21, 0
9, 19, 0
9, 8, 0
9, 1, 0
