0, 4, 0
0, 2, 0
3, 4, 0
3, 1, 0
4, 0, 0
4, 3, 0
4, 1, 0
7, 6, 1
7, 8, 0
7, 2, 0
2, 0, 0
2, 7, 0
2, 8, 0
2, 5, 0
2, 6, 0
6, 7, 1
6, 8, 0
6, 5, 1
6, 2, 0
8, 7, 0
8, 6, 0
8, 5, 0
8, 2, 0
5, 6, 1
5, 8, 0
5, 2, 0
1, 3, 0
1, 4, 0
