0, 7, 0
0, 13, 0
0, 1, 1
13, 0, 0
13, 3, 0
13, 7, 0
13, 4, 0
13, 1, 0
13, 10, 0
3, 13, 0
3, 4, 0
3, 10, 0
6, 9, 0
8, 7, 0
8, 12, 0
8, 11, 0
8, 2, 0
5, 11, 0
11, 12, 0
11, 8, 0
11, 5, 0
11, 2, 0
10, 7, 0
10, 3, 0
10, 13, 0
10, 4, 0
7, 0, 0
7, 12, 0
7, 13, 0
7, 2, 0
7, 1, 0
7, 8, 0
7, 10, 0
12, 7, 0
12, 8, 0
12, 11, 0
12, 2, 0
4, 3, 0
4, 13, 0
4, 9, 0
4, 10, 0
2, 7, 0
2, 12, 0
2, 8, 0
2, 11, 0
1, 0, 1
1, 7, 0
1, 13, 0
9, 6, 0
9, 4, 0
