0, 7, 0
0, 10, 0
0, 5, 0
0, 1, 0
6, 3, 0
6, 2, 0
6, 10, 0
6, 8, 0
6, 5, 0
6, 9, 0
1, 0, 0
1, 7, 0
1, 5, 0
1, 11, 0
1, 10, 0
5, 0, 0
5, 7, 0
5, 2, 0
5, 6, 0
5, 1, 0
5, 10, 0
5, 9, 0
11, 7, 0
11, 3, 0
11, 4, 0
11, 2, 0
11, 1, 0
11, 10, 0
10, 0, 0
10, 7, 0
10, 9, 0
10, 2, 0
10, 6, 0
10, 8, 0
10, 5, 0
10, 11, 0
10, 1, 0
7, 0, 0
7, 3, 0
7, 4, 0
7, 2, 0
7, 1, 0
7, 5, 0
7, 11, 0
7, 10, 0
3, 7, 0
3, 6, 0
3, 4, 0
3, 11, 0
3, 2, 0
4, 7, 0
4, 3, 0
4, 11, 0
2, 7, 0
2, 3, 0
2, 9, 0
2, 6, 0
2, 8, 0
2, 5, 0
2, 11, 0
2, 10, 0
8, 2, 0
8, 6, 0
8, 10, 0
8, 9, 1
9, 2, 0
9, 6, 0
9, 8, 1
9, 5, 0
9, 10, 0
