13, 7, 0
13, 12, 1
13, 3, 0
13, 24, 0
13, 15, 0
13, 11, 0
13, 10, 0
17, 21, 0
17, 7, 0
17, 19, 0
17, 15, 0
23, 20, 0
23, 4, 0
23, 25, 0
23, 16, 0
23, 6, 0
23, 1, 0
5, 0, 0
5, 18, 0
5, 2, 0
11, 12, 0
11, 13, 0
11, 3, 0
11, 24, 0
11, 15, 0
11, 10, 1
1, 20, 0
1, 25, 0
1, 4, 0
1, 14, 0
1, 23, 0
1, 2, 0
1, 16, 0
1, 6, 0
1, 8, 0
1, 22, 0
1, 9, 0
20, 0, 0
20, 25, 0
20, 4, 0
20, 14, 0
20, 23, 0
20, 16, 0
20, 6, 0
20, 1, 0
20, 9, 0
4, 20, 0
4, 0, 0
4, 25, 0
4, 23, 0
4, 2, 0
4, 1, 0
14, 20, 0
14, 9, 0
14, 2, 0
14, 6, 0
14, 8, 0
14, 22, 0
14, 1, 0
24, 7, 0
24, 12, 0
24, 13, 0
24, 3, 0
24, 15, 0
24, 11, 0
24, 10, 0
8, 6, 0
8, 9, 1
8, 14, 0
8, 1, 0
15, 7, 0
15, 12, 0
15, 16, 0
15, 13, 0
15, 17, 0
15, 22, 0
15, 3, 0
15, 21, 0
15, 24, 0
15, 11, 0
15, 10, 0
22, 7, 0
22, 12, 0
22, 14, 0
22, 2, 0
22, 21, 0
22, 6, 0
22, 9, 0
22, 15, 0
22, 1, 0
0, 20, 0
0, 4, 0
0, 25, 0
0, 2, 0
0, 16, 0
0, 5, 0
3, 7, 0
3, 12, 0
3, 13, 0
3, 24, 0
3, 19, 0
3, 15, 0
3, 11, 0
3, 10, 0
16, 20, 0
16, 0, 0
16, 7, 0
16, 25, 0
16, 23, 0
16, 18, 0
16, 6, 0
16, 15, 0
16, 1, 0
6, 20, 0
6, 7, 0
6, 14, 0
6, 9, 0
6, 23, 0
6, 16, 0
6, 8, 0
6, 22, 0
6, 1, 0
10, 3, 0
10, 13, 0
10, 24, 0
10, 15, 0
10, 11, 1
10, 12, 0
7, 21, 0
7, 3, 0
7, 13, 0
7, 17, 0
7, 24, 0
7, 16, 0
7, 6, 0
7, 19, 0
7, 15, 0
7, 22, 0
12, 3, 0
12, 13, 1
12, 22, 0
12, 24, 0
12, 15, 0
12, 11, 0
12, 10, 0
25, 20, 0
25, 0, 0
25, 4, 0
25, 23, 0
25, 16, 0
25, 1, 0
2, 0, 0
2, 4, 0
2, 14, 0
2, 18, 0
2, 5, 0
2, 22, 0
2, 1, 0
21, 7, 0
21, 15, 0
21, 17, 0
21, 22, 0
19, 7, 0
19, 3, 0
19, 17, 0
18, 16, 0
18, 5, 0
18, 2, 0
9, 20, 0
9, 14, 0
9, 6, 0
9, 8, 1
9, 22, 0
9, 1, 0
