0, 7, 0
0, 12, 0
0, 14, 0
0, 17, 0
0, 1, 1
13, 18, 0
13, 3, 0
13, 4, 0
13, 9, 0
13, 2, 0
17, 0, 0
17, 3, 0
17, 14, 0
17, 12, 0
17, 2, 0
17, 16, 0
17, 19, 0
17, 8, 0
17, 15, 0
17, 5, 0
17, 9, 0
3, 18, 0
3, 13, 0
3, 17, 0
3, 4, 0
3, 2, 0
16, 7, 0
16, 14, 0
16, 17, 0
16, 19, 0
16, 15, 1
16, 5, 0
16, 9, 0
6, 18, 0
6, 4, 0
6, 11, 0
6, 10, 0
8, 19, 0
8, 9, 0
8, 17, 0
8, 2, 0
5, 16, 0
5, 7, 0
5, 19, 0
5, 15, 0
5, 17, 0
11, 18, 0
11, 6, 0
11, 4, 0
11, 10, 0
10, 18, 0
10, 6, 0
10, 11, 0
7, 0, 0
7, 12, 0
7, 14, 0
7, 16, 0
7, 9, 0
7, 15, 0
7, 5, 0
7, 1, 0
12, 0, 0
12, 7, 0
12, 17, 0
12, 1, 0
4, 3, 0
4, 13, 0
4, 18, 0
4, 6, 0
4, 11, 0
4, 9, 0
14, 0, 0
14, 7, 0
14, 17, 0
14, 16, 0
14, 15, 0
14, 1, 0
2, 3, 0
2, 8, 0
2, 13, 0
2, 17, 0
2, 9, 0
19, 16, 0
19, 8, 0
19, 17, 0
19, 5, 0
19, 9, 0
1, 0, 1
1, 12, 0
1, 7, 0
1, 14, 0
15, 16, 1
15, 7, 0
15, 14, 0
15, 5, 0
15, 17, 0
18, 3, 0
18, 13, 0
18, 4, 0
18, 6, 0
18, 11, 0
18, 10, 0
9, 7, 0
9, 13, 0
9, 17, 0
9, 4, 0
9, 2, 0
9, 16, 0
9, 19, 0
9, 8, 0
