13, 7, 0
13, 14, 1
13, 32, 0
13, 35, 0
13, 42, 0
13, 2, 0
13, 40, 0
17, 20, 0
17, 45, 0
17, 28, 0
17, 29, 0
17, 42, 0
17, 46, 0
23, 12, 0
23, 4, 0
23, 15, 0
23, 31, 0
23, 6, 0
42, 45, 0
42, 13, 0
42, 17, 0
42, 27, 0
42, 46, 0
42, 5, 0
42, 7, 0
42, 3, 0
42, 9, 0
42, 2, 0
42, 37, 0
42, 20, 0
42, 8, 0
42, 19, 0
42, 30, 0
46, 17, 0
46, 29, 0
46, 16, 0
46, 42, 0
46, 19, 0
46, 8, 0
20, 42, 0
20, 29, 0
20, 17, 0
20, 28, 0
20, 24, 0
14, 13, 1
14, 40, 0
14, 35, 0
24, 20, 0
24, 30, 0
28, 20, 0
28, 17, 0
28, 29, 1
39, 18, 0
39, 36, 0
41, 33, 0
41, 19, 0
41, 44, 0
41, 9, 0
0, 45, 0
0, 4, 0
0, 11, 0
0, 31, 0
0, 12, 0
0, 6, 0
0, 22, 0
0, 27, 0
8, 29, 0
8, 16, 0
8, 42, 0
8, 19, 0
8, 46, 0
8, 10, 0
12, 0, 0
12, 6, 0
12, 4, 0
12, 31, 0
12, 23, 0
15, 6, 0
15, 4, 0
15, 31, 0
15, 23, 0
10, 8, 0
10, 5, 0
7, 3, 0
7, 13, 0
7, 26, 0
7, 35, 0
7, 37, 0
7, 42, 0
3, 7, 0
3, 42, 0
3, 25, 0
3, 26, 0
3, 30, 0
32, 13, 0
32, 40, 0
32, 2, 0
2, 42, 0
2, 13, 0
2, 38, 0
2, 32, 0
2, 45, 0
21, 34, 0
21, 45, 0
21, 27, 0
21, 1, 0
33, 41, 0
33, 19, 0
33, 44, 0
33, 9, 0
19, 41, 0
19, 33, 0
19, 46, 0
19, 42, 0
19, 8, 0
19, 5, 0
19, 9, 0
18, 45, 0
18, 27, 0
18, 38, 0
18, 39, 0
18, 36, 0
31, 0, 0
31, 12, 0
31, 15, 0
31, 23, 0
31, 6, 0
29, 20, 0
29, 28, 1
29, 17, 0
29, 8, 0
29, 46, 0
29, 44, 0
40, 13, 0
40, 14, 0
40, 32, 0
11, 0, 0
11, 45, 0
11, 4, 0
11, 22, 0
5, 43, 0
5, 42, 0
5, 19, 0
5, 9, 0
5, 44, 0
5, 10, 0
37, 7, 0
37, 42, 0
37, 25, 0
37, 26, 0
4, 0, 0
4, 12, 0
4, 22, 0
4, 23, 0
4, 6, 0
4, 15, 0
4, 11, 0
35, 7, 0
35, 13, 0
35, 14, 0
30, 42, 0
30, 3, 0
30, 24, 0
38, 18, 0
38, 2, 0
22, 0, 0
22, 34, 0
22, 4, 0
22, 45, 0
22, 27, 0
22, 11, 0
36, 18, 0
36, 45, 0
36, 39, 0
36, 27, 0
36, 1, 0
45, 0, 0
45, 18, 0
45, 17, 0
45, 11, 0
45, 27, 0
45, 21, 0
45, 42, 0
45, 2, 0
45, 22, 0
45, 36, 0
16, 8, 0
16, 46, 0
27, 0, 0
27, 34, 0
27, 45, 0
27, 21, 0
27, 42, 0
27, 18, 0
27, 22, 0
27, 36, 0
1, 21, 0
1, 36, 0
44, 41, 0
44, 33, 0
44, 43, 1
44, 29, 0
44, 5, 0
44, 9, 0
34, 21, 0
34, 27, 0
34, 22, 0
25, 37, 0
25, 3, 0
25, 26, 1
26, 37, 0
26, 3, 0
26, 7, 0
26, 25, 1
6, 0, 0
6, 12, 0
6, 4, 0
6, 31, 0
6, 23, 0
6, 15, 0
43, 9, 0
43, 44, 1
43, 5, 0
9, 33, 0
9, 43, 0
9, 44, 0
9, 42, 0
9, 19, 0
9, 5, 0
9, 41, 0
