0, 7, 0
0, 6, 0
0, 4, 0
0, 5, 0
8, 12, 0
8, 3, 0
3, 12, 0
3, 8, 0
3, 1, 0
6, 0, 0
6, 4, 0
6, 2, 0
6, 1, 0
6, 9, 0
6, 5, 0
6, 10, 0
5, 0, 0
5, 6, 0
5, 4, 1
11, 7, 0
10, 6, 0
10, 1, 0
10, 9, 1
10, 2, 0
7, 0, 0
7, 11, 0
12, 3, 0
12, 8, 0
4, 0, 0
4, 6, 0
4, 5, 1
2, 6, 0
2, 9, 0
2, 10, 0
2, 1, 0
1, 2, 0
1, 6, 0
1, 9, 0
1, 10, 0
1, 3, 0
9, 6, 0
9, 1, 0
9, 10, 1
9, 2, 0
