0, 20, 0
0, 12, 0
0, 6, 0
0, 19, 0
0, 15, 0
0, 1, 1
7, 18, 0
7, 6, 0
7, 13, 0
13, 7, 0
13, 18, 0
17, 6, 0
17, 8, 0
3, 16, 0
3, 4, 1
3, 11, 0
16, 3, 0
16, 4, 0
16, 11, 0
16, 9, 0
6, 0, 0
6, 7, 0
6, 17, 0
8, 20, 0
8, 17, 0
5, 10, 0
11, 16, 0
11, 3, 0
11, 4, 0
11, 2, 0
10, 5, 0
10, 9, 0
20, 0, 0
20, 12, 0
20, 19, 0
20, 8, 0
20, 15, 0
20, 1, 0
12, 0, 0
12, 20, 0
12, 14, 0
12, 19, 0
12, 15, 0
12, 1, 0
4, 16, 0
4, 3, 1
4, 14, 0
4, 11, 0
14, 12, 0
14, 4, 0
14, 2, 0
2, 14, 0
2, 11, 0
19, 0, 0
19, 20, 0
19, 12, 0
19, 15, 0
19, 1, 0
1, 0, 1
1, 20, 0
1, 19, 0
1, 15, 0
1, 12, 0
15, 0, 0
15, 20, 0
15, 19, 0
15, 1, 0
15, 12, 0
18, 7, 0
18, 13, 0
9, 16, 0
9, 10, 0
