13, 7, 0
13, 2, 0
13, 14, 1
13, 23, 0
13, 24, 0
13, 6, 0
13, 29, 0
13, 22, 0
17, 7, 0
17, 20, 0
17, 25, 0
17, 18, 0
17, 27, 0
17, 19, 0
17, 9, 0
17, 10, 0
31, 0, 0
31, 12, 0
31, 3, 0
31, 26, 0
31, 2, 0
31, 1, 0
23, 7, 0
23, 13, 0
23, 14, 0
23, 24, 0
23, 6, 0
23, 22, 1
10, 25, 0
10, 11, 1
10, 32, 0
10, 27, 0
10, 8, 0
10, 17, 0
10, 9, 0
2, 7, 0
2, 12, 0
2, 13, 0
2, 14, 0
2, 26, 0
2, 31, 0
2, 3, 0
2, 16, 0
2, 30, 0
2, 1, 1
5, 0, 0
5, 21, 0
5, 4, 1
5, 28, 0
5, 26, 0
5, 16, 0
5, 15, 0
5, 30, 0
11, 25, 0
11, 32, 0
11, 27, 0
11, 8, 0
11, 10, 1
11, 9, 0
1, 12, 0
1, 3, 0
1, 26, 0
1, 31, 0
1, 2, 1
20, 7, 0
20, 27, 0
20, 19, 0
20, 17, 0
20, 9, 0
4, 0, 0
4, 16, 0
4, 28, 0
4, 26, 0
4, 21, 0
4, 15, 0
4, 5, 1
4, 30, 0
14, 7, 0
14, 3, 0
14, 13, 1
14, 23, 0
14, 29, 0
14, 2, 0
14, 27, 0
14, 8, 0
14, 24, 0
14, 22, 0
24, 7, 0
24, 3, 0
24, 13, 0
24, 14, 0
24, 23, 0
24, 29, 0
24, 6, 0
24, 22, 0
28, 0, 0
28, 16, 0
28, 4, 0
28, 26, 0
28, 21, 0
28, 15, 0
28, 5, 0
28, 30, 0
30, 0, 0
30, 21, 0
30, 4, 0
30, 28, 0
30, 26, 0
30, 2, 0
30, 16, 0
30, 15, 0
30, 5, 0
8, 14, 0
8, 32, 0
8, 27, 0
8, 18, 0
8, 25, 0
8, 11, 0
8, 10, 0
15, 0, 0
15, 21, 0
15, 4, 0
15, 28, 0
15, 16, 1
15, 5, 0
15, 30, 0
22, 7, 0
22, 13, 0
22, 14, 0
22, 23, 1
22, 24, 0
22, 6, 0
0, 28, 0
0, 26, 0
0, 18, 0
0, 6, 0
0, 5, 0
0, 30, 0
0, 7, 0
0, 3, 0
0, 4, 0
0, 25, 0
0, 31, 0
0, 21, 0
0, 15, 0
12, 3, 0
12, 2, 0
12, 26, 0
12, 31, 0
12, 1, 0
16, 4, 0
16, 28, 0
16, 2, 0
16, 21, 0
16, 15, 1
16, 5, 0
16, 30, 0
6, 0, 0
6, 7, 0
6, 13, 0
6, 23, 0
6, 24, 0
6, 22, 0
27, 20, 0
27, 14, 0
27, 17, 0
27, 19, 0
27, 8, 0
27, 10, 0
27, 11, 0
27, 9, 0
7, 0, 0
7, 13, 0
7, 17, 0
7, 23, 0
7, 6, 0
7, 2, 0
7, 20, 0
7, 14, 0
7, 24, 0
7, 19, 0
7, 22, 0
7, 9, 0
3, 0, 0
3, 12, 0
3, 14, 0
3, 31, 0
3, 24, 0
3, 2, 0
3, 29, 0
3, 1, 0
25, 0, 0
25, 17, 0
25, 9, 0
25, 32, 0
25, 18, 0
25, 8, 0
25, 11, 0
25, 10, 0
32, 18, 0
32, 8, 0
32, 25, 0
32, 11, 0
32, 10, 0
29, 3, 0
29, 13, 0
29, 14, 0
29, 24, 0
21, 0, 0
21, 4, 0
21, 28, 0
21, 26, 0
21, 16, 0
21, 15, 0
21, 5, 0
21, 30, 0
26, 0, 0
26, 12, 0
26, 4, 0
26, 28, 0
26, 31, 0
26, 2, 0
26, 21, 0
26, 1, 0
26, 5, 0
26, 30, 0
19, 20, 0
19, 27, 0
19, 7, 0
19, 17, 0
19, 9, 0
18, 0, 0
18, 25, 0
18, 32, 0
18, 17, 0
18, 8, 0
18, 9, 0
9, 20, 0
9, 7, 0
9, 17, 0
9, 18, 0
9, 27, 0
9, 19, 0
9, 25, 0
9, 11, 0
9, 10, 0
