0, 18, 0
0, 16, 0
0, 19, 0
0, 4, 0
7, 6, 1
7, 14, 0
7, 10, 0
13, 17, 0
13, 2, 0
17, 8, 0
17, 13, 0
3, 16, 0
3, 14, 0
3, 10, 0
16, 0, 0
16, 3, 0
16, 19, 0
16, 18, 0
6, 7, 1
6, 14, 0
6, 5, 1
6, 10, 0
8, 17, 0
5, 6, 1
5, 14, 0
11, 20, 0
11, 1, 0
11, 15, 0
11, 9, 0
10, 7, 0
10, 6, 0
10, 14, 0
10, 3, 0
20, 15, 0
20, 11, 0
12, 1, 0
12, 2, 0
4, 0, 0
4, 18, 0
4, 19, 0
4, 15, 0
14, 7, 0
14, 6, 0
14, 3, 0
14, 5, 0
14, 10, 0
2, 12, 0
2, 13, 0
19, 0, 0
19, 16, 0
19, 4, 0
19, 18, 1
1, 12, 0
1, 11, 0
1, 9, 0
15, 20, 0
15, 4, 0
15, 11, 0
18, 0, 0
18, 16, 0
18, 19, 1
18, 4, 0
9, 11, 0
9, 1, 0
