0, 3, 0
0, 9, 0
3, 0, 0
4, 7, 0
4, 8, 0
4, 5, 0
4, 9, 0
2, 5, 0
2, 1, 0
6, 1, 0
1, 6, 0
1, 5, 0
1, 2, 0
8, 7, 1
8, 4, 0
8, 5, 0
5, 7, 0
5, 1, 0
5, 8, 0
5, 4, 0
5, 2, 0
7, 8, 1
7, 5, 0
7, 4, 0
9, 0, 0
9, 4, 0
