13, 34, 0
13, 32, 0
13, 24, 0
13, 27, 0
13, 11, 0
13, 12, 0
17, 6, 0
17, 44, 0
17, 31, 0
17, 36, 0
23, 19, 0
23, 35, 0
23, 44, 0
23, 1, 0
42, 33, 0
42, 25, 0
42, 26, 0
42, 21, 0
42, 8, 0
42, 39, 0
42, 18, 0
42, 44, 0
5, 33, 0
5, 28, 0
5, 26, 0
5, 45, 0
5, 18, 0
5, 39, 0
20, 7, 0
20, 14, 0
20, 35, 0
20, 16, 0
20, 6, 0
20, 36, 0
20, 8, 0
20, 15, 0
20, 44, 0
20, 10, 0
14, 20, 0
14, 7, 0
14, 35, 0
14, 16, 1
14, 6, 0
14, 15, 1
14, 10, 0
24, 0, 0
24, 34, 0
24, 13, 0
24, 28, 0
24, 32, 0
24, 12, 0
24, 27, 0
24, 29, 0
24, 11, 0
24, 30, 0
28, 0, 0
28, 45, 0
28, 38, 0
28, 34, 0
28, 18, 0
28, 27, 0
28, 24, 0
28, 5, 0
28, 30, 0
28, 12, 0
28, 29, 0
28, 33, 0
28, 19, 0
28, 39, 0
39, 33, 0
39, 28, 0
39, 26, 0
39, 45, 0
39, 18, 0
39, 42, 0
39, 5, 0
39, 44, 0
41, 6, 0
41, 43, 0
0, 24, 0
0, 34, 0
0, 28, 0
0, 12, 0
0, 29, 0
0, 11, 0
0, 30, 0
8, 20, 0
8, 7, 0
8, 6, 0
8, 21, 0
8, 42, 0
8, 10, 0
12, 0, 0
12, 34, 0
12, 13, 0
12, 28, 0
12, 32, 0
12, 24, 0
12, 27, 0
12, 11, 0
12, 30, 0
15, 18, 0
15, 6, 0
15, 40, 0
15, 44, 0
15, 10, 0
15, 20, 0
15, 25, 0
15, 35, 0
15, 21, 0
15, 14, 1
15, 19, 0
15, 36, 0
10, 6, 0
10, 2, 0
10, 40, 0
10, 44, 0
10, 20, 0
10, 25, 0
10, 35, 0
10, 21, 0
10, 14, 0
10, 8, 0
10, 15, 0
10, 36, 0
7, 20, 0
7, 43, 0
7, 14, 0
7, 16, 0
7, 6, 0
7, 8, 0
3, 21, 0
3, 44, 0
3, 26, 0
32, 34, 0
32, 29, 0
32, 13, 0
32, 12, 0
32, 27, 0
32, 24, 0
32, 11, 0
32, 30, 0
2, 40, 0
2, 6, 0
2, 36, 0
2, 25, 0
2, 10, 0
21, 3, 0
21, 4, 0
21, 25, 0
21, 35, 0
21, 6, 0
21, 42, 0
21, 8, 0
21, 15, 0
21, 44, 0
21, 10, 0
21, 36, 0
33, 45, 0
33, 28, 0
33, 26, 0
33, 18, 0
33, 42, 0
33, 19, 0
33, 38, 0
33, 5, 0
33, 39, 0
19, 33, 0
19, 28, 0
19, 23, 0
19, 45, 0
19, 18, 0
19, 38, 0
19, 36, 0
19, 15, 0
19, 44, 0
19, 1, 0
18, 45, 0
18, 28, 0
18, 39, 0
18, 6, 0
18, 15, 0
18, 40, 0
18, 5, 0
18, 44, 0
18, 33, 0
18, 26, 0
18, 35, 0
18, 42, 0
18, 19, 0
18, 1, 0
18, 38, 0
18, 36, 0
31, 6, 0
31, 17, 0
31, 22, 0
29, 0, 0
29, 28, 0
29, 32, 0
29, 24, 0
29, 27, 0
29, 11, 0
29, 30, 0
40, 35, 0
40, 4, 0
40, 2, 0
40, 18, 0
40, 6, 0
40, 1, 0
40, 36, 0
40, 15, 0
40, 44, 0
40, 10, 0
40, 9, 0
11, 0, 0
11, 12, 0
11, 13, 0
11, 32, 0
11, 29, 0
11, 27, 0
11, 34, 0
11, 24, 0
1, 25, 0
1, 23, 0
1, 35, 0
1, 18, 0
1, 19, 0
1, 40, 0
1, 44, 0
1, 9, 0
37, 6, 0
37, 4, 0
37, 22, 0
4, 21, 0
4, 35, 0
4, 37, 0
4, 6, 0
4, 40, 0
4, 44, 0
4, 22, 0
4, 36, 0
35, 23, 0
35, 18, 0
35, 6, 0
35, 40, 0
35, 44, 0
35, 10, 0
35, 20, 0
35, 4, 0
35, 25, 0
35, 26, 0
35, 21, 0
35, 14, 0
35, 1, 0
35, 15, 0
35, 36, 1
30, 0, 0
30, 12, 0
30, 28, 0
30, 32, 0
30, 29, 0
30, 27, 0
30, 24, 0
38, 18, 0
38, 33, 0
38, 19, 0
38, 28, 0
38, 45, 0
22, 37, 0
22, 6, 0
22, 4, 0
22, 31, 0
36, 17, 0
36, 18, 0
36, 6, 0
36, 35, 1
36, 40, 0
36, 44, 0
36, 10, 0
36, 20, 0
36, 4, 0
36, 25, 0
36, 2, 0
36, 21, 0
36, 19, 0
36, 15, 0
45, 33, 0
45, 28, 0
45, 26, 0
45, 18, 0
45, 39, 0
45, 19, 0
45, 38, 0
45, 5, 0
16, 20, 0
16, 6, 0
16, 7, 0
16, 14, 1
27, 12, 0
27, 13, 0
27, 28, 0
27, 32, 0
27, 24, 0
27, 34, 0
27, 29, 0
27, 11, 0
27, 30, 0
44, 17, 0
44, 23, 0
44, 18, 0
44, 6, 0
44, 15, 0
44, 40, 0
44, 1, 0
44, 20, 0
44, 3, 0
44, 4, 0
44, 25, 0
44, 9, 0
44, 26, 0
44, 35, 0
44, 21, 0
44, 42, 0
44, 19, 0
44, 10, 0
44, 39, 0
44, 36, 0
34, 0, 0
34, 12, 0
34, 13, 0
34, 28, 0
34, 32, 0
34, 24, 0
34, 27, 0
34, 11, 0
25, 2, 0
25, 42, 0
25, 21, 0
25, 6, 0
25, 36, 0
25, 35, 0
25, 15, 0
25, 44, 0
25, 10, 0
25, 1, 0
26, 33, 0
26, 45, 0
26, 3, 0
26, 18, 0
26, 42, 0
26, 35, 0
26, 39, 0
26, 44, 0
26, 5, 0
6, 17, 0
6, 40, 0
6, 20, 0
6, 37, 0
6, 4, 0
6, 14, 0
6, 35, 0
6, 8, 0
6, 15, 0
6, 41, 0
6, 22, 0
6, 36, 0
6, 16, 0
6, 44, 0
6, 10, 0
6, 7, 0
6, 18, 0
6, 25, 0
6, 31, 0
6, 2, 0
6, 21, 0
6, 43, 0
43, 7, 0
43, 6, 0
43, 41, 0
9, 40, 0
9, 44, 0
9, 1, 0
