13, 7, 0
13, 3, 0
13, 1, 0
17, 21, 0
17, 3, 0
17, 25, 0
17, 24, 0
23, 20, 0
23, 18, 0
23, 6, 0
23, 19, 0
23, 15, 0
23, 11, 0
5, 4, 1
5, 8, 0
5, 26, 0
11, 20, 0
11, 18, 0
11, 23, 0
11, 24, 0
11, 21, 0
11, 6, 0
11, 19, 0
11, 15, 0
1, 7, 0
1, 16, 0
1, 13, 0
1, 26, 0
20, 6, 0
20, 19, 1
20, 15, 0
20, 11, 0
20, 23, 0
4, 16, 0
4, 8, 0
4, 5, 1
4, 26, 0
14, 6, 0
14, 9, 0
14, 10, 0
24, 21, 0
24, 17, 0
24, 11, 0
8, 16, 0
8, 4, 0
8, 5, 0
8, 26, 0
8, 2, 0
15, 20, 0
15, 23, 0
15, 18, 0
15, 6, 0
15, 19, 0
15, 11, 0
22, 0, 0
22, 12, 0
22, 2, 0
0, 12, 0
0, 22, 0
3, 25, 0
3, 13, 0
3, 17, 0
16, 4, 0
16, 8, 0
16, 26, 0
16, 1, 0
6, 20, 0
6, 14, 0
6, 23, 0
6, 18, 0
6, 19, 0
6, 10, 0
6, 15, 0
6, 11, 0
6, 9, 0
10, 6, 0
10, 14, 0
10, 9, 0
7, 13, 0
7, 1, 0
12, 0, 0
12, 22, 0
25, 3, 0
25, 17, 0
26, 16, 0
26, 8, 0
26, 5, 0
26, 4, 0
26, 1, 0
2, 8, 0
2, 22, 0
21, 17, 0
21, 11, 0
21, 24, 0
19, 20, 1
19, 23, 0
19, 18, 1
19, 6, 0
19, 15, 0
19, 11, 0
18, 6, 0
18, 19, 1
18, 15, 0
18, 11, 0
18, 23, 0
9, 6, 0
9, 14, 0
9, 10, 0
