13, 0, 0
13, 6, 0
13, 19, 0
13, 8, 0
13, 29, 0
17, 16, 1
17, 21, 0
17, 27, 0
31, 20, 0
31, 26, 0
31, 1, 0
23, 24, 0
23, 10, 0
10, 3, 0
10, 4, 0
10, 11, 1
10, 23, 0
2, 20, 0
2, 1, 1
5, 14, 0
5, 28, 0
11, 3, 0
11, 4, 0
11, 10, 1
1, 20, 0
1, 26, 0
1, 31, 0
1, 2, 1
20, 7, 0
20, 2, 0
20, 31, 0
20, 1, 0
4, 3, 1
4, 25, 0
4, 11, 0
4, 10, 0
14, 5, 0
14, 30, 0
24, 22, 0
24, 23, 0
28, 27, 0
28, 5, 0
30, 14, 0
30, 9, 0
8, 13, 0
8, 29, 0
8, 18, 0
8, 19, 0
8, 15, 0
8, 9, 0
15, 18, 0
15, 19, 0
15, 8, 0
15, 9, 0
22, 0, 0
22, 6, 0
22, 24, 0
0, 6, 0
0, 13, 0
0, 22, 0
12, 26, 0
12, 32, 0
16, 21, 0
16, 27, 0
16, 17, 1
6, 0, 0
6, 13, 0
6, 22, 0
27, 16, 0
27, 28, 0
27, 17, 0
27, 21, 0
7, 20, 0
3, 4, 1
3, 25, 0
3, 11, 0
3, 10, 0
25, 3, 0
25, 4, 0
32, 21, 0
32, 12, 0
29, 18, 0
29, 8, 0
29, 13, 0
21, 16, 0
21, 27, 0
21, 17, 0
21, 32, 0
26, 12, 0
26, 31, 0
26, 1, 0
19, 18, 1
19, 15, 0
19, 8, 0
19, 13, 0
19, 9, 0
18, 29, 0
18, 19, 1
18, 8, 0
18, 15, 0
18, 9, 0
9, 18, 0
9, 19, 0
9, 8, 0
9, 15, 0
9, 30, 0
