0, 9, 0
0, 5, 0
0, 10, 0
6, 7, 0
6, 3, 0
6, 4, 0
6, 9, 0
6, 1, 0
1, 6, 0
1, 4, 0
1, 3, 0
1, 9, 0
5, 0, 0
5, 10, 0
5, 9, 0
11, 7, 0
10, 0, 0
10, 3, 0
10, 8, 0
10, 5, 0
10, 9, 0
7, 6, 0
7, 11, 0
3, 6, 0
3, 9, 0
3, 10, 0
3, 4, 0
3, 1, 0
4, 6, 0
4, 9, 0
4, 3, 0
4, 1, 0
2, 8, 0
8, 2, 0
8, 10, 0
9, 0, 0
9, 3, 0
9, 4, 0
9, 6, 0
9, 1, 0
9, 5, 0
9, 10, 0
