0, 7, 0
0, 8, 0
0, 9, 0
0, 1, 0
13, 16, 0
13, 15, 0
13, 2, 0
13, 14, 0
13, 10, 0
3, 6, 0
3, 4, 1
3, 2, 0
16, 13, 0
16, 14, 0
16, 4, 0
16, 2, 0
16, 6, 0
16, 15, 0
16, 5, 0
16, 10, 0
6, 3, 0
6, 4, 0
6, 2, 0
6, 16, 0
6, 5, 0
6, 11, 0
8, 7, 1
8, 12, 0
8, 9, 1
8, 0, 0
8, 1, 0
5, 4, 1
5, 2, 0
5, 16, 0
5, 6, 0
5, 15, 0
5, 11, 0
11, 12, 0
11, 5, 0
11, 6, 0
10, 16, 0
10, 15, 0
10, 13, 0
10, 14, 0
10, 2, 0
7, 0, 0
7, 12, 0
7, 8, 1
7, 1, 0
12, 7, 0
12, 1, 0
12, 8, 0
12, 11, 0
12, 9, 0
4, 16, 0
4, 6, 0
4, 2, 0
4, 5, 1
4, 3, 1
14, 16, 0
14, 2, 0
14, 13, 0
14, 15, 1
14, 10, 0
2, 3, 0
2, 4, 0
2, 14, 0
2, 16, 0
2, 6, 0
2, 13, 0
2, 15, 0
2, 5, 0
2, 10, 0
1, 0, 0
1, 12, 0
1, 8, 0
1, 7, 0
1, 9, 0
15, 13, 0
15, 14, 1
15, 2, 0
15, 16, 0
15, 5, 0
15, 10, 0
9, 0, 0
9, 12, 0
9, 8, 1
9, 1, 0
