0, 7, 0
0, 3, 0
0, 4, 0
0, 2, 0
0, 10, 0
0, 8, 0
0, 5, 0
0, 9, 0
3, 0, 0
3, 7, 0
3, 4, 1
3, 2, 1
3, 8, 0
3, 10, 0
3, 9, 0
4, 0, 0
4, 3, 1
4, 7, 0
4, 8, 0
4, 10, 0
4, 9, 0
2, 0, 0
2, 3, 1
2, 7, 0
2, 8, 0
2, 10, 0
2, 9, 0
6, 5, 0
6, 1, 0
1, 6, 0
1, 5, 0
8, 0, 0
8, 3, 0
8, 4, 0
8, 2, 0
8, 7, 0
8, 10, 0
5, 0, 0
5, 6, 0
5, 1, 0
5, 9, 0
7, 0, 0
7, 3, 0
7, 4, 0
7, 2, 0
7, 8, 0
7, 9, 0
10, 0, 0
10, 3, 0
10, 8, 0
10, 4, 0
10, 2, 0
9, 0, 0
9, 3, 0
9, 4, 0
9, 2, 0
9, 7, 0
9, 5, 0
