0, 13, 0
0, 6, 0
0, 8, 0
0, 14, 0
0, 11, 0
13, 0, 0
13, 7, 0
13, 14, 0
13, 2, 0
13, 16, 0
13, 6, 0
13, 18, 0
13, 11, 0
13, 1, 0
17, 12, 0
17, 2, 0
17, 16, 0
17, 19, 0
17, 15, 0
17, 18, 0
3, 7, 0
3, 2, 0
3, 1, 0
16, 13, 0
16, 17, 0
16, 18, 0
16, 6, 0
16, 5, 0
16, 11, 0
16, 10, 0
16, 14, 0
16, 2, 0
16, 19, 0
16, 15, 0
16, 9, 0
6, 0, 0
6, 13, 0
6, 16, 0
6, 11, 0
6, 10, 0
6, 7, 0
6, 18, 0
6, 4, 0
6, 14, 0
6, 2, 0
6, 8, 0
6, 9, 0
8, 0, 0
8, 6, 0
8, 11, 0
5, 14, 0
5, 16, 0
5, 19, 0
5, 9, 0
5, 15, 0
5, 11, 0
5, 10, 0
11, 0, 0
11, 13, 0
11, 16, 0
11, 6, 0
11, 5, 0
11, 10, 0
11, 18, 0
11, 4, 0
11, 14, 0
11, 19, 0
11, 8, 0
11, 9, 0
10, 4, 0
10, 14, 0
10, 16, 0
10, 6, 0
10, 5, 0
10, 11, 0
10, 9, 1
7, 3, 0
7, 13, 0
7, 2, 0
7, 18, 0
7, 6, 0
7, 1, 0
12, 17, 0
12, 2, 0
12, 18, 0
12, 19, 0
12, 15, 0
12, 1, 0
4, 6, 0
4, 9, 0
4, 14, 0
4, 11, 0
4, 10, 0
14, 0, 0
14, 4, 0
14, 13, 0
14, 16, 0
14, 6, 0
14, 9, 0
14, 5, 0
14, 11, 0
14, 10, 0
2, 7, 0
2, 12, 0
2, 13, 0
2, 17, 0
2, 3, 0
2, 16, 0
2, 6, 0
2, 15, 0
2, 18, 0
2, 1, 0
19, 12, 0
19, 17, 0
19, 16, 0
19, 15, 0
19, 18, 0
19, 11, 0
19, 5, 0
1, 7, 0
1, 12, 0
1, 13, 0
1, 3, 0
1, 18, 0
1, 2, 0
1, 15, 0
15, 12, 0
15, 17, 0
15, 2, 0
15, 16, 0
15, 19, 0
15, 5, 0
15, 1, 0
18, 7, 0
18, 12, 0
18, 13, 0
18, 17, 0
18, 2, 0
18, 16, 0
18, 6, 0
18, 19, 0
18, 11, 0
18, 1, 0
9, 4, 0
9, 14, 0
9, 16, 0
9, 6, 0
9, 5, 0
9, 11, 0
9, 10, 1
