13, 0, 0
13, 12, 1
13, 28, 0
13, 3, 0
13, 2, 0
13, 9, 0
13, 25, 0
13, 8, 0
13, 40, 0
13, 1, 0
17, 21, 0
17, 25, 0
17, 35, 0
17, 16, 1
17, 6, 0
17, 36, 0
23, 33, 0
23, 8, 0
42, 4, 0
42, 43, 1
42, 18, 0
42, 28, 0
42, 19, 0
42, 8, 0
42, 41, 0
42, 5, 0
5, 0, 0
5, 3, 0
5, 4, 0
5, 26, 0
5, 37, 0
5, 42, 0
5, 8, 0
5, 41, 0
20, 14, 0
20, 22, 0
14, 20, 0
14, 3, 0
14, 25, 0
14, 29, 0
14, 22, 0
14, 30, 0
24, 0, 0
24, 3, 0
24, 25, 1
24, 39, 0
24, 15, 0
24, 40, 0
28, 0, 0
28, 13, 0
28, 18, 0
28, 27, 1
28, 1, 0
28, 3, 0
28, 4, 0
28, 42, 0
28, 19, 0
28, 8, 0
28, 41, 0
28, 9, 0
39, 0, 0
39, 3, 0
39, 4, 0
39, 25, 0
39, 2, 0
39, 15, 0
39, 27, 0
39, 19, 0
39, 24, 0
39, 40, 1
39, 1, 0
41, 4, 0
41, 28, 0
41, 42, 0
41, 18, 0
41, 43, 0
41, 19, 0
41, 8, 0
41, 5, 0
0, 13, 0
0, 28, 0
0, 12, 0
0, 27, 0
0, 15, 0
0, 2, 0
0, 40, 0
0, 5, 0
0, 1, 0
0, 3, 0
0, 4, 0
0, 25, 0
0, 26, 0
0, 24, 0
0, 37, 0
0, 19, 0
0, 8, 0
0, 39, 0
0, 9, 0
8, 0, 0
8, 13, 0
8, 28, 0
8, 23, 0
8, 33, 0
8, 18, 0
8, 27, 0
8, 5, 0
8, 3, 0
8, 4, 0
8, 43, 0
8, 42, 0
8, 19, 0
8, 38, 0
8, 41, 0
12, 0, 0
12, 13, 1
12, 25, 0
12, 2, 0
12, 9, 0
12, 1, 0
15, 0, 0
15, 3, 0
15, 25, 0
15, 9, 0
15, 2, 0
15, 40, 0
15, 24, 0
15, 39, 0
15, 1, 0
10, 7, 0
10, 3, 0
10, 31, 0
10, 32, 0
10, 6, 0
10, 11, 0
7, 11, 0
7, 31, 0
7, 10, 0
3, 0, 0
3, 2, 0
3, 13, 0
3, 28, 0
3, 15, 0
3, 27, 0
3, 8, 0
3, 24, 0
3, 40, 0
3, 5, 0
3, 30, 0
3, 4, 0
3, 25, 0
3, 29, 0
3, 37, 0
3, 14, 0
3, 19, 0
3, 1, 0
3, 39, 0
3, 10, 0
32, 11, 0
32, 31, 0
32, 10, 0
2, 0, 0
2, 13, 0
2, 39, 0
2, 3, 0
2, 27, 0
2, 40, 0
2, 1, 1
2, 12, 0
2, 4, 0
2, 25, 0
2, 19, 0
2, 15, 0
2, 9, 0
21, 34, 0
21, 25, 0
21, 35, 0
21, 16, 0
21, 6, 0
21, 17, 0
21, 36, 0
33, 8, 0
33, 38, 0
33, 23, 0
19, 0, 0
19, 28, 0
19, 18, 1
19, 27, 0
19, 1, 0
19, 3, 0
19, 4, 0
19, 43, 0
19, 2, 0
19, 42, 0
19, 8, 0
19, 39, 0
19, 41, 0
19, 9, 0
18, 4, 0
18, 43, 0
18, 28, 0
18, 42, 0
18, 19, 1
18, 8, 0
18, 41, 0
31, 7, 0
31, 11, 0
31, 32, 0
31, 10, 0
29, 3, 0
29, 14, 0
29, 30, 1
40, 0, 0
40, 3, 0
40, 13, 0
40, 25, 0
40, 2, 0
40, 15, 0
40, 24, 0
40, 39, 1
40, 1, 0
11, 7, 0
11, 31, 0
11, 32, 0
11, 6, 0
11, 10, 0
11, 36, 0
1, 0, 0
1, 13, 0
1, 28, 0
1, 39, 0
1, 3, 0
1, 27, 0
1, 40, 0
1, 12, 0
1, 4, 0
1, 2, 1
1, 19, 0
1, 15, 0
1, 9, 0
37, 0, 0
37, 3, 0
37, 4, 0
37, 5, 0
37, 26, 0
4, 0, 0
4, 28, 0
4, 18, 0
4, 27, 0
4, 5, 0
4, 1, 0
4, 3, 0
4, 43, 0
4, 2, 0
4, 37, 0
4, 42, 0
4, 19, 0
4, 8, 0
4, 39, 0
4, 41, 0
35, 16, 0
35, 6, 0
35, 21, 0
35, 17, 0
35, 36, 1
30, 3, 0
30, 14, 0
30, 29, 1
38, 33, 0
38, 8, 0
22, 20, 0
22, 34, 0
22, 14, 0
36, 25, 0
36, 16, 0
36, 17, 0
36, 35, 1
36, 21, 0
36, 6, 0
36, 11, 0
16, 21, 0
16, 6, 0
16, 36, 0
16, 17, 1
16, 35, 0
27, 0, 0
27, 3, 0
27, 4, 0
27, 28, 1
27, 9, 0
27, 2, 0
27, 19, 0
27, 8, 0
27, 39, 0
27, 1, 0
34, 21, 0
34, 6, 0
34, 25, 0
34, 22, 0
25, 0, 0
25, 13, 0
25, 17, 0
25, 3, 0
25, 39, 0
25, 36, 0
25, 2, 0
25, 40, 0
25, 12, 0
25, 14, 0
25, 24, 1
25, 21, 0
25, 34, 0
25, 15, 0
25, 9, 0
26, 0, 0
26, 37, 0
26, 5, 0
6, 34, 0
6, 17, 0
6, 21, 0
6, 16, 0
6, 35, 0
6, 10, 0
6, 11, 0
6, 36, 0
43, 4, 0
43, 18, 0
43, 42, 1
43, 19, 0
43, 8, 0
43, 41, 0
9, 0, 0
9, 12, 0
9, 13, 0
9, 28, 0
9, 2, 0
9, 27, 0
9, 19, 0
9, 15, 0
9, 25, 0
9, 1, 0
