0, 17, 0
0, 3, 0
0, 16, 0
0, 6, 0
0, 5, 0
0, 1, 0
0, 7, 0
0, 12, 0
0, 4, 0
0, 14, 0
0, 2, 0
0, 15, 0
0, 9, 0
13, 12, 0
13, 14, 0
13, 2, 0
13, 19, 0
13, 8, 0
13, 15, 0
13, 5, 0
13, 10, 0
17, 7, 0
17, 0, 0
17, 4, 0
17, 2, 0
17, 16, 0
17, 5, 0
17, 11, 0
17, 1, 0
3, 0, 0
3, 12, 0
3, 14, 0
3, 2, 0
16, 7, 0
16, 0, 0
16, 4, 0
16, 17, 0
16, 6, 0
16, 1, 0
16, 5, 0
16, 11, 0
16, 9, 0
6, 7, 0
6, 0, 0
6, 16, 0
6, 9, 0
6, 5, 0
6, 1, 0
8, 13, 0
8, 2, 0
8, 18, 0
8, 19, 0
8, 5, 0
8, 10, 0
5, 0, 0
5, 13, 0
5, 17, 0
5, 16, 0
5, 6, 0
5, 8, 0
5, 11, 0
5, 1, 0
5, 7, 0
5, 12, 0
5, 4, 0
5, 2, 0
5, 19, 0
5, 10, 0
5, 18, 0
5, 9, 0
11, 7, 0
11, 4, 0
11, 17, 0
11, 16, 0
11, 9, 0
11, 5, 0
11, 1, 0
10, 19, 0
10, 8, 0
10, 13, 0
10, 5, 0
7, 0, 0
7, 4, 0
7, 17, 0
7, 16, 0
7, 6, 0
7, 9, 0
7, 5, 0
7, 11, 0
7, 1, 0
12, 0, 0
12, 3, 0
12, 13, 0
12, 14, 0
12, 15, 0
12, 5, 0
4, 7, 0
4, 0, 0
4, 17, 0
4, 2, 0
4, 16, 0
4, 9, 0
4, 5, 0
4, 11, 0
4, 1, 0
14, 0, 0
14, 3, 0
14, 13, 0
14, 12, 0
2, 0, 0
2, 3, 0
2, 13, 0
2, 17, 0
2, 4, 0
2, 8, 0
2, 15, 0
2, 5, 0
19, 8, 0
19, 13, 0
19, 5, 0
19, 10, 0
1, 0, 0
1, 7, 0
1, 4, 0
1, 17, 0
1, 16, 0
1, 6, 0
1, 5, 0
1, 11, 0
1, 9, 0
15, 0, 0
15, 12, 0
15, 13, 0
15, 2, 0
18, 8, 0
18, 5, 0
9, 7, 0
9, 0, 0
9, 4, 0
9, 16, 0
9, 6, 0
9, 5, 0
9, 11, 0
9, 1, 0
