58, 34, 0
58, 26, 0
58, 2, 0
58, 10, 0
58, 48, 0
58, 5, 0
13, 60, 0
13, 32, 0
13, 24, 0
13, 21, 0
13, 42, 0
13, 8, 0
13, 46, 0
13, 48, 0
17, 63, 0
17, 53, 0
17, 40, 0
23, 57, 0
23, 4, 0
23, 25, 0
23, 42, 0
23, 61, 0
23, 43, 0
23, 19, 0
23, 49, 0
23, 48, 0
23, 8, 0
23, 41, 0
63, 67, 0
63, 14, 0
63, 60, 0
63, 17, 0
63, 53, 0
63, 40, 0
63, 11, 0
24, 57, 0
24, 60, 0
24, 13, 0
24, 28, 0
24, 32, 0
24, 66, 0
24, 37, 0
24, 52, 0
24, 8, 0
24, 46, 0
5, 58, 0
5, 52, 0
5, 26, 0
5, 2, 0
5, 10, 0
5, 48, 0
5, 44, 0
65, 16, 0
65, 45, 0
65, 39, 0
65, 6, 0
20, 7, 0
20, 60, 0
20, 8, 0
20, 59, 0
34, 58, 0
34, 18, 0
34, 15, 0
34, 1, 0
34, 44, 0
34, 10, 0
34, 33, 0
34, 31, 0
34, 2, 0
34, 8, 0
34, 64, 0
34, 48, 0
34, 22, 0
14, 67, 0
14, 63, 0
14, 53, 0
14, 40, 0
14, 11, 0
14, 60, 0
66, 37, 0
66, 21, 0
66, 8, 0
66, 60, 0
66, 24, 0
42, 33, 0
42, 13, 0
42, 25, 0
42, 49, 0
42, 23, 0
42, 61, 0
42, 4, 0
42, 8, 0
42, 48, 0
42, 55, 0
15, 34, 0
15, 52, 0
15, 51, 0
15, 2, 0
15, 8, 0
15, 48, 0
15, 10, 0
41, 57, 0
41, 28, 0
41, 32, 0
41, 23, 0
41, 60, 0
41, 25, 0
41, 8, 0
41, 48, 0
0, 12, 0
0, 56, 0
0, 31, 0
0, 3, 0
0, 6, 0
0, 39, 0
0, 35, 0
0, 38, 0
0, 47, 0
8, 13, 0
8, 28, 0
8, 23, 0
8, 60, 0
8, 15, 0
8, 66, 0
8, 59, 0
8, 46, 0
8, 20, 0
8, 37, 0
8, 4, 0
8, 43, 0
8, 24, 0
8, 42, 0
8, 64, 0
8, 41, 0
8, 57, 0
8, 27, 0
8, 44, 0
8, 7, 0
8, 34, 0
8, 25, 0
8, 32, 0
8, 29, 0
8, 21, 0
8, 19, 0
8, 48, 0
62, 45, 0
62, 54, 0
62, 50, 0
62, 56, 0
62, 38, 0
62, 39, 0
51, 43, 0
51, 15, 0
51, 48, 0
33, 34, 0
33, 55, 0
33, 61, 0
33, 42, 0
33, 49, 0
33, 64, 0
33, 48, 0
33, 1, 0
6, 0, 0
6, 3, 0
6, 35, 0
6, 31, 0
6, 56, 0
6, 45, 0
6, 16, 0
6, 36, 0
6, 39, 0
6, 65, 0
6, 12, 0
64, 34, 0
64, 8, 0
64, 33, 0
64, 48, 0
64, 1, 0
47, 0, 0
47, 12, 0
47, 54, 0
47, 31, 0
47, 35, 0
47, 38, 0
47, 36, 0
10, 58, 0
10, 34, 0
10, 52, 0
10, 26, 0
10, 2, 0
10, 15, 0
10, 5, 0
10, 48, 0
7, 20, 0
7, 8, 0
7, 59, 0
3, 0, 0
3, 12, 0
3, 56, 0
3, 31, 0
3, 35, 0
3, 6, 0
3, 36, 0
3, 9, 0
53, 40, 0
53, 67, 0
53, 14, 0
53, 63, 0
53, 17, 0
53, 60, 0
32, 41, 0
32, 13, 0
32, 28, 0
32, 49, 0
32, 24, 0
32, 8, 0
32, 46, 0
32, 48, 0
29, 60, 0
29, 27, 0
29, 19, 0
29, 8, 0
29, 59, 0
37, 60, 0
37, 8, 0
37, 24, 0
37, 48, 0
37, 66, 0
52, 57, 0
52, 43, 0
52, 26, 0
52, 2, 0
52, 5, 0
52, 24, 0
52, 15, 0
52, 48, 0
52, 10, 0
19, 57, 0
19, 4, 0
19, 25, 0
19, 23, 0
19, 29, 0
19, 43, 0
19, 8, 0
19, 48, 0
19, 27, 0
49, 33, 0
49, 25, 0
49, 32, 0
49, 23, 0
49, 61, 0
49, 42, 0
49, 48, 0
49, 30, 0
48, 58, 0
48, 13, 0
48, 32, 0
48, 23, 0
48, 60, 0
48, 15, 0
48, 5, 0
48, 1, 0
48, 57, 0
48, 61, 0
48, 4, 0
48, 43, 0
48, 42, 0
48, 30, 0
48, 8, 0
48, 64, 0
48, 41, 0
48, 51, 0
48, 33, 0
48, 27, 0
48, 55, 0
48, 44, 0
48, 10, 0
48, 34, 0
48, 25, 0
48, 26, 0
48, 2, 0
48, 37, 0
48, 52, 0
48, 19, 0
48, 49, 0
31, 0, 0
31, 56, 0
31, 12, 0
31, 18, 0
31, 6, 0
31, 47, 0
31, 9, 0
31, 3, 0
31, 54, 0
31, 35, 0
31, 34, 0
31, 22, 0
31, 36, 0
28, 41, 0
28, 8, 0
28, 46, 0
28, 32, 0
28, 24, 0
45, 62, 0
45, 39, 0
45, 6, 0
45, 56, 0
45, 38, 0
45, 65, 0
60, 13, 0
60, 63, 0
60, 27, 0
60, 53, 0
60, 59, 0
60, 11, 0
60, 41, 0
60, 20, 0
60, 67, 0
60, 14, 0
60, 66, 0
60, 24, 0
60, 37, 0
60, 29, 0
60, 8, 0
60, 48, 0
59, 7, 0
59, 20, 0
59, 29, 0
59, 60, 0
59, 27, 0
59, 8, 0
2, 58, 0
2, 34, 0
2, 52, 0
2, 26, 0
2, 44, 0
2, 10, 0
2, 15, 0
2, 48, 0
2, 5, 0
40, 67, 0
40, 14, 0
40, 63, 0
40, 17, 0
40, 53, 0
40, 11, 0
11, 63, 0
11, 60, 0
11, 40, 0
11, 14, 0
11, 67, 0
46, 13, 0
46, 8, 0
46, 28, 0
46, 32, 0
46, 24, 0
21, 8, 0
21, 13, 0
21, 66, 0
61, 33, 0
61, 55, 0
61, 23, 0
61, 42, 0
61, 49, 0
61, 48, 0
61, 1, 0
39, 0, 0
39, 45, 0
39, 50, 0
39, 56, 0
39, 6, 0
39, 65, 0
39, 38, 0
39, 62, 0
35, 0, 0
35, 3, 0
35, 54, 0
35, 31, 0
35, 12, 0
35, 6, 0
35, 9, 0
35, 47, 0
35, 36, 1
30, 49, 0
30, 25, 0
30, 48, 0
38, 0, 0
38, 12, 0
38, 54, 0
38, 62, 0
38, 56, 0
38, 45, 0
38, 39, 0
38, 47, 0
38, 50, 0
22, 18, 0
22, 34, 0
22, 31, 0
36, 3, 0
36, 54, 0
36, 31, 0
36, 35, 1
36, 6, 0
36, 9, 0
36, 47, 0
36, 12, 0
25, 8, 0
25, 30, 0
25, 23, 0
25, 42, 0
25, 19, 0
25, 49, 0
25, 41, 0
25, 4, 0
25, 48, 0
57, 4, 0
57, 43, 0
57, 23, 0
57, 24, 0
57, 52, 0
57, 19, 0
57, 8, 0
57, 48, 0
57, 41, 0
56, 0, 0
56, 45, 0
56, 62, 0
56, 31, 0
56, 3, 0
56, 6, 0
56, 39, 0
56, 38, 0
56, 12, 0
16, 6, 0
16, 65, 0
27, 4, 0
27, 29, 0
27, 60, 0
27, 19, 0
27, 8, 0
27, 59, 0
27, 48, 0
1, 33, 0
1, 34, 0
1, 61, 0
1, 55, 0
1, 64, 0
1, 48, 0
55, 61, 0
55, 42, 0
55, 33, 0
55, 48, 0
55, 1, 0
44, 34, 0
44, 8, 0
44, 5, 0
44, 48, 0
44, 2, 0
12, 0, 0
12, 3, 0
12, 56, 0
12, 31, 0
12, 35, 0
12, 6, 0
12, 38, 0
12, 47, 0
12, 36, 0
18, 34, 0
18, 31, 0
18, 22, 0
4, 57, 0
4, 25, 0
4, 43, 0
4, 23, 0
4, 42, 0
4, 27, 0
4, 19, 0
4, 8, 0
4, 48, 0
54, 62, 0
54, 50, 0
54, 31, 0
54, 35, 0
54, 38, 0
54, 47, 0
54, 36, 0
50, 54, 0
50, 38, 0
50, 62, 0
50, 39, 0
26, 58, 0
26, 52, 0
26, 2, 0
26, 10, 0
26, 5, 0
26, 48, 0
43, 57, 0
43, 4, 0
43, 52, 0
43, 23, 0
43, 51, 0
43, 19, 0
43, 8, 0
43, 48, 0
67, 60, 0
67, 14, 0
67, 63, 0
67, 53, 0
67, 40, 0
67, 11, 0
9, 3, 0
9, 36, 0
9, 31, 0
9, 35, 0
