0, 8, 0
0, 4, 0
0, 9, 0
3, 2, 0
3, 5, 0
3, 9, 0
4, 0, 0
4, 8, 0
4, 9, 0
4, 1, 0
2, 7, 0
2, 3, 0
2, 5, 0
6, 8, 0
6, 1, 0
1, 6, 0
1, 8, 0
1, 4, 0
8, 0, 0
8, 6, 0
8, 1, 0
8, 4, 0
8, 9, 0
5, 3, 0
5, 2, 0
5, 9, 0
7, 2, 0
9, 0, 0
9, 3, 0
9, 8, 0
9, 5, 0
9, 4, 0
