0, 8, 0
13, 6, 0
13, 17, 0
17, 12, 0
17, 13, 0
17, 5, 0
3, 12, 0
3, 4, 1
3, 11, 0
16, 2, 0
16, 14, 0
16, 10, 0
16, 15, 0
16, 9, 0
6, 13, 0
6, 5, 0
6, 1, 0
8, 0, 0
8, 7, 0
5, 12, 0
5, 17, 0
5, 11, 0
5, 6, 0
11, 7, 0
11, 12, 0
11, 4, 0
11, 5, 0
11, 3, 0
10, 16, 0
10, 2, 0
7, 8, 0
7, 11, 0
12, 3, 0
12, 4, 0
12, 17, 0
12, 5, 0
12, 11, 0
4, 12, 0
4, 11, 0
4, 3, 1
14, 16, 0
14, 2, 0
14, 15, 1
14, 9, 0
2, 16, 0
2, 15, 0
2, 9, 0
2, 14, 0
2, 10, 0
1, 6, 0
1, 9, 0
15, 16, 0
15, 9, 0
15, 14, 1
15, 2, 0
9, 16, 0
9, 15, 0
9, 2, 0
9, 14, 0
9, 1, 0
