0, 7, 0
0, 8, 0
0, 2, 0
6, 2, 0
6, 9, 0
6, 5, 0
6, 11, 0
6, 1, 0
1, 3, 0
1, 4, 0
1, 6, 0
1, 8, 0
1, 5, 0
1, 9, 0
5, 6, 0
5, 11, 0
5, 1, 0
11, 6, 0
11, 5, 0
11, 3, 0
10, 2, 0
10, 3, 0
10, 8, 0
10, 4, 0
10, 9, 0
7, 0, 0
7, 8, 0
3, 8, 0
3, 4, 0
3, 10, 0
3, 11, 0
3, 1, 0
4, 3, 0
4, 8, 0
4, 9, 0
4, 10, 0
4, 1, 0
2, 0, 0
2, 6, 0
2, 8, 0
2, 9, 0
2, 10, 0
8, 0, 0
8, 3, 0
8, 4, 0
8, 2, 0
8, 1, 0
8, 7, 0
8, 10, 0
9, 2, 0
9, 6, 0
9, 10, 0
9, 4, 0
9, 1, 0
