13, 17, 0
13, 23, 0
13, 6, 0
13, 5, 0
13, 10, 0
13, 7, 0
13, 12, 1
13, 21, 0
13, 19, 0
13, 15, 0
13, 22, 0
13, 9, 0
17, 3, 0
17, 13, 0
17, 14, 0
17, 4, 0
17, 2, 0
17, 21, 0
17, 6, 0
17, 18, 1
17, 22, 0
17, 5, 0
23, 0, 0
23, 12, 0
23, 13, 0
23, 24, 1
23, 9, 0
23, 5, 0
23, 22, 0
23, 10, 0
5, 0, 0
5, 13, 0
5, 17, 0
5, 23, 0
5, 16, 0
5, 11, 0
5, 10, 0
5, 12, 0
5, 21, 0
5, 19, 0
5, 1, 0
5, 15, 0
5, 22, 0
5, 9, 0
11, 16, 0
11, 0, 0
11, 5, 0
11, 1, 0
1, 0, 1
1, 16, 0
1, 5, 0
1, 11, 0
20, 21, 0
20, 19, 1
20, 22, 0
4, 14, 0
4, 22, 0
4, 2, 0
4, 21, 0
4, 6, 0
4, 17, 0
14, 3, 0
14, 4, 0
14, 17, 0
14, 22, 0
24, 9, 0
24, 22, 0
24, 23, 1
24, 10, 0
8, 7, 1
8, 6, 0
8, 15, 0
8, 22, 0
15, 7, 0
15, 12, 0
15, 13, 0
15, 6, 0
15, 8, 0
15, 5, 0
15, 22, 0
22, 7, 0
22, 13, 0
22, 17, 0
22, 23, 0
22, 18, 0
22, 6, 0
22, 5, 0
22, 10, 0
22, 20, 0
22, 12, 0
22, 4, 0
22, 14, 0
22, 24, 0
22, 21, 0
22, 19, 0
22, 8, 0
22, 15, 0
22, 9, 0
0, 23, 0
0, 16, 0
0, 10, 0
0, 1, 1
0, 5, 0
0, 11, 0
0, 9, 0
3, 17, 0
3, 14, 0
3, 2, 0
16, 0, 0
16, 5, 0
16, 11, 0
16, 1, 0
6, 7, 0
6, 12, 0
6, 13, 0
6, 17, 0
6, 4, 0
6, 8, 0
6, 15, 0
6, 22, 0
10, 0, 0
10, 12, 0
10, 13, 0
10, 23, 0
10, 24, 0
10, 5, 0
10, 22, 0
10, 9, 1
7, 12, 0
7, 13, 0
7, 6, 0
7, 8, 1
7, 15, 0
7, 22, 0
12, 7, 0
12, 13, 1
12, 23, 0
12, 6, 0
12, 9, 0
12, 15, 0
12, 5, 0
12, 22, 0
12, 10, 0
2, 3, 0
2, 4, 0
2, 17, 0
21, 20, 0
21, 13, 0
21, 17, 0
21, 4, 0
21, 18, 0
21, 19, 0
21, 5, 0
21, 22, 0
19, 20, 1
19, 21, 0
19, 13, 0
19, 5, 0
19, 22, 0
18, 21, 0
18, 17, 1
18, 22, 0
9, 0, 0
9, 12, 0
9, 13, 0
9, 23, 0
9, 24, 0
9, 5, 0
9, 22, 0
9, 10, 1
