12, 25, 0
12, 3, 0
12, 15, 0
12, 41, 0
12, 11, 0
13, 18, 0
13, 4, 0
13, 28, 0
13, 2, 0
13, 21, 0
13, 22, 0
17, 31, 0
17, 18, 0
17, 27, 0
17, 40, 0
17, 10, 0
17, 20, 0
17, 26, 0
17, 24, 0
17, 19, 0
17, 1, 0
17, 15, 0
17, 9, 0
31, 17, 0
31, 26, 0
31, 18, 0
31, 27, 0
31, 40, 0
31, 10, 0
31, 20, 0
31, 32, 0
31, 2, 0
31, 19, 0
31, 36, 0
31, 15, 0
31, 41, 0
31, 9, 0
23, 34, 0
23, 4, 0
23, 28, 0
23, 29, 0
23, 21, 0
23, 9, 0
23, 15, 0
23, 41, 0
23, 30, 0
24, 17, 0
24, 9, 0
24, 26, 0
24, 2, 0
24, 27, 0
24, 10, 0
24, 40, 0
24, 1, 0
40, 20, 0
40, 9, 0
40, 17, 0
40, 26, 0
40, 31, 0
40, 24, 0
40, 18, 0
40, 27, 0
40, 2, 0
40, 10, 0
5, 33, 0
5, 15, 0
5, 41, 0
11, 7, 0
11, 3, 0
11, 25, 0
11, 12, 0
11, 15, 0
11, 41, 0
11, 0, 0
1, 27, 0
1, 17, 0
1, 26, 0
1, 24, 0
20, 40, 0
20, 18, 0
20, 17, 0
20, 26, 0
20, 31, 0
20, 2, 0
20, 16, 0
20, 27, 0
20, 15, 0
20, 41, 0
20, 9, 0
21, 34, 0
21, 13, 0
21, 28, 0
21, 23, 0
21, 4, 0
21, 2, 0
21, 41, 0
21, 22, 0
21, 30, 0
4, 34, 0
4, 13, 0
4, 23, 0
4, 21, 0
4, 9, 0
4, 15, 0
4, 41, 0
4, 22, 0
4, 30, 0
14, 0, 0
14, 15, 0
14, 38, 0
14, 41, 0
14, 2, 0
39, 6, 0
39, 22, 0
35, 18, 0
35, 33, 0
35, 8, 0
35, 2, 0
28, 34, 0
28, 13, 0
28, 23, 0
28, 2, 0
28, 21, 0
28, 29, 0
28, 30, 0
30, 34, 0
30, 4, 0
30, 28, 0
30, 23, 0
30, 29, 0
30, 21, 0
8, 33, 0
8, 25, 0
8, 35, 0
8, 2, 0
8, 15, 0
8, 41, 0
15, 0, 0
15, 17, 0
15, 23, 0
15, 33, 0
15, 6, 0
15, 36, 0
15, 5, 0
15, 11, 0
15, 20, 0
15, 12, 0
15, 4, 0
15, 14, 0
15, 31, 0
15, 29, 0
15, 25, 0
15, 8, 0
15, 38, 0
15, 41, 0
15, 22, 0
15, 9, 0
41, 0, 0
41, 38, 0
41, 23, 0
41, 33, 0
41, 16, 0
41, 6, 0
41, 29, 0
41, 5, 0
41, 11, 0
41, 20, 0
41, 12, 0
41, 4, 0
41, 14, 0
41, 31, 0
41, 2, 0
41, 21, 0
41, 25, 0
41, 8, 0
41, 15, 0
41, 22, 0
41, 9, 0
22, 13, 0
22, 4, 0
22, 21, 0
22, 6, 0
22, 15, 0
22, 39, 0
22, 41, 0
36, 15, 0
36, 31, 0
36, 32, 0
36, 9, 0
0, 7, 0
0, 14, 0
0, 2, 0
0, 15, 0
0, 41, 0
0, 11, 0
6, 39, 0
6, 2, 0
6, 15, 0
6, 38, 0
6, 41, 0
6, 22, 0
38, 15, 0
38, 14, 0
38, 41, 0
38, 6, 0
3, 12, 0
3, 11, 0
16, 20, 0
16, 37, 0
16, 29, 0
16, 41, 0
16, 2, 0
27, 20, 0
27, 17, 0
27, 31, 0
27, 26, 1
27, 24, 0
27, 18, 0
27, 19, 0
27, 10, 0
27, 40, 0
27, 1, 0
10, 17, 0
10, 31, 0
10, 26, 0
10, 24, 0
10, 27, 0
10, 19, 0
10, 40, 0
10, 9, 0
7, 0, 0
7, 18, 0
7, 11, 0
7, 2, 0
34, 21, 0
34, 4, 0
34, 28, 0
34, 23, 0
34, 30, 0
25, 12, 0
25, 2, 0
25, 8, 0
25, 15, 0
25, 41, 0
25, 11, 0
33, 5, 0
33, 8, 0
33, 15, 0
33, 41, 0
33, 35, 0
32, 9, 0
32, 31, 0
32, 36, 0
2, 0, 0
2, 7, 0
2, 13, 0
2, 28, 0
2, 16, 0
2, 6, 0
2, 35, 0
2, 40, 0
2, 20, 0
2, 21, 0
2, 29, 0
2, 25, 0
2, 31, 0
2, 24, 0
2, 37, 0
2, 14, 0
2, 8, 0
2, 41, 0
2, 18, 0
37, 16, 0
37, 29, 0
37, 2, 0
29, 16, 0
29, 28, 0
29, 23, 0
29, 2, 0
29, 37, 0
29, 15, 0
29, 41, 0
29, 30, 0
19, 17, 0
19, 31, 0
19, 26, 0
19, 18, 0
19, 27, 0
19, 9, 0
19, 10, 0
26, 20, 0
26, 17, 0
26, 9, 0
26, 31, 0
26, 24, 0
26, 27, 1
26, 19, 0
26, 10, 0
26, 40, 0
26, 1, 0
18, 20, 0
18, 7, 0
18, 13, 0
18, 17, 0
18, 31, 0
18, 2, 0
18, 27, 0
18, 19, 0
18, 35, 0
18, 40, 0
9, 17, 0
9, 31, 0
9, 23, 0
9, 32, 0
9, 40, 0
9, 10, 0
9, 20, 0
9, 4, 0
9, 26, 0
9, 24, 0
9, 19, 0
9, 15, 0
9, 41, 0
9, 36, 0
