0, 7, 0
0, 3, 0
0, 4, 0
0, 9, 0
0, 10, 0
0, 6, 0
0, 8, 0
0, 5, 0
0, 11, 0
0, 1, 0
6, 0, 0
6, 7, 0
6, 2, 0
6, 8, 0
6, 5, 0
6, 9, 0
1, 0, 0
1, 3, 0
1, 4, 0
1, 2, 1
1, 8, 0
1, 11, 0
1, 10, 0
5, 0, 0
5, 6, 0
5, 8, 0
5, 7, 0
5, 9, 0
11, 0, 0
11, 3, 0
11, 4, 0
11, 9, 0
11, 2, 0
11, 8, 0
11, 1, 0
11, 7, 0
11, 10, 0
10, 0, 0
10, 3, 0
10, 4, 0
10, 9, 0
10, 2, 0
10, 8, 0
10, 7, 0
10, 11, 0
10, 1, 0
7, 0, 0
7, 10, 0
7, 6, 0
7, 8, 0
7, 5, 0
7, 11, 0
7, 9, 0
3, 0, 0
3, 4, 1
3, 2, 0
3, 1, 0
3, 8, 0
3, 11, 0
3, 10, 0
4, 0, 0
4, 3, 1
4, 2, 0
4, 1, 0
4, 8, 0
4, 11, 0
4, 10, 0
2, 3, 0
2, 4, 0
2, 6, 0
2, 1, 1
2, 8, 0
2, 11, 0
2, 10, 0
8, 0, 0
8, 7, 0
8, 4, 0
8, 9, 0
8, 3, 0
8, 2, 0
8, 6, 0
8, 1, 0
8, 5, 0
8, 11, 0
8, 10, 0
9, 0, 0
9, 7, 0
9, 6, 0
9, 8, 0
9, 5, 0
9, 11, 0
9, 10, 0
