0, 7, 0
0, 12, 0
0, 13, 0
0, 3, 0
0, 8, 0
0, 1, 0
13, 0, 0
13, 3, 0
13, 8, 0
13, 11, 0
3, 0, 0
3, 8, 0
3, 13, 0
3, 11, 0
3, 1, 0
6, 4, 0
6, 5, 1
6, 11, 0
8, 0, 0
8, 3, 0
8, 13, 0
8, 11, 0
8, 1, 0
5, 6, 1
5, 4, 0
5, 11, 0
11, 3, 0
11, 13, 0
11, 4, 0
11, 6, 0
11, 8, 0
11, 5, 0
11, 1, 0
10, 7, 0
10, 12, 0
10, 2, 0
10, 9, 0
7, 0, 0
7, 12, 0
7, 10, 0
12, 0, 0
12, 7, 0
12, 10, 0
4, 6, 0
4, 5, 0
4, 11, 0
2, 10, 0
2, 9, 0
1, 0, 0
1, 3, 0
1, 8, 0
1, 11, 0
9, 2, 0
9, 10, 0
