0, 12, 0
0, 2, 0
0, 1, 0
8, 7, 0
8, 3, 0
8, 4, 0
8, 1, 0
8, 10, 0
8, 5, 0
8, 11, 0
8, 9, 0
3, 7, 0
3, 4, 1
3, 8, 0
3, 10, 0
3, 11, 0
3, 9, 0
6, 12, 0
6, 11, 0
6, 1, 0
5, 7, 0
5, 4, 1
5, 9, 0
5, 8, 0
5, 11, 0
5, 10, 0
11, 7, 0
11, 3, 0
11, 4, 0
11, 9, 0
11, 6, 0
11, 8, 0
11, 5, 0
11, 10, 0
11, 1, 0
10, 3, 0
10, 4, 0
10, 1, 0
10, 8, 0
10, 5, 0
10, 11, 0
10, 9, 1
7, 3, 0
7, 4, 0
7, 8, 0
7, 5, 0
7, 11, 0
7, 9, 0
12, 0, 0
12, 6, 0
12, 2, 0
12, 1, 0
4, 7, 0
4, 3, 1
4, 9, 0
4, 8, 0
4, 5, 1
4, 11, 0
4, 10, 0
2, 0, 0
2, 12, 0
2, 1, 1
1, 0, 0
1, 12, 0
1, 2, 1
1, 6, 0
1, 8, 0
1, 11, 0
1, 10, 0
9, 7, 0
9, 3, 0
9, 4, 0
9, 8, 0
9, 5, 0
9, 11, 0
9, 10, 1
