12, 33, 0
12, 6, 0
12, 28, 0
12, 21, 0
12, 37, 0
12, 25, 0
12, 8, 0
12, 15, 0
12, 5, 0
12, 11, 0
12, 17, 0
13, 34, 0
13, 16, 0
13, 31, 0
13, 23, 0
13, 29, 0
13, 21, 0
13, 24, 0
13, 18, 0
13, 30, 0
17, 28, 0
17, 12, 0
17, 25, 0
17, 31, 0
17, 21, 0
17, 6, 0
17, 8, 0
17, 5, 0
17, 11, 0
31, 13, 0
31, 17, 0
31, 23, 0
31, 29, 0
31, 11, 0
31, 10, 0
31, 20, 0
31, 34, 0
31, 14, 0
31, 26, 0
31, 24, 0
31, 21, 0
31, 30, 0
23, 35, 0
23, 13, 0
23, 31, 0
23, 3, 0
23, 18, 0
23, 24, 1
23, 30, 0
23, 20, 0
23, 34, 0
23, 14, 0
23, 26, 0
23, 29, 0
23, 21, 0
23, 10, 0
24, 13, 0
24, 23, 1
24, 3, 0
24, 18, 0
24, 35, 0
24, 30, 0
24, 34, 0
24, 14, 0
24, 31, 0
24, 29, 0
24, 21, 0
24, 9, 0
5, 0, 0
5, 28, 0
5, 12, 0
5, 27, 0
5, 36, 0
5, 2, 0
5, 11, 0
5, 1, 0
5, 7, 0
5, 3, 0
5, 4, 0
5, 25, 0
5, 35, 0
5, 21, 0
5, 17, 0
5, 19, 0
5, 10, 0
5, 15, 0
5, 22, 0
5, 9, 0
11, 17, 0
11, 31, 0
11, 12, 0
11, 6, 0
11, 5, 0
11, 1, 0
11, 7, 0
11, 33, 0
11, 25, 0
11, 32, 0
11, 27, 0
11, 37, 0
11, 28, 0
11, 19, 0
11, 8, 0
11, 15, 0
11, 10, 0
11, 22, 0
11, 36, 0
1, 0, 0
1, 7, 0
1, 28, 0
1, 22, 0
1, 21, 0
1, 36, 0
1, 8, 0
1, 5, 0
1, 11, 0
1, 10, 0
20, 34, 0
20, 14, 0
20, 23, 0
20, 26, 0
20, 31, 0
20, 16, 0
21, 13, 0
21, 28, 0
21, 23, 0
21, 35, 0
21, 5, 0
21, 30, 0
21, 34, 0
21, 4, 0
21, 14, 0
21, 24, 0
21, 17, 0
21, 8, 0
21, 15, 0
21, 22, 0
21, 36, 0
21, 3, 0
21, 16, 0
21, 1, 0
21, 10, 0
21, 7, 0
21, 12, 0
21, 25, 0
21, 31, 0
21, 2, 0
21, 29, 0
21, 19, 0
21, 18, 0
21, 9, 0
4, 0, 0
4, 3, 0
4, 35, 0
4, 2, 0
4, 21, 0
4, 29, 0
4, 5, 0
14, 20, 0
14, 3, 0
14, 31, 0
14, 23, 0
14, 29, 0
14, 21, 0
14, 26, 0
14, 34, 0
14, 24, 0
14, 30, 0
35, 28, 0
35, 23, 0
35, 34, 0
35, 29, 0
35, 5, 0
35, 30, 0
35, 3, 0
35, 4, 0
35, 24, 0
35, 21, 0
35, 8, 0
35, 10, 0
28, 0, 0
28, 17, 0
28, 3, 0
28, 12, 0
28, 27, 0
28, 35, 0
28, 5, 0
28, 11, 0
28, 1, 0
28, 7, 0
28, 33, 0
28, 25, 0
28, 9, 0
28, 2, 0
28, 21, 0
28, 19, 0
28, 8, 0
28, 15, 0
28, 10, 0
28, 22, 0
28, 36, 0
30, 13, 0
30, 31, 0
30, 23, 0
30, 34, 0
30, 16, 0
30, 2, 0
30, 24, 0
30, 3, 0
30, 14, 0
30, 26, 0
30, 35, 0
30, 21, 0
30, 29, 0
30, 18, 0
30, 9, 0
8, 0, 0
8, 28, 0
8, 3, 0
8, 27, 0
8, 35, 0
8, 11, 0
8, 12, 0
8, 7, 0
8, 33, 0
8, 25, 0
8, 9, 0
8, 2, 0
8, 21, 0
8, 17, 0
8, 19, 0
8, 1, 0
8, 15, 0
8, 10, 0
8, 22, 0
8, 36, 0
15, 12, 0
15, 28, 0
15, 22, 0
15, 21, 0
15, 8, 0
15, 5, 0
15, 11, 0
22, 0, 0
22, 28, 0
22, 21, 0
22, 25, 0
22, 8, 0
22, 15, 0
22, 5, 0
22, 11, 0
22, 1, 0
36, 7, 0
36, 28, 0
36, 21, 0
36, 27, 0
36, 8, 0
36, 5, 0
36, 11, 0
36, 1, 0
0, 7, 0
0, 4, 0
0, 28, 0
0, 8, 0
0, 5, 0
0, 22, 0
0, 1, 0
6, 33, 0
6, 17, 0
6, 32, 0
6, 12, 0
6, 37, 0
6, 27, 0
6, 11, 0
3, 29, 0
3, 4, 0
3, 14, 0
3, 23, 0
3, 24, 0
3, 21, 0
3, 28, 0
3, 8, 0
3, 35, 0
3, 5, 0
3, 30, 0
16, 20, 0
16, 34, 0
16, 13, 0
16, 26, 0
16, 29, 0
16, 21, 0
16, 30, 0
27, 33, 0
27, 28, 0
27, 6, 0
27, 8, 0
27, 5, 0
27, 11, 0
27, 36, 0
10, 7, 0
10, 28, 0
10, 31, 0
10, 23, 0
10, 35, 0
10, 21, 0
10, 8, 0
10, 5, 0
10, 11, 0
10, 1, 0
7, 0, 0
7, 28, 0
7, 10, 0
7, 21, 0
7, 25, 0
7, 36, 0
7, 8, 0
7, 5, 0
7, 11, 0
7, 1, 0
34, 35, 0
34, 13, 0
34, 23, 0
34, 18, 0
34, 29, 0
34, 30, 0
34, 20, 0
34, 16, 0
34, 14, 0
34, 31, 0
34, 24, 0
34, 21, 0
34, 9, 0
25, 7, 0
25, 12, 0
25, 28, 0
25, 22, 0
25, 21, 0
25, 17, 0
25, 19, 0
25, 8, 0
25, 5, 0
25, 11, 0
33, 12, 0
33, 28, 0
33, 27, 0
33, 37, 0
33, 6, 0
33, 8, 0
33, 11, 0
32, 37, 0
32, 6, 0
32, 11, 0
2, 4, 0
2, 28, 0
2, 29, 0
2, 21, 0
2, 19, 0
2, 8, 0
2, 30, 0
2, 5, 0
2, 9, 0
37, 33, 0
37, 12, 0
37, 11, 0
37, 32, 0
37, 6, 0
29, 2, 0
29, 13, 0
29, 23, 0
29, 3, 0
29, 16, 0
29, 24, 0
29, 30, 0
29, 34, 0
29, 4, 0
29, 14, 0
29, 31, 0
29, 35, 0
29, 21, 0
29, 18, 0
29, 9, 0
19, 28, 0
19, 2, 0
19, 21, 0
19, 25, 0
19, 8, 0
19, 5, 0
19, 11, 0
26, 20, 0
26, 14, 0
26, 31, 0
26, 23, 0
26, 16, 0
26, 30, 0
18, 34, 0
18, 13, 0
18, 9, 0
18, 23, 0
18, 24, 0
18, 21, 0
18, 29, 0
18, 30, 0
9, 34, 0
9, 8, 0
9, 28, 0
9, 29, 0
9, 21, 0
9, 2, 0
9, 24, 0
9, 5, 0
9, 18, 0
9, 30, 0
