0, 7, 0
0, 13, 0
0, 1, 0
13, 0, 0
13, 1, 0
17, 16, 0
17, 11, 0
17, 10, 0
3, 7, 0
3, 8, 0
3, 5, 0
3, 2, 1
16, 17, 0
16, 11, 0
6, 19, 0
6, 4, 0
8, 7, 0
8, 3, 0
8, 5, 0
8, 2, 0
5, 18, 0
5, 3, 0
5, 8, 0
5, 14, 0
5, 2, 0
11, 16, 0
11, 19, 0
11, 17, 0
11, 10, 1
10, 19, 0
10, 17, 0
10, 11, 1
7, 0, 0
7, 3, 0
7, 8, 0
7, 2, 0
12, 9, 0
12, 1, 0
4, 6, 0
4, 19, 0
4, 9, 0
14, 18, 0
14, 15, 0
14, 5, 0
2, 7, 0
2, 3, 1
2, 8, 0
2, 5, 0
19, 6, 0
19, 4, 0
19, 11, 0
19, 10, 0
1, 0, 0
1, 12, 0
1, 13, 0
15, 14, 0
18, 14, 0
18, 5, 0
9, 12, 0
9, 4, 0
