13, 0, 0
13, 3, 0
13, 19, 0
13, 5, 0
13, 2, 0
17, 7, 0
17, 29, 0
31, 6, 0
31, 8, 0
31, 4, 0
31, 23, 0
23, 0, 0
23, 4, 0
23, 14, 0
23, 31, 0
23, 24, 0
23, 21, 0
23, 11, 0
23, 9, 0
10, 28, 0
10, 26, 0
10, 32, 0
2, 3, 0
2, 19, 0
2, 13, 0
5, 0, 0
5, 6, 0
5, 19, 0
5, 13, 0
11, 27, 0
11, 14, 0
11, 23, 0
11, 9, 0
1, 12, 0
1, 34, 0
1, 28, 0
1, 26, 0
1, 30, 0
20, 34, 0
20, 22, 0
4, 31, 0
4, 23, 0
4, 24, 0
14, 11, 0
14, 23, 0
14, 24, 0
24, 4, 0
24, 14, 0
24, 23, 0
28, 10, 0
28, 26, 0
28, 1, 0
30, 12, 0
30, 34, 0
30, 26, 0
30, 1, 0
8, 6, 0
8, 31, 0
15, 16, 1
15, 33, 0
15, 29, 0
22, 20, 0
22, 34, 0
0, 6, 0
0, 13, 0
0, 5, 0
0, 23, 0
3, 13, 0
3, 2, 0
34, 20, 0
34, 12, 0
34, 30, 0
34, 22, 0
34, 1, 0
16, 33, 0
16, 15, 1
16, 29, 0
6, 0, 0
6, 19, 0
6, 8, 0
6, 5, 0
6, 31, 0
27, 21, 0
27, 33, 0
27, 25, 0
27, 11, 0
27, 9, 0
7, 18, 0
7, 17, 0
7, 32, 0
7, 29, 0
12, 34, 0
12, 30, 0
12, 26, 0
12, 1, 0
25, 27, 0
25, 33, 0
32, 18, 0
32, 7, 0
32, 26, 0
32, 10, 0
29, 16, 0
29, 7, 0
29, 15, 0
29, 17, 0
29, 33, 0
21, 27, 0
21, 23, 0
21, 9, 0
33, 16, 0
33, 25, 0
33, 15, 0
33, 27, 0
33, 29, 0
19, 6, 0
19, 13, 0
19, 5, 0
19, 2, 0
26, 12, 0
26, 28, 0
26, 32, 0
26, 30, 0
26, 10, 0
26, 1, 0
18, 7, 0
18, 32, 0
9, 21, 0
9, 27, 0
9, 11, 0
9, 23, 0
