0, 8, 0
0, 10, 0
0, 9, 0
6, 7, 0
6, 3, 0
6, 8, 0
6, 4, 0
6, 2, 0
1, 5, 0
1, 9, 0
5, 9, 0
5, 1, 0
11, 4, 0
10, 0, 0
10, 8, 0
7, 6, 0
7, 8, 0
7, 4, 0
3, 6, 0
3, 4, 0
3, 2, 1
4, 7, 0
4, 6, 0
4, 2, 0
4, 11, 0
4, 3, 0
2, 6, 0
2, 4, 0
2, 3, 1
8, 0, 0
8, 6, 0
8, 7, 0
8, 9, 0
8, 10, 0
9, 0, 0
9, 8, 0
9, 5, 0
9, 1, 0
