0, 3, 0
0, 13, 0
0, 4, 0
0, 12, 0
0, 11, 0
0, 10, 0
13, 0, 0
13, 3, 0
13, 4, 0
13, 12, 0
13, 11, 0
13, 10, 0
3, 0, 0
3, 13, 0
3, 6, 0
3, 8, 0
3, 11, 0
3, 10, 0
6, 3, 0
6, 1, 0
8, 3, 0
8, 2, 0
8, 1, 0
5, 7, 0
5, 9, 0
5, 2, 0
11, 0, 0
11, 12, 0
11, 13, 0
11, 4, 0
11, 3, 0
11, 10, 1
10, 0, 0
10, 3, 0
10, 4, 0
10, 13, 0
10, 11, 1
7, 5, 0
7, 9, 0
12, 0, 0
12, 4, 0
12, 13, 0
12, 11, 0
4, 0, 0
4, 12, 0
4, 13, 0
4, 11, 0
4, 10, 0
2, 8, 0
2, 9, 0
2, 5, 0
2, 1, 0
1, 6, 0
1, 8, 0
1, 2, 0
9, 7, 0
9, 5, 0
9, 2, 0
