0, 12, 0
0, 1, 0
0, 4, 0
0, 10, 0
0, 9, 0
13, 7, 0
13, 12, 0
13, 9, 0
13, 1, 0
3, 12, 0
3, 9, 0
3, 11, 0
3, 10, 0
6, 12, 0
6, 1, 0
6, 8, 0
6, 9, 0
6, 2, 0
8, 12, 0
8, 1, 0
8, 9, 0
8, 4, 0
8, 6, 0
5, 7, 0
5, 12, 0
5, 2, 0
5, 9, 0
5, 1, 0
11, 12, 0
11, 9, 0
11, 3, 0
11, 10, 0
11, 1, 0
10, 0, 0
10, 12, 0
10, 3, 0
10, 1, 0
10, 11, 0
10, 9, 1
7, 12, 0
7, 13, 0
7, 9, 0
7, 5, 0
7, 1, 0
12, 0, 0
12, 13, 0
12, 6, 0
12, 5, 0
12, 11, 0
12, 1, 0
12, 7, 0
12, 3, 0
12, 4, 0
12, 2, 0
12, 8, 0
12, 10, 0
12, 9, 0
4, 0, 0
4, 12, 0
4, 8, 0
4, 9, 0
4, 1, 0
2, 12, 0
2, 1, 1
2, 9, 0
2, 5, 0
2, 6, 0
1, 0, 0
1, 13, 0
1, 6, 0
1, 5, 0
1, 11, 0
1, 10, 0
1, 7, 0
1, 12, 0
1, 4, 0
1, 2, 1
1, 8, 0
1, 9, 0
9, 0, 0
9, 13, 0
9, 3, 0
9, 6, 0
9, 5, 0
9, 11, 0
9, 1, 0
9, 7, 0
9, 12, 0
9, 4, 0
9, 2, 0
9, 8, 0
9, 10, 1
