0, 12, 0
0, 4, 0
0, 13, 0
0, 3, 0
0, 2, 0
0, 6, 0
0, 11, 0
0, 10, 0
13, 7, 0
13, 0, 0
13, 4, 0
13, 12, 0
13, 2, 0
13, 6, 0
13, 10, 0
13, 8, 0
13, 5, 0
13, 11, 0
13, 9, 0
3, 0, 0
3, 12, 0
3, 2, 0
3, 10, 0
3, 1, 0
6, 0, 0
6, 7, 1
6, 13, 0
6, 4, 0
6, 12, 0
6, 2, 0
6, 11, 0
6, 10, 0
8, 7, 1
8, 13, 0
8, 11, 0
8, 10, 0
5, 13, 0
5, 4, 0
5, 9, 0
11, 0, 0
11, 7, 0
11, 13, 0
11, 6, 0
11, 8, 0
11, 10, 0
11, 9, 0
10, 0, 0
10, 12, 0
10, 13, 0
10, 4, 0
10, 3, 0
10, 2, 0
10, 6, 0
10, 8, 0
10, 7, 0
10, 11, 0
7, 13, 0
7, 4, 0
7, 6, 1
7, 8, 1
7, 11, 0
7, 10, 0
12, 0, 0
12, 3, 0
12, 13, 0
12, 2, 0
12, 6, 0
12, 10, 0
4, 0, 0
4, 7, 0
4, 13, 0
4, 2, 0
4, 6, 0
4, 9, 0
4, 5, 0
4, 10, 0
2, 0, 0
2, 12, 0
2, 13, 0
2, 4, 0
2, 3, 0
2, 6, 0
2, 10, 0
1, 3, 0
9, 4, 0
9, 13, 0
9, 5, 0
9, 11, 0
