0, 3, 0
6, 1, 0
6, 2, 0
1, 6, 0
1, 11, 0
1, 2, 0
5, 7, 0
5, 2, 0
5, 8, 0
5, 9, 0
11, 4, 0
11, 10, 0
11, 1, 0
10, 3, 0
10, 4, 0
10, 11, 0
7, 8, 1
7, 9, 0
7, 5, 0
7, 2, 0
3, 0, 0
3, 10, 0
4, 11, 0
4, 10, 0
2, 7, 0
2, 9, 0
2, 6, 0
2, 8, 0
2, 5, 0
2, 1, 0
8, 7, 1
8, 9, 0
8, 5, 0
8, 2, 0
9, 7, 0
9, 8, 0
9, 5, 0
9, 2, 0
