0, 6, 0
0, 9, 0
0, 12, 0
0, 5, 0
0, 10, 0
13, 12, 0
13, 4, 0
13, 3, 0
13, 2, 0
13, 8, 0
13, 11, 0
3, 8, 0
3, 13, 0
3, 11, 0
3, 2, 1
6, 0, 0
6, 10, 0
6, 5, 0
6, 9, 0
8, 12, 0
8, 13, 0
8, 3, 0
8, 2, 0
8, 5, 0
8, 11, 0
8, 9, 0
5, 0, 0
5, 6, 0
5, 8, 0
5, 9, 0
5, 10, 0
11, 3, 0
11, 8, 0
11, 13, 0
11, 2, 0
10, 0, 0
10, 6, 0
10, 5, 0
10, 9, 0
7, 4, 0
7, 1, 0
12, 0, 0
12, 13, 0
12, 4, 0
12, 2, 0
12, 8, 0
12, 9, 0
4, 7, 0
4, 12, 0
4, 13, 0
2, 12, 0
2, 8, 0
2, 13, 0
2, 11, 0
2, 3, 1
1, 7, 0
9, 0, 0
9, 12, 0
9, 6, 0
9, 8, 0
9, 5, 0
9, 10, 0
