0, 7, 0
0, 3, 0
0, 8, 0
0, 9, 0
8, 0, 0
8, 3, 0
8, 6, 0
8, 5, 0
8, 11, 0
8, 1, 0
8, 7, 0
8, 12, 0
8, 4, 0
8, 2, 0
8, 10, 0
8, 9, 1
3, 0, 0
3, 9, 0
3, 2, 0
3, 1, 0
3, 8, 0
3, 5, 0
3, 11, 0
3, 10, 0
6, 12, 0
6, 4, 0
6, 2, 0
6, 1, 0
6, 8, 0
6, 11, 0
6, 10, 0
5, 7, 0
5, 12, 0
5, 4, 0
5, 3, 0
5, 2, 0
5, 8, 0
5, 10, 0
11, 7, 0
11, 12, 1
11, 3, 0
11, 2, 0
11, 6, 0
11, 8, 0
11, 10, 1
10, 7, 0
10, 3, 0
10, 4, 0
10, 2, 0
10, 6, 0
10, 8, 0
10, 5, 0
10, 11, 1
10, 1, 0
7, 0, 0
7, 12, 0
7, 4, 0
7, 2, 0
7, 8, 0
7, 5, 0
7, 11, 0
7, 10, 0
12, 7, 0
12, 4, 0
12, 2, 0
12, 6, 0
12, 8, 0
12, 5, 0
12, 11, 1
4, 7, 0
4, 12, 0
4, 2, 0
4, 6, 0
4, 1, 0
4, 8, 0
4, 5, 0
4, 10, 0
2, 7, 0
2, 12, 0
2, 4, 0
2, 3, 0
2, 6, 0
2, 1, 1
2, 8, 0
2, 5, 0
2, 11, 0
2, 10, 0
1, 3, 0
1, 4, 0
1, 2, 1
1, 6, 0
1, 8, 0
1, 10, 0
9, 0, 0
9, 3, 0
9, 8, 1
