0, 7, 0
0, 6, 0
0, 3, 0
3, 0, 0
3, 7, 0
3, 5, 0
3, 6, 0
4, 6, 0
4, 1, 0
4, 2, 0
7, 0, 0
7, 3, 0
7, 5, 0
7, 6, 0
2, 6, 0
2, 4, 0
2, 1, 0
6, 0, 0
6, 3, 0
6, 4, 0
6, 2, 0
6, 7, 0
6, 1, 0
5, 7, 0
5, 3, 0
1, 6, 0
1, 4, 0
1, 2, 0
