0, 1, 1
0, 9, 0
6, 3, 0
6, 4, 0
6, 5, 1
6, 10, 0
1, 0, 1
1, 9, 0
5, 6, 1
5, 4, 0
5, 3, 0
5, 10, 0
11, 7, 0
10, 6, 0
10, 8, 0
10, 5, 0
7, 8, 0
7, 11, 0
3, 6, 0
3, 4, 0
3, 5, 0
3, 2, 0
4, 3, 0
4, 5, 0
4, 6, 0
2, 3, 0
2, 9, 0
8, 7, 0
8, 10, 0
9, 0, 0
9, 2, 0
9, 1, 0
