0, 6, 0
0, 5, 0
0, 9, 0
3, 2, 0
3, 6, 0
3, 8, 0
3, 4, 1
3, 1, 0
4, 3, 1
4, 8, 0
4, 1, 0
4, 6, 0
4, 2, 0
2, 3, 0
2, 4, 0
2, 9, 0
2, 6, 0
2, 8, 0
2, 5, 0
2, 1, 1
6, 0, 0
6, 3, 0
6, 4, 0
6, 2, 0
6, 1, 0
6, 8, 0
6, 5, 0
6, 9, 0
1, 3, 0
1, 6, 0
1, 8, 0
1, 4, 0
1, 2, 1
8, 7, 0
8, 3, 0
8, 4, 0
8, 2, 0
8, 6, 0
8, 1, 0
5, 0, 0
5, 6, 0
5, 2, 0
5, 9, 0
5, 10, 0
7, 8, 0
10, 5, 0
9, 0, 0
9, 6, 0
9, 5, 0
9, 2, 0
