0, 3, 0
0, 15, 0
0, 1, 1
13, 7, 0
13, 2, 0
13, 8, 0
13, 15, 0
13, 5, 0
13, 9, 0
3, 0, 0
3, 12, 0
3, 9, 0
3, 2, 0
3, 6, 0
3, 10, 0
3, 15, 0
3, 11, 0
3, 1, 0
6, 12, 0
6, 3, 0
6, 11, 0
6, 10, 0
8, 13, 0
8, 9, 1
8, 2, 0
5, 13, 0
5, 15, 0
5, 9, 0
5, 2, 0
11, 12, 1
11, 10, 0
11, 3, 0
11, 6, 0
10, 12, 0
10, 3, 0
10, 6, 0
10, 9, 0
10, 11, 0
10, 1, 0
7, 13, 0
7, 4, 0
12, 3, 0
12, 10, 0
12, 11, 1
12, 6, 0
4, 7, 0
4, 14, 0
14, 4, 0
2, 3, 0
2, 13, 0
2, 1, 0
2, 8, 0
2, 15, 0
2, 5, 0
2, 9, 0
1, 0, 1
1, 3, 0
1, 2, 0
1, 9, 0
1, 15, 0
1, 10, 0
15, 0, 0
15, 3, 0
15, 13, 0
15, 2, 0
15, 9, 0
15, 5, 0
15, 1, 0
9, 3, 0
9, 13, 0
9, 2, 0
9, 10, 0
9, 8, 1
9, 15, 0
9, 5, 0
9, 1, 0
