0, 6, 0
0, 4, 0
0, 5, 0
0, 3, 0
3, 0, 0
3, 6, 0
3, 8, 0
3, 4, 0
3, 2, 0
4, 0, 0
4, 3, 0
4, 7, 0
4, 2, 0
4, 8, 0
4, 1, 0
7, 2, 0
7, 8, 1
7, 4, 0
7, 1, 0
2, 7, 0
2, 3, 0
2, 8, 0
2, 4, 0
2, 1, 1
6, 0, 0
6, 3, 0
6, 5, 1
8, 7, 1
8, 3, 0
8, 1, 0
8, 4, 0
8, 2, 0
5, 0, 0
5, 6, 1
1, 7, 0
1, 8, 0
1, 4, 0
1, 2, 1
