0, 7, 0
0, 6, 0
0, 2, 0
0, 1, 0
3, 9, 0
4, 7, 0
4, 9, 0
2, 0, 0
2, 7, 0
2, 1, 1
6, 0, 0
6, 5, 0
6, 1, 0
1, 0, 0
1, 7, 0
1, 6, 0
1, 2, 1
8, 5, 0
5, 6, 0
5, 8, 0
7, 0, 0
7, 1, 0
7, 4, 0
7, 2, 0
9, 3, 0
9, 4, 0
