0, 10, 0
0, 11, 0
0, 1, 1
8, 2, 0
8, 10, 0
8, 5, 0
8, 1, 0
3, 7, 0
3, 5, 0
3, 9, 0
6, 12, 0
6, 4, 0
5, 7, 0
5, 3, 0
5, 8, 0
5, 9, 0
5, 2, 0
11, 0, 0
11, 10, 0
11, 1, 0
10, 0, 0
10, 8, 0
10, 11, 0
10, 1, 0
7, 3, 0
7, 12, 0
7, 5, 0
7, 9, 0
12, 7, 0
12, 6, 0
12, 4, 0
12, 9, 0
4, 6, 0
4, 12, 0
2, 8, 0
2, 5, 0
1, 0, 1
1, 8, 0
1, 11, 0
1, 10, 0
9, 7, 0
9, 12, 0
9, 5, 0
9, 3, 0
