0, 6, 0
0, 3, 0
3, 0, 0
3, 6, 0
4, 7, 0
4, 1, 0
4, 8, 0
4, 5, 1
4, 9, 0
2, 10, 0
6, 0, 0
6, 3, 0
6, 8, 0
6, 7, 1
6, 9, 0
1, 4, 0
1, 10, 0
1, 9, 0
8, 7, 0
8, 6, 0
8, 4, 0
8, 5, 0
8, 9, 1
5, 8, 0
5, 4, 1
7, 6, 1
7, 8, 0
7, 4, 0
10, 1, 0
10, 2, 0
9, 6, 0
9, 8, 1
9, 4, 0
9, 1, 0
