0, 7, 0
0, 6, 0
0, 8, 0
0, 12, 0
0, 2, 0
13, 3, 0
13, 4, 0
13, 12, 0
13, 6, 0
3, 13, 0
3, 14, 0
3, 5, 0
3, 4, 0
6, 0, 0
6, 12, 0
6, 13, 0
6, 7, 0
6, 11, 0
8, 0, 0
8, 12, 0
8, 7, 1
8, 2, 0
5, 12, 0
5, 4, 1
5, 14, 0
5, 3, 0
11, 7, 0
11, 12, 1
11, 2, 0
11, 6, 0
11, 1, 0
11, 10, 0
11, 9, 0
10, 12, 0
10, 2, 0
10, 11, 0
10, 9, 1
7, 0, 0
7, 6, 0
7, 8, 1
7, 11, 0
7, 2, 0
12, 0, 0
12, 13, 0
12, 14, 0
12, 2, 0
12, 1, 0
12, 6, 0
12, 8, 0
12, 10, 0
12, 5, 0
12, 11, 1
12, 9, 0
4, 3, 0
4, 13, 0
4, 14, 0
4, 5, 1
14, 12, 0
14, 4, 0
14, 5, 0
14, 3, 0
2, 0, 0
2, 12, 0
2, 7, 0
2, 9, 0
2, 8, 0
2, 11, 0
2, 10, 0
1, 12, 0
1, 11, 0
9, 12, 0
9, 2, 0
9, 11, 0
9, 10, 1
