0, 6, 0
0, 15, 0
0, 5, 0
0, 11, 0
13, 12, 0
13, 9, 0
13, 15, 0
13, 1, 0
3, 7, 0
3, 12, 0
3, 8, 0
3, 2, 0
6, 0, 0
6, 15, 0
6, 5, 1
6, 11, 0
6, 9, 0
8, 7, 0
8, 3, 0
8, 4, 0
8, 12, 0
8, 2, 0
5, 0, 0
5, 6, 1
5, 15, 0
5, 11, 0
5, 9, 0
11, 0, 0
11, 6, 0
11, 14, 0
11, 5, 0
10, 14, 0
7, 3, 0
7, 8, 0
7, 4, 0
12, 3, 0
12, 1, 0
12, 8, 0
12, 13, 0
12, 2, 0
4, 7, 0
4, 8, 0
14, 11, 0
14, 10, 0
2, 12, 0
2, 8, 0
2, 3, 0
1, 12, 0
1, 13, 0
1, 9, 0
15, 0, 0
15, 6, 0
15, 13, 0
15, 5, 0
15, 9, 0
9, 6, 0
9, 13, 0
9, 15, 0
9, 5, 0
9, 1, 0
