0, 12, 0
0, 5, 0
13, 9, 0
3, 10, 0
3, 1, 0
6, 7, 1
6, 11, 0
6, 2, 0
8, 5, 0
8, 11, 0
5, 0, 0
5, 8, 0
11, 7, 0
11, 6, 0
11, 8, 0
10, 3, 0
10, 2, 0
7, 6, 1
7, 11, 0
12, 0, 0
12, 4, 0
4, 12, 0
4, 2, 0
2, 6, 0
2, 4, 0
2, 10, 0
1, 3, 0
1, 9, 0
9, 13, 0
9, 1, 0
