13, 12, 0
13, 8, 0
13, 17, 0
13, 5, 0
13, 2, 0
17, 0, 0
17, 13, 0
17, 32, 0
17, 16, 0
17, 29, 0
17, 5, 0
17, 30, 0
17, 12, 0
17, 14, 0
17, 31, 0
17, 2, 0
17, 26, 0
17, 8, 0
23, 45, 0
23, 6, 0
23, 16, 0
23, 15, 0
23, 40, 0
23, 10, 0
42, 20, 0
42, 27, 0
42, 32, 0
5, 0, 0
5, 8, 0
5, 17, 0
5, 4, 0
5, 13, 0
20, 37, 0
20, 34, 0
20, 18, 0
20, 27, 0
20, 1, 0
20, 33, 0
20, 25, 0
20, 32, 0
20, 21, 0
20, 42, 0
20, 19, 0
20, 38, 0
20, 41, 0
14, 45, 0
14, 17, 0
14, 26, 0
14, 31, 0
14, 29, 0
14, 6, 0
14, 2, 0
14, 11, 0
14, 30, 0
24, 19, 0
24, 43, 0
24, 1, 0
28, 18, 0
28, 34, 0
28, 19, 0
28, 39, 0
28, 1, 0
39, 34, 0
39, 19, 0
39, 28, 0
41, 20, 0
41, 3, 0
41, 19, 0
41, 18, 0
41, 21, 0
0, 8, 0
0, 17, 0
0, 5, 0
0, 4, 0
8, 0, 0
8, 12, 0
8, 13, 0
8, 17, 0
8, 4, 0
8, 6, 0
8, 5, 0
12, 13, 0
12, 8, 0
12, 17, 0
12, 2, 0
15, 45, 0
15, 23, 0
15, 32, 0
15, 6, 0
15, 40, 0
15, 10, 0
10, 45, 0
10, 32, 0
10, 23, 0
10, 16, 0
10, 15, 0
10, 40, 0
10, 44, 0
7, 19, 0
7, 22, 0
7, 35, 0
3, 18, 0
3, 19, 0
3, 41, 0
3, 35, 0
32, 45, 0
32, 17, 0
32, 16, 0
32, 27, 0
32, 15, 0
32, 40, 0
32, 10, 0
32, 20, 0
32, 6, 0
32, 37, 0
32, 42, 0
32, 38, 0
2, 12, 0
2, 13, 0
2, 14, 0
2, 26, 0
2, 16, 0
2, 6, 0
2, 17, 0
2, 11, 0
21, 20, 0
21, 18, 0
21, 19, 0
21, 41, 0
21, 36, 0
33, 20, 0
33, 18, 0
33, 19, 0
33, 25, 0
19, 20, 0
19, 28, 0
19, 33, 0
19, 18, 0
19, 36, 0
19, 24, 0
19, 1, 0
19, 7, 0
19, 3, 0
19, 43, 0
19, 35, 0
19, 21, 0
19, 25, 0
19, 34, 0
19, 39, 0
19, 41, 0
19, 22, 0
19, 9, 0
18, 20, 0
18, 33, 0
18, 25, 0
18, 3, 0
18, 34, 0
18, 21, 0
18, 28, 0
18, 19, 0
18, 35, 0
18, 41, 0
18, 1, 0
31, 16, 0
31, 14, 0
31, 17, 0
31, 26, 0
31, 29, 1
29, 14, 0
29, 31, 1
29, 26, 0
29, 16, 0
29, 17, 0
29, 30, 1
40, 6, 0
40, 15, 0
40, 32, 0
40, 23, 0
40, 10, 0
11, 45, 0
11, 14, 0
11, 26, 0
11, 2, 0
11, 16, 0
11, 44, 0
1, 20, 0
1, 18, 0
1, 19, 0
1, 28, 0
1, 24, 0
37, 20, 0
37, 27, 0
37, 38, 1
37, 32, 0
4, 0, 0
4, 8, 0
4, 5, 0
35, 7, 0
35, 3, 0
35, 19, 0
35, 18, 0
30, 16, 0
30, 14, 0
30, 17, 0
30, 26, 0
30, 29, 1
38, 20, 0
38, 37, 1
38, 32, 0
38, 27, 0
22, 7, 0
22, 19, 0
36, 21, 0
36, 19, 0
36, 25, 0
45, 14, 0
45, 32, 0
45, 23, 0
45, 16, 0
45, 6, 0
45, 15, 0
45, 26, 0
45, 44, 0
45, 11, 0
45, 10, 0
16, 45, 0
16, 17, 0
16, 26, 0
16, 23, 0
16, 32, 0
16, 2, 0
16, 44, 0
16, 11, 0
16, 30, 0
16, 31, 0
16, 29, 0
16, 10, 0
27, 20, 0
27, 42, 0
27, 37, 0
27, 38, 0
27, 32, 0
44, 16, 0
44, 45, 0
44, 26, 0
44, 11, 0
44, 10, 0
34, 20, 0
34, 39, 0
34, 19, 0
34, 28, 0
34, 18, 0
25, 20, 0
25, 33, 0
25, 19, 0
25, 18, 0
25, 36, 0
26, 45, 0
26, 14, 0
26, 31, 0
26, 29, 0
26, 16, 0
26, 17, 0
26, 2, 0
26, 44, 0
26, 11, 0
26, 30, 0
6, 45, 0
6, 14, 0
6, 23, 0
6, 32, 0
6, 2, 0
6, 15, 0
6, 8, 0
6, 40, 0
43, 19, 0
43, 9, 0
43, 24, 0
9, 19, 0
9, 43, 0
