0, 12, 0
0, 1, 0
0, 13, 0
0, 3, 0
0, 2, 0
13, 0, 0
13, 12, 0
13, 14, 0
13, 3, 0
13, 1, 0
13, 2, 0
13, 9, 0
3, 0, 0
3, 13, 0
3, 14, 0
3, 2, 0
3, 1, 0
3, 9, 0
6, 8, 0
6, 5, 0
8, 7, 0
8, 6, 0
8, 15, 0
8, 5, 0
5, 4, 0
5, 14, 0
5, 6, 0
5, 8, 0
5, 11, 0
5, 10, 0
11, 4, 0
11, 14, 0
11, 5, 0
11, 10, 1
10, 4, 0
10, 5, 0
10, 11, 1
7, 8, 0
7, 15, 0
12, 0, 0
12, 13, 0
12, 14, 0
12, 4, 0
12, 1, 0
4, 12, 0
4, 14, 0
4, 10, 0
4, 5, 0
4, 11, 0
4, 9, 0
14, 3, 0
14, 4, 0
14, 13, 0
14, 2, 0
14, 12, 0
14, 15, 0
14, 5, 0
14, 11, 0
14, 9, 0
2, 0, 0
2, 3, 0
2, 13, 0
2, 14, 0
2, 1, 1
1, 0, 0
1, 12, 0
1, 2, 1
1, 13, 0
1, 3, 0
15, 7, 0
15, 8, 0
15, 14, 0
9, 3, 0
9, 13, 0
9, 14, 0
9, 4, 0
