0, 16, 0
0, 2, 0
0, 13, 0
0, 14, 0
0, 9, 0
13, 0, 0
13, 2, 0
13, 16, 0
13, 6, 0
13, 8, 0
13, 15, 0
17, 7, 0
17, 3, 0
17, 4, 0
17, 18, 0
17, 8, 0
17, 10, 0
17, 1, 0
3, 7, 0
3, 8, 0
3, 17, 0
3, 4, 1
3, 1, 0
16, 0, 0
16, 8, 0
16, 13, 0
16, 9, 0
16, 2, 0
6, 15, 0
6, 8, 0
6, 13, 0
6, 5, 0
6, 2, 0
8, 3, 0
8, 13, 0
8, 17, 0
8, 4, 0
8, 2, 0
8, 16, 0
8, 6, 0
8, 15, 0
8, 5, 0
8, 1, 0
5, 6, 0
5, 8, 0
5, 15, 0
5, 2, 0
11, 18, 0
11, 7, 0
10, 7, 0
10, 17, 0
10, 1, 0
7, 3, 0
7, 17, 0
7, 18, 0
7, 1, 0
7, 11, 0
7, 10, 0
12, 14, 0
4, 3, 1
4, 8, 0
4, 15, 0
4, 17, 0
4, 1, 0
14, 0, 0
14, 12, 0
14, 9, 0
2, 0, 0
2, 13, 0
2, 16, 0
2, 6, 0
2, 8, 0
2, 15, 0
2, 5, 0
1, 7, 0
1, 3, 0
1, 4, 0
1, 17, 0
1, 8, 0
1, 15, 0
1, 10, 0
15, 13, 0
15, 4, 0
15, 2, 0
15, 6, 0
15, 8, 0
15, 5, 0
15, 1, 0
18, 7, 0
18, 17, 0
18, 11, 0
9, 0, 0
9, 16, 0
9, 14, 0
