0, 2, 0
0, 3, 0
0, 8, 0
0, 4, 0
0, 9, 0
13, 10, 0
13, 11, 0
13, 2, 0
3, 0, 0
3, 12, 0
3, 7, 0
3, 4, 0
3, 9, 0
6, 5, 1
8, 0, 0
8, 4, 0
8, 9, 1
5, 12, 0
5, 2, 0
5, 6, 1
11, 2, 0
11, 13, 0
11, 14, 0
11, 10, 0
11, 1, 0
10, 13, 0
10, 11, 0
7, 12, 0
7, 3, 0
12, 7, 0
12, 3, 0
12, 5, 0
4, 0, 0
4, 3, 0
4, 2, 0
4, 1, 0
4, 8, 0
4, 9, 0
14, 11, 0
14, 1, 0
2, 0, 0
2, 4, 0
2, 13, 0
2, 5, 0
2, 11, 0
2, 1, 0
1, 4, 0
1, 14, 0
1, 11, 0
1, 2, 0
9, 0, 0
9, 3, 0
9, 8, 1
9, 4, 0
