0, 3, 0
0, 1, 0
13, 15, 0
13, 14, 1
13, 9, 0
3, 0, 0
3, 2, 0
3, 5, 0
3, 11, 0
3, 1, 0
6, 7, 0
6, 12, 0
6, 2, 0
6, 8, 0
6, 15, 0
6, 11, 0
6, 10, 0
8, 7, 1
8, 12, 0
8, 14, 0
8, 2, 0
8, 6, 0
8, 9, 0
8, 15, 0
8, 11, 0
8, 10, 0
5, 3, 0
5, 4, 1
5, 11, 0
5, 1, 0
11, 3, 0
11, 2, 0
11, 6, 0
11, 8, 0
11, 15, 0
11, 5, 0
11, 1, 0
10, 7, 0
10, 12, 0
10, 8, 0
10, 15, 0
10, 6, 0
7, 12, 0
7, 8, 1
7, 15, 0
7, 10, 0
7, 6, 0
12, 7, 0
12, 6, 0
12, 8, 0
12, 15, 0
12, 10, 0
4, 5, 1
4, 1, 0
14, 13, 1
14, 8, 0
14, 15, 0
14, 9, 0
2, 6, 0
2, 8, 0
2, 11, 0
2, 3, 0
1, 0, 0
1, 3, 0
1, 4, 0
1, 5, 0
1, 11, 0
15, 7, 0
15, 12, 0
15, 13, 0
15, 14, 0
15, 9, 0
15, 6, 0
15, 8, 0
15, 11, 0
15, 10, 0
9, 15, 0
9, 8, 0
9, 13, 0
9, 14, 0
