13, 7, 0
13, 12, 0
13, 4, 0
13, 3, 0
13, 6, 0
13, 1, 0
17, 20, 0
17, 7, 0
17, 21, 0
17, 16, 1
17, 19, 0
17, 9, 0
17, 11, 0
17, 10, 0
5, 6, 1
5, 1, 0
5, 4, 0
5, 3, 0
11, 7, 0
11, 16, 0
11, 21, 0
11, 17, 0
11, 10, 1
1, 6, 0
1, 4, 0
1, 13, 0
1, 5, 0
1, 3, 0
20, 7, 0
20, 12, 0
20, 17, 0
20, 9, 0
20, 21, 0
20, 16, 0
20, 19, 0
20, 8, 0
20, 10, 0
4, 3, 0
4, 6, 0
4, 13, 0
4, 5, 0
4, 1, 0
14, 22, 0
14, 2, 0
8, 20, 0
8, 19, 0
8, 9, 1
15, 18, 0
15, 0, 0
15, 19, 0
15, 22, 0
22, 0, 0
22, 15, 0
22, 14, 0
22, 18, 0
22, 2, 0
0, 18, 0
0, 15, 0
0, 22, 0
3, 6, 0
3, 13, 0
3, 5, 0
3, 4, 0
3, 1, 0
16, 20, 0
16, 7, 0
16, 17, 1
16, 12, 0
16, 21, 0
16, 11, 0
16, 10, 0
6, 3, 0
6, 4, 0
6, 13, 0
6, 5, 1
6, 1, 0
10, 20, 0
10, 7, 0
10, 17, 0
10, 21, 0
10, 16, 0
10, 11, 1
10, 12, 0
7, 20, 0
7, 12, 0
7, 13, 0
7, 17, 0
7, 21, 0
7, 16, 0
7, 11, 0
7, 10, 0
12, 20, 0
12, 7, 0
12, 13, 0
12, 21, 0
12, 16, 0
12, 10, 0
2, 14, 0
2, 22, 0
21, 20, 0
21, 7, 0
21, 17, 0
21, 12, 0
21, 16, 0
21, 11, 0
21, 10, 0
19, 20, 0
19, 17, 0
19, 18, 0
19, 8, 0
19, 15, 0
19, 9, 0
18, 0, 0
18, 19, 0
18, 15, 0
18, 22, 0
9, 20, 0
9, 19, 0
9, 8, 1
9, 17, 0
