0, 16, 0
0, 15, 0
0, 14, 0
0, 17, 0
7, 3, 0
7, 4, 0
7, 5, 0
13, 16, 0
13, 9, 0
17, 0, 0
17, 12, 0
17, 14, 0
17, 16, 0
17, 8, 0
17, 15, 0
3, 7, 0
3, 4, 1
3, 5, 0
16, 0, 0
16, 13, 0
16, 14, 0
16, 17, 0
16, 15, 0
16, 9, 0
6, 18, 0
6, 11, 0
6, 2, 0
8, 12, 0
8, 2, 0
8, 17, 0
8, 1, 0
5, 7, 0
5, 3, 0
5, 4, 0
5, 9, 0
11, 18, 0
11, 6, 0
11, 10, 0
10, 11, 0
20, 18, 0
20, 12, 0
20, 19, 1
12, 20, 0
12, 17, 0
12, 2, 0
12, 18, 0
12, 19, 0
12, 8, 0
12, 1, 0
4, 7, 0
4, 3, 1
4, 5, 0
14, 0, 0
14, 16, 0
14, 15, 1
14, 17, 0
2, 18, 0
2, 12, 0
2, 6, 0
2, 8, 0
2, 1, 1
19, 20, 1
19, 12, 0
19, 18, 0
1, 12, 0
1, 8, 0
1, 2, 1
15, 0, 0
15, 16, 0
15, 14, 1
15, 17, 0
18, 20, 0
18, 12, 0
18, 2, 0
18, 6, 0
18, 19, 0
18, 11, 0
9, 16, 0
9, 13, 0
9, 5, 0
