13, 7, 0
13, 1, 0
17, 18, 1
17, 12, 0
17, 19, 0
31, 21, 0
31, 19, 0
23, 3, 0
23, 14, 0
10, 2, 0
10, 26, 0
10, 1, 0
2, 12, 0
2, 19, 0
2, 26, 0
2, 10, 0
5, 0, 0
5, 4, 1
5, 14, 0
11, 21, 0
11, 24, 0
1, 13, 0
1, 10, 0
20, 25, 0
20, 28, 0
20, 27, 0
4, 0, 0
4, 14, 0
4, 5, 1
14, 0, 0
14, 4, 0
14, 5, 0
14, 23, 0
24, 0, 0
24, 11, 0
28, 20, 0
28, 30, 0
28, 29, 0
30, 28, 0
30, 29, 1
8, 27, 0
8, 9, 0
15, 16, 1
15, 7, 0
15, 22, 0
22, 16, 0
22, 7, 0
22, 15, 0
0, 4, 0
0, 14, 0
0, 5, 0
0, 24, 0
12, 18, 0
12, 19, 0
12, 17, 0
12, 2, 0
16, 7, 0
16, 15, 1
16, 22, 0
6, 3, 0
6, 32, 0
6, 9, 0
27, 20, 0
27, 8, 0
27, 25, 0
7, 16, 0
7, 13, 0
7, 15, 0
7, 22, 0
3, 6, 0
3, 23, 0
25, 20, 0
25, 27, 0
32, 6, 0
32, 9, 0
29, 28, 0
29, 30, 1
21, 31, 0
21, 11, 0
26, 2, 0
26, 10, 0
19, 18, 0
19, 12, 0
19, 17, 0
19, 31, 0
19, 2, 0
18, 12, 0
18, 19, 0
18, 17, 1
9, 6, 0
9, 8, 0
9, 32, 0
