0, 1, 0
8, 12, 0
8, 11, 0
8, 6, 0
3, 7, 0
3, 4, 0
3, 9, 0
3, 5, 0
3, 10, 0
6, 7, 0
6, 12, 0
6, 4, 0
6, 8, 0
6, 5, 0
6, 11, 0
6, 9, 0
5, 7, 0
5, 6, 0
5, 4, 0
5, 3, 0
5, 9, 0
11, 12, 1
11, 8, 0
11, 6, 0
10, 7, 0
10, 3, 0
10, 4, 0
10, 2, 0
7, 3, 0
7, 6, 0
7, 4, 0
7, 5, 0
7, 10, 0
12, 6, 0
12, 8, 0
12, 11, 1
4, 7, 0
4, 3, 0
4, 6, 0
4, 10, 0
4, 5, 0
4, 9, 0
2, 10, 0
2, 1, 0
1, 0, 0
1, 2, 0
9, 6, 0
9, 4, 0
9, 5, 0
9, 3, 0
