13, 40, 0
13, 43, 0
13, 25, 0
17, 18, 1
17, 42, 0
17, 38, 0
17, 26, 0
17, 34, 0
23, 8, 0
23, 14, 0
23, 10, 0
23, 24, 1
42, 18, 0
42, 6, 0
42, 38, 0
42, 17, 0
5, 4, 1
5, 31, 0
5, 32, 0
20, 12, 0
20, 21, 0
20, 37, 0
20, 33, 0
20, 15, 0
20, 11, 0
14, 7, 0
14, 23, 0
14, 24, 0
14, 27, 0
14, 8, 0
14, 10, 0
24, 27, 0
24, 14, 0
24, 23, 1
24, 10, 0
28, 31, 0
28, 32, 0
28, 29, 0
39, 10, 0
39, 9, 0
41, 0, 0
41, 6, 0
0, 6, 0
0, 19, 0
0, 41, 0
0, 3, 0
8, 7, 0
8, 33, 0
8, 14, 0
8, 23, 0
8, 27, 0
8, 10, 0
12, 20, 0
12, 15, 0
12, 11, 1
15, 21, 0
15, 12, 0
15, 20, 0
15, 11, 0
10, 14, 0
10, 23, 0
10, 24, 0
10, 27, 0
10, 8, 0
10, 39, 0
10, 9, 0
7, 33, 0
7, 8, 0
7, 14, 0
7, 27, 0
3, 0, 0
3, 19, 0
3, 36, 0
32, 4, 0
32, 28, 0
32, 5, 0
32, 31, 1
2, 30, 0
2, 35, 0
2, 1, 1
21, 20, 0
21, 15, 0
33, 7, 0
33, 37, 0
33, 20, 0
33, 8, 0
19, 0, 0
19, 3, 0
19, 36, 0
18, 38, 0
18, 17, 1
18, 42, 0
31, 4, 0
31, 28, 0
31, 5, 0
31, 32, 1
31, 29, 0
29, 4, 0
29, 28, 0
29, 31, 0
29, 36, 0
40, 13, 0
40, 43, 0
40, 35, 0
11, 20, 0
11, 12, 1
11, 15, 0
1, 30, 0
1, 35, 0
1, 9, 0
1, 2, 1
37, 20, 0
37, 33, 0
4, 29, 0
4, 5, 1
4, 32, 0
4, 31, 0
35, 43, 0
35, 30, 0
35, 1, 0
35, 40, 0
35, 2, 0
30, 35, 0
30, 1, 0
30, 9, 0
30, 2, 0
38, 18, 0
38, 42, 0
38, 17, 0
38, 26, 0
22, 16, 0
22, 34, 0
36, 3, 0
36, 19, 0
36, 29, 0
16, 34, 0
16, 25, 0
16, 22, 0
27, 7, 0
27, 8, 0
27, 14, 0
27, 10, 0
27, 24, 0
34, 16, 0
34, 17, 0
34, 26, 0
34, 22, 0
25, 16, 0
25, 13, 0
25, 43, 0
26, 38, 0
26, 17, 0
26, 34, 0
6, 0, 0
6, 42, 0
6, 41, 0
43, 25, 0
43, 13, 0
43, 40, 0
43, 35, 0
9, 30, 0
9, 10, 0
9, 39, 0
9, 1, 0
