0, 7, 0
0, 8, 0
0, 2, 0
3, 6, 0
3, 1, 0
3, 5, 0
3, 10, 0
4, 2, 0
4, 10, 0
2, 0, 0
2, 7, 0
2, 4, 0
6, 3, 0
6, 10, 0
6, 5, 0
6, 1, 0
1, 3, 0
1, 5, 0
1, 6, 0
8, 7, 0
8, 0, 0
8, 9, 1
5, 3, 0
5, 1, 0
5, 6, 0
7, 0, 0
7, 2, 0
7, 8, 0
7, 9, 0
10, 3, 0
10, 4, 0
10, 6, 0
9, 7, 0
9, 8, 1
