0, 7, 0
0, 3, 0
0, 4, 0
0, 6, 0
0, 8, 0
0, 5, 0
3, 0, 0
3, 8, 0
3, 4, 0
4, 0, 0
4, 3, 0
4, 7, 0
4, 2, 0
4, 6, 0
4, 8, 0
4, 5, 0
2, 7, 0
2, 6, 0
2, 1, 0
2, 4, 0
2, 9, 0
6, 7, 0
6, 0, 0
6, 4, 0
6, 2, 0
6, 8, 0
6, 5, 1
1, 7, 0
1, 2, 0
1, 9, 0
8, 0, 0
8, 3, 0
8, 4, 0
8, 5, 0
8, 6, 0
5, 0, 0
5, 7, 0
5, 8, 0
5, 4, 0
5, 6, 1
7, 0, 0
7, 4, 0
7, 2, 0
7, 6, 0
7, 1, 0
7, 5, 0
7, 9, 0
9, 7, 0
9, 1, 0
9, 2, 0
