0, 7, 0
0, 12, 0
0, 13, 0
0, 14, 0
0, 4, 0
0, 2, 0
0, 6, 0
0, 1, 0
0, 5, 0
0, 10, 0
13, 0, 0
13, 7, 0
13, 2, 0
3, 12, 0
3, 8, 0
3, 9, 0
6, 0, 0
6, 12, 0
6, 14, 0
6, 2, 0
6, 1, 0
6, 5, 1
6, 10, 0
8, 12, 0
8, 9, 1
8, 3, 0
5, 0, 0
5, 12, 0
5, 4, 1
5, 14, 0
5, 2, 0
5, 6, 1
5, 1, 0
5, 10, 0
11, 7, 0
10, 0, 0
10, 12, 0
10, 7, 0
10, 14, 0
10, 4, 0
10, 6, 0
10, 5, 0
10, 1, 0
7, 0, 0
7, 2, 0
7, 13, 0
7, 11, 0
7, 10, 0
12, 0, 0
12, 3, 0
12, 6, 0
12, 1, 0
12, 8, 0
12, 5, 0
12, 10, 0
12, 9, 0
4, 0, 0
4, 1, 0
4, 14, 0
4, 5, 1
4, 10, 0
14, 0, 0
14, 4, 0
14, 2, 0
14, 6, 0
14, 5, 0
14, 10, 0
2, 0, 0
2, 7, 0
2, 13, 0
2, 14, 0
2, 6, 0
2, 5, 0
1, 0, 0
1, 12, 0
1, 4, 0
1, 6, 0
1, 5, 0
1, 10, 0
9, 12, 0
9, 8, 1
9, 3, 0
