0, 7, 0
0, 1, 0
0, 10, 0
6, 8, 0
6, 9, 0
6, 2, 0
1, 0, 0
1, 7, 0
1, 9, 0
1, 10, 0
5, 4, 1
5, 8, 0
5, 11, 0
11, 8, 0
11, 5, 0
11, 4, 0
11, 9, 0
10, 0, 0
10, 3, 0
10, 7, 0
10, 2, 0
10, 1, 0
10, 9, 0
7, 0, 0
7, 9, 0
7, 10, 0
7, 1, 0
3, 2, 0
3, 10, 0
3, 9, 0
4, 8, 0
4, 5, 1
4, 11, 0
2, 6, 0
2, 8, 0
2, 9, 0
2, 10, 0
2, 3, 0
8, 4, 0
8, 2, 0
8, 6, 0
8, 5, 0
8, 11, 0
8, 9, 0
9, 7, 0
9, 3, 0
9, 2, 0
9, 6, 0
9, 1, 0
9, 8, 0
9, 11, 0
9, 10, 0
