0, 15, 0
0, 8, 0
0, 14, 0
0, 11, 0
0, 9, 0
13, 14, 0
13, 11, 0
13, 9, 0
17, 18, 0
17, 6, 0
17, 5, 0
3, 4, 0
3, 2, 0
16, 12, 0
16, 14, 0
16, 10, 0
6, 18, 0
6, 17, 0
6, 5, 1
8, 0, 0
8, 15, 0
8, 14, 0
8, 9, 1
5, 18, 0
5, 6, 1
5, 17, 0
11, 0, 0
11, 13, 0
11, 14, 0
10, 16, 0
10, 12, 0
10, 18, 0
7, 4, 0
7, 2, 0
12, 16, 0
12, 14, 0
12, 10, 0
4, 7, 0
4, 3, 0
4, 2, 0
14, 0, 0
14, 12, 0
14, 13, 0
14, 16, 0
14, 1, 0
14, 8, 0
14, 15, 0
14, 11, 0
14, 9, 0
2, 7, 0
2, 3, 0
2, 19, 0
2, 4, 0
19, 2, 0
19, 1, 0
1, 14, 0
1, 19, 0
1, 15, 0
15, 0, 0
15, 8, 0
15, 14, 0
15, 9, 0
15, 1, 0
18, 6, 0
18, 17, 0
18, 5, 0
18, 10, 0
9, 0, 0
9, 15, 0
9, 8, 1
9, 14, 0
9, 13, 0
