0, 3, 0
0, 4, 0
0, 2, 0
0, 9, 0
0, 5, 0
0, 1, 0
6, 7, 1
6, 8, 1
6, 11, 0
6, 4, 0
6, 10, 0
1, 0, 0
1, 4, 0
1, 5, 0
1, 2, 1
5, 0, 0
5, 3, 0
5, 4, 0
5, 2, 0
5, 9, 0
5, 11, 0
5, 1, 0
11, 7, 0
11, 6, 0
11, 4, 0
11, 5, 0
11, 10, 1
10, 7, 0
10, 6, 0
10, 4, 0
10, 11, 1
7, 6, 1
7, 8, 1
7, 4, 0
7, 11, 0
7, 10, 0
3, 0, 0
3, 2, 1
3, 4, 0
3, 5, 0
3, 9, 0
4, 0, 0
4, 7, 0
4, 11, 0
4, 9, 0
4, 3, 0
4, 2, 0
4, 6, 0
4, 8, 0
4, 5, 0
4, 10, 0
4, 1, 0
2, 0, 0
2, 3, 1
2, 4, 0
2, 9, 0
2, 5, 0
2, 1, 1
8, 7, 1
8, 6, 1
8, 4, 0
9, 0, 0
9, 3, 0
9, 4, 0
9, 5, 0
9, 2, 0
