0, 7, 0
0, 3, 0
0, 4, 0
0, 5, 0
0, 6, 0
3, 0, 0
3, 7, 0
3, 5, 0
4, 0, 0
4, 6, 0
4, 5, 0
4, 1, 0
2, 6, 0
2, 8, 0
2, 9, 0
6, 0, 0
6, 4, 0
6, 2, 0
6, 8, 0
6, 5, 0
6, 9, 0
1, 7, 0
1, 4, 0
1, 5, 0
8, 6, 0
8, 2, 0
8, 9, 1
5, 0, 0
5, 3, 0
5, 4, 0
5, 6, 0
5, 7, 0
5, 1, 0
7, 0, 0
7, 3, 0
7, 5, 0
7, 1, 0
9, 6, 0
9, 8, 1
9, 2, 0
