13, 20, 0
13, 33, 0
13, 25, 0
13, 23, 0
13, 29, 0
13, 21, 0
13, 27, 0
13, 8, 0
13, 47, 0
13, 30, 0
17, 0, 0
17, 20, 0
17, 43, 0
17, 50, 0
17, 26, 0
17, 44, 0
17, 36, 0
23, 20, 0
23, 13, 0
23, 28, 0
23, 42, 0
23, 27, 0
23, 19, 0
23, 41, 0
23, 47, 0
46, 37, 0
46, 7, 0
46, 52, 0
46, 31, 0
46, 1, 0
20, 0, 0
20, 13, 0
20, 17, 0
20, 23, 0
20, 29, 0
20, 21, 0
20, 25, 0
20, 19, 0
20, 28, 0
20, 47, 0
20, 27, 0
34, 35, 1
34, 49, 0
34, 44, 0
34, 48, 0
34, 10, 0
14, 12, 0
14, 15, 0
14, 11, 0
14, 22, 0
14, 9, 0
24, 7, 0
24, 3, 0
24, 31, 0
24, 51, 0
24, 45, 0
24, 16, 0
24, 2, 0
24, 53, 0
28, 20, 0
28, 33, 0
28, 23, 0
28, 27, 0
28, 21, 0
28, 42, 0
28, 19, 0
28, 41, 0
28, 47, 0
15, 7, 0
15, 12, 0
15, 11, 0
15, 14, 0
15, 31, 0
15, 32, 0
15, 39, 0
15, 22, 0
15, 9, 0
41, 33, 0
41, 28, 0
41, 23, 0
41, 27, 0
41, 21, 0
41, 42, 1
41, 19, 0
41, 47, 0
0, 20, 0
0, 17, 0
0, 50, 0
0, 26, 0
0, 44, 0
8, 33, 0
8, 13, 0
8, 29, 0
8, 21, 0
8, 19, 0
8, 30, 0
51, 45, 0
51, 4, 0
51, 3, 0
51, 24, 0
51, 16, 0
51, 2, 0
51, 18, 0
51, 53, 0
51, 5, 0
3, 45, 0
3, 4, 0
3, 51, 0
3, 24, 0
3, 16, 0
3, 2, 0
3, 40, 0
3, 18, 0
3, 5, 0
38, 5, 0
47, 13, 0
47, 28, 0
47, 23, 0
47, 27, 0
47, 30, 0
47, 20, 0
47, 33, 0
47, 25, 0
47, 29, 0
47, 21, 0
47, 19, 0
47, 41, 0
10, 34, 0
10, 35, 0
10, 49, 0
10, 44, 0
10, 48, 0
7, 37, 0
7, 15, 0
7, 46, 0
7, 31, 0
7, 24, 0
33, 13, 0
33, 25, 0
33, 9, 0
33, 29, 0
33, 21, 0
33, 28, 0
33, 19, 0
33, 8, 0
33, 41, 0
33, 47, 0
33, 30, 0
32, 15, 0
32, 31, 0
32, 1, 0
2, 3, 0
2, 45, 0
2, 51, 0
2, 24, 0
2, 16, 0
2, 53, 0
2, 18, 0
2, 5, 0
21, 13, 0
21, 28, 0
21, 47, 0
21, 30, 0
21, 20, 0
21, 33, 0
21, 25, 0
21, 29, 0
21, 42, 0
21, 19, 0
21, 8, 0
21, 41, 0
25, 20, 0
25, 33, 0
25, 13, 0
25, 29, 0
25, 21, 0
25, 47, 0
25, 30, 0
19, 28, 0
19, 23, 0
19, 27, 0
19, 47, 0
19, 30, 0
19, 20, 0
19, 33, 0
19, 29, 0
19, 21, 0
19, 42, 0
19, 8, 0
19, 41, 0
49, 34, 0
49, 35, 0
49, 44, 0
49, 10, 0
48, 34, 0
48, 35, 0
48, 44, 0
48, 10, 0
31, 7, 0
31, 32, 0
31, 24, 0
31, 37, 0
31, 15, 0
31, 46, 0
31, 1, 0
39, 12, 0
39, 15, 0
39, 11, 0
39, 22, 0
39, 9, 0
29, 20, 0
29, 33, 0
29, 13, 0
29, 25, 0
29, 21, 0
29, 19, 0
29, 8, 0
29, 47, 0
29, 30, 1
40, 16, 0
40, 3, 0
40, 5, 0
40, 45, 0
11, 12, 1
11, 14, 0
11, 39, 0
11, 15, 0
11, 22, 0
11, 9, 0
5, 3, 0
5, 4, 0
5, 51, 0
5, 2, 0
5, 16, 0
5, 40, 0
5, 53, 0
5, 38, 0
5, 18, 0
5, 45, 0
37, 7, 0
37, 46, 0
37, 31, 0
4, 18, 0
4, 3, 0
4, 16, 0
4, 5, 0
4, 51, 0
35, 34, 1
35, 49, 0
35, 44, 0
35, 48, 0
35, 10, 0
30, 33, 0
30, 13, 0
30, 25, 0
30, 29, 1
30, 21, 0
30, 19, 0
30, 8, 0
30, 47, 0
42, 21, 0
42, 19, 0
42, 28, 0
42, 41, 1
42, 23, 0
22, 12, 0
22, 14, 0
22, 39, 0
22, 15, 0
22, 11, 0
22, 9, 0
36, 43, 0
36, 17, 0
36, 44, 0
45, 3, 0
45, 51, 0
45, 24, 0
45, 16, 0
45, 2, 0
45, 40, 0
45, 18, 0
45, 5, 0
16, 24, 0
16, 3, 0
16, 4, 0
16, 51, 0
16, 2, 0
16, 18, 0
16, 53, 0
16, 40, 0
16, 5, 0
16, 45, 0
27, 20, 0
27, 13, 0
27, 28, 0
27, 23, 0
27, 19, 0
27, 41, 0
27, 47, 0
1, 52, 0
1, 32, 0
1, 31, 0
1, 46, 0
53, 16, 0
53, 24, 0
53, 5, 0
53, 51, 0
53, 2, 0
44, 0, 0
44, 34, 0
44, 17, 0
44, 35, 0
44, 36, 0
44, 49, 0
44, 48, 0
44, 10, 0
12, 14, 0
12, 11, 1
12, 15, 0
12, 39, 0
12, 22, 0
12, 9, 0
18, 3, 0
18, 4, 0
18, 51, 0
18, 45, 0
18, 16, 0
18, 2, 0
18, 5, 0
52, 46, 0
52, 1, 0
50, 0, 0
50, 17, 0
50, 26, 0
26, 0, 0
26, 6, 0
26, 43, 0
26, 50, 0
26, 17, 0
6, 43, 0
6, 26, 0
43, 6, 0
43, 17, 0
43, 26, 0
43, 36, 0
9, 33, 0
9, 14, 0
9, 22, 0
9, 12, 0
9, 15, 0
9, 39, 0
9, 11, 0
