0, 7, 0
0, 12, 0
13, 16, 0
13, 7, 0
13, 11, 0
17, 8, 0
17, 4, 0
3, 9, 0
3, 5, 0
3, 1, 0
16, 7, 0
16, 6, 0
16, 13, 0
16, 11, 0
16, 10, 0
6, 16, 0
6, 7, 0
6, 5, 0
6, 11, 0
6, 10, 0
8, 4, 0
8, 17, 0
5, 6, 0
5, 3, 0
11, 16, 0
11, 6, 0
11, 13, 0
11, 10, 1
10, 16, 0
10, 6, 0
10, 7, 0
10, 11, 1
7, 0, 0
7, 16, 0
7, 13, 0
7, 10, 0
7, 6, 0
12, 0, 0
12, 15, 0
12, 4, 0
12, 14, 0
12, 2, 0
4, 12, 0
4, 15, 0
4, 8, 0
4, 14, 0
4, 17, 0
14, 12, 0
14, 4, 0
14, 15, 0
14, 2, 0
2, 12, 0
2, 15, 0
2, 14, 0
1, 3, 0
1, 9, 0
15, 12, 0
15, 4, 0
15, 14, 0
15, 2, 0
9, 3, 0
9, 1, 0
