0, 12, 0
0, 4, 0
0, 10, 0
0, 11, 0
0, 2, 0
8, 7, 0
8, 3, 0
8, 9, 0
3, 7, 0
3, 9, 0
3, 2, 0
3, 6, 0
3, 8, 0
3, 5, 0
3, 10, 0
6, 7, 0
6, 3, 0
6, 2, 0
6, 5, 1
6, 10, 0
5, 6, 1
5, 3, 0
5, 10, 0
11, 0, 0
11, 12, 0
10, 0, 0
10, 3, 0
10, 7, 0
10, 2, 0
10, 6, 0
10, 5, 0
7, 3, 0
7, 2, 0
7, 6, 0
7, 8, 0
7, 10, 0
7, 9, 0
12, 0, 0
12, 4, 0
12, 11, 0
4, 0, 0
4, 12, 0
4, 2, 0
2, 0, 0
2, 3, 0
2, 4, 0
2, 6, 0
2, 7, 0
2, 10, 0
1, 9, 0
9, 7, 0
9, 3, 0
9, 8, 0
9, 1, 0
