12, 13, 1
12, 32, 0
12, 3, 0
12, 5, 0
12, 11, 0
12, 10, 0
12, 20, 0
12, 34, 0
12, 14, 0
12, 26, 0
12, 24, 0
12, 21, 0
12, 25, 0
12, 19, 0
12, 15, 0
12, 22, 0
13, 12, 1
13, 14, 0
13, 34, 0
13, 21, 0
13, 25, 0
13, 15, 0
13, 11, 0
13, 9, 0
17, 16, 1
17, 35, 0
17, 30, 0
31, 20, 0
31, 3, 0
31, 7, 0
31, 25, 0
31, 26, 0
31, 28, 0
31, 8, 0
31, 36, 0
23, 2, 0
23, 4, 0
23, 35, 0
23, 18, 0
23, 6, 0
23, 29, 0
24, 3, 0
24, 25, 0
24, 12, 0
24, 27, 0
24, 22, 0
24, 36, 0
5, 33, 0
5, 25, 0
5, 32, 0
5, 12, 0
5, 6, 0
5, 10, 0
5, 9, 0
11, 12, 0
11, 13, 0
11, 14, 0
11, 34, 0
11, 21, 0
11, 27, 0
11, 19, 0
11, 15, 0
1, 6, 0
1, 29, 0
1, 9, 0
1, 10, 0
1, 2, 1
20, 7, 0
20, 0, 0
20, 28, 0
20, 26, 0
20, 31, 0
20, 12, 0
20, 25, 0
20, 8, 0
20, 9, 0
4, 16, 0
4, 25, 0
4, 23, 0
4, 35, 0
4, 18, 0
4, 9, 0
4, 30, 0
14, 34, 0
14, 13, 0
14, 15, 1
14, 11, 0
14, 12, 0
35, 16, 0
35, 4, 0
35, 17, 0
35, 23, 0
35, 30, 0
28, 20, 0
28, 0, 0
28, 31, 0
28, 32, 0
28, 33, 0
28, 8, 0
30, 16, 0
30, 4, 0
30, 17, 0
30, 9, 0
30, 35, 0
8, 20, 0
8, 7, 1
8, 28, 0
8, 31, 0
8, 26, 0
8, 25, 0
15, 34, 0
15, 13, 0
15, 14, 1
15, 12, 0
15, 27, 0
15, 11, 0
22, 34, 0
22, 12, 0
22, 25, 0
22, 27, 0
22, 24, 0
36, 3, 0
36, 27, 0
36, 31, 0
36, 24, 0
0, 20, 0
0, 25, 0
0, 28, 0
0, 32, 0
0, 9, 0
6, 33, 0
6, 9, 0
6, 23, 0
6, 29, 0
6, 2, 0
6, 10, 0
6, 5, 0
6, 1, 0
3, 12, 0
3, 25, 0
3, 26, 0
3, 31, 0
3, 24, 0
3, 36, 0
16, 30, 0
16, 4, 0
16, 17, 1
16, 35, 0
27, 34, 0
27, 11, 0
27, 24, 0
27, 15, 0
27, 22, 0
27, 36, 0
10, 12, 0
10, 25, 0
10, 9, 1
10, 29, 0
10, 6, 0
10, 2, 0
10, 5, 0
10, 1, 0
7, 20, 0
7, 8, 1
7, 25, 0
7, 26, 0
7, 31, 0
34, 25, 0
34, 12, 0
34, 13, 0
34, 14, 0
34, 22, 0
34, 27, 0
34, 15, 0
34, 11, 0
34, 9, 0
25, 0, 0
25, 7, 0
25, 13, 0
25, 32, 0
25, 3, 0
25, 31, 0
25, 8, 0
25, 5, 0
25, 10, 0
25, 20, 0
25, 12, 0
25, 4, 0
25, 26, 1
25, 24, 0
25, 34, 0
25, 22, 0
25, 9, 0
33, 6, 0
33, 28, 0
33, 5, 0
33, 32, 0
32, 0, 0
32, 33, 0
32, 28, 0
32, 12, 0
32, 25, 0
32, 5, 0
32, 9, 0
2, 23, 0
2, 29, 0
2, 6, 0
2, 1, 1
2, 10, 0
2, 9, 0
21, 12, 0
21, 19, 0
21, 13, 0
21, 11, 0
29, 9, 0
29, 23, 0
29, 2, 0
29, 18, 0
29, 6, 0
29, 10, 0
29, 1, 0
19, 21, 0
19, 12, 0
19, 11, 0
26, 20, 0
26, 3, 0
26, 7, 0
26, 25, 1
26, 31, 0
26, 12, 0
26, 8, 0
26, 9, 0
18, 4, 0
18, 9, 0
18, 23, 0
18, 29, 0
9, 0, 0
9, 13, 0
9, 26, 0
9, 18, 0
9, 6, 0
9, 29, 0
9, 5, 0
9, 1, 0
9, 20, 0
9, 34, 0
9, 4, 0
9, 25, 0
9, 32, 0
9, 2, 0
9, 30, 0
9, 10, 1
