0, 4, 0
0, 10, 0
0, 2, 0
3, 6, 0
3, 1, 0
3, 10, 0
4, 0, 0
4, 10, 0
2, 0, 0
2, 8, 0
2, 5, 0
2, 9, 0
6, 3, 0
6, 10, 0
6, 1, 0
1, 3, 0
1, 6, 0
8, 2, 0
8, 9, 0
5, 7, 0
5, 2, 0
5, 9, 0
7, 5, 0
10, 0, 0
10, 3, 0
10, 4, 0
10, 6, 0
9, 8, 0
9, 5, 0
9, 2, 0
