0, 16, 0
0, 13, 0
0, 2, 0
13, 0, 0
13, 16, 0
13, 2, 0
13, 18, 0
13, 5, 0
13, 1, 0
17, 12, 0
17, 4, 0
17, 9, 0
17, 8, 0
17, 11, 0
17, 10, 0
3, 19, 0
3, 4, 0
3, 14, 0
16, 0, 0
16, 1, 0
16, 13, 0
16, 2, 0
6, 7, 1
6, 12, 0
6, 8, 0
6, 15, 0
8, 7, 0
8, 12, 0
8, 17, 0
8, 6, 0
8, 9, 0
8, 15, 0
8, 1, 0
5, 18, 0
5, 13, 0
5, 1, 0
11, 12, 0
11, 4, 0
11, 17, 0
11, 10, 0
10, 4, 0
10, 17, 0
10, 11, 0
10, 9, 0
7, 6, 1
7, 8, 0
7, 15, 0
12, 4, 0
12, 17, 0
12, 6, 0
12, 8, 0
12, 15, 0
12, 11, 0
12, 9, 0
4, 12, 0
4, 14, 0
4, 3, 0
4, 17, 0
4, 11, 0
4, 10, 0
14, 3, 0
14, 19, 0
14, 4, 0
2, 16, 0
2, 18, 0
2, 13, 0
2, 0, 0
19, 3, 0
19, 14, 0
1, 16, 0
1, 8, 0
1, 15, 0
1, 5, 0
1, 13, 0
15, 7, 0
15, 6, 0
15, 8, 0
15, 12, 0
15, 1, 0
18, 13, 0
18, 5, 0
18, 2, 0
9, 12, 0
9, 8, 0
9, 17, 0
9, 10, 0
