13, 41, 0
13, 43, 0
13, 31, 0
13, 35, 0
13, 37, 0
13, 27, 0
13, 46, 0
13, 11, 0
13, 1, 0
17, 34, 0
17, 25, 0
17, 31, 0
17, 29, 0
17, 38, 0
17, 44, 0
23, 43, 0
23, 31, 0
23, 35, 0
23, 2, 0
23, 41, 0
23, 22, 1
23, 10, 0
42, 33, 0
42, 38, 0
42, 15, 0
42, 32, 0
46, 0, 0
46, 13, 0
46, 28, 0
46, 37, 0
46, 27, 0
46, 11, 0
46, 9, 0
20, 14, 0
20, 26, 0
34, 21, 0
34, 2, 0
34, 17, 0
34, 29, 0
14, 20, 0
14, 16, 0
14, 30, 0
24, 33, 0
24, 4, 0
24, 18, 0
24, 8, 0
24, 48, 0
24, 5, 0
28, 7, 0
28, 0, 0
28, 16, 0
28, 6, 0
28, 46, 0
28, 11, 0
28, 9, 0
39, 41, 0
39, 31, 0
39, 35, 0
41, 13, 0
41, 43, 0
41, 23, 0
41, 31, 0
41, 35, 0
41, 39, 0
41, 11, 0
41, 10, 0
0, 40, 0
0, 28, 0
0, 46, 0
0, 11, 0
0, 9, 0
8, 18, 0
8, 19, 0
8, 4, 0
8, 48, 0
8, 24, 0
33, 4, 0
33, 31, 0
33, 24, 0
33, 42, 0
33, 15, 0
33, 5, 0
15, 42, 0
15, 32, 0
15, 33, 0
47, 12, 0
47, 26, 0
10, 31, 0
10, 23, 0
10, 2, 0
10, 35, 0
10, 41, 0
10, 22, 0
7, 16, 0
7, 6, 1
7, 28, 0
3, 45, 0
3, 48, 0
32, 38, 0
32, 15, 0
32, 42, 0
2, 34, 0
2, 23, 0
2, 31, 0
2, 29, 0
2, 21, 0
2, 35, 0
2, 22, 0
2, 10, 0
21, 34, 0
21, 2, 0
21, 29, 0
19, 18, 1
19, 8, 0
19, 4, 0
18, 19, 1
18, 8, 0
18, 48, 0
18, 4, 0
18, 24, 0
31, 2, 0
31, 13, 0
31, 17, 0
31, 48, 0
31, 23, 0
31, 38, 0
31, 29, 0
31, 10, 0
31, 33, 0
31, 4, 0
31, 25, 0
31, 35, 0
31, 39, 0
31, 41, 0
31, 22, 0
29, 21, 0
29, 34, 0
29, 17, 0
29, 31, 0
29, 2, 0
40, 0, 0
40, 27, 0
40, 11, 0
11, 0, 0
11, 43, 0
11, 13, 0
11, 28, 0
11, 41, 0
11, 27, 0
11, 1, 0
11, 40, 0
11, 46, 0
11, 9, 0
5, 33, 0
5, 4, 1
5, 24, 0
37, 27, 0
37, 13, 0
37, 46, 0
37, 1, 0
4, 33, 0
4, 31, 0
4, 24, 0
4, 18, 0
4, 19, 0
4, 8, 0
4, 5, 1
35, 13, 0
35, 43, 0
35, 31, 0
35, 23, 0
35, 2, 0
35, 39, 0
35, 41, 0
35, 10, 0
30, 16, 0
30, 14, 0
38, 25, 0
38, 31, 0
38, 32, 0
38, 42, 0
38, 44, 0
38, 17, 0
22, 2, 0
22, 31, 0
22, 23, 1
22, 10, 0
36, 12, 0
45, 3, 0
16, 7, 0
16, 6, 0
16, 14, 0
16, 28, 0
16, 30, 0
27, 13, 0
27, 37, 0
27, 40, 0
27, 46, 0
27, 11, 0
27, 1, 0
1, 37, 0
1, 27, 0
1, 13, 0
1, 11, 0
44, 25, 0
44, 38, 0
44, 17, 0
48, 18, 0
48, 3, 0
48, 8, 0
48, 31, 0
48, 24, 0
12, 47, 0
12, 36, 0
25, 17, 0
25, 38, 0
25, 44, 0
25, 31, 0
26, 20, 0
26, 47, 0
6, 7, 1
6, 16, 0
6, 28, 0
43, 11, 0
43, 13, 0
43, 41, 0
43, 23, 0
43, 35, 0
9, 0, 0
9, 28, 0
9, 46, 0
9, 11, 0
