0, 7, 0
0, 6, 0
0, 1, 0
13, 12, 1
13, 11, 1
3, 12, 0
3, 4, 0
3, 10, 0
6, 0, 0
6, 7, 0
6, 1, 0
8, 7, 0
8, 15, 0
8, 2, 0
8, 14, 0
8, 9, 0
5, 2, 0
5, 4, 1
5, 10, 0
11, 12, 1
11, 13, 1
11, 10, 0
10, 3, 0
10, 4, 0
10, 2, 0
10, 5, 0
10, 11, 0
10, 12, 0
7, 0, 0
7, 14, 0
7, 2, 0
7, 6, 0
7, 1, 0
7, 8, 0
7, 9, 0
12, 3, 0
12, 13, 1
12, 11, 1
12, 10, 0
4, 3, 0
4, 2, 0
4, 5, 1
4, 10, 0
14, 7, 0
14, 8, 0
14, 15, 0
14, 2, 0
2, 7, 0
2, 4, 0
2, 14, 0
2, 9, 0
2, 8, 0
2, 5, 0
2, 10, 0
1, 0, 0
1, 6, 0
1, 7, 0
15, 8, 0
15, 14, 0
9, 7, 0
9, 8, 0
9, 2, 0
