0, 8, 0
3, 6, 0
3, 4, 1
3, 5, 1
3, 10, 0
4, 3, 1
4, 10, 0
2, 7, 0
2, 1, 0
2, 8, 0
2, 9, 0
6, 7, 0
6, 3, 0
6, 1, 0
6, 5, 0
6, 10, 0
1, 7, 0
1, 6, 0
1, 2, 0
1, 9, 0
8, 0, 0
8, 2, 0
5, 3, 1
5, 10, 0
5, 6, 0
7, 2, 0
7, 6, 0
7, 9, 0
7, 1, 0
10, 3, 0
10, 4, 0
10, 5, 0
10, 6, 0
9, 7, 0
9, 2, 0
9, 1, 0
