0, 12, 0
0, 13, 0
0, 14, 0
0, 6, 0
0, 8, 0
0, 1, 0
13, 0, 0
13, 12, 0
13, 9, 0
13, 2, 0
13, 6, 0
13, 8, 0
13, 10, 0
13, 11, 0
13, 1, 0
3, 7, 0
3, 6, 0
3, 9, 0
3, 11, 0
3, 10, 0
6, 7, 0
6, 3, 0
6, 13, 0
6, 4, 0
6, 0, 0
6, 8, 0
6, 10, 0
6, 11, 0
6, 9, 0
8, 0, 0
8, 13, 0
8, 4, 0
8, 2, 0
8, 6, 0
8, 5, 0
8, 11, 0
8, 1, 0
5, 4, 1
5, 8, 0
5, 11, 0
11, 7, 0
11, 3, 0
11, 13, 0
11, 4, 0
11, 6, 0
11, 8, 0
11, 5, 0
10, 6, 0
10, 13, 0
10, 3, 0
10, 9, 0
7, 6, 0
7, 11, 0
7, 3, 0
12, 0, 0
12, 13, 0
12, 14, 0
4, 6, 0
4, 8, 0
4, 5, 1
4, 11, 0
14, 0, 0
14, 12, 0
2, 8, 0
2, 13, 0
2, 1, 1
1, 0, 0
1, 8, 0
1, 13, 0
1, 2, 1
9, 6, 0
9, 13, 0
9, 3, 0
9, 10, 0
