0, 3, 0
0, 9, 0
0, 5, 0
0, 6, 0
3, 0, 0
3, 5, 0
3, 9, 0
4, 5, 0
4, 9, 0
2, 7, 0
2, 8, 0
6, 0, 0
6, 10, 0
1, 7, 0
8, 10, 0
8, 2, 0
5, 0, 0
5, 3, 0
5, 4, 0
5, 9, 0
7, 2, 0
7, 1, 0
10, 6, 0
10, 8, 0
9, 0, 0
9, 3, 0
9, 4, 0
9, 5, 0
