0, 6, 0
0, 4, 0
0, 11, 0
0, 9, 0
13, 3, 0
13, 2, 0
13, 12, 0
3, 13, 0
3, 2, 1
16, 15, 0
16, 14, 0
16, 5, 0
16, 1, 0
6, 0, 0
6, 4, 0
6, 11, 0
6, 9, 0
8, 10, 0
8, 1, 0
5, 16, 0
5, 14, 0
5, 15, 0
5, 9, 0
11, 0, 0
11, 6, 0
11, 4, 0
11, 9, 0
10, 8, 0
10, 2, 0
7, 12, 0
12, 7, 0
12, 13, 0
4, 0, 0
4, 6, 0
4, 11, 0
14, 16, 0
14, 15, 1
14, 5, 0
2, 3, 1
2, 13, 0
2, 10, 0
1, 16, 0
1, 8, 0
15, 16, 0
15, 14, 1
15, 5, 0
9, 0, 0
9, 6, 0
9, 5, 0
9, 11, 0
