13, 21, 0
13, 12, 1
13, 22, 0
13, 1, 0
17, 16, 0
17, 0, 0
17, 4, 0
17, 15, 0
23, 20, 0
23, 5, 0
5, 20, 0
5, 23, 0
11, 0, 0
11, 3, 0
11, 14, 0
11, 12, 0
11, 6, 0
11, 9, 0
11, 10, 0
1, 21, 0
1, 12, 0
1, 19, 0
1, 13, 0
1, 22, 0
20, 19, 0
20, 5, 0
20, 23, 0
4, 0, 0
4, 16, 0
4, 17, 0
4, 3, 0
4, 18, 0
4, 8, 0
4, 15, 0
14, 0, 0
14, 12, 0
14, 3, 0
14, 6, 0
14, 11, 0
14, 9, 0
24, 16, 0
24, 2, 0
8, 18, 0
8, 3, 0
8, 4, 0
15, 4, 0
15, 17, 0
22, 21, 1
22, 12, 0
22, 13, 0
22, 1, 0
0, 12, 0
0, 4, 0
0, 14, 0
0, 2, 0
0, 16, 0
0, 6, 0
0, 17, 0
0, 11, 0
0, 10, 0
3, 16, 0
3, 6, 0
3, 11, 0
3, 10, 0
3, 7, 0
3, 12, 0
3, 4, 0
3, 25, 0
3, 2, 0
3, 14, 0
3, 8, 0
3, 9, 0
16, 0, 0
16, 3, 0
16, 4, 0
16, 17, 0
16, 24, 0
6, 0, 0
6, 3, 0
6, 14, 0
6, 12, 0
6, 10, 0
6, 11, 0
6, 9, 0
10, 0, 0
10, 3, 0
10, 7, 0
10, 6, 0
10, 11, 0
10, 9, 0
7, 3, 0
7, 25, 0
7, 10, 0
12, 0, 0
12, 3, 0
12, 13, 1
12, 14, 0
12, 11, 0
12, 21, 0
12, 6, 0
12, 22, 0
12, 1, 0
25, 7, 0
25, 3, 0
25, 26, 1
25, 2, 0
26, 25, 1
26, 2, 0
2, 0, 0
2, 3, 0
2, 25, 0
2, 26, 0
2, 24, 0
21, 12, 0
21, 13, 0
21, 22, 1
21, 1, 0
19, 20, 0
19, 1, 0
18, 8, 0
18, 4, 0
9, 3, 0
9, 10, 0
9, 14, 0
9, 11, 0
9, 6, 0
