13, 7, 0
13, 16, 0
13, 12, 0
13, 14, 1
13, 2, 0
17, 18, 1
17, 14, 0
17, 19, 0
17, 15, 0
17, 2, 0
5, 16, 0
5, 3, 1
5, 2, 0
5, 12, 0
11, 0, 0
11, 6, 0
11, 19, 0
11, 20, 0
11, 10, 1
1, 3, 0
1, 4, 0
1, 22, 0
1, 12, 0
20, 0, 0
20, 18, 0
20, 21, 0
20, 6, 0
20, 19, 0
20, 9, 0
20, 11, 0
20, 10, 0
4, 16, 0
4, 3, 1
4, 12, 0
4, 22, 0
4, 1, 0
14, 7, 0
14, 18, 0
14, 13, 1
14, 17, 0
14, 2, 0
14, 16, 0
14, 15, 0
8, 21, 0
8, 6, 0
15, 18, 0
15, 14, 0
15, 19, 0
15, 17, 0
15, 2, 0
22, 7, 0
22, 12, 0
22, 4, 0
22, 2, 0
22, 16, 0
22, 1, 0
0, 20, 0
0, 21, 0
0, 18, 0
0, 6, 0
0, 19, 0
0, 9, 0
0, 11, 0
0, 10, 0
3, 16, 0
3, 12, 0
3, 4, 1
3, 5, 1
3, 1, 0
16, 7, 0
16, 3, 0
16, 13, 0
16, 14, 0
16, 4, 0
16, 2, 0
16, 5, 0
16, 22, 0
16, 12, 0
6, 20, 0
6, 0, 0
6, 21, 0
6, 10, 0
6, 19, 0
6, 8, 0
6, 18, 0
6, 11, 0
6, 9, 0
10, 20, 0
10, 0, 0
10, 6, 0
10, 19, 0
10, 11, 1
10, 9, 1
7, 12, 0
7, 13, 0
7, 14, 0
7, 2, 0
7, 16, 0
7, 22, 0
12, 7, 0
12, 3, 0
12, 13, 0
12, 4, 0
12, 2, 0
12, 16, 0
12, 5, 0
12, 22, 0
12, 1, 0
2, 7, 0
2, 12, 0
2, 13, 0
2, 14, 0
2, 16, 0
2, 17, 0
2, 19, 0
2, 15, 0
2, 18, 0
2, 22, 0
2, 5, 0
21, 20, 0
21, 0, 0
21, 6, 0
21, 19, 0
21, 8, 0
21, 9, 0
19, 20, 0
19, 0, 0
19, 17, 0
19, 2, 0
19, 21, 0
19, 6, 0
19, 9, 0
19, 15, 0
19, 18, 0
19, 11, 0
19, 10, 0
18, 20, 0
18, 0, 0
18, 14, 0
18, 2, 0
18, 6, 0
18, 19, 0
18, 15, 0
18, 17, 1
9, 20, 0
9, 0, 0
9, 21, 0
9, 6, 0
9, 19, 0
9, 10, 1
