0, 7, 0
0, 14, 0
0, 8, 0
0, 15, 0
0, 5, 0
13, 6, 0
13, 1, 0
13, 2, 0
17, 16, 0
17, 12, 0
17, 2, 0
17, 6, 0
3, 6, 0
3, 4, 1
3, 14, 0
3, 9, 0
3, 1, 0
16, 6, 0
16, 17, 0
16, 2, 0
6, 12, 0
6, 13, 0
6, 14, 0
6, 9, 0
6, 4, 0
6, 3, 0
6, 16, 0
6, 17, 0
6, 2, 0
6, 1, 0
8, 7, 1
8, 15, 0
8, 14, 0
8, 0, 0
5, 0, 0
5, 11, 0
5, 10, 0
11, 5, 0
11, 10, 1
10, 5, 0
10, 11, 1
7, 0, 0
7, 15, 0
7, 8, 1
7, 14, 0
12, 6, 0
12, 17, 0
4, 6, 0
4, 9, 0
4, 3, 1
4, 1, 0
14, 0, 0
14, 7, 0
14, 3, 0
14, 6, 0
14, 8, 0
14, 15, 0
14, 9, 0
2, 16, 0
2, 6, 0
2, 13, 0
2, 17, 0
2, 1, 0
1, 3, 0
1, 13, 0
1, 4, 0
1, 2, 0
1, 6, 0
1, 9, 0
15, 0, 0
15, 7, 0
15, 8, 0
15, 14, 0
9, 6, 0
9, 4, 0
9, 14, 0
9, 3, 0
9, 1, 0
