0, 3, 0
0, 9, 0
0, 2, 0
8, 7, 0
8, 12, 0
8, 4, 0
3, 0, 0
3, 2, 0
3, 9, 0
3, 5, 0
3, 1, 0
6, 12, 0
6, 5, 0
6, 11, 0
5, 6, 0
5, 9, 0
5, 3, 0
5, 1, 0
11, 12, 0
11, 6, 0
10, 12, 0
10, 4, 0
7, 8, 0
12, 6, 0
12, 8, 0
12, 4, 0
12, 11, 0
12, 10, 0
4, 12, 0
4, 8, 0
4, 10, 0
2, 0, 0
2, 3, 0
2, 9, 0
1, 3, 0
1, 5, 0
1, 9, 0
9, 0, 0
9, 3, 0
9, 2, 0
9, 5, 0
9, 1, 0
