12, 18, 0
12, 19, 0
12, 9, 0
13, 14, 0
13, 6, 0
13, 36, 0
13, 15, 0
13, 17, 0
13, 22, 0
13, 9, 0
17, 6, 0
17, 13, 0
17, 28, 0
17, 22, 0
17, 36, 0
31, 25, 0
31, 28, 0
31, 39, 0
31, 21, 0
31, 14, 0
31, 36, 0
31, 15, 0
31, 22, 0
31, 1, 0
23, 37, 0
23, 4, 0
23, 25, 0
23, 21, 0
23, 11, 0
23, 10, 0
24, 27, 0
24, 29, 0
24, 11, 0
24, 30, 0
5, 18, 0
5, 33, 0
5, 16, 0
5, 19, 0
11, 37, 0
11, 24, 0
11, 23, 0
11, 30, 0
1, 4, 0
1, 25, 0
1, 31, 0
1, 2, 1
1, 21, 0
1, 39, 0
1, 10, 0
20, 0, 0
20, 26, 0
21, 4, 0
21, 25, 0
21, 31, 0
21, 23, 0
21, 2, 0
21, 39, 0
21, 1, 0
4, 25, 0
4, 23, 0
4, 2, 0
4, 21, 0
4, 10, 0
4, 1, 0
14, 13, 0
14, 28, 0
14, 31, 0
14, 15, 0
14, 22, 0
14, 36, 0
39, 21, 0
39, 1, 0
39, 31, 0
39, 2, 0
35, 16, 0
35, 3, 0
35, 8, 0
35, 32, 0
28, 14, 0
28, 22, 0
28, 31, 0
28, 6, 0
28, 15, 0
28, 17, 0
28, 36, 0
30, 11, 0
30, 24, 0
8, 3, 0
8, 35, 0
15, 13, 0
15, 28, 0
15, 31, 0
15, 14, 0
15, 22, 0
15, 36, 0
22, 13, 0
22, 14, 0
22, 31, 0
22, 28, 0
22, 15, 0
22, 17, 0
22, 36, 0
36, 13, 0
36, 28, 0
36, 22, 0
36, 31, 0
36, 14, 0
36, 15, 0
36, 17, 0
0, 20, 0
0, 26, 0
6, 28, 0
6, 13, 0
6, 17, 0
6, 9, 0
3, 8, 0
3, 38, 0
3, 35, 0
16, 34, 0
16, 35, 0
16, 5, 0
16, 32, 0
16, 33, 0
38, 3, 0
27, 7, 0
27, 29, 0
27, 26, 0
27, 24, 0
10, 4, 0
10, 25, 0
10, 23, 0
10, 1, 0
7, 27, 0
7, 26, 0
34, 16, 0
34, 33, 1
25, 4, 0
25, 31, 0
25, 23, 0
25, 21, 0
25, 1, 0
25, 10, 0
33, 16, 0
33, 34, 1
33, 5, 0
32, 16, 0
32, 35, 0
2, 21, 0
2, 4, 0
2, 39, 0
2, 1, 1
37, 11, 0
37, 23, 0
29, 27, 0
29, 24, 0
19, 18, 1
19, 12, 0
19, 5, 0
26, 20, 0
26, 0, 0
26, 7, 0
26, 27, 0
18, 12, 0
18, 19, 1
18, 5, 0
9, 12, 0
9, 13, 0
9, 6, 0
