0, 12, 0
0, 1, 0
0, 4, 0
0, 3, 0
13, 11, 0
13, 1, 0
3, 0, 0
3, 4, 1
3, 1, 0
6, 5, 0
6, 10, 0
8, 5, 0
5, 6, 0
5, 8, 0
11, 13, 0
11, 10, 0
10, 6, 0
10, 11, 0
10, 1, 0
7, 2, 0
7, 9, 0
12, 0, 0
12, 9, 0
4, 0, 0
4, 3, 1
4, 1, 0
2, 7, 0
1, 0, 0
1, 3, 0
1, 13, 0
1, 4, 0
1, 10, 0
9, 7, 0
9, 12, 0
