13, 6, 0
13, 14, 0
17, 3, 0
17, 9, 0
17, 2, 0
17, 18, 0
17, 10, 0
17, 1, 0
5, 21, 0
5, 12, 0
5, 19, 0
5, 14, 0
11, 20, 0
11, 16, 0
11, 8, 0
11, 15, 0
1, 18, 0
1, 17, 0
1, 2, 1
20, 16, 0
20, 11, 0
4, 18, 0
4, 8, 0
4, 15, 0
14, 21, 0
14, 19, 0
14, 13, 0
14, 5, 0
8, 18, 0
8, 4, 0
8, 15, 0
8, 11, 0
15, 18, 0
15, 4, 0
15, 8, 0
15, 11, 0
0, 6, 0
0, 9, 0
0, 10, 0
3, 18, 0
3, 17, 0
3, 2, 1
16, 20, 0
16, 11, 0
6, 0, 0
6, 19, 0
6, 13, 0
6, 10, 0
10, 0, 0
10, 6, 0
10, 17, 0
10, 9, 1
7, 12, 0
12, 7, 0
12, 5, 0
2, 18, 0
2, 3, 1
2, 17, 0
2, 1, 1
21, 19, 0
21, 14, 0
21, 5, 0
19, 21, 0
19, 6, 0
19, 14, 0
19, 5, 0
18, 3, 0
18, 4, 0
18, 17, 0
18, 2, 0
18, 8, 0
18, 15, 0
18, 1, 0
9, 0, 0
9, 17, 0
9, 10, 1
