0, 4, 0
0, 9, 0
8, 12, 0
8, 5, 0
8, 3, 0
3, 12, 0
3, 8, 0
3, 5, 0
3, 6, 0
6, 7, 0
6, 3, 0
6, 2, 0
5, 12, 0
5, 8, 0
5, 10, 0
5, 4, 0
5, 3, 0
11, 4, 0
11, 10, 1
11, 1, 0
10, 12, 0
10, 4, 0
10, 5, 0
10, 11, 1
10, 1, 0
7, 6, 0
7, 2, 0
12, 3, 0
12, 8, 0
12, 5, 0
12, 10, 0
12, 1, 0
4, 0, 0
4, 9, 0
4, 5, 0
4, 11, 0
4, 10, 0
2, 7, 0
2, 6, 0
2, 9, 0
1, 12, 0
1, 11, 0
1, 10, 0
9, 0, 0
9, 4, 0
9, 2, 0
