0, 7, 0
0, 3, 0
0, 4, 0
0, 6, 0
0, 8, 0
0, 1, 0
3, 0, 0
3, 8, 0
4, 0, 0
4, 6, 0
4, 7, 0
4, 1, 0
2, 1, 0
2, 9, 0
6, 0, 0
6, 7, 1
6, 4, 0
6, 1, 0
1, 0, 0
1, 6, 0
1, 2, 0
1, 4, 0
1, 9, 0
8, 0, 0
8, 3, 0
5, 10, 0
5, 9, 0
7, 0, 0
7, 6, 1
7, 4, 0
10, 5, 0
10, 9, 0
9, 1, 0
9, 10, 0
9, 5, 0
9, 2, 0
