13, 0, 0
13, 7, 0
13, 3, 0
13, 16, 0
13, 5, 0
13, 11, 0
13, 1, 0
13, 20, 0
13, 12, 0
13, 4, 0
13, 2, 0
13, 21, 0
13, 18, 0
13, 9, 0
17, 18, 0
17, 0, 0
17, 7, 0
17, 10, 0
5, 7, 0
5, 3, 0
5, 13, 0
5, 2, 0
5, 18, 0
5, 6, 0
5, 10, 0
5, 0, 0
5, 9, 0
11, 20, 0
11, 12, 0
11, 4, 0
11, 14, 0
11, 21, 0
11, 16, 0
11, 19, 0
11, 8, 0
11, 15, 0
11, 13, 0
1, 20, 0
1, 16, 0
1, 8, 0
1, 13, 0
20, 4, 0
20, 13, 0
20, 16, 0
20, 8, 0
20, 11, 0
20, 1, 0
4, 20, 0
4, 16, 0
4, 13, 0
4, 21, 0
4, 19, 0
4, 8, 0
4, 11, 0
14, 12, 0
14, 16, 0
14, 19, 0
14, 8, 0
14, 15, 0
14, 11, 0
8, 20, 0
8, 12, 0
8, 4, 0
8, 14, 0
8, 21, 0
8, 16, 0
8, 19, 0
8, 15, 0
8, 11, 0
8, 1, 0
15, 16, 0
15, 12, 0
15, 8, 0
15, 14, 0
15, 11, 0
0, 7, 0
0, 3, 0
0, 13, 0
0, 17, 0
0, 2, 0
0, 18, 0
0, 9, 0
0, 5, 0
0, 10, 0
3, 7, 0
3, 0, 0
3, 13, 0
3, 2, 1
3, 18, 0
3, 6, 0
3, 9, 0
3, 5, 0
3, 10, 0
16, 20, 0
16, 12, 0
16, 4, 0
16, 13, 0
16, 21, 0
16, 14, 0
16, 19, 0
16, 8, 0
16, 15, 0
16, 11, 0
16, 1, 0
6, 7, 1
6, 3, 0
6, 2, 0
6, 5, 0
6, 9, 0
10, 0, 0
10, 3, 0
10, 7, 0
10, 17, 0
10, 2, 0
10, 18, 0
10, 5, 0
10, 9, 0
7, 0, 0
7, 3, 0
7, 13, 0
7, 17, 0
7, 2, 0
7, 6, 1
7, 9, 0
7, 5, 0
7, 10, 0
12, 21, 0
12, 13, 0
12, 14, 0
12, 16, 0
12, 8, 0
12, 15, 0
12, 11, 0
2, 7, 0
2, 3, 1
2, 13, 0
2, 6, 0
2, 10, 0
2, 0, 0
2, 5, 0
2, 9, 0
21, 12, 0
21, 4, 0
21, 13, 0
21, 16, 0
21, 19, 0
21, 8, 0
21, 11, 0
19, 21, 0
19, 4, 0
19, 14, 0
19, 16, 0
19, 8, 0
19, 11, 0
18, 0, 0
18, 3, 0
18, 13, 0
18, 17, 0
18, 9, 0
18, 5, 0
18, 10, 0
9, 7, 0
9, 3, 0
9, 13, 0
9, 2, 0
9, 18, 0
9, 6, 0
9, 0, 0
9, 5, 0
9, 10, 0
