13, 20, 0
13, 31, 0
13, 18, 0
13, 6, 0
13, 30, 0
13, 8, 0
13, 10, 0
13, 9, 0
17, 3, 0
17, 23, 0
17, 26, 0
17, 29, 0
17, 21, 0
17, 27, 0
17, 11, 0
31, 20, 0
31, 13, 0
31, 32, 1
31, 18, 0
31, 8, 0
31, 9, 0
23, 3, 0
23, 17, 0
23, 26, 0
23, 29, 0
23, 21, 0
23, 27, 0
23, 11, 0
10, 20, 0
10, 0, 0
10, 13, 0
10, 2, 0
10, 30, 0
10, 8, 0
10, 5, 0
10, 22, 0
10, 1, 0
2, 20, 0
2, 0, 0
2, 1, 0
2, 9, 0
2, 6, 0
2, 30, 0
2, 8, 0
2, 5, 0
2, 22, 0
2, 10, 0
5, 0, 0
5, 20, 0
5, 2, 0
5, 6, 0
5, 1, 0
5, 8, 0
5, 10, 0
5, 22, 0
5, 30, 0
11, 7, 0
11, 3, 0
11, 28, 0
11, 26, 0
11, 23, 0
11, 29, 0
11, 21, 0
11, 27, 0
11, 17, 0
1, 0, 1
1, 20, 0
1, 9, 0
1, 2, 0
1, 6, 0
1, 8, 0
1, 5, 0
1, 10, 0
1, 30, 0
20, 0, 0
20, 13, 0
20, 31, 0
20, 2, 0
20, 18, 0
20, 10, 0
20, 8, 0
20, 1, 0
20, 5, 0
20, 22, 0
20, 9, 0
4, 25, 0
4, 24, 0
4, 16, 0
4, 14, 0
4, 19, 0
4, 15, 0
4, 22, 0
14, 4, 0
14, 25, 0
14, 24, 0
14, 16, 0
14, 19, 0
14, 15, 0
14, 22, 0
24, 4, 0
24, 25, 0
24, 16, 0
24, 14, 0
24, 19, 0
24, 22, 0
28, 7, 0
28, 12, 0
28, 26, 0
28, 3, 0
28, 27, 0
28, 11, 0
30, 0, 0
30, 13, 0
30, 2, 0
30, 6, 0
30, 10, 0
30, 1, 0
30, 5, 0
30, 22, 0
30, 9, 0
8, 0, 0
8, 13, 0
8, 32, 0
8, 18, 0
8, 5, 0
8, 10, 0
8, 20, 0
8, 31, 0
8, 2, 0
8, 1, 0
8, 22, 0
8, 9, 0
15, 16, 0
15, 19, 0
15, 4, 0
15, 14, 0
15, 22, 0
22, 16, 0
22, 6, 0
22, 24, 0
22, 5, 0
22, 30, 0
22, 20, 0
22, 4, 0
22, 25, 0
22, 2, 0
22, 14, 0
22, 19, 0
22, 8, 0
22, 15, 0
22, 10, 0
0, 20, 0
0, 2, 0
0, 10, 0
0, 1, 1
0, 8, 0
0, 5, 0
0, 30, 0
12, 7, 0
12, 3, 0
12, 28, 0
12, 26, 0
12, 29, 0
16, 4, 0
16, 14, 0
16, 24, 0
16, 25, 0
16, 19, 0
16, 15, 0
16, 22, 0
6, 13, 0
6, 2, 0
6, 30, 0
6, 9, 0
6, 5, 0
6, 22, 0
6, 1, 0
27, 7, 0
27, 3, 0
27, 17, 0
27, 26, 0
27, 23, 0
27, 29, 0
27, 21, 0
27, 28, 0
27, 11, 0
7, 12, 0
7, 28, 0
7, 3, 0
7, 26, 0
7, 29, 0
7, 27, 0
7, 19, 0
7, 11, 0
3, 7, 0
3, 12, 0
3, 28, 0
3, 23, 0
3, 26, 0
3, 29, 0
3, 21, 0
3, 17, 0
3, 11, 0
3, 27, 0
25, 4, 0
25, 14, 0
25, 24, 0
25, 16, 0
25, 19, 0
25, 22, 0
32, 18, 0
32, 8, 0
32, 31, 1
32, 9, 0
29, 7, 0
29, 3, 0
29, 17, 0
29, 26, 0
29, 23, 0
29, 12, 0
29, 21, 0
29, 27, 0
29, 11, 0
21, 3, 0
21, 17, 0
21, 23, 0
21, 29, 0
21, 27, 0
21, 11, 0
26, 7, 0
26, 12, 0
26, 28, 0
26, 11, 0
26, 23, 0
26, 3, 0
26, 27, 0
26, 29, 0
26, 17, 0
19, 7, 0
19, 4, 0
19, 14, 0
19, 24, 0
19, 16, 0
19, 25, 0
19, 15, 0
19, 22, 0
18, 20, 0
18, 13, 0
18, 32, 0
18, 31, 0
18, 8, 0
18, 9, 0
9, 20, 0
9, 13, 0
9, 32, 0
9, 31, 0
9, 2, 0
9, 18, 0
9, 6, 0
9, 1, 0
9, 8, 0
9, 30, 0
