0, 6, 0
0, 4, 0
0, 5, 0
0, 1, 0
8, 11, 0
3, 10, 0
3, 1, 0
6, 0, 0
6, 4, 0
6, 1, 0
5, 0, 0
5, 12, 0
5, 9, 0
11, 7, 0
11, 12, 0
11, 8, 0
10, 3, 0
10, 4, 0
10, 1, 0
7, 12, 0
7, 11, 0
7, 2, 0
12, 7, 0
12, 2, 0
12, 5, 0
12, 11, 0
12, 9, 0
4, 0, 0
4, 6, 0
4, 10, 0
4, 1, 0
2, 7, 0
2, 12, 0
1, 0, 0
1, 6, 0
1, 4, 0
1, 3, 0
1, 10, 0
9, 12, 0
9, 5, 0
