13, 12, 0
13, 4, 0
13, 27, 0
17, 26, 0
17, 9, 0
23, 6, 0
23, 3, 0
23, 10, 0
2, 0, 0
2, 3, 1
2, 10, 0
2, 6, 0
5, 18, 0
5, 20, 0
5, 15, 0
5, 10, 0
11, 28, 0
11, 25, 0
11, 27, 0
11, 24, 0
1, 16, 0
1, 21, 0
1, 4, 0
20, 18, 0
20, 15, 0
20, 5, 0
20, 10, 0
4, 12, 0
4, 13, 0
4, 21, 0
4, 16, 0
4, 27, 0
4, 1, 0
14, 7, 0
14, 0, 0
14, 19, 0
14, 9, 0
24, 27, 0
24, 11, 0
28, 8, 0
28, 25, 0
28, 11, 0
8, 15, 0
8, 28, 0
15, 20, 0
15, 8, 0
15, 5, 0
22, 21, 0
22, 16, 0
0, 7, 0
0, 3, 0
0, 14, 0
0, 2, 0
0, 6, 0
0, 19, 0
0, 10, 0
12, 27, 0
12, 13, 0
12, 4, 0
16, 21, 0
16, 4, 0
16, 22, 0
16, 1, 0
6, 0, 0
6, 3, 0
6, 10, 0
6, 23, 0
6, 2, 0
10, 20, 0
10, 0, 0
10, 23, 0
10, 2, 0
10, 18, 0
10, 6, 0
10, 5, 0
7, 0, 0
7, 19, 0
7, 14, 0
7, 9, 0
3, 0, 0
3, 6, 0
3, 23, 0
3, 2, 1
25, 28, 0
25, 11, 0
26, 17, 0
26, 9, 0
27, 12, 0
27, 13, 0
27, 11, 0
27, 4, 0
27, 24, 0
21, 16, 0
21, 4, 0
21, 22, 0
21, 1, 0
19, 7, 0
19, 0, 0
19, 14, 0
19, 9, 0
18, 20, 0
18, 5, 0
18, 10, 0
9, 7, 0
9, 14, 0
9, 19, 0
9, 17, 0
9, 26, 0
