0, 7, 0
0, 11, 0
6, 4, 0
1, 4, 0
1, 5, 0
5, 8, 0
5, 9, 0
5, 4, 0
5, 1, 0
11, 0, 0
11, 7, 0
11, 3, 0
11, 2, 0
10, 3, 0
10, 8, 0
10, 9, 0
7, 0, 0
7, 11, 0
3, 2, 0
3, 11, 0
3, 10, 0
4, 6, 0
4, 5, 0
4, 1, 0
2, 3, 0
2, 11, 0
8, 9, 1
8, 5, 0
8, 10, 0
9, 8, 1
9, 5, 0
9, 10, 0
