0, 11, 0
0, 2, 0
13, 3, 0
13, 2, 0
13, 5, 0
13, 1, 0
3, 2, 0
3, 13, 0
3, 11, 0
3, 10, 0
16, 8, 0
16, 15, 0
6, 1, 0
6, 8, 0
6, 4, 0
6, 9, 0
8, 16, 0
8, 6, 0
8, 15, 0
5, 13, 0
5, 9, 0
5, 1, 0
11, 0, 0
11, 3, 0
11, 2, 0
11, 10, 0
10, 3, 0
10, 11, 0
10, 2, 0
7, 12, 0
7, 15, 0
7, 4, 0
7, 14, 0
12, 7, 0
12, 4, 0
4, 7, 0
4, 12, 0
4, 14, 0
4, 6, 0
14, 7, 0
14, 4, 0
14, 15, 0
2, 0, 0
2, 3, 0
2, 13, 0
2, 11, 0
2, 10, 0
1, 6, 0
1, 13, 0
1, 5, 0
1, 9, 0
15, 16, 0
15, 7, 0
15, 8, 0
15, 14, 0
9, 6, 0
9, 5, 0
9, 1, 0
