0, 3, 0
0, 13, 0
0, 2, 0
0, 8, 0
0, 11, 0
0, 1, 0
13, 0, 0
13, 3, 0
13, 2, 0
13, 8, 0
13, 1, 0
3, 0, 0
3, 8, 0
3, 13, 0
6, 12, 0
6, 4, 0
6, 1, 0
8, 0, 0
8, 3, 0
8, 13, 0
8, 1, 0
5, 12, 0
5, 10, 0
5, 9, 0
11, 0, 0
11, 2, 0
10, 12, 0
10, 5, 0
10, 9, 1
7, 15, 0
7, 14, 0
7, 2, 0
12, 6, 0
12, 4, 0
12, 9, 0
12, 5, 0
12, 10, 0
4, 12, 0
4, 6, 0
14, 7, 0
2, 0, 0
2, 7, 0
2, 13, 0
2, 15, 0
2, 11, 0
1, 0, 0
1, 6, 0
1, 8, 0
1, 13, 0
15, 7, 0
15, 2, 0
9, 12, 0
9, 5, 0
9, 10, 1
