12, 18, 0
12, 3, 0
12, 4, 0
12, 22, 0
13, 15, 0
13, 14, 1
13, 10, 0
17, 37, 0
17, 34, 0
17, 19, 0
17, 39, 0
31, 9, 0
31, 1, 0
23, 37, 0
23, 5, 0
23, 32, 0
24, 20, 0
24, 27, 0
24, 6, 0
24, 35, 0
5, 23, 0
5, 32, 0
11, 7, 0
11, 16, 0
11, 8, 0
11, 38, 0
11, 33, 0
1, 34, 0
1, 31, 0
1, 2, 0
1, 39, 0
1, 19, 0
1, 38, 0
1, 9, 0
20, 27, 0
20, 4, 0
20, 25, 0
20, 24, 0
21, 38, 0
21, 15, 0
21, 33, 0
4, 20, 0
4, 38, 0
4, 25, 0
4, 26, 0
4, 12, 0
14, 13, 1
14, 15, 0
14, 22, 0
14, 10, 0
39, 19, 0
39, 1, 0
39, 17, 0
39, 2, 0
35, 6, 0
35, 27, 0
35, 24, 0
28, 18, 0
28, 38, 0
28, 22, 0
30, 16, 0
30, 0, 0
8, 7, 1
8, 33, 0
8, 11, 0
15, 33, 0
15, 13, 0
15, 14, 0
15, 21, 0
15, 38, 0
15, 10, 0
22, 12, 0
22, 14, 0
22, 18, 0
22, 28, 0
22, 38, 0
22, 10, 0
36, 0, 0
36, 29, 0
0, 16, 0
0, 29, 0
0, 36, 0
0, 30, 0
6, 25, 0
6, 27, 0
6, 35, 0
6, 38, 0
6, 24, 0
3, 18, 0
3, 12, 0
3, 38, 0
3, 26, 0
16, 0, 0
16, 38, 0
16, 11, 0
16, 30, 0
38, 37, 0
38, 28, 0
38, 3, 0
38, 16, 0
38, 6, 0
38, 11, 0
38, 1, 0
38, 33, 0
38, 4, 0
38, 26, 0
38, 29, 0
38, 21, 0
38, 15, 0
38, 18, 0
38, 22, 0
38, 9, 0
27, 20, 0
27, 6, 0
27, 35, 0
27, 25, 0
27, 24, 0
10, 15, 0
10, 13, 0
10, 14, 0
10, 22, 0
7, 33, 0
7, 8, 1
7, 11, 0
34, 37, 0
34, 19, 0
34, 17, 0
34, 1, 0
25, 20, 0
25, 27, 0
25, 4, 0
25, 6, 0
33, 7, 0
33, 21, 0
33, 15, 0
33, 8, 0
33, 38, 0
33, 11, 0
32, 37, 0
32, 5, 0
32, 23, 0
2, 19, 0
2, 39, 0
2, 1, 0
37, 34, 0
37, 38, 0
37, 17, 0
37, 23, 0
37, 32, 0
29, 0, 0
29, 9, 0
29, 38, 0
29, 36, 0
19, 34, 0
19, 1, 0
19, 17, 0
19, 39, 0
19, 2, 0
26, 3, 0
26, 4, 0
26, 38, 0
18, 12, 0
18, 38, 0
18, 28, 0
18, 22, 0
18, 3, 0
9, 29, 0
9, 38, 0
9, 31, 0
9, 1, 0
