0, 16, 0
0, 10, 0
7, 20, 0
7, 12, 0
7, 13, 0
7, 17, 0
7, 2, 0
7, 11, 0
13, 7, 0
13, 12, 1
13, 17, 0
13, 2, 0
13, 20, 0
13, 5, 0
13, 9, 0
17, 7, 0
17, 12, 0
17, 13, 0
17, 4, 0
17, 2, 0
17, 19, 0
17, 11, 0
3, 15, 0
3, 14, 0
16, 0, 0
16, 10, 0
6, 19, 0
6, 8, 0
6, 15, 0
8, 6, 0
8, 19, 0
8, 15, 0
5, 20, 0
5, 12, 0
5, 13, 0
5, 2, 0
5, 1, 0
5, 11, 0
5, 9, 0
11, 7, 0
11, 12, 1
11, 17, 0
11, 2, 0
11, 19, 0
11, 5, 0
11, 20, 0
11, 9, 0
10, 0, 0
10, 16, 0
10, 18, 0
20, 7, 0
20, 12, 0
20, 13, 0
20, 2, 0
20, 19, 0
20, 5, 0
20, 11, 0
20, 9, 0
12, 7, 0
12, 20, 0
12, 13, 1
12, 17, 0
12, 2, 0
12, 5, 0
12, 11, 1
12, 9, 0
4, 19, 0
4, 17, 0
4, 2, 0
14, 3, 0
14, 15, 0
2, 20, 0
2, 12, 0
2, 13, 0
2, 17, 0
2, 4, 0
2, 19, 0
2, 9, 0
2, 7, 0
2, 11, 0
2, 5, 0
19, 20, 0
19, 4, 0
19, 17, 0
19, 2, 0
19, 6, 0
19, 8, 0
19, 15, 0
19, 11, 0
1, 18, 0
1, 5, 0
15, 6, 0
15, 19, 0
15, 8, 0
15, 14, 0
15, 3, 0
18, 10, 0
18, 1, 0
9, 20, 0
9, 12, 0
9, 13, 0
9, 2, 0
9, 5, 0
9, 11, 0
