0, 3, 0
0, 5, 0
8, 7, 1
8, 6, 0
8, 4, 0
3, 0, 0
3, 9, 0
6, 7, 0
6, 8, 0
6, 4, 0
5, 0, 0
5, 10, 0
5, 11, 0
5, 1, 0
11, 10, 0
11, 4, 0
11, 5, 0
11, 1, 0
10, 4, 0
10, 5, 0
10, 11, 0
10, 1, 0
7, 6, 0
7, 8, 1
7, 4, 0
12, 2, 0
12, 9, 0
4, 7, 0
4, 6, 0
4, 1, 0
4, 8, 0
4, 11, 0
4, 10, 0
2, 12, 0
1, 4, 0
1, 5, 0
1, 11, 0
1, 10, 0
9, 12, 0
9, 3, 0
