0, 3, 0
0, 1, 0
0, 12, 0
0, 2, 0
13, 7, 0
13, 4, 0
13, 10, 0
3, 0, 0
3, 12, 0
3, 9, 0
3, 2, 0
3, 16, 0
3, 8, 0
3, 11, 0
3, 1, 0
16, 6, 0
16, 8, 0
16, 3, 0
16, 9, 0
6, 16, 0
6, 7, 0
6, 15, 0
6, 14, 0
6, 9, 0
8, 16, 0
8, 3, 0
8, 1, 0
5, 4, 0
11, 12, 1
11, 3, 0
11, 2, 0
10, 7, 0
10, 13, 0
10, 14, 0
7, 6, 0
7, 13, 0
7, 9, 0
7, 10, 0
12, 0, 0
12, 3, 0
12, 11, 1
12, 2, 0
4, 13, 0
4, 5, 0
14, 6, 0
14, 15, 1
14, 10, 0
2, 0, 0
2, 12, 0
2, 11, 0
2, 3, 0
1, 0, 0
1, 3, 0
1, 8, 0
15, 6, 0
15, 14, 1
9, 16, 0
9, 6, 0
9, 7, 0
9, 3, 0
