0, 4, 0
0, 5, 0
13, 5, 0
13, 11, 0
13, 10, 0
3, 8, 0
3, 4, 0
3, 2, 1
6, 1, 0
6, 9, 0
8, 7, 0
8, 12, 0
8, 4, 0
8, 3, 0
8, 2, 0
8, 1, 0
5, 0, 0
5, 4, 0
5, 13, 0
5, 11, 0
5, 10, 0
11, 13, 0
11, 5, 0
11, 10, 0
10, 13, 0
10, 5, 0
10, 11, 0
7, 12, 0
7, 8, 0
7, 1, 0
12, 7, 0
12, 8, 0
12, 1, 0
4, 0, 0
4, 3, 0
4, 8, 0
4, 5, 0
4, 2, 0
2, 3, 1
2, 8, 0
2, 4, 0
1, 7, 0
1, 12, 0
1, 8, 0
1, 9, 0
1, 6, 0
9, 6, 0
9, 1, 0
