0, 16, 0
0, 3, 0
0, 20, 0
7, 12, 0
7, 15, 0
7, 6, 1
13, 8, 0
13, 10, 0
17, 14, 0
17, 11, 0
3, 0, 0
3, 20, 0
16, 0, 0
16, 8, 0
6, 7, 1
6, 12, 0
6, 15, 0
8, 16, 0
8, 13, 0
8, 10, 0
5, 19, 0
5, 4, 1
11, 15, 0
11, 14, 0
11, 17, 0
10, 12, 0
10, 8, 0
10, 13, 0
20, 0, 0
20, 3, 0
20, 2, 0
12, 7, 0
12, 6, 0
12, 15, 0
12, 10, 0
4, 19, 0
4, 5, 1
14, 17, 0
14, 11, 0
2, 20, 0
2, 18, 0
2, 1, 0
19, 18, 0
19, 4, 0
19, 5, 0
19, 9, 0
1, 18, 0
1, 2, 0
15, 7, 0
15, 12, 0
15, 11, 0
15, 6, 0
18, 2, 0
18, 19, 0
18, 1, 0
18, 9, 0
9, 18, 0
9, 19, 0
