0, 6, 0
0, 4, 0
0, 9, 0
0, 2, 0
3, 5, 0
3, 1, 0
4, 0, 0
4, 6, 0
4, 2, 0
4, 10, 0
2, 0, 0
2, 6, 0
2, 4, 0
2, 1, 0
6, 0, 0
6, 4, 0
6, 2, 0
1, 7, 0
1, 3, 0
1, 2, 0
8, 5, 0
5, 3, 0
5, 8, 0
7, 1, 0
7, 9, 0
10, 4, 0
10, 9, 0
9, 0, 0
9, 7, 0
9, 10, 0
