0, 3, 0
0, 2, 0
0, 1, 0
6, 11, 0
6, 10, 0
1, 0, 0
1, 3, 0
1, 2, 1
5, 7, 0
5, 3, 0
5, 4, 1
5, 9, 0
11, 6, 0
11, 10, 0
10, 6, 0
10, 8, 0
10, 11, 0
7, 3, 0
7, 8, 0
7, 5, 0
7, 4, 0
7, 9, 0
3, 0, 0
3, 7, 0
3, 4, 0
3, 2, 0
3, 9, 0
3, 5, 0
3, 1, 0
4, 7, 0
4, 3, 0
4, 5, 1
4, 9, 0
2, 0, 0
2, 3, 0
2, 1, 1
8, 7, 0
8, 9, 0
8, 10, 0
9, 7, 0
9, 3, 0
9, 8, 0
9, 5, 0
9, 4, 0
