12, 37, 0
12, 34, 0
12, 6, 0
12, 27, 0
12, 35, 0
13, 25, 0
13, 14, 1
13, 28, 0
13, 3, 0
17, 7, 0
17, 8, 0
17, 5, 0
17, 22, 0
31, 3, 0
31, 15, 0
31, 9, 0
23, 21, 0
23, 4, 0
23, 30, 0
24, 37, 0
24, 9, 0
5, 7, 0
5, 17, 0
11, 19, 0
11, 10, 0
11, 29, 0
1, 33, 0
1, 36, 0
1, 32, 0
1, 2, 0
20, 18, 0
20, 27, 0
20, 35, 0
20, 38, 0
20, 34, 0
21, 4, 0
21, 23, 0
4, 21, 0
4, 23, 0
4, 30, 0
14, 0, 0
14, 3, 0
14, 13, 1
14, 25, 0
14, 28, 0
35, 20, 0
35, 34, 0
35, 27, 0
35, 12, 0
28, 25, 0
28, 13, 0
28, 14, 0
28, 10, 0
30, 4, 0
30, 8, 0
30, 22, 0
30, 23, 0
30, 26, 0
8, 17, 0
8, 22, 0
8, 26, 0
8, 30, 0
15, 3, 0
15, 31, 0
19, 33, 0
19, 32, 0
19, 29, 0
19, 2, 0
19, 11, 0
19, 10, 0
22, 8, 0
22, 17, 0
22, 30, 0
36, 16, 0
36, 7, 0
36, 2, 0
36, 33, 0
36, 1, 0
0, 25, 0
0, 14, 0
0, 10, 0
38, 20, 0
38, 18, 0
3, 13, 0
3, 14, 0
3, 31, 0
3, 25, 0
3, 15, 0
3, 9, 0
16, 7, 0
16, 36, 0
6, 37, 0
6, 12, 0
6, 9, 0
10, 0, 0
10, 25, 0
10, 19, 0
10, 28, 0
10, 11, 0
7, 16, 0
7, 17, 0
7, 5, 0
7, 36, 0
34, 20, 0
34, 27, 0
34, 12, 0
34, 35, 0
25, 0, 0
25, 3, 0
25, 13, 0
25, 14, 0
25, 28, 0
25, 10, 0
33, 36, 0
33, 19, 0
33, 1, 0
33, 32, 1
33, 2, 0
32, 33, 1
32, 19, 0
32, 1, 0
27, 20, 0
27, 34, 0
27, 12, 0
27, 35, 0
37, 6, 0
37, 9, 0
37, 12, 0
37, 24, 0
29, 19, 0
29, 11, 0
2, 33, 0
2, 19, 0
2, 36, 0
2, 1, 0
26, 8, 0
26, 30, 0
18, 20, 0
18, 38, 0
9, 37, 0
9, 3, 0
9, 6, 0
9, 31, 0
9, 24, 0
