0, 4, 0
0, 2, 0
0, 16, 0
0, 1, 0
0, 15, 0
0, 5, 0
0, 10, 0
13, 7, 0
13, 12, 0
13, 14, 1
3, 9, 0
16, 0, 0
16, 9, 0
6, 7, 0
6, 2, 0
6, 8, 0
6, 15, 0
6, 5, 1
6, 11, 0
6, 10, 0
8, 4, 0
8, 2, 0
8, 6, 0
8, 15, 0
8, 5, 0
8, 10, 0
5, 7, 0
5, 0, 0
5, 4, 1
5, 2, 0
5, 6, 1
5, 8, 0
5, 15, 0
5, 11, 0
5, 10, 0
11, 7, 0
11, 4, 0
11, 6, 0
11, 15, 0
11, 5, 0
11, 10, 0
10, 0, 0
10, 7, 0
10, 4, 0
10, 2, 0
10, 6, 0
10, 8, 0
10, 15, 0
10, 5, 0
10, 11, 0
10, 1, 0
7, 12, 0
7, 13, 0
7, 14, 0
7, 4, 0
7, 6, 0
7, 15, 0
7, 5, 0
7, 11, 0
7, 10, 0
12, 7, 0
12, 13, 0
12, 14, 0
4, 7, 0
4, 0, 0
4, 2, 0
4, 8, 0
4, 15, 0
4, 5, 1
4, 11, 0
4, 10, 0
14, 7, 0
14, 12, 0
14, 13, 1
2, 0, 0
2, 4, 0
2, 6, 0
2, 1, 0
2, 8, 0
2, 5, 0
2, 10, 0
1, 0, 0
1, 2, 0
1, 10, 0
15, 7, 0
15, 0, 0
15, 4, 0
15, 6, 0
15, 8, 0
15, 5, 0
15, 11, 0
15, 10, 0
9, 16, 0
9, 3, 0
