0, 5, 0
0, 2, 0
3, 7, 0
3, 6, 0
3, 8, 0
3, 4, 0
3, 9, 0
4, 3, 0
4, 8, 0
2, 0, 0
6, 7, 0
6, 3, 0
6, 9, 0
1, 8, 0
1, 5, 0
8, 3, 0
8, 4, 0
8, 1, 0
5, 0, 0
5, 1, 0
7, 6, 0
7, 3, 0
7, 9, 0
9, 7, 0
9, 3, 0
9, 6, 0
