0, 7, 0
0, 6, 0
0, 8, 0
0, 4, 0
0, 10, 0
3, 7, 0
3, 9, 0
3, 5, 0
3, 2, 0
4, 0, 0
4, 7, 0
4, 8, 0
4, 9, 0
2, 7, 0
2, 3, 0
2, 9, 0
6, 0, 0
6, 10, 0
1, 10, 0
8, 0, 0
8, 4, 0
8, 9, 0
5, 7, 0
5, 3, 0
5, 9, 0
7, 0, 0
7, 3, 0
7, 4, 0
7, 2, 0
7, 5, 0
7, 9, 0
10, 0, 0
10, 6, 0
10, 1, 0
9, 7, 0
9, 3, 0
9, 4, 0
9, 2, 0
9, 8, 0
9, 5, 0
