0, 8, 0
0, 13, 0
13, 0, 0
13, 14, 0
3, 7, 0
3, 4, 1
3, 5, 0
3, 11, 0
6, 8, 0
6, 9, 0
8, 0, 0
8, 6, 0
8, 9, 0
5, 7, 0
5, 3, 0
5, 4, 0
5, 11, 0
5, 10, 0
11, 7, 0
11, 3, 0
11, 4, 0
11, 5, 0
10, 7, 0
10, 12, 0
10, 5, 0
7, 3, 0
7, 4, 0
7, 5, 0
7, 11, 0
7, 10, 0
12, 15, 0
12, 10, 0
4, 7, 0
4, 3, 1
4, 5, 0
4, 11, 0
14, 2, 0
14, 13, 0
14, 15, 0
14, 1, 0
2, 15, 0
2, 14, 0
2, 1, 1
1, 14, 0
1, 15, 0
1, 2, 1
15, 12, 0
15, 2, 0
15, 14, 0
15, 1, 0
9, 6, 0
9, 8, 0
