12, 0, 0
12, 6, 0
12, 18, 0
12, 2, 0
13, 33, 0
13, 14, 0
13, 2, 0
13, 6, 0
13, 19, 0
13, 30, 0
17, 21, 0
17, 8, 0
17, 15, 0
17, 5, 0
17, 29, 0
31, 25, 0
31, 14, 0
31, 32, 0
31, 24, 0
31, 6, 0
31, 2, 0
31, 30, 0
23, 6, 0
23, 36, 0
23, 28, 0
23, 32, 0
23, 2, 0
24, 6, 0
24, 25, 1
24, 31, 0
24, 30, 0
5, 8, 0
5, 17, 0
5, 22, 0
11, 34, 0
11, 3, 0
11, 22, 0
11, 10, 1
1, 16, 0
1, 7, 0
1, 3, 0
20, 21, 1
20, 15, 0
20, 29, 0
4, 16, 0
4, 26, 0
4, 35, 0
14, 13, 0
14, 25, 0
14, 31, 0
14, 30, 0
35, 4, 0
35, 26, 0
28, 23, 0
28, 9, 0
30, 25, 0
30, 13, 0
30, 14, 0
30, 31, 0
30, 24, 0
30, 6, 0
30, 2, 0
8, 17, 0
8, 5, 0
15, 20, 0
15, 33, 0
15, 17, 0
15, 29, 0
15, 21, 0
15, 6, 0
15, 2, 0
22, 34, 0
22, 3, 0
22, 2, 0
22, 6, 0
22, 5, 0
22, 11, 0
22, 10, 0
36, 23, 0
36, 32, 0
0, 12, 0
0, 6, 0
0, 2, 0
0, 18, 0
0, 27, 0
0, 9, 0
6, 0, 0
6, 13, 0
6, 26, 0
6, 23, 0
6, 12, 0
6, 2, 0
6, 30, 0
6, 24, 0
6, 33, 0
6, 31, 0
6, 29, 0
6, 34, 0
6, 15, 0
6, 22, 0
6, 9, 0
3, 7, 0
3, 34, 0
3, 22, 0
3, 11, 0
3, 1, 0
16, 4, 0
16, 1, 0
27, 0, 0
27, 9, 0
10, 34, 0
10, 22, 0
10, 11, 1
7, 3, 0
7, 1, 0
34, 3, 0
34, 11, 0
34, 2, 0
34, 6, 0
34, 22, 0
34, 10, 0
25, 30, 0
25, 14, 0
25, 31, 0
25, 24, 1
33, 6, 0
33, 19, 0
33, 13, 0
33, 15, 0
33, 2, 0
32, 23, 0
32, 31, 0
32, 36, 0
2, 0, 0
2, 13, 0
2, 23, 0
2, 33, 0
2, 6, 0
2, 30, 0
2, 12, 0
2, 31, 0
2, 29, 0
2, 34, 0
2, 15, 0
2, 22, 0
2, 9, 0
21, 20, 1
21, 17, 0
21, 15, 0
21, 29, 0
29, 20, 0
29, 17, 0
29, 2, 0
29, 21, 0
29, 6, 0
29, 15, 0
19, 33, 0
19, 13, 0
26, 6, 0
26, 4, 0
26, 35, 0
18, 0, 0
18, 12, 0
9, 0, 0
9, 6, 0
9, 28, 0
9, 27, 0
9, 2, 0
