13, 3, 0
13, 12, 0
13, 2, 0
13, 14, 0
13, 1, 0
17, 20, 0
17, 3, 0
17, 7, 0
17, 21, 0
17, 12, 0
17, 16, 0
17, 19, 0
17, 2, 0
17, 15, 0
17, 5, 0
5, 7, 0
5, 12, 0
5, 21, 0
5, 17, 0
5, 2, 0
5, 16, 0
5, 6, 0
5, 20, 0
5, 15, 0
5, 1, 0
11, 0, 0
11, 7, 0
11, 9, 0
11, 10, 0
1, 20, 0
1, 12, 0
1, 13, 0
1, 2, 0
1, 6, 0
1, 15, 0
1, 5, 0
20, 7, 0
20, 16, 0
20, 14, 0
20, 2, 0
20, 21, 1
20, 6, 0
20, 19, 0
20, 15, 0
20, 5, 0
20, 17, 0
20, 1, 0
4, 0, 0
4, 6, 0
14, 20, 0
14, 3, 0
14, 13, 0
14, 12, 0
14, 18, 0
14, 2, 0
14, 8, 0
8, 18, 0
8, 14, 0
15, 7, 0
15, 17, 0
15, 3, 0
15, 16, 1
15, 6, 0
15, 5, 0
15, 1, 0
15, 20, 0
15, 12, 0
15, 2, 0
15, 21, 0
15, 19, 0
0, 4, 0
0, 6, 0
0, 19, 0
0, 9, 0
0, 11, 0
0, 10, 0
3, 12, 0
3, 13, 0
3, 14, 0
3, 16, 0
3, 6, 0
3, 19, 0
3, 15, 0
3, 17, 0
16, 20, 0
16, 3, 0
16, 7, 0
16, 17, 0
16, 12, 0
16, 21, 0
16, 6, 0
16, 2, 0
16, 15, 1
16, 5, 0
6, 20, 0
6, 3, 0
6, 7, 0
6, 21, 0
6, 4, 0
6, 2, 0
6, 16, 0
6, 0, 0
6, 15, 0
6, 5, 0
6, 1, 0
10, 0, 0
10, 7, 0
10, 19, 0
10, 11, 0
10, 9, 0
7, 20, 0
7, 21, 0
7, 17, 0
7, 16, 0
7, 6, 0
7, 19, 0
7, 9, 0
7, 15, 0
7, 5, 0
7, 11, 0
7, 10, 0
12, 3, 0
12, 13, 0
12, 17, 0
12, 21, 0
12, 16, 0
12, 14, 0
12, 15, 0
12, 5, 0
12, 1, 0
2, 20, 0
2, 21, 0
2, 13, 0
2, 17, 0
2, 16, 0
2, 6, 0
2, 14, 0
2, 15, 0
2, 5, 0
2, 1, 0
21, 20, 1
21, 7, 0
21, 17, 0
21, 2, 0
21, 16, 0
21, 6, 0
21, 19, 0
21, 15, 0
21, 5, 0
21, 12, 0
19, 20, 0
19, 7, 0
19, 17, 0
19, 3, 0
19, 21, 0
19, 0, 0
19, 15, 0
19, 10, 0
18, 8, 0
18, 14, 0
9, 7, 0
9, 0, 0
9, 11, 0
9, 10, 0
