0, 7, 0
0, 4, 0
0, 2, 0
0, 1, 0
0, 9, 0
0, 5, 0
0, 10, 0
3, 2, 1
3, 8, 0
3, 9, 0
4, 0, 0
4, 7, 0
4, 5, 0
4, 1, 0
2, 0, 0
2, 3, 1
2, 8, 0
2, 10, 0
2, 9, 0
6, 8, 0
1, 7, 0
1, 0, 0
1, 4, 0
1, 5, 0
8, 3, 0
8, 6, 0
8, 9, 0
8, 2, 0
5, 0, 0
5, 7, 0
5, 4, 0
5, 1, 0
7, 0, 0
7, 4, 0
7, 5, 0
7, 1, 0
10, 0, 0
10, 2, 0
10, 9, 0
9, 0, 0
9, 3, 0
9, 2, 0
9, 8, 0
9, 10, 0
