0, 7, 0
0, 10, 0
0, 5, 0
0, 1, 1
3, 4, 0
4, 3, 0
4, 5, 0
4, 6, 0
2, 7, 0
2, 1, 1
2, 9, 0
2, 5, 0
2, 10, 0
6, 4, 0
6, 5, 0
6, 10, 0
1, 0, 1
1, 7, 0
1, 10, 0
1, 5, 0
1, 2, 1
8, 7, 0
8, 9, 1
5, 0, 0
5, 7, 0
5, 4, 0
5, 2, 0
5, 6, 0
5, 1, 0
5, 10, 0
7, 0, 0
7, 9, 0
7, 2, 0
7, 10, 0
7, 8, 0
7, 5, 0
7, 1, 0
10, 0, 0
10, 7, 0
10, 2, 0
10, 6, 0
10, 5, 0
10, 1, 0
9, 7, 0
9, 8, 1
9, 2, 0
