0, 1, 1
0, 10, 0
0, 4, 0
0, 9, 0
13, 12, 0
13, 8, 0
13, 11, 0
13, 4, 0
13, 10, 0
3, 7, 0
3, 12, 0
3, 5, 0
3, 11, 0
3, 6, 0
6, 7, 0
6, 12, 0
6, 5, 1
6, 11, 0
6, 3, 0
8, 12, 0
8, 13, 0
8, 4, 0
8, 11, 0
8, 10, 0
5, 7, 0
5, 12, 0
5, 3, 0
5, 6, 1
11, 7, 0
11, 12, 0
11, 13, 0
11, 3, 0
11, 6, 0
11, 8, 0
10, 0, 0
10, 13, 0
10, 9, 0
10, 4, 0
10, 2, 0
10, 8, 0
10, 1, 0
7, 12, 0
7, 3, 0
7, 5, 0
7, 11, 0
7, 6, 0
12, 7, 0
12, 3, 0
12, 13, 0
12, 6, 0
12, 8, 0
12, 5, 0
12, 11, 0
4, 0, 0
4, 13, 0
4, 2, 0
4, 1, 0
4, 8, 0
4, 10, 0
4, 9, 0
2, 9, 0
2, 10, 0
2, 4, 0
2, 1, 1
1, 0, 1
1, 10, 0
1, 9, 0
1, 4, 0
1, 2, 1
9, 0, 0
9, 2, 0
9, 10, 0
9, 4, 0
9, 1, 0
