58, 57, 0
58, 0, 0
58, 24, 0
58, 42, 0
58, 38, 0
58, 41, 0
13, 21, 0
13, 6, 0
13, 4, 0
13, 43, 0
17, 33, 0
17, 69, 0
17, 70, 0
17, 23, 0
17, 14, 0
17, 71, 0
17, 36, 0
23, 33, 0
23, 69, 0
23, 70, 0
23, 14, 0
23, 71, 0
23, 39, 0
23, 17, 0
23, 36, 0
63, 20, 0
63, 62, 1
63, 5, 0
24, 58, 0
24, 57, 0
24, 42, 0
24, 38, 0
24, 40, 0
24, 41, 0
24, 11, 0
24, 10, 0
46, 60, 0
46, 48, 0
46, 51, 0
65, 18, 0
65, 67, 0
65, 53, 0
20, 37, 0
20, 61, 0
20, 43, 0
20, 62, 0
20, 63, 0
20, 6, 0
20, 44, 0
20, 5, 0
34, 9, 0
34, 14, 0
34, 35, 1
14, 34, 0
14, 17, 0
14, 23, 0
14, 49, 0
14, 39, 0
14, 9, 0
53, 67, 0
53, 8, 0
53, 25, 0
53, 65, 0
66, 16, 0
66, 3, 0
66, 31, 0
66, 29, 0
42, 58, 0
42, 24, 0
42, 38, 0
42, 41, 1
42, 11, 0
42, 10, 0
15, 57, 0
15, 55, 0
15, 50, 0
41, 58, 0
41, 24, 0
41, 42, 1
41, 40, 1
41, 11, 0
41, 10, 0
0, 58, 0
0, 40, 0
0, 19, 0
0, 38, 0
0, 32, 0
68, 18, 0
68, 67, 1
62, 63, 1
62, 20, 0
62, 61, 1
62, 5, 0
51, 7, 0
51, 12, 0
51, 67, 0
51, 60, 0
51, 8, 0
51, 46, 0
51, 48, 0
33, 28, 0
33, 71, 0
33, 17, 0
33, 23, 0
33, 36, 0
6, 20, 0
6, 3, 0
6, 13, 0
6, 43, 0
6, 4, 0
6, 21, 0
64, 31, 0
64, 29, 0
47, 1, 0
47, 2, 0
47, 36, 0
10, 57, 0
10, 40, 0
10, 24, 0
10, 42, 0
10, 38, 0
10, 41, 0
10, 11, 1
7, 60, 0
7, 27, 0
7, 51, 0
7, 12, 0
3, 21, 0
3, 4, 0
3, 43, 0
3, 31, 0
3, 66, 0
3, 16, 0
3, 6, 0
3, 29, 0
69, 70, 1
69, 17, 0
69, 23, 0
69, 36, 0
32, 0, 0
32, 52, 0
32, 26, 0
32, 27, 0
32, 19, 0
32, 38, 0
2, 57, 0
2, 50, 0
2, 1, 0
2, 55, 0
2, 47, 0
2, 36, 0
37, 20, 0
37, 61, 0
37, 5, 0
52, 54, 0
52, 32, 0
52, 26, 0
52, 27, 0
52, 19, 0
52, 38, 0
19, 0, 0
19, 52, 0
19, 32, 0
19, 26, 0
49, 14, 0
49, 31, 0
49, 56, 0
49, 30, 0
49, 59, 0
49, 9, 0
48, 60, 0
48, 27, 0
48, 46, 0
48, 51, 0
70, 69, 1
70, 17, 0
70, 23, 0
70, 71, 1
70, 39, 0
70, 36, 0
31, 66, 0
31, 3, 0
31, 56, 0
31, 29, 0
31, 16, 0
31, 49, 0
31, 64, 0
31, 9, 0
28, 33, 0
28, 36, 0
45, 18, 0
45, 22, 0
60, 7, 0
60, 27, 0
60, 46, 0
60, 51, 0
60, 48, 0
40, 0, 0
40, 24, 0
40, 38, 0
40, 41, 1
40, 11, 0
40, 10, 0
71, 70, 1
71, 39, 0
71, 17, 0
71, 23, 0
71, 33, 0
59, 49, 0
59, 9, 0
59, 56, 0
59, 30, 0
11, 57, 0
11, 38, 0
11, 24, 0
11, 42, 0
11, 40, 0
11, 41, 0
11, 10, 1
5, 63, 0
5, 20, 0
5, 61, 0
5, 62, 0
5, 37, 0
61, 20, 0
61, 37, 0
61, 62, 1
61, 5, 0
29, 3, 0
29, 64, 0
29, 31, 0
29, 66, 0
4, 6, 0
4, 13, 0
4, 43, 0
4, 44, 0
4, 3, 0
39, 70, 0
39, 71, 0
39, 14, 0
39, 23, 0
39, 36, 0
35, 34, 1
35, 9, 0
35, 30, 0
30, 49, 0
30, 59, 0
30, 9, 0
30, 35, 0
8, 12, 0
8, 25, 0
8, 51, 0
8, 67, 0
8, 18, 0
8, 53, 0
38, 58, 0
38, 0, 0
38, 52, 0
38, 32, 0
38, 24, 0
38, 42, 0
38, 40, 0
38, 11, 0
38, 10, 0
22, 18, 0
22, 45, 0
36, 33, 0
36, 69, 0
36, 70, 0
36, 47, 0
36, 23, 0
36, 2, 0
36, 28, 0
36, 55, 0
36, 39, 0
36, 17, 0
25, 18, 0
25, 12, 0
25, 8, 0
25, 53, 0
25, 67, 0
57, 58, 0
57, 2, 0
57, 24, 0
57, 1, 0
57, 55, 0
57, 15, 0
57, 11, 0
57, 10, 0
56, 49, 0
56, 59, 0
56, 31, 0
16, 3, 0
16, 31, 0
16, 66, 0
27, 7, 0
27, 54, 0
27, 32, 0
27, 60, 0
27, 52, 0
27, 48, 0
1, 57, 0
1, 55, 0
1, 50, 0
1, 47, 0
1, 2, 0
55, 57, 0
55, 50, 0
55, 2, 0
55, 36, 0
55, 15, 0
55, 1, 0
44, 20, 0
44, 4, 0
44, 43, 0
12, 7, 0
12, 8, 0
12, 25, 0
12, 51, 0
18, 67, 0
18, 45, 0
18, 25, 0
18, 68, 0
18, 8, 0
18, 22, 0
18, 65, 0
21, 6, 0
21, 13, 0
21, 3, 0
54, 27, 0
54, 52, 0
54, 26, 0
50, 1, 0
50, 55, 0
50, 15, 0
50, 2, 0
26, 52, 0
26, 19, 0
26, 54, 0
26, 32, 0
43, 20, 0
43, 3, 0
43, 13, 0
43, 4, 0
43, 6, 0
43, 44, 0
67, 68, 1
67, 53, 0
67, 25, 0
67, 51, 0
67, 18, 0
67, 8, 0
67, 65, 0
9, 34, 0
9, 14, 0
9, 31, 0
9, 35, 0
9, 49, 0
9, 59, 0
9, 30, 0
