13, 3, 0
13, 8, 0
13, 25, 0
13, 24, 0
17, 12, 0
17, 14, 0
17, 5, 0
17, 26, 0
23, 20, 0
23, 7, 0
23, 5, 0
23, 26, 0
2, 9, 0
2, 18, 0
2, 27, 0
2, 19, 0
2, 1, 0
2, 10, 0
5, 20, 0
5, 12, 0
5, 17, 0
5, 26, 0
5, 23, 0
11, 0, 0
11, 16, 0
11, 22, 0
11, 24, 0
1, 18, 0
1, 27, 0
1, 25, 0
1, 2, 0
20, 7, 0
20, 26, 0
20, 5, 0
20, 23, 0
4, 21, 0
4, 14, 0
14, 12, 0
14, 4, 0
14, 17, 0
24, 16, 0
24, 0, 0
24, 13, 0
24, 11, 0
8, 27, 0
8, 13, 0
8, 25, 0
8, 3, 0
15, 7, 0
15, 6, 0
22, 21, 0
22, 0, 0
22, 16, 0
22, 11, 0
0, 16, 0
0, 22, 0
0, 11, 0
0, 24, 0
3, 25, 0
3, 27, 0
3, 8, 0
3, 13, 0
16, 0, 0
16, 22, 0
16, 11, 0
16, 24, 0
6, 7, 0
6, 15, 0
10, 19, 0
10, 2, 0
10, 9, 1
7, 20, 0
7, 6, 0
7, 15, 0
7, 26, 0
7, 23, 0
12, 14, 0
12, 17, 0
12, 5, 0
25, 3, 0
25, 1, 0
25, 8, 0
25, 13, 0
25, 27, 0
26, 20, 0
26, 7, 0
26, 17, 0
26, 5, 0
26, 23, 0
27, 3, 0
27, 25, 0
27, 2, 0
27, 18, 0
27, 8, 0
27, 1, 0
21, 4, 0
21, 22, 0
19, 2, 0
19, 10, 0
19, 9, 0
18, 27, 0
18, 2, 0
18, 1, 0
9, 19, 0
9, 2, 0
9, 10, 1
