0, 7, 0
0, 12, 0
0, 5, 0
0, 1, 0
8, 7, 0
8, 12, 0
3, 6, 0
3, 9, 0
3, 10, 0
6, 3, 0
6, 9, 0
6, 2, 0
5, 0, 0
5, 1, 0
11, 9, 0
11, 1, 0
10, 3, 0
7, 0, 0
7, 12, 0
7, 8, 0
12, 7, 0
12, 0, 0
12, 8, 0
12, 4, 0
4, 12, 0
2, 6, 0
2, 9, 0
1, 0, 0
1, 5, 0
1, 11, 0
9, 6, 0
9, 3, 0
9, 11, 0
9, 2, 0
