0, 18, 0
0, 8, 0
0, 13, 0
13, 0, 0
13, 18, 0
17, 3, 0
17, 1, 0
17, 2, 0
17, 19, 0
17, 8, 0
17, 9, 0
3, 2, 1
3, 8, 0
3, 17, 0
3, 1, 0
16, 18, 0
16, 14, 0
16, 15, 1
16, 6, 0
6, 7, 0
6, 18, 0
6, 4, 0
6, 14, 0
6, 16, 0
6, 15, 0
8, 0, 0
8, 3, 0
8, 17, 0
8, 2, 0
8, 19, 0
8, 9, 0
8, 1, 0
5, 19, 0
5, 10, 0
5, 1, 0
11, 7, 0
11, 12, 1
10, 5, 0
10, 1, 0
7, 12, 0
7, 4, 0
7, 11, 0
7, 6, 0
12, 7, 0
12, 11, 1
4, 7, 0
4, 6, 0
14, 16, 0
14, 6, 0
14, 15, 0
14, 18, 0
2, 3, 1
2, 8, 0
2, 17, 0
19, 9, 0
19, 8, 0
19, 17, 0
19, 5, 0
19, 1, 0
1, 3, 0
1, 17, 0
1, 10, 0
1, 19, 0
1, 8, 0
1, 5, 0
1, 9, 0
15, 16, 1
15, 18, 0
15, 14, 0
15, 6, 0
18, 0, 0
18, 13, 0
18, 14, 0
18, 16, 0
18, 6, 0
18, 15, 0
9, 19, 0
9, 8, 0
9, 17, 0
9, 1, 0
