13, 10, 0
13, 9, 0
17, 16, 1
17, 12, 0
17, 9, 0
23, 7, 0
23, 1, 0
5, 4, 0
5, 11, 0
11, 15, 0
11, 5, 0
1, 7, 0
1, 8, 0
1, 23, 0
20, 18, 0
20, 19, 1
20, 14, 0
4, 3, 0
4, 5, 0
14, 20, 0
14, 18, 0
14, 19, 0
14, 22, 0
8, 12, 0
8, 1, 0
15, 11, 0
22, 0, 0
22, 19, 0
22, 14, 0
0, 22, 0
0, 2, 0
3, 18, 0
3, 19, 0
3, 4, 0
16, 12, 0
16, 17, 1
16, 9, 0
6, 21, 0
6, 7, 0
10, 13, 0
10, 9, 0
10, 2, 0
7, 6, 0
7, 23, 0
7, 1, 0
12, 16, 0
12, 8, 0
12, 17, 0
12, 9, 0
2, 0, 0
2, 10, 0
21, 6, 0
19, 20, 1
19, 18, 0
19, 14, 0
19, 22, 0
19, 3, 0
18, 20, 0
18, 3, 0
18, 19, 0
18, 14, 0
9, 16, 0
9, 12, 0
9, 13, 0
9, 17, 0
9, 10, 0
