0, 7, 0
0, 4, 0
0, 5, 0
3, 9, 0
3, 2, 0
4, 0, 0
4, 7, 0
4, 5, 1
2, 3, 0
2, 8, 0
2, 9, 0
6, 7, 0
6, 1, 0
1, 7, 0
1, 6, 0
1, 9, 0
8, 2, 0
5, 0, 0
5, 7, 0
5, 4, 1
7, 0, 0
7, 6, 0
7, 4, 0
7, 5, 0
7, 1, 0
9, 3, 0
9, 2, 0
9, 1, 0
