0, 14, 0
0, 16, 0
0, 6, 0
0, 8, 0
0, 11, 0
0, 9, 0
13, 3, 0
13, 4, 0
13, 15, 0
13, 5, 0
13, 12, 0
17, 16, 0
17, 6, 0
17, 10, 0
3, 13, 0
3, 4, 0
3, 15, 0
3, 5, 0
3, 11, 0
16, 0, 0
16, 12, 0
16, 14, 0
16, 6, 0
16, 17, 0
16, 10, 0
6, 0, 0
6, 16, 0
6, 14, 0
6, 17, 0
6, 10, 0
8, 0, 0
8, 14, 0
8, 11, 0
8, 9, 0
5, 2, 0
5, 3, 0
5, 13, 0
5, 4, 0
5, 1, 0
11, 0, 0
11, 12, 0
11, 4, 0
11, 3, 0
11, 8, 0
11, 15, 0
11, 9, 0
10, 16, 0
10, 12, 0
10, 7, 0
10, 17, 0
10, 6, 0
7, 12, 0
7, 10, 0
12, 7, 0
12, 13, 0
12, 14, 0
12, 16, 0
12, 10, 0
12, 15, 0
12, 11, 0
12, 9, 0
4, 3, 0
4, 13, 0
4, 15, 0
4, 5, 0
4, 11, 0
14, 0, 0
14, 12, 0
14, 16, 0
14, 6, 0
14, 8, 0
14, 9, 0
2, 5, 0
2, 1, 1
1, 5, 0
1, 2, 1
15, 12, 0
15, 13, 0
15, 4, 0
15, 3, 0
15, 11, 0
15, 9, 0
9, 0, 0
9, 12, 0
9, 14, 0
9, 8, 0
9, 15, 0
9, 11, 0
