0, 3, 0
0, 8, 0
0, 9, 0
13, 7, 0
13, 11, 0
13, 10, 0
17, 16, 1
3, 0, 0
3, 10, 0
16, 6, 0
16, 17, 1
6, 16, 0
6, 1, 0
6, 15, 0
6, 2, 0
8, 0, 0
8, 15, 0
8, 9, 1
5, 7, 0
5, 12, 0
5, 14, 0
5, 11, 0
11, 7, 0
11, 13, 0
11, 5, 0
10, 7, 0
10, 3, 0
10, 13, 0
7, 13, 0
7, 5, 0
7, 11, 0
7, 10, 0
12, 14, 0
12, 5, 0
4, 14, 0
14, 12, 0
14, 4, 0
14, 5, 0
2, 6, 0
2, 15, 0
2, 1, 0
1, 6, 0
1, 15, 0
1, 2, 0
15, 2, 0
15, 6, 0
15, 8, 0
15, 1, 0
9, 0, 0
9, 8, 1
