13, 3, 0
13, 23, 0
17, 0, 0
17, 21, 0
17, 25, 0
17, 3, 0
17, 16, 0
17, 19, 0
17, 15, 0
17, 18, 0
17, 22, 0
17, 5, 0
23, 3, 0
23, 13, 0
23, 21, 0
23, 19, 0
23, 18, 0
23, 1, 0
2, 7, 0
2, 3, 0
2, 14, 0
2, 26, 0
2, 21, 0
2, 25, 0
2, 19, 0
2, 8, 0
2, 18, 0
2, 22, 0
2, 5, 0
5, 7, 0
5, 3, 0
5, 17, 0
5, 2, 0
5, 21, 0
5, 25, 0
5, 19, 0
5, 8, 0
5, 18, 0
5, 22, 0
5, 0, 0
11, 20, 0
11, 12, 1
11, 6, 0
11, 28, 0
11, 27, 0
1, 3, 0
1, 14, 0
1, 26, 0
1, 23, 0
1, 24, 0
20, 0, 0
20, 12, 0
20, 28, 0
20, 27, 0
20, 6, 0
20, 11, 0
4, 3, 0
4, 10, 0
4, 25, 0
4, 28, 0
4, 9, 0
14, 18, 0
14, 26, 0
14, 2, 0
14, 21, 0
14, 19, 0
14, 24, 0
14, 1, 0
24, 14, 0
24, 26, 0
24, 1, 0
28, 20, 0
28, 3, 0
28, 4, 0
28, 25, 0
28, 12, 0
28, 6, 0
28, 10, 0
28, 11, 0
28, 9, 0
8, 7, 1
8, 3, 0
8, 25, 0
8, 2, 0
8, 21, 0
8, 19, 0
8, 18, 0
8, 22, 0
8, 5, 0
15, 16, 1
15, 0, 0
15, 17, 0
15, 25, 0
15, 3, 0
22, 18, 0
22, 17, 0
22, 2, 0
22, 21, 1
22, 25, 0
22, 19, 0
22, 8, 0
22, 5, 0
0, 20, 0
0, 3, 0
0, 17, 0
0, 6, 0
0, 16, 0
0, 27, 0
0, 12, 0
0, 15, 0
0, 25, 0
0, 18, 0
0, 5, 0
12, 20, 0
12, 0, 0
12, 25, 0
12, 6, 0
12, 28, 0
12, 11, 1
12, 27, 0
16, 0, 0
16, 18, 0
16, 25, 0
16, 21, 0
16, 17, 0
16, 19, 0
16, 15, 1
6, 20, 0
6, 3, 0
6, 28, 0
6, 12, 0
6, 27, 0
6, 25, 0
6, 11, 0
6, 0, 0
10, 4, 0
10, 28, 0
10, 9, 1
7, 3, 0
7, 25, 0
7, 2, 0
7, 21, 0
7, 19, 0
7, 8, 1
7, 5, 0
7, 18, 0
3, 0, 0
3, 6, 0
3, 13, 0
3, 17, 0
3, 23, 0
3, 27, 0
3, 5, 0
3, 1, 0
3, 7, 0
3, 4, 0
3, 26, 0
3, 2, 0
3, 28, 0
3, 8, 0
3, 15, 0
25, 0, 0
25, 17, 0
25, 16, 0
25, 6, 0
25, 5, 0
25, 7, 0
25, 12, 0
25, 4, 0
25, 2, 0
25, 21, 0
25, 28, 0
25, 19, 0
25, 8, 0
25, 15, 0
25, 18, 0
25, 22, 0
26, 3, 0
26, 14, 0
26, 2, 0
26, 19, 0
26, 24, 0
26, 1, 0
27, 20, 0
27, 12, 0
27, 3, 0
27, 6, 0
27, 11, 0
27, 0, 0
21, 17, 0
21, 23, 0
21, 18, 0
21, 5, 0
21, 7, 0
21, 16, 0
21, 25, 0
21, 2, 0
21, 14, 0
21, 19, 0
21, 8, 0
21, 22, 1
19, 17, 0
19, 23, 0
19, 16, 0
19, 5, 0
19, 7, 0
19, 18, 1
19, 25, 0
19, 26, 0
19, 2, 0
19, 21, 0
19, 14, 0
19, 8, 0
19, 22, 0
18, 0, 0
18, 17, 0
18, 23, 0
18, 16, 0
18, 5, 0
18, 7, 0
18, 25, 0
18, 2, 0
18, 21, 0
18, 14, 0
18, 19, 1
18, 8, 0
18, 22, 0
9, 4, 0
9, 28, 0
9, 10, 1
