0, 7, 0
0, 4, 0
0, 13, 0
0, 6, 0
0, 8, 0
0, 5, 0
0, 1, 0
13, 0, 0
13, 7, 0
13, 4, 0
13, 3, 0
13, 11, 0
13, 1, 0
3, 12, 0
3, 13, 0
3, 9, 0
3, 10, 0
3, 2, 0
6, 0, 0
6, 12, 0
6, 4, 0
6, 14, 0
6, 8, 0
6, 5, 1
6, 11, 0
8, 0, 0
8, 7, 0
8, 4, 0
8, 6, 0
8, 5, 0
8, 11, 0
5, 0, 0
5, 7, 1
5, 4, 0
5, 14, 0
5, 12, 0
5, 6, 1
5, 8, 0
5, 11, 0
11, 7, 0
11, 12, 0
11, 4, 0
11, 14, 0
11, 13, 0
11, 6, 0
11, 8, 0
11, 5, 0
10, 3, 0
10, 2, 0
10, 9, 0
7, 0, 0
7, 12, 0
7, 4, 0
7, 14, 0
7, 13, 0
7, 8, 0
7, 5, 1
7, 11, 0
12, 7, 0
12, 3, 0
12, 4, 0
12, 14, 0
12, 6, 0
12, 5, 0
12, 11, 0
12, 9, 0
4, 0, 0
4, 7, 0
4, 13, 0
4, 14, 0
4, 12, 0
4, 6, 0
4, 8, 0
4, 5, 0
4, 11, 0
4, 1, 0
14, 7, 0
14, 12, 0
14, 4, 0
14, 6, 0
14, 5, 0
14, 11, 0
2, 3, 0
2, 10, 0
1, 0, 0
1, 13, 0
1, 4, 0
9, 12, 0
9, 3, 0
9, 10, 0
