0, 7, 0
0, 6, 0
0, 8, 0
0, 10, 0
0, 1, 1
8, 0, 0
8, 12, 0
8, 7, 0
8, 11, 0
8, 10, 0
3, 6, 0
3, 2, 0
6, 0, 0
6, 12, 0
6, 10, 0
6, 3, 0
6, 1, 0
5, 4, 0
5, 9, 0
11, 7, 0
11, 12, 1
11, 8, 0
11, 4, 0
11, 9, 0
10, 0, 0
10, 12, 0
10, 6, 0
10, 8, 0
10, 1, 0
7, 0, 0
7, 12, 0
7, 4, 0
7, 8, 0
7, 11, 0
7, 9, 0
12, 7, 0
12, 4, 0
12, 9, 0
12, 2, 0
12, 6, 0
12, 8, 0
12, 10, 0
12, 11, 1
12, 1, 0
4, 7, 0
4, 12, 0
4, 5, 0
4, 11, 0
4, 9, 0
2, 12, 0
2, 3, 0
1, 0, 1
1, 12, 0
1, 10, 0
1, 6, 0
9, 7, 0
9, 12, 0
9, 4, 0
9, 5, 0
9, 11, 0
