13, 7, 0
13, 33, 0
13, 4, 0
13, 28, 0
13, 26, 0
13, 27, 0
13, 6, 0
13, 10, 0
13, 15, 0
13, 1, 0
17, 7, 0
17, 33, 0
17, 26, 0
17, 2, 0
17, 16, 0
17, 27, 0
17, 1, 0
17, 18, 1
17, 10, 0
31, 3, 0
31, 14, 0
31, 24, 0
31, 21, 0
31, 29, 0
31, 30, 0
23, 0, 0
23, 11, 0
23, 9, 0
10, 13, 0
10, 17, 0
10, 16, 0
10, 6, 0
10, 8, 0
10, 27, 0
10, 7, 0
10, 33, 0
10, 4, 0
10, 2, 0
10, 19, 0
10, 1, 0
10, 18, 0
2, 20, 0
2, 7, 0
2, 17, 0
2, 24, 0
2, 16, 0
2, 27, 0
2, 8, 0
2, 5, 0
2, 10, 0
5, 20, 0
5, 7, 0
5, 26, 0
5, 24, 0
5, 16, 0
5, 2, 0
5, 8, 0
11, 0, 0
11, 25, 0
11, 23, 0
1, 13, 0
1, 17, 0
1, 16, 0
1, 27, 0
1, 10, 0
1, 7, 0
1, 33, 0
1, 4, 0
1, 26, 0
1, 24, 0
1, 19, 0
1, 15, 0
1, 18, 0
20, 7, 0
20, 33, 0
20, 26, 0
20, 2, 0
20, 16, 0
20, 8, 0
20, 24, 0
20, 5, 0
4, 7, 0
4, 33, 0
4, 13, 0
4, 28, 0
4, 26, 0
4, 32, 0
4, 6, 0
4, 10, 0
4, 15, 0
4, 1, 0
14, 24, 0
14, 3, 0
14, 30, 0
14, 31, 0
14, 29, 0
24, 26, 0
24, 33, 0
24, 16, 0
24, 27, 0
24, 1, 0
24, 2, 0
24, 5, 0
24, 30, 0
24, 20, 0
24, 3, 0
24, 14, 0
24, 31, 0
24, 29, 0
24, 21, 0
24, 8, 0
28, 7, 0
28, 13, 0
28, 32, 0
28, 27, 0
28, 6, 0
28, 15, 0
28, 4, 0
28, 22, 0
30, 3, 0
30, 14, 0
30, 31, 0
30, 29, 1
30, 21, 0
30, 24, 0
8, 20, 0
8, 7, 0
8, 26, 0
8, 2, 0
8, 16, 0
8, 33, 0
8, 27, 0
8, 24, 0
8, 5, 0
8, 10, 0
15, 33, 0
15, 13, 0
15, 28, 0
15, 32, 0
15, 4, 0
15, 16, 0
15, 6, 0
15, 22, 0
15, 1, 0
22, 6, 0
22, 15, 0
22, 28, 0
22, 32, 0
22, 33, 0
0, 11, 0
0, 23, 0
0, 9, 0
12, 21, 0
12, 3, 0
12, 25, 0
16, 7, 0
16, 17, 0
16, 18, 0
16, 27, 0
16, 1, 0
16, 24, 0
16, 5, 0
16, 10, 0
16, 20, 0
16, 33, 0
16, 26, 0
16, 2, 0
16, 19, 0
16, 8, 0
16, 15, 0
6, 7, 0
6, 13, 0
6, 28, 0
6, 32, 0
6, 27, 0
6, 15, 0
6, 4, 0
6, 22, 0
6, 10, 0
27, 13, 0
27, 17, 0
27, 16, 0
27, 6, 0
27, 1, 0
27, 2, 0
27, 10, 0
27, 7, 0
27, 33, 0
27, 24, 0
27, 28, 0
27, 19, 0
27, 8, 0
27, 18, 0
7, 13, 0
7, 17, 0
7, 18, 0
7, 27, 0
7, 1, 0
7, 2, 0
7, 5, 0
7, 10, 0
7, 20, 0
7, 16, 0
7, 4, 0
7, 26, 0
7, 6, 0
7, 28, 0
7, 19, 0
7, 8, 0
3, 12, 0
3, 14, 0
3, 31, 0
3, 29, 0
3, 21, 0
3, 24, 0
3, 30, 0
25, 12, 0
25, 11, 0
32, 28, 0
32, 4, 0
32, 15, 0
32, 22, 0
32, 6, 0
29, 3, 0
29, 24, 0
29, 14, 0
29, 31, 0
29, 30, 1
21, 3, 0
21, 30, 0
21, 12, 0
21, 31, 0
21, 24, 0
33, 13, 0
33, 17, 0
33, 16, 0
33, 27, 0
33, 1, 0
33, 10, 0
33, 20, 0
33, 18, 0
33, 4, 0
33, 26, 0
33, 24, 0
33, 19, 0
33, 8, 0
33, 15, 0
33, 22, 0
19, 7, 0
19, 18, 1
19, 26, 0
19, 33, 0
19, 16, 0
19, 27, 0
19, 1, 0
19, 10, 0
26, 7, 0
26, 13, 0
26, 17, 0
26, 16, 0
26, 5, 0
26, 1, 0
26, 20, 0
26, 33, 0
26, 4, 0
26, 24, 0
26, 19, 0
26, 8, 0
26, 18, 0
18, 7, 0
18, 33, 0
18, 17, 1
18, 26, 0
18, 16, 0
18, 27, 0
18, 19, 1
18, 1, 0
18, 10, 0
9, 0, 0
9, 23, 0
