0, 7, 0
0, 13, 0
0, 16, 0
0, 8, 0
0, 15, 0
0, 11, 0
13, 0, 0
13, 7, 0
13, 14, 0
13, 8, 0
13, 11, 0
13, 1, 0
3, 2, 0
3, 12, 0
3, 4, 1
3, 5, 0
3, 6, 0
16, 0, 0
16, 12, 0
16, 4, 0
16, 14, 0
16, 2, 0
16, 6, 0
16, 8, 0
16, 15, 0
16, 5, 0
6, 16, 0
6, 3, 0
6, 4, 0
6, 5, 1
6, 2, 0
8, 0, 0
8, 7, 0
8, 13, 0
8, 14, 0
8, 16, 0
8, 15, 0
8, 11, 0
5, 16, 0
5, 6, 1
5, 2, 0
5, 4, 0
5, 3, 0
11, 0, 0
11, 7, 0
11, 13, 0
11, 14, 0
11, 9, 0
11, 8, 0
11, 10, 0
11, 1, 0
10, 7, 0
10, 9, 1
10, 11, 0
10, 1, 0
7, 0, 0
7, 13, 0
7, 2, 0
7, 8, 0
7, 15, 0
7, 11, 0
7, 10, 0
12, 16, 0
12, 3, 0
12, 4, 0
4, 16, 0
4, 12, 0
4, 3, 1
4, 5, 0
4, 6, 0
14, 13, 0
14, 2, 0
14, 16, 0
14, 8, 0
14, 15, 1
14, 11, 0
2, 7, 0
2, 3, 0
2, 14, 0
2, 16, 0
2, 6, 0
2, 15, 0
2, 5, 0
1, 13, 0
1, 9, 0
1, 11, 0
1, 10, 0
15, 0, 0
15, 7, 0
15, 14, 1
15, 2, 0
15, 16, 0
15, 8, 0
9, 10, 1
9, 11, 0
9, 1, 0
