13, 23, 0
13, 10, 0
17, 16, 0
17, 21, 0
17, 7, 0
17, 9, 0
23, 13, 0
23, 26, 0
2, 3, 1
2, 1, 0
5, 27, 0
5, 19, 0
5, 4, 0
11, 0, 0
11, 19, 0
1, 3, 0
1, 15, 0
1, 2, 0
20, 0, 0
20, 14, 0
20, 10, 0
4, 27, 0
4, 19, 0
4, 5, 0
4, 12, 0
14, 20, 0
14, 10, 0
24, 7, 0
24, 9, 0
8, 7, 0
8, 22, 0
15, 6, 0
15, 1, 0
22, 7, 0
22, 8, 0
22, 26, 0
0, 20, 0
0, 11, 0
3, 2, 1
3, 1, 0
16, 21, 0
16, 18, 0
16, 17, 0
16, 9, 0
6, 18, 0
6, 25, 0
6, 15, 0
10, 20, 0
10, 13, 0
10, 14, 0
7, 8, 0
7, 17, 0
7, 22, 0
7, 24, 0
12, 27, 0
12, 4, 0
25, 18, 0
25, 6, 0
26, 22, 0
26, 23, 0
27, 12, 0
27, 4, 0
27, 5, 0
21, 16, 0
21, 18, 0
21, 17, 0
19, 4, 0
19, 5, 0
19, 11, 0
18, 16, 0
18, 6, 0
18, 25, 0
18, 21, 0
9, 16, 0
9, 17, 0
9, 24, 0
