13, 25, 0
13, 28, 0
17, 20, 0
17, 29, 0
17, 32, 0
17, 24, 0
31, 27, 0
31, 4, 0
31, 5, 0
31, 1, 0
23, 4, 0
23, 1, 0
10, 3, 0
10, 26, 0
10, 11, 0
2, 21, 0
2, 12, 0
5, 31, 0
5, 1, 0
11, 6, 0
11, 8, 0
11, 26, 0
11, 10, 0
1, 4, 0
1, 31, 0
1, 23, 0
1, 27, 0
1, 8, 0
1, 5, 0
20, 7, 0
20, 14, 0
20, 32, 0
20, 24, 0
20, 17, 0
20, 19, 0
4, 18, 0
4, 31, 0
4, 23, 0
4, 1, 0
14, 20, 0
14, 19, 0
24, 20, 0
24, 17, 0
24, 32, 0
28, 13, 0
28, 15, 0
30, 9, 0
30, 32, 0
30, 29, 1
8, 27, 0
8, 6, 0
8, 26, 0
8, 11, 0
8, 1, 0
15, 28, 0
22, 21, 0
22, 0, 0
0, 16, 0
0, 21, 0
0, 22, 0
0, 9, 0
12, 3, 0
12, 2, 0
16, 0, 0
16, 9, 0
6, 8, 0
6, 11, 0
27, 8, 0
27, 31, 0
27, 1, 0
7, 20, 0
7, 19, 0
3, 12, 0
3, 10, 0
25, 18, 0
25, 13, 0
32, 20, 0
32, 17, 0
32, 9, 0
32, 24, 0
32, 29, 0
32, 30, 0
29, 9, 0
29, 17, 0
29, 32, 0
29, 30, 1
21, 0, 0
21, 22, 0
21, 2, 0
26, 8, 0
26, 11, 0
26, 10, 0
19, 20, 0
19, 7, 0
19, 14, 0
18, 4, 0
18, 25, 0
9, 0, 0
9, 16, 0
9, 30, 0
9, 32, 0
9, 29, 0
