0, 4, 0
0, 1, 0
3, 7, 0
3, 2, 0
4, 0, 0
4, 7, 0
2, 3, 0
6, 10, 0
6, 8, 0
6, 9, 0
6, 1, 0
1, 0, 0
1, 6, 0
1, 5, 0
1, 9, 0
8, 6, 0
8, 10, 0
5, 1, 0
5, 9, 0
7, 3, 0
7, 4, 0
10, 6, 0
10, 8, 0
9, 6, 0
9, 5, 0
9, 1, 0
