0, 18, 0
0, 10, 0
7, 6, 1
7, 4, 0
7, 10, 0
7, 1, 0
13, 20, 0
13, 12, 0
13, 8, 0
13, 11, 0
17, 16, 1
17, 4, 0
17, 5, 0
3, 20, 0
3, 9, 0
3, 15, 0
3, 2, 1
16, 4, 0
16, 17, 1
16, 5, 0
6, 7, 1
6, 4, 0
6, 10, 0
6, 1, 0
8, 20, 0
8, 13, 0
5, 16, 0
5, 19, 0
5, 4, 0
5, 17, 0
11, 12, 1
11, 13, 0
10, 18, 0
10, 6, 0
10, 7, 0
10, 0, 0
10, 1, 0
20, 3, 0
20, 13, 0
20, 2, 0
20, 8, 0
20, 15, 0
20, 9, 0
12, 13, 0
12, 11, 1
4, 7, 0
4, 17, 0
4, 16, 0
4, 6, 0
4, 5, 0
4, 1, 0
14, 19, 0
14, 15, 0
2, 20, 0
2, 3, 1
2, 15, 0
2, 9, 0
19, 15, 0
19, 14, 0
19, 5, 0
1, 7, 0
1, 6, 0
1, 4, 0
1, 10, 0
15, 20, 0
15, 3, 0
15, 14, 0
15, 2, 0
15, 19, 0
15, 9, 0
18, 0, 0
18, 10, 0
9, 20, 0
9, 3, 0
9, 15, 0
9, 2, 0
