13, 14, 0
13, 36, 0
17, 21, 0
17, 18, 0
17, 10, 0
23, 8, 0
23, 38, 0
23, 26, 0
23, 2, 0
42, 11, 0
42, 35, 0
46, 37, 0
46, 5, 0
20, 0, 0
20, 37, 0
20, 44, 0
20, 29, 0
34, 7, 0
34, 12, 0
34, 48, 0
34, 27, 0
14, 13, 0
14, 26, 0
24, 16, 0
24, 9, 0
28, 19, 0
28, 15, 0
28, 22, 0
39, 6, 0
39, 15, 0
39, 47, 0
41, 7, 0
41, 4, 0
41, 25, 0
41, 27, 0
41, 40, 1
41, 44, 0
0, 20, 0
0, 37, 0
8, 26, 0
8, 23, 0
33, 45, 0
33, 32, 0
15, 39, 0
15, 28, 0
47, 6, 0
47, 39, 0
10, 21, 0
10, 18, 0
10, 17, 0
7, 34, 0
7, 44, 0
7, 27, 0
7, 40, 0
7, 41, 0
7, 48, 0
3, 43, 0
3, 32, 0
3, 1, 0
32, 3, 0
32, 1, 0
32, 33, 0
2, 38, 0
2, 23, 0
21, 18, 0
21, 17, 0
21, 10, 0
19, 28, 0
19, 22, 0
19, 36, 0
18, 21, 0
18, 9, 0
18, 17, 0
18, 31, 0
18, 10, 0
31, 18, 0
31, 16, 0
31, 9, 0
29, 20, 0
29, 37, 0
29, 44, 0
40, 7, 0
40, 4, 0
40, 25, 0
40, 41, 1
40, 48, 0
40, 44, 0
11, 16, 0
11, 42, 0
5, 43, 0
5, 46, 0
37, 20, 0
37, 0, 0
37, 46, 0
37, 29, 0
4, 40, 0
4, 25, 0
4, 41, 0
4, 44, 0
35, 42, 0
35, 30, 0
30, 6, 0
30, 35, 0
38, 12, 0
38, 23, 0
38, 2, 0
22, 19, 0
22, 28, 0
22, 36, 0
36, 19, 0
36, 13, 0
36, 22, 0
45, 33, 0
16, 11, 0
16, 31, 0
16, 24, 0
27, 7, 0
27, 34, 0
27, 41, 0
27, 44, 0
27, 48, 0
1, 3, 0
1, 43, 0
1, 32, 0
44, 20, 0
44, 7, 0
44, 4, 0
44, 25, 0
44, 29, 0
44, 27, 0
44, 40, 0
44, 41, 0
48, 7, 0
48, 27, 0
48, 40, 0
48, 25, 0
48, 34, 0
12, 34, 0
12, 38, 0
25, 4, 0
25, 40, 0
25, 44, 0
25, 48, 0
25, 41, 0
26, 8, 0
26, 14, 0
26, 23, 0
6, 39, 0
6, 47, 0
6, 30, 0
43, 3, 0
43, 5, 0
43, 1, 0
9, 18, 0
9, 31, 0
9, 24, 0
