0, 7, 0
0, 3, 0
0, 13, 0
0, 2, 0
0, 6, 0
0, 5, 0
0, 1, 0
13, 0, 0
13, 7, 0
13, 3, 0
13, 2, 0
13, 1, 0
13, 8, 0
13, 15, 0
13, 11, 0
13, 9, 0
3, 0, 0
3, 7, 0
3, 13, 0
3, 6, 0
3, 10, 0
3, 5, 0
3, 1, 0
6, 0, 0
6, 7, 1
6, 3, 0
6, 5, 0
6, 1, 0
8, 10, 0
8, 13, 0
8, 9, 1
8, 11, 0
8, 1, 0
5, 0, 0
5, 6, 0
5, 7, 0
5, 3, 0
5, 2, 0
11, 13, 0
11, 14, 0
11, 1, 0
11, 8, 0
11, 15, 0
11, 10, 0
11, 9, 0
10, 12, 0
10, 4, 0
10, 14, 0
10, 3, 0
10, 8, 0
10, 15, 0
10, 11, 0
10, 9, 0
7, 0, 0
7, 3, 0
7, 13, 0
7, 6, 1
7, 5, 0
7, 1, 0
12, 4, 0
12, 15, 0
12, 10, 0
4, 12, 0
4, 10, 0
14, 15, 1
14, 11, 0
14, 10, 0
2, 0, 0
2, 13, 0
2, 5, 0
1, 0, 0
1, 7, 0
1, 13, 0
1, 3, 0
1, 6, 0
1, 8, 0
1, 11, 0
1, 9, 0
15, 12, 0
15, 13, 0
15, 14, 1
15, 11, 0
15, 10, 0
9, 8, 1
9, 13, 0
9, 10, 0
9, 11, 0
9, 1, 0
