13, 0, 0
13, 12, 1
13, 4, 0
13, 14, 1
13, 18, 0
13, 17, 0
13, 7, 0
13, 10, 0
17, 0, 0
17, 12, 0
17, 13, 0
17, 14, 0
17, 4, 0
17, 2, 0
17, 18, 0
17, 7, 0
17, 11, 0
17, 10, 0
23, 16, 0
23, 6, 0
23, 5, 0
5, 16, 0
5, 6, 1
5, 23, 0
11, 0, 0
11, 7, 0
11, 12, 0
11, 17, 0
11, 2, 0
1, 20, 0
1, 21, 0
1, 19, 0
1, 22, 0
20, 19, 0
20, 15, 0
20, 22, 0
20, 1, 0
4, 7, 0
4, 12, 0
4, 13, 0
4, 14, 0
4, 17, 0
4, 0, 0
14, 0, 0
14, 7, 0
14, 13, 1
14, 17, 0
14, 4, 0
14, 18, 0
14, 10, 0
8, 21, 0
8, 3, 0
8, 9, 1
15, 20, 0
15, 19, 0
15, 22, 0
22, 20, 0
22, 16, 0
22, 15, 0
22, 1, 0
0, 12, 0
0, 13, 0
0, 14, 0
0, 4, 0
0, 2, 0
0, 17, 0
0, 11, 0
3, 21, 0
3, 8, 0
3, 9, 0
3, 10, 0
16, 6, 0
16, 22, 0
16, 5, 0
16, 23, 0
6, 16, 0
6, 5, 1
6, 23, 0
10, 7, 0
10, 3, 0
10, 13, 0
10, 14, 0
10, 12, 0
10, 18, 0
10, 17, 0
10, 9, 0
7, 12, 0
7, 13, 0
7, 14, 0
7, 4, 0
7, 18, 0
7, 17, 0
7, 11, 0
7, 10, 0
12, 0, 0
12, 7, 0
12, 13, 1
12, 17, 0
12, 4, 0
12, 18, 0
12, 11, 0
12, 10, 0
2, 0, 0
2, 17, 0
2, 11, 0
21, 3, 0
21, 19, 0
21, 8, 0
21, 9, 0
21, 1, 0
19, 20, 0
19, 21, 0
19, 15, 0
19, 1, 0
18, 7, 0
18, 12, 0
18, 13, 0
18, 14, 0
18, 17, 0
18, 10, 0
9, 21, 0
9, 3, 0
9, 8, 1
9, 10, 0
