0, 12, 0
0, 1, 0
13, 14, 0
13, 2, 0
3, 12, 0
3, 4, 1
3, 5, 0
3, 10, 0
6, 7, 0
6, 9, 0
8, 7, 0
8, 1, 0
5, 12, 0
5, 4, 0
5, 3, 0
5, 10, 0
11, 15, 0
11, 9, 0
10, 12, 0
10, 4, 0
10, 5, 0
10, 3, 0
7, 6, 0
7, 8, 0
7, 15, 0
7, 9, 0
7, 1, 0
12, 0, 0
12, 3, 0
12, 4, 0
12, 5, 0
12, 10, 0
4, 12, 0
4, 1, 0
4, 3, 1
4, 5, 0
4, 10, 0
14, 13, 0
14, 2, 0
2, 15, 0
2, 13, 0
2, 14, 0
1, 0, 0
1, 7, 0
1, 8, 0
1, 4, 0
15, 7, 0
15, 11, 0
15, 2, 0
9, 7, 0
9, 6, 0
9, 11, 0
