0, 7, 0
0, 4, 0
0, 9, 0
3, 2, 0
3, 8, 0
3, 10, 0
4, 0, 0
4, 7, 0
4, 9, 0
4, 10, 0
2, 3, 0
2, 8, 0
2, 10, 0
6, 1, 0
6, 5, 0
6, 9, 0
1, 7, 0
1, 6, 0
1, 9, 0
8, 3, 0
8, 2, 0
5, 6, 0
7, 0, 0
7, 1, 0
7, 4, 0
7, 10, 0
7, 9, 0
10, 7, 0
10, 3, 0
10, 4, 0
10, 2, 0
9, 0, 0
9, 7, 0
9, 6, 0
9, 4, 0
9, 1, 0
