0, 7, 0
0, 3, 0
0, 4, 0
0, 2, 0
0, 5, 0
0, 9, 0
13, 7, 0
13, 12, 0
13, 3, 0
13, 2, 0
13, 6, 0
13, 1, 0
13, 8, 0
13, 11, 0
13, 10, 0
3, 0, 0
3, 12, 0
3, 13, 0
3, 2, 0
3, 6, 0
3, 10, 0
6, 7, 0
6, 12, 0
6, 13, 0
6, 3, 0
6, 2, 0
6, 10, 0
8, 7, 0
8, 13, 0
8, 1, 0
5, 0, 0
5, 4, 1
5, 9, 0
11, 7, 0
11, 2, 0
11, 13, 0
11, 10, 1
10, 7, 0
10, 12, 1
10, 13, 0
10, 3, 0
10, 6, 0
10, 2, 0
10, 11, 1
7, 0, 0
7, 12, 0
7, 13, 0
7, 6, 0
7, 1, 0
7, 8, 0
7, 11, 0
7, 10, 0
12, 7, 0
12, 3, 0
12, 13, 0
12, 2, 0
12, 6, 0
12, 10, 1
4, 0, 0
4, 5, 1
4, 9, 0
2, 0, 0
2, 12, 0
2, 13, 0
2, 3, 0
2, 6, 0
2, 11, 0
2, 10, 0
1, 7, 0
1, 8, 0
1, 13, 0
9, 0, 0
9, 4, 0
9, 5, 0
