0, 14, 0
13, 3, 0
13, 11, 0
3, 13, 0
3, 2, 0
6, 1, 0
6, 8, 0
6, 14, 0
6, 9, 0
8, 6, 0
8, 14, 0
5, 4, 1
5, 10, 0
5, 2, 0
11, 7, 0
11, 13, 0
11, 4, 0
10, 7, 0
10, 4, 0
10, 5, 0
10, 2, 0
7, 12, 0
7, 4, 0
7, 9, 0
7, 15, 0
7, 11, 0
7, 10, 0
12, 7, 0
12, 15, 0
12, 1, 0
4, 7, 0
4, 2, 0
4, 5, 1
4, 11, 0
4, 10, 0
14, 0, 0
14, 6, 0
14, 8, 0
2, 3, 0
2, 4, 0
2, 5, 0
2, 10, 0
1, 12, 0
1, 6, 0
1, 9, 0
15, 7, 0
15, 12, 0
9, 7, 0
9, 6, 0
9, 1, 0
