13, 20, 0
13, 3, 0
13, 4, 0
13, 17, 0
13, 18, 0
17, 18, 0
17, 13, 0
17, 4, 0
17, 9, 0
5, 16, 0
5, 22, 0
5, 11, 0
5, 1, 0
11, 16, 0
11, 15, 0
11, 5, 0
1, 8, 0
1, 5, 0
1, 22, 0
20, 3, 0
20, 13, 0
4, 14, 0
4, 13, 0
4, 17, 0
4, 9, 0
4, 10, 0
14, 4, 0
14, 10, 0
8, 7, 1
8, 19, 0
8, 22, 0
8, 1, 0
15, 3, 0
15, 11, 0
15, 2, 0
22, 7, 0
22, 19, 0
22, 8, 0
22, 5, 0
22, 1, 0
0, 21, 0
0, 12, 0
0, 6, 0
3, 20, 0
3, 13, 0
3, 15, 0
3, 2, 0
16, 5, 0
16, 11, 0
6, 0, 0
6, 12, 0
10, 4, 0
10, 14, 0
10, 9, 0
7, 19, 0
7, 8, 1
7, 22, 0
12, 0, 0
12, 6, 0
2, 3, 0
2, 15, 0
21, 0, 0
21, 19, 0
19, 7, 0
19, 21, 0
19, 8, 0
19, 22, 0
18, 13, 0
18, 17, 0
18, 9, 0
9, 18, 0
9, 4, 0
9, 17, 0
9, 10, 0
