13, 12, 1
13, 4, 0
13, 14, 0
17, 5, 0
17, 10, 0
23, 16, 0
23, 21, 0
23, 9, 0
5, 15, 0
5, 17, 0
11, 0, 0
11, 19, 0
11, 1, 0
1, 20, 0
1, 0, 0
1, 19, 0
1, 14, 0
1, 11, 0
20, 14, 0
20, 1, 0
4, 7, 0
4, 12, 0
4, 13, 0
4, 14, 0
4, 18, 0
14, 20, 0
14, 12, 0
14, 13, 0
14, 4, 0
14, 1, 0
8, 21, 0
8, 3, 0
8, 2, 0
15, 6, 0
15, 5, 0
22, 18, 0
22, 10, 0
0, 19, 0
0, 11, 0
0, 1, 0
3, 21, 0
3, 8, 0
3, 2, 0
16, 21, 0
16, 23, 0
16, 9, 0
6, 15, 0
6, 2, 0
10, 18, 0
10, 17, 0
10, 22, 0
7, 18, 0
7, 4, 0
12, 13, 1
12, 14, 0
12, 4, 0
2, 21, 0
2, 3, 0
2, 8, 0
2, 6, 0
21, 16, 0
21, 3, 0
21, 8, 0
21, 23, 0
21, 2, 0
19, 0, 0
19, 11, 0
19, 1, 0
18, 7, 0
18, 4, 0
18, 22, 0
18, 10, 0
9, 16, 0
9, 23, 0
