0, 2, 0
0, 4, 0
0, 14, 0
0, 9, 0
13, 3, 0
13, 8, 0
13, 12, 0
3, 12, 0
3, 8, 0
3, 13, 0
6, 2, 0
6, 10, 0
8, 12, 0
8, 13, 0
8, 3, 0
5, 4, 0
5, 11, 0
11, 4, 0
11, 5, 0
10, 7, 0
10, 6, 0
10, 2, 0
10, 1, 0
7, 2, 0
7, 12, 0
7, 10, 0
7, 1, 0
12, 7, 0
12, 3, 0
12, 13, 0
12, 14, 0
12, 2, 0
12, 8, 0
12, 1, 0
4, 0, 0
4, 5, 0
4, 11, 0
4, 9, 0
14, 0, 0
14, 12, 0
14, 2, 0
2, 0, 0
2, 12, 0
2, 7, 0
2, 14, 0
2, 6, 0
2, 10, 0
1, 7, 0
1, 12, 0
1, 10, 0
9, 0, 0
9, 4, 0
