13, 7, 0
13, 19, 0
13, 10, 0
13, 44, 0
13, 36, 0
17, 45, 0
17, 14, 0
17, 48, 0
23, 50, 0
23, 49, 0
23, 54, 0
23, 5, 0
23, 29, 0
46, 16, 0
46, 4, 0
46, 31, 0
46, 32, 0
46, 2, 0
46, 37, 0
46, 47, 1
46, 12, 0
20, 18, 0
20, 40, 0
20, 39, 0
20, 5, 0
34, 0, 0
34, 24, 0
34, 6, 0
34, 8, 0
34, 41, 0
34, 11, 0
14, 43, 0
14, 17, 0
14, 48, 0
14, 45, 0
24, 0, 0
24, 3, 0
24, 18, 0
24, 6, 0
24, 5, 0
24, 11, 0
24, 34, 0
24, 27, 0
24, 42, 0
24, 8, 0
24, 39, 0
24, 22, 0
28, 57, 0
28, 55, 0
28, 56, 0
28, 35, 0
28, 10, 0
28, 30, 0
28, 1, 0
28, 44, 0
28, 36, 0
15, 33, 0
15, 54, 0
15, 5, 0
15, 35, 0
41, 0, 0
41, 34, 0
41, 11, 0
41, 6, 0
0, 34, 0
0, 50, 0
0, 24, 0
0, 18, 0
0, 6, 0
0, 8, 0
0, 41, 0
0, 11, 0
0, 9, 0
8, 0, 0
8, 51, 0
8, 3, 0
8, 18, 0
8, 6, 0
8, 5, 0
8, 11, 0
8, 27, 0
8, 34, 0
8, 25, 0
8, 24, 0
8, 37, 0
8, 42, 0
8, 39, 0
8, 9, 0
51, 26, 0
51, 6, 0
51, 18, 0
51, 27, 0
51, 8, 0
51, 5, 0
51, 11, 0
3, 26, 0
3, 24, 0
3, 18, 0
3, 42, 0
3, 39, 0
3, 8, 0
3, 40, 0
3, 5, 0
38, 19, 0
38, 55, 0
38, 10, 0
47, 37, 0
47, 12, 0
47, 46, 1
10, 7, 0
10, 13, 0
10, 28, 0
10, 19, 0
10, 55, 0
10, 38, 0
10, 36, 0
7, 36, 0
7, 13, 0
7, 10, 0
33, 15, 0
33, 53, 0
33, 54, 0
33, 5, 0
33, 35, 0
53, 33, 0
53, 54, 0
53, 5, 0
53, 35, 0
32, 37, 0
32, 12, 0
32, 46, 0
32, 31, 0
32, 2, 0
2, 4, 0
2, 46, 0
2, 11, 0
2, 32, 0
21, 6, 0
21, 43, 0
52, 16, 0
52, 31, 0
19, 57, 0
19, 13, 0
19, 56, 0
19, 35, 0
19, 10, 0
19, 38, 0
19, 44, 0
19, 30, 0
49, 35, 0
49, 54, 0
49, 5, 0
49, 23, 0
49, 29, 0
48, 45, 0
48, 14, 0
48, 31, 0
48, 12, 0
48, 6, 0
48, 17, 0
31, 12, 0
31, 37, 0
31, 52, 0
31, 32, 0
31, 16, 0
31, 6, 0
31, 46, 0
31, 48, 0
39, 20, 0
39, 3, 0
39, 24, 0
39, 18, 0
39, 8, 0
39, 40, 1
39, 5, 0
39, 9, 0
45, 14, 0
45, 43, 0
45, 48, 0
45, 17, 0
29, 54, 0
29, 50, 0
29, 23, 0
29, 35, 0
29, 49, 0
29, 5, 0
40, 20, 0
40, 3, 0
40, 35, 0
40, 18, 0
40, 39, 1
40, 5, 0
11, 0, 0
11, 34, 0
11, 51, 0
11, 24, 0
11, 37, 0
11, 6, 0
11, 2, 0
11, 8, 0
11, 41, 0
11, 22, 0
11, 27, 0
5, 23, 0
5, 15, 0
5, 24, 0
5, 40, 0
5, 20, 0
5, 29, 0
5, 35, 0
5, 42, 0
5, 8, 0
5, 39, 0
5, 51, 0
5, 33, 0
5, 18, 0
5, 6, 0
5, 53, 0
5, 3, 0
5, 25, 0
5, 50, 0
5, 27, 0
5, 54, 0
5, 49, 0
5, 9, 0
37, 12, 0
37, 4, 0
37, 22, 0
37, 31, 0
37, 47, 0
37, 6, 0
37, 8, 0
37, 46, 0
37, 11, 0
37, 32, 0
4, 16, 0
4, 37, 0
4, 46, 0
4, 2, 0
35, 28, 0
35, 56, 0
35, 5, 0
35, 1, 0
35, 53, 0
35, 40, 0
35, 44, 0
35, 30, 0
35, 57, 0
35, 33, 0
35, 54, 0
35, 50, 0
35, 29, 0
35, 19, 0
35, 49, 0
35, 15, 0
30, 57, 0
30, 28, 0
30, 56, 0
30, 35, 0
30, 19, 0
30, 44, 0
30, 1, 0
42, 3, 0
42, 25, 0
42, 26, 0
42, 24, 0
42, 18, 0
42, 27, 0
42, 8, 0
42, 5, 0
22, 37, 0
22, 6, 0
22, 11, 0
22, 24, 0
36, 7, 0
36, 13, 0
36, 28, 0
36, 44, 0
36, 10, 0
25, 26, 1
25, 27, 0
25, 18, 0
25, 42, 0
25, 8, 0
25, 5, 0
57, 28, 0
57, 56, 1
57, 35, 0
57, 19, 0
57, 1, 0
57, 44, 0
57, 30, 0
56, 57, 1
56, 28, 0
56, 35, 0
56, 19, 0
56, 1, 0
56, 44, 0
56, 30, 0
16, 4, 0
16, 52, 0
16, 46, 0
16, 31, 0
27, 25, 0
27, 26, 0
27, 51, 0
27, 24, 0
27, 18, 0
27, 42, 0
27, 8, 0
27, 5, 0
27, 11, 0
1, 57, 0
1, 28, 0
1, 56, 0
1, 35, 0
1, 44, 0
1, 30, 0
55, 38, 0
55, 28, 0
55, 10, 0
44, 57, 0
44, 13, 0
44, 28, 0
44, 56, 0
44, 35, 0
44, 1, 0
44, 19, 0
44, 30, 0
44, 36, 0
12, 32, 0
12, 26, 0
12, 31, 0
12, 37, 0
12, 6, 0
12, 46, 0
12, 47, 0
12, 48, 0
18, 0, 0
18, 51, 0
18, 6, 0
18, 40, 0
18, 5, 0
18, 27, 0
18, 20, 0
18, 3, 0
18, 25, 0
18, 26, 0
18, 24, 0
18, 42, 0
18, 8, 0
18, 39, 0
18, 9, 0
54, 33, 0
54, 49, 0
54, 50, 0
54, 23, 0
54, 35, 0
54, 29, 0
54, 53, 0
54, 15, 0
54, 5, 0
50, 0, 0
50, 54, 0
50, 23, 0
50, 29, 0
50, 35, 0
50, 5, 0
50, 9, 0
26, 12, 0
26, 25, 1
26, 51, 0
26, 3, 0
26, 18, 0
26, 6, 0
26, 42, 0
26, 27, 0
6, 0, 0
6, 31, 0
6, 51, 0
6, 34, 0
6, 18, 0
6, 5, 0
6, 11, 0
6, 48, 0
6, 12, 0
6, 21, 0
6, 43, 0
6, 26, 0
6, 24, 0
6, 37, 0
6, 8, 0
6, 41, 0
6, 22, 0
43, 21, 0
43, 45, 0
43, 14, 0
43, 6, 0
9, 0, 0
9, 50, 0
9, 18, 0
9, 8, 0
9, 39, 0
9, 5, 0
