0, 2, 0
0, 3, 0
0, 13, 0
0, 1, 0
13, 0, 0
13, 8, 0
3, 0, 0
3, 2, 0
3, 1, 0
6, 7, 0
6, 15, 0
6, 11, 0
6, 9, 0
8, 15, 0
8, 13, 0
8, 14, 0
5, 14, 0
5, 4, 1
5, 15, 0
11, 7, 0
11, 6, 0
11, 9, 0
11, 10, 0
10, 11, 0
7, 6, 0
7, 11, 0
7, 9, 0
12, 15, 0
12, 9, 0
4, 14, 0
4, 15, 0
4, 5, 1
14, 8, 0
14, 15, 0
14, 5, 0
14, 4, 0
2, 0, 0
2, 3, 0
1, 0, 0
1, 3, 0
15, 12, 0
15, 4, 0
15, 14, 0
15, 6, 0
15, 8, 0
15, 5, 0
15, 9, 0
9, 7, 0
9, 12, 0
9, 15, 0
9, 11, 0
9, 6, 0
