0, 7, 0
0, 6, 0
0, 4, 0
0, 5, 0
0, 2, 0
3, 7, 0
3, 2, 0
3, 1, 0
4, 0, 0
4, 6, 0
4, 8, 0
4, 5, 0
7, 0, 0
7, 3, 0
7, 1, 0
7, 2, 0
2, 7, 0
2, 3, 0
2, 0, 0
2, 1, 0
6, 0, 0
6, 4, 0
6, 5, 0
8, 4, 0
8, 5, 0
5, 0, 0
5, 6, 0
5, 8, 0
5, 4, 0
1, 7, 0
1, 3, 0
1, 2, 0
