0, 3, 0
0, 1, 0
0, 9, 0
6, 7, 0
6, 4, 0
6, 9, 0
6, 5, 0
6, 1, 0
1, 0, 0
1, 7, 0
1, 6, 0
1, 9, 0
5, 6, 0
5, 4, 1
11, 2, 0
11, 10, 0
10, 3, 0
10, 11, 0
10, 9, 0
7, 6, 0
7, 4, 0
7, 1, 0
3, 0, 0
3, 10, 0
4, 7, 0
4, 6, 0
4, 5, 1
2, 8, 0
2, 11, 0
8, 2, 0
9, 0, 0
9, 6, 0
9, 10, 0
9, 1, 0
