13, 34, 0
13, 8, 0
13, 4, 0
17, 0, 0
17, 45, 0
17, 25, 0
17, 44, 0
17, 27, 0
23, 25, 0
23, 28, 0
23, 32, 0
23, 30, 0
42, 6, 0
42, 15, 0
42, 41, 0
42, 24, 0
46, 12, 0
46, 14, 0
46, 29, 0
46, 39, 0
46, 5, 0
46, 10, 0
20, 19, 0
20, 1, 0
20, 22, 0
20, 2, 0
14, 16, 0
14, 10, 0
14, 46, 0
14, 29, 0
24, 42, 0
24, 6, 0
28, 21, 0
28, 32, 0
28, 23, 0
28, 30, 0
39, 37, 0
39, 12, 0
39, 40, 1
39, 46, 0
41, 3, 0
41, 19, 0
41, 15, 0
41, 42, 0
0, 17, 0
0, 25, 0
0, 32, 0
8, 7, 0
8, 34, 0
8, 13, 0
8, 38, 0
8, 4, 0
34, 13, 0
34, 8, 0
34, 38, 0
15, 42, 0
15, 41, 0
47, 6, 0
47, 36, 0
10, 14, 0
10, 46, 0
10, 29, 0
7, 37, 0
7, 8, 0
7, 38, 0
3, 19, 0
3, 41, 0
32, 0, 0
32, 28, 0
32, 25, 0
32, 23, 0
32, 30, 0
2, 20, 0
2, 1, 0
21, 28, 0
33, 18, 0
33, 11, 0
33, 31, 0
33, 35, 0
19, 20, 0
19, 3, 0
19, 41, 0
19, 22, 0
18, 33, 0
18, 31, 0
31, 18, 0
31, 16, 0
31, 33, 0
29, 16, 0
29, 14, 0
29, 46, 0
29, 10, 0
40, 37, 0
40, 12, 0
40, 39, 1
11, 33, 0
11, 35, 0
11, 26, 0
11, 9, 0
5, 12, 0
5, 46, 0
37, 7, 0
37, 40, 0
37, 38, 0
37, 39, 0
37, 12, 0
4, 27, 0
4, 8, 0
4, 13, 0
4, 45, 0
35, 33, 0
35, 26, 0
35, 11, 0
30, 28, 0
30, 32, 0
30, 23, 0
38, 7, 0
38, 34, 0
38, 8, 0
38, 37, 0
22, 20, 0
22, 19, 0
36, 47, 0
36, 9, 0
45, 27, 0
45, 4, 0
45, 17, 0
45, 44, 1
16, 14, 0
16, 31, 0
16, 29, 0
27, 45, 0
27, 4, 0
27, 17, 0
27, 44, 0
1, 20, 0
1, 43, 0
1, 2, 0
44, 45, 1
44, 17, 0
44, 27, 0
12, 37, 0
12, 40, 0
12, 39, 0
12, 46, 0
12, 5, 0
25, 0, 0
25, 17, 0
25, 32, 0
25, 23, 0
26, 9, 0
26, 11, 0
26, 35, 0
6, 42, 0
6, 47, 0
6, 24, 0
43, 1, 0
9, 26, 0
9, 11, 0
9, 36, 0
