13, 7, 0
13, 34, 0
13, 43, 0
13, 32, 0
13, 31, 0
13, 16, 0
13, 14, 1
13, 11, 0
17, 33, 0
17, 27, 0
17, 14, 0
17, 23, 0
17, 26, 0
17, 31, 0
17, 43, 0
17, 19, 0
17, 42, 0
17, 11, 0
17, 32, 0
23, 17, 0
23, 31, 0
23, 6, 0
23, 46, 0
23, 11, 0
23, 43, 0
23, 32, 0
23, 27, 0
23, 21, 0
23, 14, 0
23, 19, 0
23, 42, 0
23, 26, 0
42, 0, 0
42, 33, 0
42, 17, 0
42, 26, 0
42, 23, 0
42, 46, 0
42, 27, 0
42, 15, 0
42, 25, 0
42, 11, 0
42, 41, 0
46, 0, 0
46, 33, 0
46, 23, 0
46, 42, 0
46, 16, 0
46, 27, 0
46, 47, 1
46, 30, 0
20, 7, 0
20, 44, 0
20, 9, 0
20, 24, 0
20, 16, 0
20, 35, 0
20, 40, 0
20, 48, 0
20, 22, 0
20, 1, 0
34, 18, 0
34, 43, 0
34, 13, 0
34, 14, 0
34, 31, 0
34, 32, 0
34, 21, 0
34, 6, 0
34, 19, 0
34, 15, 0
34, 11, 0
14, 34, 0
14, 6, 0
14, 13, 1
14, 43, 0
14, 23, 0
14, 32, 0
14, 31, 0
14, 17, 0
14, 15, 0
24, 20, 0
24, 28, 0
24, 2, 0
24, 1, 0
24, 49, 0
24, 40, 0
24, 48, 0
24, 10, 0
28, 24, 0
28, 49, 0
28, 40, 0
28, 29, 1
39, 9, 0
41, 0, 0
41, 33, 0
41, 31, 0
41, 26, 0
41, 27, 0
41, 42, 0
41, 11, 0
41, 32, 0
0, 46, 0
0, 31, 0
0, 26, 0
0, 2, 0
0, 16, 0
0, 27, 0
0, 32, 0
0, 42, 0
0, 41, 0
0, 11, 0
0, 30, 0
8, 37, 0
8, 15, 0
8, 38, 0
8, 45, 0
33, 25, 0
33, 17, 0
33, 31, 0
33, 26, 0
33, 42, 0
33, 27, 0
33, 19, 0
33, 32, 0
33, 46, 0
33, 11, 0
33, 41, 0
15, 26, 0
15, 12, 0
15, 18, 0
15, 38, 0
15, 11, 0
15, 34, 0
15, 43, 0
15, 32, 0
15, 31, 0
15, 21, 0
15, 14, 0
15, 19, 0
15, 8, 0
15, 42, 0
47, 46, 1
47, 30, 0
10, 1, 0
10, 24, 0
7, 20, 0
7, 3, 0
7, 13, 0
7, 35, 0
7, 16, 0
7, 2, 0
7, 40, 0
7, 48, 0
7, 22, 0
3, 16, 0
3, 7, 0
3, 2, 1
32, 0, 0
32, 13, 0
32, 17, 0
32, 23, 0
32, 33, 0
32, 16, 0
32, 6, 0
32, 34, 0
32, 43, 0
32, 31, 1
32, 21, 0
32, 14, 0
32, 15, 0
32, 41, 0
2, 0, 0
2, 16, 0
2, 40, 0
2, 29, 0
2, 24, 0
2, 44, 0
2, 1, 0
2, 7, 0
2, 3, 1
2, 35, 0
2, 22, 0
2, 36, 0
21, 34, 0
21, 43, 0
21, 23, 0
21, 32, 0
21, 18, 0
21, 6, 0
21, 19, 0
21, 15, 0
21, 5, 0
19, 33, 0
19, 43, 0
19, 23, 0
19, 34, 0
19, 21, 0
19, 6, 0
19, 15, 0
19, 18, 1
19, 17, 0
49, 40, 0
49, 29, 0
49, 28, 0
49, 24, 0
18, 34, 0
18, 43, 0
18, 21, 0
18, 6, 0
18, 19, 1
18, 15, 0
31, 0, 0
31, 13, 0
31, 17, 0
31, 23, 0
31, 34, 0
31, 6, 0
31, 11, 0
31, 33, 0
31, 43, 0
31, 32, 1
31, 14, 0
31, 15, 0
31, 41, 0
29, 28, 1
29, 2, 0
29, 16, 0
29, 49, 0
29, 40, 0
29, 36, 0
40, 20, 0
40, 7, 0
40, 49, 0
40, 28, 0
40, 35, 0
40, 16, 0
40, 29, 0
40, 2, 0
40, 24, 0
40, 22, 0
40, 36, 0
11, 0, 0
11, 13, 0
11, 17, 0
11, 31, 0
11, 23, 0
11, 34, 0
11, 6, 0
11, 33, 0
11, 43, 0
11, 26, 0
11, 42, 0
11, 25, 0
11, 15, 0
11, 41, 0
5, 21, 0
5, 12, 0
37, 45, 0
37, 8, 0
37, 38, 1
37, 12, 0
4, 1, 0
4, 44, 0
4, 48, 0
35, 20, 0
35, 7, 0
35, 2, 0
35, 16, 0
35, 40, 0
35, 22, 0
35, 36, 1
30, 0, 0
30, 16, 0
30, 46, 0
30, 47, 0
38, 37, 1
38, 45, 0
38, 8, 0
38, 15, 0
22, 20, 0
22, 7, 0
22, 35, 0
22, 16, 0
22, 2, 0
22, 40, 0
36, 16, 0
36, 29, 0
36, 2, 0
36, 40, 0
36, 35, 1
45, 37, 0
45, 12, 0
45, 8, 0
45, 38, 0
16, 0, 0
16, 7, 0
16, 13, 0
16, 29, 0
16, 40, 0
16, 46, 0
16, 30, 0
16, 20, 0
16, 3, 0
16, 25, 0
16, 32, 0
16, 35, 0
16, 2, 0
16, 48, 0
16, 22, 0
16, 36, 0
27, 0, 0
27, 33, 0
27, 17, 0
27, 23, 0
27, 42, 0
27, 25, 0
27, 46, 0
27, 41, 0
1, 20, 0
1, 4, 0
1, 48, 0
1, 2, 0
1, 24, 0
1, 44, 0
1, 10, 0
44, 20, 0
44, 4, 0
44, 2, 0
44, 9, 0
44, 48, 0
44, 1, 0
48, 20, 0
48, 7, 0
48, 4, 0
48, 24, 0
48, 16, 0
48, 44, 0
48, 1, 0
12, 37, 0
12, 45, 0
12, 15, 0
12, 5, 0
25, 33, 0
25, 26, 1
25, 27, 0
25, 16, 0
25, 42, 0
25, 11, 0
26, 0, 0
26, 33, 0
26, 17, 0
26, 23, 0
26, 42, 0
26, 15, 0
26, 25, 1
26, 11, 0
26, 41, 0
6, 34, 0
6, 14, 0
6, 23, 0
6, 31, 0
6, 21, 0
6, 43, 0
6, 19, 0
6, 18, 0
6, 11, 0
6, 32, 0
43, 13, 0
43, 17, 0
43, 32, 0
43, 23, 0
43, 18, 0
43, 6, 0
43, 11, 0
43, 34, 0
43, 14, 0
43, 31, 0
43, 21, 0
43, 19, 0
43, 15, 0
9, 20, 0
9, 39, 0
9, 44, 0
