0, 7, 0
0, 4, 0
0, 11, 0
0, 10, 0
6, 10, 0
6, 8, 0
6, 1, 0
6, 5, 0
6, 2, 0
1, 3, 0
1, 9, 0
1, 2, 0
1, 6, 0
1, 8, 0
1, 10, 0
5, 6, 0
5, 8, 0
5, 10, 0
11, 0, 0
11, 7, 0
11, 4, 0
11, 10, 0
10, 7, 0
10, 3, 0
10, 4, 0
10, 2, 0
10, 6, 0
10, 9, 0
10, 0, 0
10, 5, 0
10, 11, 0
10, 1, 0
7, 0, 0
7, 4, 0
7, 9, 0
7, 11, 0
7, 10, 0
3, 2, 1
3, 10, 0
3, 9, 0
3, 1, 0
4, 0, 0
4, 7, 0
4, 11, 0
4, 10, 0
2, 6, 0
2, 10, 0
2, 3, 1
2, 1, 0
8, 6, 0
8, 5, 0
8, 1, 0
9, 7, 0
9, 3, 0
9, 10, 0
9, 1, 0
