0, 8, 0
0, 13, 0
0, 9, 0
13, 0, 0
13, 7, 0
13, 9, 0
13, 6, 0
13, 8, 0
13, 1, 0
17, 7, 0
17, 16, 0
17, 14, 0
17, 15, 0
17, 1, 0
3, 14, 0
3, 2, 1
3, 16, 0
3, 5, 0
3, 11, 0
3, 10, 0
16, 7, 0
16, 3, 0
16, 14, 0
16, 2, 0
16, 17, 0
16, 15, 0
16, 11, 0
6, 13, 0
6, 1, 0
8, 0, 0
8, 13, 0
8, 9, 1
5, 12, 0
5, 4, 0
5, 3, 0
5, 2, 0
5, 11, 0
5, 10, 0
11, 16, 0
11, 12, 1
11, 3, 0
11, 5, 0
11, 2, 0
10, 3, 0
10, 4, 0
10, 5, 0
7, 16, 0
7, 15, 0
7, 13, 0
7, 17, 0
7, 1, 0
12, 5, 0
12, 11, 1
4, 2, 0
4, 5, 0
4, 10, 0
14, 16, 0
14, 3, 0
14, 17, 0
14, 2, 0
2, 3, 1
2, 4, 0
2, 14, 0
2, 16, 0
2, 5, 0
2, 11, 0
1, 7, 0
1, 6, 0
1, 13, 0
1, 17, 0
15, 16, 0
15, 7, 0
15, 17, 0
9, 0, 0
9, 8, 1
9, 13, 0
