13, 16, 0
13, 3, 0
13, 14, 1
13, 9, 0
17, 6, 0
5, 20, 0
5, 0, 0
5, 7, 0
5, 21, 0
5, 19, 0
5, 8, 0
11, 12, 0
11, 16, 0
11, 10, 1
11, 18, 0
11, 22, 0
11, 9, 0
1, 16, 0
1, 8, 0
1, 4, 0
1, 2, 0
20, 21, 1
20, 19, 0
20, 5, 0
4, 16, 0
4, 2, 0
4, 8, 0
4, 1, 0
14, 16, 0
14, 3, 0
14, 13, 1
14, 15, 0
8, 16, 0
8, 2, 0
8, 4, 0
8, 5, 0
8, 1, 0
15, 16, 0
15, 3, 0
15, 9, 0
15, 14, 0
15, 12, 0
22, 12, 0
22, 9, 0
22, 11, 0
22, 10, 0
0, 7, 0
0, 6, 0
0, 19, 0
0, 5, 0
3, 12, 0
3, 13, 0
3, 14, 0
3, 16, 0
3, 15, 0
3, 9, 0
16, 13, 0
16, 12, 0
16, 18, 0
16, 1, 0
16, 11, 0
16, 10, 0
16, 3, 0
16, 4, 0
16, 14, 0
16, 2, 0
16, 8, 0
16, 15, 0
16, 9, 0
6, 7, 0
6, 0, 0
6, 17, 0
10, 12, 0
10, 11, 1
10, 16, 0
10, 18, 0
10, 22, 0
10, 9, 0
7, 0, 0
7, 6, 0
7, 5, 0
12, 3, 0
12, 11, 0
12, 16, 0
12, 15, 0
12, 18, 0
12, 22, 0
12, 10, 0
2, 16, 0
2, 8, 0
2, 4, 0
2, 1, 0
21, 20, 1
21, 19, 0
21, 5, 0
19, 20, 0
19, 0, 0
19, 5, 0
19, 21, 0
18, 16, 0
18, 12, 0
18, 9, 0
18, 11, 0
18, 10, 0
9, 3, 0
9, 13, 0
9, 11, 0
9, 16, 0
9, 15, 0
9, 18, 0
9, 22, 0
9, 10, 0
