12, 3, 0
12, 25, 0
12, 17, 0
12, 30, 0
12, 8, 0
12, 15, 0
12, 10, 0
12, 1, 0
13, 15, 0
13, 8, 0
13, 28, 0
17, 12, 0
17, 15, 0
17, 30, 0
17, 25, 0
17, 1, 0
26, 20, 0
26, 11, 0
23, 2, 0
23, 11, 0
23, 29, 0
2, 20, 0
2, 4, 0
2, 14, 0
2, 31, 0
2, 23, 0
2, 18, 0
2, 27, 0
2, 22, 0
2, 9, 0
5, 0, 0
5, 7, 0
5, 14, 0
5, 24, 0
5, 16, 0
5, 6, 1
5, 15, 0
5, 10, 0
11, 20, 0
11, 4, 0
11, 14, 0
11, 23, 0
11, 26, 0
11, 29, 0
11, 9, 0
1, 12, 0
1, 25, 0
1, 17, 0
1, 30, 0
20, 16, 0
20, 14, 0
20, 11, 0
20, 26, 0
20, 2, 0
20, 21, 0
20, 29, 0
20, 22, 0
4, 7, 0
4, 21, 0
4, 14, 0
4, 31, 0
4, 24, 0
4, 16, 0
4, 2, 0
4, 11, 0
4, 9, 0
14, 0, 0
14, 7, 0
14, 4, 0
14, 31, 0
14, 24, 0
14, 20, 0
14, 2, 0
14, 15, 0
14, 5, 0
14, 11, 0
24, 7, 0
24, 4, 0
24, 14, 0
24, 5, 0
24, 31, 0
28, 19, 0
28, 8, 0
28, 13, 0
30, 12, 0
30, 25, 0
30, 17, 0
30, 8, 0
30, 15, 0
30, 10, 0
30, 1, 0
8, 12, 0
8, 13, 0
8, 28, 0
8, 16, 0
8, 25, 0
8, 19, 0
8, 15, 0
8, 30, 0
15, 0, 0
15, 12, 0
15, 7, 0
15, 14, 0
15, 13, 0
15, 6, 0
15, 30, 0
15, 8, 0
15, 5, 0
15, 17, 0
15, 10, 0
22, 20, 0
22, 18, 0
22, 21, 0
22, 27, 0
22, 2, 0
0, 7, 0
0, 14, 0
0, 16, 0
0, 6, 0
0, 15, 0
0, 5, 0
0, 10, 0
3, 12, 0
3, 25, 0
3, 10, 0
16, 0, 0
16, 7, 0
16, 4, 0
16, 21, 0
16, 6, 0
16, 19, 0
16, 8, 0
16, 5, 0
16, 20, 0
16, 10, 0
6, 0, 0
6, 7, 0
6, 16, 0
6, 15, 0
6, 5, 1
6, 10, 0
27, 18, 0
27, 22, 0
27, 2, 0
7, 0, 0
7, 21, 0
7, 4, 0
7, 14, 0
7, 24, 0
7, 16, 0
7, 6, 0
7, 15, 0
7, 5, 0
18, 21, 0
18, 27, 0
18, 22, 0
18, 2, 0
25, 12, 0
25, 17, 0
25, 3, 0
25, 1, 0
25, 8, 0
25, 10, 0
25, 30, 0
31, 2, 0
31, 4, 0
31, 14, 0
31, 24, 0
29, 20, 0
29, 11, 0
29, 23, 0
29, 9, 0
21, 20, 0
21, 18, 0
21, 4, 0
21, 16, 0
21, 7, 0
21, 22, 0
19, 16, 0
19, 8, 0
19, 28, 0
10, 0, 0
10, 12, 0
10, 25, 0
10, 3, 0
10, 16, 0
10, 6, 0
10, 15, 0
10, 5, 0
10, 30, 0
9, 2, 0
9, 4, 0
9, 11, 0
9, 29, 0
