0, 1, 1
0, 5, 0
0, 2, 1
13, 16, 0
13, 3, 0
13, 14, 0
13, 15, 0
17, 7, 0
17, 12, 0
17, 9, 0
17, 8, 0
17, 11, 0
17, 10, 0
3, 16, 0
3, 6, 0
3, 13, 0
3, 9, 0
16, 3, 0
16, 13, 0
16, 9, 0
6, 7, 0
6, 3, 0
6, 9, 0
8, 12, 0
8, 17, 0
8, 11, 0
8, 10, 0
5, 0, 0
5, 2, 0
5, 4, 0
5, 1, 0
11, 12, 1
11, 8, 0
11, 17, 0
10, 12, 1
10, 8, 0
10, 17, 0
7, 6, 0
7, 17, 0
12, 8, 0
12, 17, 0
12, 11, 1
12, 10, 1
4, 14, 0
4, 5, 0
14, 13, 0
14, 15, 0
14, 4, 0
2, 0, 1
2, 5, 0
2, 1, 1
1, 0, 1
1, 5, 0
1, 2, 1
15, 13, 0
15, 14, 0
9, 16, 0
9, 6, 0
9, 17, 0
9, 3, 0
