0, 6, 0
0, 8, 0
6, 0, 0
6, 7, 0
6, 2, 0
6, 1, 0
6, 5, 0
6, 11, 0
6, 10, 0
1, 7, 0
1, 3, 0
1, 4, 0
1, 6, 0
1, 10, 0
1, 5, 0
1, 11, 0
1, 9, 0
5, 7, 0
5, 3, 0
5, 4, 0
5, 9, 0
5, 2, 0
5, 6, 0
5, 10, 0
5, 11, 0
5, 1, 0
11, 7, 0
11, 2, 0
11, 6, 0
11, 1, 0
11, 5, 0
11, 10, 1
10, 7, 0
10, 3, 0
10, 2, 0
10, 6, 0
10, 9, 0
10, 5, 0
10, 11, 1
10, 1, 0
7, 3, 0
7, 2, 0
7, 6, 0
7, 1, 0
7, 9, 0
7, 5, 0
7, 11, 0
7, 10, 0
3, 7, 0
3, 4, 1
3, 9, 0
3, 10, 0
3, 5, 0
3, 1, 0
4, 2, 0
4, 3, 1
4, 9, 0
4, 5, 0
4, 1, 0
2, 7, 0
2, 4, 0
2, 6, 0
2, 9, 0
2, 5, 0
2, 11, 0
2, 10, 0
8, 0, 0
9, 7, 0
9, 3, 0
9, 4, 0
9, 2, 0
9, 1, 0
9, 5, 0
9, 10, 0
