0, 2, 0
0, 10, 0
3, 4, 0
3, 5, 0
4, 3, 0
4, 5, 0
2, 0, 0
2, 8, 0
2, 9, 0
6, 7, 1
6, 8, 0
6, 1, 0
1, 6, 0
1, 8, 0
8, 6, 0
8, 1, 0
8, 9, 1
8, 2, 0
5, 3, 0
5, 4, 0
5, 10, 0
7, 6, 1
10, 0, 0
10, 5, 0
9, 8, 1
9, 2, 0
