58, 0, 0
58, 50, 0
58, 29, 0
58, 60, 0
58, 5, 0
58, 47, 0
61, 25, 0
61, 7, 0
61, 49, 0
61, 28, 0
61, 31, 0
61, 23, 0
61, 18, 0
61, 6, 0
61, 5, 0
61, 10, 0
61, 57, 0
61, 4, 0
61, 43, 0
61, 26, 0
61, 24, 0
61, 54, 0
61, 30, 0
61, 48, 0
13, 20, 0
13, 4, 0
13, 14, 1
13, 32, 0
13, 21, 0
13, 59, 0
13, 44, 0
13, 11, 0
13, 1, 0
17, 16, 1
17, 4, 0
17, 43, 0
17, 31, 0
17, 55, 0
23, 28, 0
23, 31, 0
23, 26, 0
23, 24, 1
23, 61, 0
23, 54, 0
23, 49, 0
23, 10, 0
46, 33, 0
46, 4, 0
46, 31, 0
46, 32, 0
46, 34, 0
46, 59, 0
46, 8, 0
46, 40, 0
46, 44, 0
46, 12, 0
20, 13, 0
20, 14, 0
20, 4, 0
20, 21, 0
20, 59, 0
20, 44, 0
20, 11, 0
20, 1, 0
34, 0, 0
34, 12, 0
34, 55, 0
34, 40, 0
34, 46, 0
34, 30, 0
34, 33, 1
34, 43, 0
34, 26, 0
34, 2, 0
34, 8, 0
34, 10, 0
14, 20, 0
14, 13, 1
14, 4, 0
14, 21, 0
14, 59, 0
14, 44, 0
14, 11, 0
14, 1, 0
24, 54, 0
24, 28, 0
24, 31, 0
24, 23, 1
24, 61, 0
24, 25, 1
24, 49, 0
24, 10, 0
28, 26, 0
28, 23, 0
28, 5, 0
28, 30, 0
28, 57, 0
28, 21, 0
28, 4, 0
28, 43, 0
28, 24, 0
28, 42, 0
28, 8, 0
28, 15, 0
28, 36, 0
28, 45, 0
28, 16, 0
28, 6, 0
28, 44, 0
28, 47, 0
28, 10, 0
28, 7, 0
28, 3, 0
28, 25, 0
28, 31, 0
28, 2, 0
28, 61, 0
28, 54, 0
28, 19, 0
28, 49, 0
28, 18, 0
28, 48, 0
28, 9, 0
39, 0, 0
39, 50, 0
39, 29, 0
39, 37, 1
39, 5, 0
39, 9, 0
41, 4, 0
41, 54, 0
41, 31, 0
41, 51, 0
41, 35, 0
41, 22, 0
41, 44, 0
41, 11, 0
41, 36, 0
0, 58, 0
0, 18, 0
0, 39, 0
0, 5, 0
0, 30, 0
0, 7, 0
0, 34, 0
0, 50, 0
0, 29, 0
0, 37, 0
0, 42, 0
0, 19, 0
0, 38, 0
0, 9, 0
38, 0, 0
38, 50, 0
38, 29, 0
38, 37, 1
38, 5, 0
38, 9, 0
51, 4, 0
51, 54, 0
51, 11, 0
51, 31, 0
51, 35, 0
51, 53, 1
51, 59, 0
51, 41, 0
51, 22, 0
51, 44, 0
33, 34, 1
33, 40, 0
33, 46, 0
33, 32, 1
33, 12, 0
15, 55, 0
15, 28, 0
15, 31, 0
15, 16, 1
15, 43, 0
15, 8, 0
15, 4, 0
54, 45, 0
54, 35, 0
54, 28, 0
54, 23, 0
54, 51, 0
54, 18, 0
54, 6, 0
54, 53, 0
54, 11, 0
54, 41, 0
54, 57, 0
54, 4, 0
54, 25, 0
54, 32, 0
54, 24, 0
54, 61, 0
54, 31, 0
54, 48, 0
54, 22, 0
54, 36, 0
47, 58, 0
47, 37, 0
47, 28, 0
47, 29, 0
47, 60, 0
47, 19, 0
47, 5, 0
47, 9, 0
10, 57, 0
10, 34, 0
10, 28, 0
10, 23, 0
10, 26, 0
10, 24, 0
10, 61, 0
7, 0, 0
7, 18, 0
7, 28, 0
7, 61, 0
7, 6, 1
7, 19, 0
7, 30, 0
3, 45, 0
3, 4, 0
3, 28, 0
3, 31, 0
3, 42, 0
3, 5, 0
53, 4, 0
53, 52, 1
53, 56, 0
53, 51, 1
53, 35, 0
53, 54, 0
53, 59, 0
53, 44, 0
53, 11, 0
53, 22, 0
32, 33, 1
32, 4, 0
32, 54, 0
32, 31, 0
32, 21, 0
32, 59, 0
32, 13, 0
32, 40, 0
32, 44, 0
32, 22, 0
32, 46, 0
2, 34, 0
2, 43, 0
2, 31, 0
2, 26, 0
2, 28, 0
2, 49, 0
21, 13, 0
21, 28, 0
21, 32, 0
21, 59, 0
21, 40, 0
21, 44, 0
21, 1, 0
21, 20, 0
21, 4, 0
21, 14, 0
21, 31, 0
21, 8, 0
21, 22, 0
21, 36, 0
25, 57, 0
25, 28, 0
25, 31, 0
25, 24, 1
25, 61, 0
25, 54, 0
25, 49, 0
19, 0, 0
19, 7, 0
19, 28, 0
19, 50, 0
19, 31, 0
19, 42, 0
19, 5, 0
19, 47, 0
19, 9, 0
49, 43, 0
49, 28, 0
49, 23, 0
49, 31, 0
49, 24, 0
49, 61, 0
49, 25, 0
49, 2, 0
49, 26, 0
49, 5, 0
49, 48, 0
48, 18, 0
48, 28, 0
48, 26, 0
48, 61, 0
48, 54, 0
48, 49, 0
48, 5, 0
31, 17, 0
31, 23, 0
31, 46, 0
31, 57, 0
31, 21, 0
31, 4, 0
31, 43, 0
31, 24, 0
31, 28, 0
31, 8, 0
31, 15, 0
31, 41, 0
31, 22, 0
31, 36, 0
31, 45, 0
31, 51, 0
31, 3, 0
31, 16, 0
31, 55, 0
31, 44, 0
31, 18, 0
31, 54, 0
31, 32, 0
31, 2, 0
31, 61, 0
31, 25, 0
31, 19, 0
31, 49, 0
45, 18, 0
45, 3, 0
45, 28, 0
45, 54, 0
45, 31, 0
60, 58, 0
60, 5, 0
60, 47, 0
60, 29, 0
59, 13, 0
59, 56, 0
59, 51, 0
59, 53, 0
59, 40, 0
59, 46, 0
59, 11, 0
59, 1, 0
59, 20, 0
59, 4, 0
59, 14, 0
59, 32, 0
59, 44, 0
59, 21, 0
59, 52, 0
59, 8, 0
59, 22, 0
59, 36, 0
29, 58, 0
29, 0, 0
29, 50, 0
29, 37, 0
29, 39, 0
29, 9, 0
29, 38, 0
29, 5, 0
29, 47, 0
29, 60, 0
40, 12, 0
40, 27, 0
40, 59, 0
40, 46, 0
40, 11, 0
40, 44, 0
40, 33, 0
40, 4, 0
40, 32, 0
40, 21, 0
40, 34, 0
40, 22, 0
11, 13, 0
11, 56, 0
11, 51, 0
11, 59, 0
11, 53, 0
11, 40, 0
11, 1, 0
11, 20, 0
11, 4, 0
11, 54, 0
11, 35, 0
11, 52, 0
11, 14, 0
11, 41, 0
11, 22, 0
11, 36, 0
5, 58, 0
5, 0, 0
5, 61, 0
5, 28, 0
5, 18, 0
5, 38, 0
5, 47, 0
5, 60, 0
5, 3, 0
5, 43, 0
5, 50, 0
5, 29, 0
5, 37, 0
5, 42, 0
5, 19, 0
5, 49, 0
5, 39, 0
5, 48, 0
5, 9, 0
37, 0, 0
37, 50, 0
37, 29, 0
37, 39, 1
37, 38, 1
37, 5, 0
37, 47, 0
37, 9, 0
4, 13, 0
4, 17, 0
4, 31, 0
4, 59, 0
4, 40, 0
4, 46, 0
4, 11, 0
4, 1, 0
4, 20, 0
4, 21, 0
4, 43, 0
4, 35, 0
4, 28, 0
4, 8, 0
4, 15, 0
4, 41, 0
4, 22, 0
4, 36, 0
4, 56, 0
4, 51, 0
4, 3, 0
4, 16, 0
4, 27, 0
4, 53, 0
4, 44, 0
4, 12, 0
4, 54, 0
4, 32, 0
4, 61, 0
4, 52, 0
4, 14, 0
4, 18, 0
35, 4, 0
35, 54, 0
35, 56, 0
35, 51, 0
35, 53, 0
35, 41, 0
35, 11, 0
30, 0, 0
30, 7, 0
30, 28, 0
30, 57, 0
30, 34, 0
30, 61, 0
30, 6, 0
30, 18, 0
8, 12, 0
8, 4, 0
8, 28, 0
8, 31, 0
8, 34, 0
8, 21, 0
8, 15, 0
8, 55, 0
8, 59, 0
8, 46, 0
8, 44, 0
42, 0, 0
42, 3, 0
42, 19, 0
42, 28, 0
42, 5, 0
22, 56, 0
22, 51, 0
22, 27, 0
22, 53, 0
22, 40, 0
22, 44, 0
22, 11, 0
22, 59, 0
22, 12, 0
22, 4, 0
22, 52, 0
22, 32, 0
22, 31, 0
22, 21, 0
22, 54, 0
22, 41, 0
22, 36, 0
36, 4, 0
36, 28, 0
36, 22, 0
36, 31, 0
36, 21, 0
36, 54, 0
36, 59, 0
36, 41, 0
36, 11, 0
36, 44, 0
57, 54, 0
57, 25, 0
57, 31, 0
57, 61, 0
57, 28, 0
57, 30, 0
57, 10, 0
56, 4, 0
56, 52, 0
56, 22, 0
56, 35, 0
56, 53, 0
56, 59, 0
56, 44, 0
56, 11, 0
16, 4, 0
16, 43, 0
16, 31, 0
16, 28, 0
16, 55, 0
16, 15, 1
16, 17, 1
27, 12, 0
27, 4, 0
27, 40, 0
27, 22, 0
1, 20, 0
1, 13, 0
1, 14, 0
1, 4, 0
1, 21, 0
1, 59, 0
1, 44, 0
1, 11, 0
55, 12, 0
55, 17, 0
55, 31, 0
55, 34, 0
55, 16, 0
55, 43, 0
55, 8, 0
55, 15, 0
44, 13, 0
44, 28, 0
44, 32, 0
44, 51, 0
44, 59, 0
44, 8, 0
44, 53, 0
44, 40, 0
44, 46, 0
44, 1, 0
44, 20, 0
44, 4, 0
44, 14, 0
44, 9, 0
44, 31, 0
44, 21, 0
44, 52, 0
44, 56, 0
44, 41, 0
44, 22, 0
44, 36, 0
12, 33, 0
12, 4, 0
12, 34, 0
12, 27, 0
12, 8, 0
12, 40, 0
12, 46, 0
12, 22, 0
12, 55, 0
18, 0, 0
18, 45, 0
18, 28, 0
18, 6, 0
18, 5, 0
18, 30, 0
18, 7, 0
18, 4, 0
18, 54, 0
18, 31, 0
18, 61, 0
18, 48, 0
52, 4, 0
52, 11, 0
52, 56, 0
52, 53, 1
52, 59, 0
52, 44, 0
52, 22, 0
50, 0, 0
50, 58, 0
50, 29, 0
50, 37, 0
50, 38, 0
50, 19, 0
50, 39, 0
50, 5, 0
50, 9, 0
26, 34, 0
26, 28, 0
26, 23, 0
26, 2, 0
26, 61, 0
26, 49, 0
26, 48, 0
26, 10, 0
6, 7, 1
6, 18, 0
6, 28, 0
6, 61, 0
6, 54, 0
6, 30, 0
43, 28, 0
43, 16, 0
43, 55, 0
43, 5, 0
43, 34, 0
43, 4, 0
43, 31, 0
43, 2, 0
43, 61, 0
43, 17, 0
43, 49, 0
43, 15, 0
9, 0, 0
9, 28, 0
9, 50, 0
9, 29, 0
9, 37, 0
9, 38, 0
9, 19, 0
9, 39, 0
9, 5, 0
9, 47, 0
9, 44, 0
