0, 7, 0
0, 4, 0
0, 9, 0
3, 6, 0
3, 5, 0
3, 2, 0
4, 0, 0
4, 7, 0
4, 2, 0
4, 10, 0
4, 1, 0
2, 3, 0
2, 6, 0
2, 4, 0
2, 5, 0
2, 10, 0
6, 3, 0
6, 5, 1
6, 2, 0
1, 7, 0
1, 4, 0
1, 9, 0
8, 7, 0
8, 9, 0
5, 3, 0
5, 6, 1
5, 2, 0
7, 0, 0
7, 1, 0
7, 8, 0
7, 4, 0
7, 9, 0
10, 4, 0
10, 2, 0
9, 7, 0
9, 0, 0
9, 8, 0
9, 1, 0
