12, 27, 0
12, 14, 0
12, 28, 0
13, 0, 0
13, 17, 0
13, 25, 0
13, 10, 0
17, 7, 0
17, 3, 0
17, 13, 0
17, 31, 0
17, 10, 0
26, 18, 0
26, 2, 0
26, 8, 0
26, 9, 0
26, 29, 0
23, 21, 0
23, 2, 0
2, 23, 0
2, 26, 0
2, 29, 0
2, 21, 0
2, 8, 0
2, 9, 0
5, 21, 0
11, 15, 0
11, 1, 0
1, 4, 0
1, 15, 0
1, 11, 0
20, 18, 0
20, 19, 0
4, 0, 0
4, 1, 0
14, 12, 0
14, 28, 0
24, 19, 0
24, 30, 0
28, 16, 0
28, 12, 0
28, 14, 0
30, 19, 0
30, 22, 0
30, 24, 0
8, 2, 0
8, 9, 1
8, 26, 0
8, 29, 0
15, 11, 0
15, 1, 0
22, 27, 0
22, 30, 0
0, 13, 0
0, 25, 0
0, 4, 0
3, 7, 0
3, 17, 0
3, 31, 0
16, 6, 0
16, 28, 0
6, 16, 0
6, 7, 1
6, 31, 0
27, 12, 0
27, 22, 0
7, 6, 1
7, 17, 0
7, 31, 0
7, 3, 0
18, 20, 0
18, 26, 0
25, 0, 0
25, 13, 0
31, 7, 0
31, 3, 0
31, 17, 0
31, 6, 0
29, 2, 0
29, 8, 0
29, 26, 0
29, 9, 0
21, 5, 0
21, 23, 0
21, 2, 0
19, 20, 0
19, 30, 0
19, 24, 0
10, 13, 0
10, 17, 0
9, 2, 0
9, 8, 1
9, 26, 0
9, 29, 0
