0, 6, 0
0, 4, 0
6, 0, 0
6, 7, 0
1, 8, 0
1, 5, 0
5, 10, 0
5, 9, 0
5, 11, 0
5, 1, 0
11, 4, 0
11, 9, 0
11, 5, 0
11, 10, 1
10, 4, 0
10, 5, 0
10, 11, 1
10, 9, 0
7, 6, 0
3, 8, 0
3, 2, 1
4, 0, 0
4, 11, 0
4, 10, 0
2, 3, 1
2, 8, 0
8, 3, 0
8, 2, 0
8, 1, 0
9, 5, 0
9, 11, 0
9, 10, 0
