0, 7, 0
0, 16, 0
0, 6, 0
0, 1, 0
0, 8, 0
0, 15, 0
0, 5, 0
0, 9, 0
13, 6, 0
13, 4, 0
13, 5, 0
13, 1, 0
3, 16, 0
3, 7, 0
3, 8, 0
3, 15, 0
16, 0, 0
16, 3, 0
16, 7, 0
16, 14, 0
16, 9, 0
16, 8, 0
16, 15, 0
16, 5, 0
16, 11, 0
16, 10, 0
6, 0, 0
6, 13, 0
6, 5, 1
6, 4, 0
6, 1, 0
8, 7, 1
8, 0, 0
8, 3, 0
8, 16, 0
8, 1, 0
8, 15, 0
8, 9, 1
5, 0, 0
5, 13, 0
5, 4, 0
5, 16, 0
5, 6, 1
5, 1, 0
11, 16, 0
11, 14, 0
11, 10, 1
10, 16, 0
10, 14, 0
10, 11, 1
7, 0, 0
7, 3, 0
7, 16, 0
7, 8, 1
7, 15, 0
7, 1, 0
12, 14, 0
12, 2, 0
4, 6, 0
4, 13, 0
4, 5, 0
4, 1, 0
14, 16, 0
14, 12, 0
14, 11, 0
14, 10, 0
2, 12, 0
1, 0, 0
1, 7, 0
1, 13, 0
1, 4, 0
1, 6, 0
1, 8, 0
1, 15, 0
1, 5, 0
15, 0, 0
15, 7, 0
15, 3, 0
15, 16, 0
15, 1, 0
15, 8, 0
15, 9, 0
9, 0, 0
9, 16, 0
9, 8, 1
9, 15, 0
