0, 5, 0
0, 11, 0
0, 9, 0
13, 12, 0
13, 10, 0
13, 14, 1
13, 6, 0
3, 11, 0
6, 7, 0
6, 12, 0
6, 13, 0
6, 14, 0
6, 4, 0
6, 2, 0
6, 8, 0
6, 10, 0
6, 1, 0
8, 7, 0
8, 4, 0
8, 2, 0
8, 6, 0
8, 9, 0
8, 1, 0
5, 0, 0
5, 11, 0
5, 9, 0
11, 0, 0
11, 3, 0
11, 5, 0
10, 12, 0
10, 13, 0
10, 14, 0
10, 6, 0
7, 12, 0
7, 4, 0
7, 14, 0
7, 9, 0
7, 2, 0
7, 6, 0
7, 8, 0
7, 1, 0
12, 7, 0
12, 6, 0
12, 13, 0
12, 14, 0
12, 10, 0
4, 7, 0
4, 2, 0
4, 6, 0
4, 1, 0
4, 8, 0
4, 9, 0
14, 7, 0
14, 12, 0
14, 13, 1
14, 10, 0
14, 6, 0
2, 7, 0
2, 4, 0
2, 9, 0
2, 6, 0
2, 8, 0
2, 1, 1
1, 7, 0
1, 4, 0
1, 2, 1
1, 6, 0
1, 8, 0
1, 9, 0
9, 0, 0
9, 7, 0
9, 4, 0
9, 2, 0
9, 8, 0
9, 5, 0
9, 1, 0
