0, 10, 0
6, 7, 0
6, 8, 0
6, 2, 0
1, 3, 0
1, 4, 0
1, 5, 0
5, 3, 0
5, 4, 1
5, 1, 0
11, 7, 0
11, 9, 0
10, 0, 0
10, 8, 0
7, 6, 0
7, 9, 0
7, 11, 0
7, 2, 0
3, 4, 0
3, 9, 0
3, 5, 0
3, 1, 0
4, 3, 0
4, 5, 1
4, 1, 0
2, 7, 0
2, 6, 0
8, 6, 0
8, 10, 0
9, 7, 0
9, 3, 0
9, 11, 0
