0, 3, 0
0, 13, 0
0, 14, 0
0, 11, 0
0, 2, 0
0, 16, 0
0, 6, 0
0, 12, 0
0, 5, 0
0, 17, 0
0, 1, 0
13, 0, 0
13, 12, 0
13, 14, 0
13, 16, 0
13, 6, 0
13, 5, 0
13, 11, 0
17, 0, 0
17, 12, 0
17, 3, 0
17, 2, 0
17, 6, 0
17, 11, 0
17, 1, 0
3, 0, 0
3, 12, 0
3, 14, 0
3, 17, 0
3, 5, 0
3, 11, 0
16, 0, 0
16, 12, 0
16, 13, 0
16, 14, 0
16, 2, 0
16, 6, 0
16, 5, 0
16, 11, 0
16, 1, 0
6, 0, 0
6, 13, 0
6, 17, 0
6, 16, 0
6, 5, 0
6, 11, 0
6, 1, 0
6, 7, 0
6, 12, 0
6, 4, 0
6, 14, 0
6, 2, 0
6, 15, 0
6, 18, 0
8, 7, 0
8, 18, 0
8, 4, 0
8, 15, 0
8, 9, 1
5, 0, 0
5, 12, 0
5, 13, 0
5, 14, 0
5, 3, 0
5, 16, 0
5, 6, 0
5, 11, 0
11, 0, 0
11, 12, 1
11, 13, 0
11, 17, 0
11, 3, 0
11, 16, 0
11, 6, 0
11, 14, 0
11, 2, 0
11, 5, 0
11, 1, 0
10, 18, 0
10, 7, 0
10, 4, 0
10, 15, 0
10, 9, 1
7, 4, 0
7, 18, 0
7, 6, 0
7, 8, 0
7, 15, 0
7, 10, 0
7, 9, 0
12, 0, 0
12, 3, 0
12, 13, 0
12, 17, 0
12, 2, 0
12, 16, 0
12, 6, 0
12, 14, 0
12, 5, 0
12, 11, 1
12, 1, 0
4, 7, 0
4, 18, 0
4, 6, 0
4, 8, 0
4, 15, 0
4, 10, 0
4, 9, 0
14, 0, 0
14, 12, 0
14, 13, 0
14, 3, 0
14, 16, 0
14, 6, 0
14, 5, 0
14, 11, 0
14, 1, 0
2, 0, 0
2, 12, 0
2, 17, 0
2, 16, 0
2, 6, 0
2, 11, 0
2, 1, 0
1, 0, 0
1, 12, 0
1, 17, 0
1, 2, 0
1, 16, 0
1, 6, 0
1, 14, 0
1, 11, 0
15, 7, 0
15, 4, 0
15, 9, 0
15, 18, 0
15, 6, 0
15, 8, 0
15, 10, 0
18, 7, 0
18, 4, 0
18, 9, 0
18, 6, 0
18, 8, 0
18, 15, 0
18, 10, 0
9, 7, 0
9, 4, 0
9, 18, 0
9, 8, 1
9, 15, 0
9, 10, 1
