0, 3, 0
0, 17, 0
0, 2, 0
0, 18, 0
0, 9, 0
0, 5, 0
0, 1, 0
13, 7, 0
13, 12, 0
13, 14, 0
13, 16, 0
13, 19, 0
13, 8, 0
17, 0, 0
17, 3, 0
17, 2, 0
17, 18, 1
17, 9, 0
17, 5, 0
17, 1, 0
3, 0, 0
3, 17, 0
3, 2, 0
3, 18, 0
3, 9, 0
3, 5, 0
3, 1, 0
16, 7, 0
16, 12, 0
16, 13, 0
16, 6, 0
16, 19, 0
16, 8, 0
16, 11, 0
6, 16, 0
6, 12, 0
6, 19, 0
6, 7, 1
6, 11, 0
8, 16, 0
8, 15, 0
8, 13, 0
8, 14, 0
8, 10, 0
5, 0, 0
5, 3, 0
5, 4, 1
5, 17, 0
5, 2, 0
5, 18, 0
5, 19, 0
5, 1, 0
5, 9, 0
11, 16, 0
11, 12, 1
11, 19, 0
11, 7, 0
11, 6, 0
10, 14, 0
10, 8, 0
10, 15, 0
7, 12, 0
7, 13, 0
7, 16, 0
7, 6, 1
7, 19, 0
7, 11, 0
12, 7, 0
12, 13, 0
12, 16, 0
12, 6, 0
12, 19, 0
12, 11, 1
4, 19, 0
4, 2, 0
4, 5, 1
4, 9, 0
14, 13, 0
14, 8, 0
14, 15, 0
14, 10, 0
2, 0, 0
2, 3, 0
2, 4, 0
2, 17, 0
2, 18, 0
2, 19, 0
2, 9, 0
2, 5, 0
2, 1, 0
19, 7, 0
19, 12, 0
19, 13, 0
19, 4, 0
19, 2, 0
19, 16, 0
19, 6, 0
19, 5, 0
19, 11, 0
19, 9, 0
1, 0, 0
1, 3, 0
1, 17, 0
1, 2, 0
1, 18, 0
1, 5, 0
1, 9, 0
15, 8, 0
15, 14, 0
15, 10, 0
18, 0, 0
18, 3, 0
18, 17, 1
18, 2, 0
18, 9, 0
18, 5, 0
18, 1, 0
9, 0, 0
9, 3, 0
9, 4, 0
9, 17, 0
9, 2, 0
9, 18, 0
9, 19, 0
9, 5, 0
9, 1, 0
