0, 4, 0
0, 9, 0
0, 1, 1
3, 4, 0
3, 5, 0
4, 0, 0
4, 3, 0
4, 9, 0
4, 5, 0
4, 1, 0
2, 7, 0
2, 8, 0
6, 9, 0
1, 0, 1
1, 4, 0
1, 9, 0
8, 7, 0
8, 2, 0
5, 7, 0
5, 3, 0
5, 4, 0
7, 8, 0
7, 5, 0
7, 2, 0
9, 0, 0
9, 6, 0
9, 4, 0
9, 1, 0
