0, 6, 0
0, 14, 0
0, 5, 0
0, 17, 0
7, 20, 0
7, 17, 0
7, 6, 0
7, 19, 0
7, 8, 0
7, 11, 0
7, 1, 0
13, 20, 0
13, 19, 0
13, 4, 0
13, 11, 0
13, 9, 0
17, 0, 0
17, 6, 0
17, 8, 0
17, 7, 0
17, 5, 0
3, 11, 0
3, 9, 0
16, 12, 0
16, 10, 0
16, 15, 1
16, 2, 0
6, 0, 0
6, 7, 0
6, 17, 0
6, 8, 0
6, 5, 0
6, 11, 0
8, 7, 0
8, 6, 0
8, 17, 0
8, 11, 0
5, 0, 0
5, 6, 0
5, 14, 0
5, 11, 0
5, 17, 0
11, 13, 0
11, 3, 0
11, 18, 0
11, 6, 0
11, 5, 0
11, 7, 0
11, 12, 0
11, 14, 0
11, 2, 0
11, 19, 0
11, 8, 0
11, 15, 0
10, 16, 0
10, 12, 0
10, 14, 0
10, 18, 0
20, 7, 0
20, 19, 1
20, 4, 0
20, 13, 0
20, 1, 0
12, 18, 0
12, 2, 0
12, 16, 0
12, 15, 0
12, 11, 0
12, 10, 0
4, 20, 0
4, 19, 0
4, 13, 0
14, 0, 0
14, 18, 0
14, 5, 0
14, 11, 0
14, 10, 0
2, 16, 0
2, 12, 0
2, 15, 0
2, 11, 0
19, 20, 1
19, 7, 0
19, 4, 0
19, 13, 0
19, 11, 0
19, 1, 0
1, 20, 0
1, 7, 0
1, 19, 0
15, 16, 1
15, 12, 0
15, 11, 0
15, 2, 0
18, 12, 0
18, 14, 0
18, 11, 0
18, 10, 0
9, 3, 0
9, 13, 0
