0, 8, 0
0, 17, 0
13, 6, 0
13, 14, 0
13, 5, 0
17, 0, 0
17, 2, 0
3, 12, 0
3, 1, 0
3, 10, 0
16, 14, 0
16, 15, 1
16, 9, 0
6, 13, 0
8, 0, 0
8, 18, 0
5, 13, 0
5, 14, 0
11, 18, 0
11, 4, 0
11, 1, 0
10, 7, 0
10, 3, 0
10, 1, 0
7, 10, 0
7, 1, 0
12, 3, 0
4, 11, 0
4, 1, 0
14, 16, 0
14, 13, 0
14, 15, 0
14, 5, 0
14, 9, 0
2, 17, 0
2, 9, 0
1, 7, 0
1, 3, 0
1, 4, 0
1, 11, 0
1, 10, 0
15, 16, 1
15, 14, 0
15, 9, 0
18, 8, 0
18, 11, 0
9, 16, 0
9, 15, 0
9, 14, 0
9, 2, 0
