0, 7, 0
0, 3, 0
0, 4, 0
0, 2, 0
0, 8, 0
0, 5, 0
0, 10, 0
3, 7, 0
3, 6, 0
3, 0, 0
3, 5, 0
3, 1, 0
4, 0, 0
4, 2, 0
4, 8, 0
4, 10, 0
2, 0, 0
2, 8, 0
2, 4, 0
2, 10, 0
6, 3, 0
6, 5, 1
6, 1, 0
1, 3, 0
1, 6, 0
1, 5, 0
1, 9, 0
8, 0, 0
8, 4, 0
8, 10, 0
8, 2, 0
5, 7, 0
5, 3, 0
5, 1, 0
5, 0, 0
5, 6, 1
7, 0, 0
7, 3, 0
7, 5, 0
10, 0, 0
10, 8, 0
10, 4, 0
10, 2, 0
9, 1, 0
