0, 7, 0
0, 6, 0
0, 1, 0
6, 0, 0
6, 5, 0
6, 11, 0
6, 9, 0
1, 7, 0
1, 0, 0
1, 2, 0
5, 6, 0
5, 9, 0
5, 11, 0
5, 10, 0
11, 6, 0
11, 10, 0
11, 5, 0
11, 9, 0
10, 5, 0
10, 11, 0
10, 9, 0
7, 0, 0
7, 1, 0
3, 8, 0
3, 4, 0
4, 3, 0
4, 8, 0
2, 8, 0
2, 1, 0
8, 3, 0
8, 4, 0
8, 2, 0
9, 6, 0
9, 5, 0
9, 11, 0
9, 10, 0
