13, 20, 0
13, 12, 0
13, 4, 0
13, 22, 0
13, 24, 0
13, 16, 0
13, 5, 0
13, 11, 0
17, 18, 1
17, 21, 0
17, 15, 0
23, 7, 0
23, 21, 0
23, 8, 0
5, 20, 0
5, 12, 0
5, 13, 0
5, 22, 0
5, 4, 1
5, 24, 0
5, 2, 0
5, 11, 0
5, 1, 0
11, 20, 0
11, 12, 1
11, 13, 0
11, 24, 0
11, 16, 0
11, 5, 0
11, 22, 0
1, 0, 1
1, 20, 0
1, 5, 0
1, 2, 0
20, 0, 0
20, 4, 0
20, 13, 0
20, 22, 0
20, 2, 0
20, 5, 0
20, 11, 0
20, 1, 0
4, 20, 0
4, 13, 0
4, 5, 1
14, 16, 0
24, 12, 0
24, 13, 0
24, 22, 0
24, 5, 0
24, 11, 0
8, 7, 1
8, 21, 0
8, 23, 0
15, 18, 0
15, 17, 0
15, 21, 0
15, 6, 0
15, 19, 0
15, 9, 0
15, 10, 0
22, 20, 0
22, 12, 0
22, 13, 0
22, 24, 0
22, 16, 0
22, 5, 0
22, 11, 0
0, 20, 0
0, 2, 0
0, 1, 1
3, 6, 0
3, 2, 0
16, 12, 0
16, 13, 0
16, 14, 0
16, 22, 0
16, 11, 0
6, 3, 0
6, 19, 0
6, 9, 0
6, 15, 0
6, 10, 0
10, 6, 0
10, 19, 0
10, 15, 0
10, 9, 1
7, 21, 0
7, 8, 1
7, 23, 0
12, 13, 0
12, 11, 1
12, 24, 0
12, 16, 0
12, 5, 0
12, 22, 0
2, 20, 0
2, 0, 0
2, 3, 0
2, 5, 0
2, 1, 0
21, 7, 0
21, 17, 0
21, 23, 0
21, 18, 0
21, 8, 0
21, 15, 0
19, 6, 0
19, 9, 0
19, 15, 0
19, 10, 0
18, 21, 0
18, 15, 0
18, 17, 1
9, 6, 0
9, 19, 0
9, 15, 0
9, 10, 1
