0, 3, 0
0, 2, 0
0, 1, 0
3, 0, 0
3, 1, 0
3, 4, 0
3, 2, 1
4, 3, 0
4, 2, 0
2, 0, 0
2, 3, 1
2, 4, 0
6, 1, 0
6, 8, 0
6, 5, 0
6, 9, 0
1, 0, 0
1, 3, 0
1, 8, 0
1, 6, 0
8, 6, 0
8, 1, 0
5, 6, 0
5, 9, 0
7, 9, 0
9, 7, 0
9, 6, 0
9, 5, 0
