0, 8, 0
0, 9, 0
0, 1, 0
3, 4, 0
3, 5, 0
3, 9, 0
4, 3, 0
4, 5, 1
4, 9, 0
2, 7, 0
2, 6, 0
2, 8, 0
2, 1, 0
6, 7, 1
6, 1, 0
6, 2, 0
1, 0, 0
1, 7, 0
1, 6, 0
1, 9, 0
1, 2, 0
8, 0, 0
8, 2, 0
8, 9, 0
5, 3, 0
5, 4, 1
5, 9, 0
7, 6, 1
7, 1, 0
7, 2, 0
9, 0, 0
9, 3, 0
9, 4, 0
9, 8, 0
9, 5, 0
9, 1, 0
