0, 6, 0
0, 2, 0
0, 5, 0
0, 3, 0
3, 0, 0
3, 6, 0
3, 1, 0
3, 4, 0
3, 2, 0
4, 3, 0
4, 6, 0
4, 2, 0
4, 1, 0
2, 0, 0
2, 3, 0
2, 4, 0
2, 1, 0
6, 0, 0
6, 3, 0
6, 4, 0
6, 5, 0
5, 0, 0
5, 6, 0
1, 3, 0
1, 4, 0
1, 2, 0
