0, 8, 0
0, 11, 0
0, 4, 0
8, 0, 0
8, 4, 0
3, 6, 0
3, 2, 0
3, 10, 0
6, 7, 0
6, 3, 0
5, 4, 0
5, 9, 0
11, 0, 0
11, 12, 0
10, 3, 0
10, 2, 0
10, 1, 0
7, 6, 0
12, 11, 0
4, 0, 0
4, 8, 0
4, 5, 0
4, 9, 0
2, 3, 0
2, 9, 0
2, 10, 0
2, 1, 1
1, 10, 0
1, 9, 0
1, 2, 1
9, 2, 0
9, 4, 0
9, 5, 0
9, 1, 0
