0, 12, 0
0, 4, 0
0, 5, 0
0, 2, 0
13, 7, 0
13, 3, 0
13, 11, 0
13, 2, 0
3, 7, 0
3, 13, 0
3, 11, 0
3, 2, 0
6, 1, 0
6, 8, 0
6, 9, 0
6, 10, 0
8, 12, 0
8, 9, 1
8, 6, 0
5, 0, 0
5, 12, 0
5, 4, 1
5, 2, 0
11, 3, 0
11, 13, 0
11, 2, 0
10, 6, 0
10, 1, 0
7, 3, 0
7, 13, 0
12, 0, 0
12, 8, 0
12, 5, 0
12, 4, 0
12, 2, 0
4, 0, 0
4, 12, 0
4, 5, 1
4, 2, 0
2, 0, 0
2, 12, 0
2, 13, 0
2, 4, 0
2, 3, 0
2, 5, 0
2, 11, 0
1, 6, 0
1, 10, 0
9, 6, 0
9, 8, 1
