0, 7, 0
0, 3, 0
0, 4, 0
0, 17, 0
0, 2, 0
0, 18, 0
0, 6, 0
0, 8, 0
0, 11, 0
0, 1, 0
13, 18, 0
13, 12, 0
13, 4, 0
13, 15, 0
13, 3, 0
17, 0, 0
17, 7, 0
17, 14, 0
17, 8, 0
17, 5, 0
17, 11, 0
3, 0, 0
3, 12, 0
3, 13, 0
3, 4, 0
3, 16, 0
3, 6, 0
3, 15, 0
3, 18, 0
16, 12, 0
16, 15, 1
16, 3, 0
6, 18, 0
6, 3, 0
6, 4, 0
6, 0, 0
6, 2, 0
8, 0, 0
8, 7, 0
8, 17, 0
8, 2, 0
8, 11, 0
8, 10, 0
5, 7, 0
5, 17, 0
5, 10, 0
5, 14, 0
5, 9, 0
11, 0, 0
11, 7, 0
11, 8, 0
11, 17, 0
11, 10, 0
10, 7, 0
10, 14, 0
10, 8, 0
10, 5, 0
10, 11, 0
10, 9, 0
7, 0, 0
7, 17, 0
7, 9, 0
7, 14, 0
7, 8, 0
7, 5, 0
7, 11, 0
7, 10, 0
12, 16, 0
12, 3, 0
12, 13, 0
12, 15, 0
12, 18, 0
4, 0, 0
4, 3, 0
4, 13, 0
4, 2, 0
4, 18, 0
4, 6, 0
4, 1, 0
14, 7, 0
14, 9, 0
14, 17, 0
14, 5, 0
14, 10, 0
2, 0, 0
2, 6, 0
2, 8, 0
2, 4, 0
2, 1, 1
1, 0, 0
1, 18, 0
1, 4, 0
1, 2, 1
15, 16, 1
15, 12, 0
15, 13, 0
15, 18, 0
15, 3, 0
18, 0, 0
18, 3, 0
18, 13, 0
18, 4, 0
18, 12, 0
18, 6, 0
18, 15, 0
18, 1, 0
9, 7, 0
9, 14, 0
9, 5, 0
9, 10, 0
