13, 18, 0
13, 15, 0
13, 4, 0
13, 14, 0
17, 7, 0
17, 0, 0
17, 4, 0
17, 23, 0
17, 16, 0
17, 8, 0
17, 5, 0
17, 10, 0
23, 7, 0
23, 17, 0
23, 9, 0
23, 16, 0
23, 19, 0
23, 8, 0
23, 5, 0
23, 10, 0
5, 18, 0
5, 4, 0
5, 17, 0
5, 23, 0
5, 21, 0
5, 19, 0
5, 9, 0
5, 22, 0
5, 10, 0
11, 20, 0
11, 12, 0
11, 25, 0
11, 9, 0
11, 3, 0
11, 6, 0
11, 19, 0
11, 2, 0
11, 10, 0
11, 1, 0
1, 12, 0
1, 4, 0
1, 2, 1
1, 6, 0
1, 19, 0
1, 9, 0
1, 11, 0
1, 10, 0
20, 12, 0
20, 16, 0
20, 6, 0
20, 19, 1
20, 10, 0
20, 11, 0
20, 9, 0
4, 12, 0
4, 13, 0
4, 17, 0
4, 21, 0
4, 16, 0
4, 6, 0
4, 5, 0
4, 18, 0
4, 1, 0
14, 18, 0
14, 13, 0
14, 15, 1
24, 3, 0
24, 25, 1
8, 7, 1
8, 0, 0
8, 17, 0
8, 23, 0
8, 16, 0
8, 19, 0
8, 9, 0
8, 10, 0
15, 18, 0
15, 13, 0
15, 14, 1
22, 21, 1
22, 5, 0
0, 7, 0
0, 17, 0
0, 16, 0
0, 19, 0
0, 8, 0
0, 10, 0
3, 12, 0
3, 9, 0
3, 25, 0
3, 11, 0
3, 24, 0
16, 0, 0
16, 7, 0
16, 17, 0
16, 23, 0
16, 6, 0
16, 10, 0
16, 20, 0
16, 4, 0
16, 2, 0
16, 19, 0
16, 8, 0
16, 9, 0
6, 20, 0
6, 12, 0
6, 4, 0
6, 9, 0
6, 2, 0
6, 16, 0
6, 19, 0
6, 10, 0
6, 11, 0
6, 1, 0
10, 0, 0
10, 17, 0
10, 23, 0
10, 16, 0
10, 6, 0
10, 5, 0
10, 11, 0
10, 1, 0
10, 20, 0
10, 12, 0
10, 2, 0
10, 19, 0
10, 8, 0
10, 18, 0
10, 9, 1
7, 0, 0
7, 16, 0
7, 8, 1
7, 17, 0
7, 23, 0
12, 20, 0
12, 3, 0
12, 4, 0
12, 9, 0
12, 2, 0
12, 6, 0
12, 19, 0
12, 10, 0
12, 11, 0
12, 1, 0
25, 3, 0
25, 9, 0
25, 11, 0
25, 24, 1
2, 12, 0
2, 1, 1
2, 16, 0
2, 6, 0
2, 19, 0
2, 10, 0
2, 11, 0
2, 9, 0
21, 18, 0
21, 4, 0
21, 5, 0
21, 22, 1
19, 0, 0
19, 23, 0
19, 16, 0
19, 6, 0
19, 5, 0
19, 11, 0
19, 1, 0
19, 20, 1
19, 12, 0
19, 2, 0
19, 8, 0
19, 10, 0
19, 18, 0
19, 9, 0
18, 13, 0
18, 14, 0
18, 4, 0
18, 21, 0
18, 19, 0
18, 9, 0
18, 15, 0
18, 5, 0
18, 10, 0
9, 23, 0
9, 3, 0
9, 16, 0
9, 6, 0
9, 5, 0
9, 11, 0
9, 1, 0
9, 20, 0
9, 12, 0
9, 25, 0
9, 2, 0
9, 19, 0
9, 8, 0
9, 10, 1
9, 18, 0
