13, 0, 0
13, 20, 0
13, 4, 0
13, 32, 0
13, 37, 0
13, 42, 0
13, 8, 0
13, 9, 0
17, 14, 0
17, 5, 0
17, 22, 0
23, 37, 0
23, 20, 0
23, 4, 0
23, 43, 0
42, 18, 0
42, 13, 0
42, 9, 0
42, 32, 0
42, 2, 0
46, 45, 0
46, 28, 0
46, 31, 0
46, 27, 0
46, 21, 0
46, 6, 0
46, 29, 0
46, 39, 0
20, 13, 0
20, 43, 0
20, 23, 0
20, 37, 0
20, 41, 0
20, 22, 0
14, 17, 0
14, 44, 0
14, 22, 0
24, 7, 0
24, 11, 0
24, 2, 0
28, 45, 0
28, 31, 0
28, 29, 0
28, 16, 0
28, 6, 0
28, 19, 0
28, 46, 0
28, 27, 0
39, 21, 0
39, 27, 0
39, 46, 0
39, 31, 0
41, 20, 0
41, 22, 0
0, 37, 0
0, 13, 0
0, 4, 0
8, 37, 0
8, 13, 0
8, 32, 0
8, 9, 0
34, 33, 0
34, 15, 0
34, 25, 0
34, 5, 0
15, 21, 0
15, 34, 0
15, 30, 0
47, 1, 0
47, 26, 0
47, 10, 0
10, 40, 0
10, 47, 0
10, 1, 0
7, 18, 0
7, 11, 0
7, 24, 0
3, 12, 0
3, 36, 0
3, 38, 0
3, 11, 0
3, 35, 0
32, 37, 0
32, 42, 0
32, 8, 0
32, 13, 0
32, 9, 0
2, 18, 0
2, 42, 0
2, 24, 0
21, 15, 0
21, 39, 0
21, 46, 0
21, 27, 0
21, 30, 0
33, 34, 0
33, 30, 0
19, 16, 0
19, 45, 0
19, 28, 0
18, 7, 0
18, 42, 0
18, 11, 0
18, 2, 0
31, 27, 0
31, 28, 0
31, 46, 0
31, 39, 0
29, 16, 0
29, 6, 0
29, 28, 0
29, 46, 0
40, 26, 0
40, 10, 0
11, 7, 0
11, 3, 0
11, 12, 0
11, 35, 0
11, 18, 0
11, 24, 0
11, 38, 0
11, 36, 0
5, 34, 0
5, 25, 0
5, 44, 0
5, 17, 0
37, 20, 0
37, 0, 0
37, 13, 0
37, 43, 0
37, 32, 0
37, 23, 0
37, 4, 0
37, 8, 0
4, 0, 0
4, 37, 0
4, 13, 0
4, 23, 0
35, 3, 0
35, 12, 0
35, 38, 0
35, 11, 0
35, 36, 1
30, 21, 0
30, 33, 0
30, 15, 0
38, 3, 0
38, 36, 0
38, 12, 0
38, 11, 0
38, 35, 0
22, 20, 0
22, 14, 0
22, 17, 0
22, 41, 0
36, 3, 0
36, 12, 0
36, 38, 0
36, 11, 0
36, 35, 1
45, 16, 0
45, 19, 0
45, 28, 0
45, 46, 0
45, 1, 0
16, 45, 0
16, 19, 0
16, 28, 0
16, 29, 0
27, 21, 0
27, 39, 0
27, 28, 0
27, 46, 0
27, 31, 0
1, 45, 0
1, 47, 0
1, 10, 0
44, 14, 0
44, 5, 0
12, 3, 0
12, 36, 0
12, 38, 0
12, 11, 0
12, 35, 0
25, 34, 0
25, 5, 0
26, 40, 0
26, 47, 0
6, 28, 0
6, 46, 0
6, 29, 0
43, 20, 0
43, 37, 0
43, 23, 0
9, 42, 0
9, 8, 0
9, 13, 0
9, 32, 0
