0, 3, 0
0, 8, 0
0, 5, 0
8, 0, 0
8, 3, 0
8, 4, 0
8, 6, 0
3, 0, 0
3, 8, 0
6, 7, 0
6, 8, 0
6, 4, 0
5, 0, 0
5, 2, 0
11, 12, 0
11, 10, 0
11, 9, 0
10, 7, 0
10, 12, 0
10, 9, 1
10, 11, 0
10, 1, 0
7, 12, 0
7, 1, 0
7, 9, 0
7, 10, 0
7, 6, 0
12, 7, 0
12, 9, 0
12, 10, 0
12, 11, 0
12, 1, 0
4, 6, 0
4, 8, 0
2, 5, 0
1, 7, 0
1, 12, 0
1, 10, 0
1, 9, 0
9, 7, 0
9, 12, 0
9, 10, 1
9, 11, 0
9, 1, 0
