0, 12, 0
0, 13, 0
13, 0, 0
13, 12, 0
13, 8, 0
13, 7, 0
3, 16, 0
3, 2, 1
3, 10, 0
3, 15, 0
3, 9, 0
16, 3, 0
16, 9, 0
16, 2, 0
16, 8, 0
16, 15, 0
16, 10, 0
16, 1, 0
6, 7, 0
6, 4, 1
6, 14, 0
6, 8, 0
6, 11, 0
6, 9, 0
8, 7, 0
8, 12, 0
8, 13, 0
8, 14, 0
8, 4, 0
8, 16, 0
8, 6, 0
8, 5, 0
8, 11, 0
8, 9, 0
5, 7, 0
5, 4, 1
5, 14, 0
5, 8, 0
5, 11, 0
5, 9, 0
11, 7, 0
11, 4, 0
11, 14, 0
11, 6, 0
11, 8, 0
11, 15, 0
11, 5, 0
11, 9, 0
10, 3, 0
10, 2, 0
10, 16, 0
10, 1, 0
10, 15, 0
10, 9, 0
7, 13, 0
7, 14, 0
7, 4, 0
7, 6, 0
7, 8, 0
7, 5, 0
7, 11, 0
7, 9, 0
12, 0, 0
12, 8, 0
12, 13, 0
4, 7, 0
4, 14, 0
4, 6, 1
4, 8, 0
4, 5, 1
4, 11, 0
4, 9, 0
14, 7, 0
14, 4, 0
14, 6, 0
14, 8, 0
14, 15, 0
14, 5, 0
14, 11, 0
14, 9, 0
2, 3, 1
2, 16, 0
2, 1, 1
2, 9, 0
2, 15, 0
2, 10, 0
1, 16, 0
1, 2, 1
1, 10, 0
1, 15, 0
1, 9, 0
15, 3, 0
15, 14, 0
15, 9, 0
15, 2, 0
15, 16, 0
15, 10, 0
15, 11, 0
15, 1, 0
9, 16, 0
9, 6, 0
9, 5, 0
9, 11, 0
9, 1, 0
9, 7, 0
9, 3, 0
9, 4, 0
9, 14, 0
9, 2, 0
9, 8, 0
9, 15, 0
9, 10, 0
