0, 10, 0
0, 2, 0
0, 9, 0
0, 1, 1
13, 12, 1
13, 14, 0
13, 18, 0
13, 6, 0
13, 19, 0
13, 8, 0
13, 5, 0
17, 16, 1
17, 3, 0
17, 8, 0
17, 11, 0
3, 7, 0
3, 14, 0
3, 16, 0
3, 17, 0
3, 8, 0
3, 15, 0
3, 11, 0
16, 3, 0
16, 14, 0
16, 17, 1
16, 8, 0
16, 15, 1
16, 11, 0
6, 12, 0
6, 13, 0
6, 14, 0
6, 19, 0
6, 8, 0
6, 5, 1
8, 13, 0
8, 17, 0
8, 3, 0
8, 16, 0
8, 6, 0
8, 5, 0
8, 11, 0
8, 7, 0
8, 12, 0
8, 14, 0
8, 19, 0
8, 15, 0
8, 18, 0
5, 18, 0
5, 12, 0
5, 8, 0
5, 13, 0
5, 6, 1
11, 7, 0
11, 3, 0
11, 4, 0
11, 17, 0
11, 16, 0
11, 14, 0
11, 8, 0
11, 15, 0
10, 0, 0
10, 2, 0
10, 18, 0
10, 19, 0
10, 1, 0
10, 9, 1
7, 3, 0
7, 8, 0
7, 4, 0
7, 11, 0
12, 13, 1
12, 18, 0
12, 6, 0
12, 19, 0
12, 8, 0
12, 5, 0
4, 7, 0
4, 11, 0
14, 3, 0
14, 13, 0
14, 16, 0
14, 6, 0
14, 19, 0
14, 8, 0
14, 15, 0
14, 11, 0
2, 0, 0
2, 9, 0
2, 10, 0
2, 1, 0
19, 12, 0
19, 13, 0
19, 14, 0
19, 9, 0
19, 18, 0
19, 6, 0
19, 8, 0
19, 10, 0
19, 1, 0
1, 0, 1
1, 2, 0
1, 18, 0
1, 19, 0
1, 10, 0
1, 9, 0
15, 16, 1
15, 3, 0
15, 8, 0
15, 14, 0
15, 11, 0
18, 12, 0
18, 13, 0
18, 9, 0
18, 8, 0
18, 19, 0
18, 1, 0
18, 5, 0
18, 10, 0
9, 0, 0
9, 2, 0
9, 18, 0
9, 19, 0
9, 1, 0
9, 10, 1
