13, 12, 0
13, 17, 0
13, 30, 0
17, 12, 0
17, 13, 0
17, 16, 0
17, 8, 0
17, 15, 0
17, 18, 0
17, 30, 0
31, 7, 0
31, 28, 0
31, 2, 0
31, 29, 0
31, 22, 0
31, 9, 0
23, 12, 0
23, 11, 0
10, 7, 0
10, 14, 0
10, 2, 0
10, 21, 0
10, 19, 0
10, 22, 0
10, 1, 0
2, 7, 0
2, 28, 0
2, 31, 0
2, 29, 0
2, 21, 0
2, 22, 0
2, 10, 0
5, 20, 0
5, 4, 0
5, 11, 0
5, 24, 0
11, 20, 0
11, 12, 0
11, 4, 0
11, 25, 0
11, 23, 0
11, 24, 0
11, 5, 0
1, 14, 0
1, 10, 0
20, 4, 0
20, 25, 0
20, 26, 0
20, 24, 0
20, 6, 0
20, 27, 0
20, 5, 0
20, 11, 0
20, 9, 0
4, 20, 0
4, 26, 0
4, 24, 0
4, 6, 0
4, 27, 0
4, 5, 0
4, 11, 0
4, 9, 0
14, 1, 0
14, 10, 0
14, 22, 0
14, 29, 0
24, 20, 0
24, 4, 0
24, 25, 1
24, 27, 0
24, 5, 0
24, 11, 0
28, 7, 0
28, 2, 0
28, 22, 0
28, 31, 0
28, 29, 1
30, 16, 0
30, 12, 0
30, 13, 0
30, 17, 0
8, 16, 0
8, 18, 0
8, 15, 0
8, 17, 0
8, 33, 0
15, 16, 1
15, 18, 0
15, 8, 0
15, 17, 0
22, 7, 0
22, 28, 0
22, 31, 0
22, 2, 0
22, 14, 0
22, 29, 0
22, 10, 0
0, 21, 0
0, 32, 0
12, 13, 0
12, 17, 0
12, 23, 0
12, 18, 0
12, 11, 0
12, 30, 0
16, 18, 0
16, 15, 1
16, 8, 0
16, 17, 0
16, 30, 0
6, 20, 0
6, 27, 0
6, 4, 0
6, 26, 0
6, 9, 0
27, 20, 0
27, 6, 0
27, 4, 0
27, 26, 1
27, 24, 0
7, 28, 0
7, 31, 0
7, 2, 0
7, 29, 0
7, 10, 0
7, 22, 0
7, 9, 0
3, 33, 0
25, 20, 0
25, 11, 0
25, 24, 1
32, 0, 0
29, 7, 0
29, 28, 1
29, 31, 0
29, 2, 0
29, 14, 0
29, 22, 0
21, 0, 0
21, 19, 0
21, 2, 0
21, 10, 0
33, 18, 0
33, 3, 0
33, 8, 0
19, 21, 0
19, 10, 0
26, 20, 0
26, 6, 0
26, 4, 0
26, 27, 1
18, 33, 0
18, 17, 0
18, 12, 0
18, 16, 0
18, 8, 0
18, 15, 0
9, 20, 0
9, 6, 0
9, 4, 0
9, 7, 0
9, 31, 0
