0, 7, 0
0, 3, 1
0, 4, 0
0, 2, 1
0, 5, 0
0, 1, 1
13, 12, 1
13, 4, 0
13, 14, 1
13, 8, 1
13, 15, 1
13, 5, 0
13, 11, 1
3, 0, 1
3, 7, 0
3, 4, 0
3, 2, 1
3, 8, 0
3, 5, 0
3, 1, 1
6, 8, 0
6, 5, 0
8, 12, 1
8, 13, 1
8, 14, 1
8, 4, 0
8, 3, 0
8, 6, 0
8, 9, 1
8, 15, 1
8, 5, 0
8, 11, 1
8, 10, 1
5, 0, 0
5, 12, 0
5, 13, 0
5, 14, 0
5, 4, 1
5, 3, 0
5, 6, 0
5, 8, 0
5, 15, 0
5, 7, 0
5, 11, 0
11, 12, 1
11, 13, 1
11, 4, 0
11, 10, 1
11, 8, 1
11, 5, 0
11, 9, 1
10, 8, 1
10, 11, 1
10, 4, 0
10, 9, 1
7, 0, 0
7, 3, 0
7, 4, 0
7, 2, 0
7, 5, 0
7, 1, 0
12, 11, 1
12, 8, 1
12, 13, 1
12, 5, 0
12, 4, 0
4, 0, 0
4, 13, 0
4, 3, 0
4, 1, 0
4, 5, 1
4, 11, 0
4, 10, 0
4, 7, 0
4, 12, 0
4, 14, 0
4, 2, 0
4, 8, 0
4, 15, 0
4, 9, 0
14, 13, 1
14, 8, 1
14, 15, 1
14, 5, 0
14, 4, 0
2, 0, 1
2, 7, 0
2, 4, 0
2, 3, 1
2, 1, 1
1, 0, 1
1, 3, 1
1, 7, 0
1, 4, 0
1, 2, 1
15, 13, 1
15, 8, 1
15, 14, 1
15, 5, 0
15, 4, 0
9, 8, 1
9, 11, 1
9, 4, 0
9, 10, 1
