0, 4, 0
0, 10, 0
13, 12, 0
13, 3, 0
13, 2, 0
13, 1, 0
13, 15, 0
13, 11, 0
13, 10, 0
17, 16, 1
17, 18, 0
17, 14, 0
17, 11, 0
17, 12, 0
3, 13, 0
3, 15, 0
3, 10, 0
3, 1, 1
16, 18, 0
16, 12, 0
16, 14, 0
16, 17, 1
6, 7, 1
6, 4, 0
6, 10, 0
6, 8, 0
6, 5, 1
6, 9, 0
8, 7, 0
8, 6, 0
8, 4, 0
8, 5, 0
8, 9, 0
5, 6, 1
5, 8, 0
5, 10, 0
5, 4, 0
5, 9, 0
11, 12, 0
11, 13, 0
11, 14, 0
11, 18, 0
11, 17, 0
11, 15, 0
10, 0, 0
10, 3, 0
10, 13, 0
10, 4, 0
10, 2, 0
10, 6, 0
10, 15, 0
10, 5, 0
10, 1, 0
7, 6, 1
7, 8, 0
7, 4, 0
7, 9, 0
12, 18, 0
12, 13, 0
12, 14, 0
12, 16, 0
12, 17, 0
12, 15, 0
12, 11, 0
4, 0, 0
4, 7, 0
4, 6, 0
4, 8, 0
4, 5, 0
4, 10, 0
14, 16, 0
14, 12, 0
14, 17, 0
14, 18, 0
14, 11, 0
2, 13, 0
2, 15, 0
2, 10, 0
2, 1, 1
1, 3, 1
1, 13, 0
1, 15, 0
1, 10, 0
1, 2, 1
15, 12, 0
15, 13, 0
15, 3, 0
15, 2, 0
15, 1, 0
15, 11, 0
15, 10, 0
18, 16, 0
18, 12, 0
18, 14, 0
18, 17, 0
18, 11, 0
9, 7, 0
9, 6, 0
9, 8, 0
9, 5, 0
