2, 3, 0
2, 4, 0
2, 26, 0
2, 23, 0
2, 24, 0
2, 27, 0
2, 30, 0
13, 15, 0
13, 14, 1
13, 30, 0
17, 19, 0
17, 10, 0
23, 2, 0
23, 3, 0
23, 4, 0
23, 30, 0
29, 16, 0
29, 20, 0
29, 19, 0
29, 28, 0
29, 22, 0
5, 6, 1
5, 8, 0
5, 12, 0
11, 21, 0
11, 9, 0
1, 0, 0
1, 22, 0
20, 16, 0
20, 19, 0
20, 29, 0
4, 3, 1
4, 27, 0
4, 30, 0
4, 23, 0
4, 2, 0
14, 13, 1
14, 15, 0
14, 30, 0
24, 18, 0
24, 27, 0
24, 30, 0
24, 26, 0
24, 2, 0
28, 22, 0
28, 29, 0
30, 3, 0
30, 4, 0
30, 13, 0
30, 26, 0
30, 23, 0
30, 2, 0
30, 27, 0
30, 14, 0
30, 24, 0
30, 15, 0
8, 18, 0
8, 6, 0
8, 5, 0
8, 12, 0
15, 25, 0
15, 13, 0
15, 14, 0
15, 30, 0
22, 0, 0
22, 1, 0
22, 28, 0
22, 29, 0
0, 22, 0
0, 1, 0
12, 7, 0
12, 6, 0
12, 8, 0
12, 5, 0
12, 9, 0
16, 20, 0
16, 19, 0
16, 29, 0
6, 12, 0
6, 8, 0
6, 5, 1
10, 25, 0
10, 17, 0
7, 12, 0
7, 9, 0
3, 27, 0
3, 30, 0
3, 4, 1
3, 23, 0
3, 2, 0
25, 15, 0
25, 10, 0
26, 27, 1
26, 30, 0
26, 2, 0
26, 24, 0
27, 3, 0
27, 4, 0
27, 26, 1
27, 2, 0
27, 18, 0
27, 24, 0
27, 30, 0
21, 11, 0
21, 9, 0
19, 20, 0
19, 16, 0
19, 17, 0
19, 29, 0
18, 27, 0
18, 8, 0
18, 24, 0
9, 7, 0
9, 21, 0
9, 11, 0
9, 12, 0
