0, 6, 0
0, 5, 0
0, 2, 0
3, 2, 0
3, 4, 1
3, 1, 0
4, 3, 1
4, 6, 0
4, 2, 0
4, 1, 0
2, 0, 0
2, 3, 0
2, 4, 0
2, 6, 0
2, 5, 0
2, 1, 0
6, 0, 0
6, 4, 0
6, 5, 0
6, 2, 0
5, 0, 0
5, 6, 0
5, 2, 0
1, 3, 0
1, 4, 0
1, 2, 0
