13, 20, 0
13, 4, 0
13, 41, 0
13, 26, 0
17, 7, 0
17, 34, 0
17, 14, 0
17, 6, 0
17, 39, 0
17, 5, 0
23, 14, 0
23, 9, 0
42, 20, 0
42, 45, 0
42, 7, 0
42, 28, 0
42, 32, 0
42, 29, 0
42, 44, 0
46, 0, 0
46, 7, 0
46, 25, 0
46, 31, 0
46, 33, 0
46, 16, 0
46, 8, 0
46, 15, 0
20, 7, 0
20, 42, 0
20, 13, 0
20, 26, 0
20, 32, 0
14, 7, 0
14, 34, 0
14, 17, 0
14, 23, 0
14, 24, 0
14, 5, 0
24, 6, 0
24, 14, 0
24, 5, 0
24, 34, 0
28, 45, 0
28, 42, 0
28, 44, 0
28, 32, 0
28, 29, 0
39, 0, 0
39, 34, 0
39, 8, 0
39, 17, 0
39, 7, 0
41, 7, 0
41, 3, 0
41, 13, 0
41, 43, 0
41, 26, 0
41, 4, 0
41, 38, 0
0, 25, 0
0, 8, 0
0, 39, 0
0, 46, 0
8, 0, 0
8, 39, 0
8, 25, 0
8, 46, 0
12, 33, 0
12, 22, 0
15, 16, 1
15, 46, 0
15, 31, 0
15, 2, 0
10, 21, 0
10, 19, 0
10, 11, 1
7, 45, 0
7, 17, 0
7, 39, 0
7, 46, 0
7, 20, 0
7, 33, 0
7, 43, 0
7, 26, 0
7, 29, 0
7, 42, 0
7, 19, 0
7, 38, 0
7, 41, 0
7, 14, 0
3, 38, 0
3, 43, 0
3, 41, 0
32, 20, 0
32, 42, 0
32, 28, 0
32, 44, 0
32, 29, 0
2, 16, 0
2, 33, 0
2, 15, 0
2, 31, 0
21, 18, 0
21, 19, 0
21, 30, 0
21, 40, 0
21, 11, 0
21, 10, 0
33, 7, 0
33, 12, 0
33, 31, 0
33, 2, 0
33, 16, 0
33, 46, 0
19, 7, 0
19, 21, 0
19, 30, 0
19, 38, 0
19, 11, 0
19, 10, 0
18, 21, 0
18, 35, 0
18, 40, 0
18, 30, 0
31, 16, 0
31, 33, 0
31, 15, 0
31, 46, 0
31, 2, 0
29, 7, 0
29, 28, 0
29, 32, 0
29, 42, 0
29, 44, 0
29, 22, 0
40, 18, 0
40, 21, 0
40, 35, 0
40, 30, 0
11, 21, 0
11, 19, 0
11, 10, 1
5, 6, 1
5, 34, 0
5, 14, 0
5, 17, 0
5, 24, 0
37, 35, 0
37, 1, 0
37, 36, 1
4, 13, 0
4, 41, 0
4, 26, 0
35, 18, 0
35, 37, 0
35, 36, 0
35, 1, 0
35, 40, 0
35, 30, 0
30, 18, 0
30, 21, 0
30, 19, 0
30, 40, 0
30, 35, 0
38, 7, 0
38, 3, 0
38, 19, 0
38, 43, 0
38, 41, 0
22, 12, 0
22, 29, 0
36, 37, 1
36, 1, 0
36, 35, 0
45, 7, 0
45, 42, 0
45, 28, 0
45, 44, 1
16, 33, 0
16, 15, 1
16, 46, 0
16, 31, 0
16, 2, 0
27, 9, 0
1, 37, 0
1, 36, 0
1, 35, 0
44, 42, 0
44, 45, 1
44, 28, 0
44, 32, 0
44, 29, 0
34, 14, 0
34, 17, 0
34, 5, 0
34, 39, 0
34, 24, 0
25, 0, 0
25, 8, 0
25, 46, 0
26, 7, 0
26, 20, 0
26, 13, 0
26, 41, 0
26, 4, 0
6, 17, 0
6, 5, 1
6, 24, 0
43, 7, 0
43, 3, 0
43, 38, 0
43, 41, 0
9, 27, 0
9, 23, 0
