0, 6, 0
0, 1, 0
0, 9, 0
0, 4, 0
0, 10, 0
6, 0, 0
6, 3, 0
6, 4, 0
6, 1, 0
6, 7, 0
6, 8, 0
6, 9, 0
6, 5, 0
6, 11, 0
6, 10, 0
1, 0, 0
1, 6, 0
1, 11, 0
1, 10, 0
5, 7, 0
5, 3, 0
5, 4, 0
5, 2, 0
5, 6, 0
5, 8, 0
11, 6, 0
11, 10, 0
11, 1, 0
10, 0, 0
10, 6, 0
10, 3, 0
10, 11, 0
10, 1, 0
7, 3, 0
7, 4, 0
7, 6, 0
7, 8, 0
7, 5, 0
7, 9, 0
3, 7, 0
3, 4, 0
3, 6, 0
3, 8, 0
3, 5, 0
3, 10, 0
3, 9, 0
4, 7, 0
4, 3, 0
4, 2, 0
4, 6, 0
4, 8, 0
4, 5, 0
4, 0, 0
2, 8, 0
2, 5, 0
2, 4, 0
8, 7, 0
8, 3, 0
8, 4, 0
8, 2, 0
8, 6, 0
8, 5, 0
9, 0, 0
9, 6, 0
9, 7, 0
9, 3, 0
