0, 6, 0
0, 8, 0
0, 14, 0
0, 11, 0
13, 1, 0
13, 10, 0
13, 4, 0
13, 9, 0
17, 16, 1
17, 12, 0
17, 6, 0
3, 2, 1
3, 15, 0
3, 1, 0
16, 12, 0
16, 17, 1
6, 0, 0
6, 12, 0
6, 4, 0
6, 17, 0
6, 14, 0
6, 8, 0
6, 5, 1
6, 7, 0
6, 11, 0
6, 10, 0
8, 7, 1
8, 6, 0
8, 4, 0
8, 14, 0
8, 0, 0
5, 12, 0
5, 11, 0
5, 6, 1
11, 0, 0
11, 12, 0
11, 5, 0
11, 6, 0
10, 13, 0
10, 4, 0
10, 6, 0
10, 9, 1
10, 15, 0
10, 1, 0
7, 6, 0
7, 8, 1
7, 14, 0
7, 4, 0
12, 16, 0
12, 6, 0
12, 17, 0
12, 5, 0
12, 11, 0
4, 7, 0
4, 13, 0
4, 14, 0
4, 9, 0
4, 6, 0
4, 8, 0
4, 10, 0
4, 1, 0
14, 0, 0
14, 6, 0
14, 8, 0
14, 7, 0
14, 4, 0
2, 3, 1
2, 15, 0
2, 1, 0
1, 3, 0
1, 13, 0
1, 4, 0
1, 2, 0
1, 15, 0
1, 10, 0
15, 2, 0
15, 3, 0
15, 10, 0
15, 1, 0
9, 13, 0
9, 4, 0
9, 10, 1
