0, 9, 0
3, 6, 0
3, 4, 0
3, 1, 0
4, 3, 0
4, 6, 0
4, 9, 0
4, 2, 0
2, 7, 0
2, 6, 0
2, 4, 0
2, 5, 0
6, 3, 0
6, 4, 0
6, 2, 0
1, 3, 0
1, 8, 0
1, 5, 0
8, 7, 0
8, 5, 0
8, 1, 0
5, 7, 0
5, 1, 0
5, 8, 0
5, 2, 0
7, 8, 0
7, 5, 0
7, 2, 0
9, 0, 0
9, 4, 0
