0, 7, 0
0, 3, 0
0, 13, 0
13, 0, 0
13, 3, 0
13, 4, 0
13, 5, 0
3, 0, 0
3, 13, 0
3, 5, 0
3, 4, 0
6, 12, 0
6, 15, 0
6, 11, 0
6, 10, 0
8, 7, 0
5, 3, 0
5, 13, 0
5, 4, 1
11, 6, 0
11, 12, 0
11, 15, 0
11, 10, 1
10, 6, 0
10, 15, 0
10, 11, 1
7, 0, 0
7, 8, 0
12, 6, 0
12, 9, 0
12, 14, 0
12, 11, 0
12, 1, 0
4, 3, 0
4, 13, 0
4, 15, 0
4, 5, 1
14, 12, 0
14, 9, 0
14, 1, 0
2, 9, 0
1, 12, 0
1, 14, 0
1, 9, 0
15, 6, 0
15, 4, 0
15, 11, 0
15, 10, 0
9, 12, 0
9, 2, 0
9, 14, 0
9, 1, 0
