0, 3, 0
0, 12, 0
0, 11, 0
0, 9, 0
8, 11, 0
3, 0, 0
3, 12, 0
3, 9, 0
6, 4, 0
6, 9, 0
6, 2, 0
5, 4, 0
5, 1, 0
11, 0, 0
11, 8, 0
10, 1, 0
7, 12, 0
7, 2, 0
12, 0, 0
12, 3, 0
12, 2, 0
12, 7, 0
12, 9, 0
4, 6, 0
4, 5, 0
4, 9, 0
2, 7, 0
2, 12, 0
2, 9, 0
2, 6, 0
1, 5, 0
1, 10, 0
9, 0, 0
9, 12, 0
9, 4, 0
9, 3, 0
9, 2, 0
9, 6, 0
