0, 3, 0
0, 5, 0
3, 0, 0
4, 7, 0
4, 6, 0
4, 2, 0
4, 5, 0
4, 1, 0
7, 6, 0
7, 1, 0
7, 4, 0
7, 2, 0
2, 7, 0
2, 6, 0
2, 4, 0
2, 1, 1
6, 7, 0
6, 1, 0
6, 4, 0
6, 2, 0
5, 0, 0
5, 4, 0
1, 7, 0
1, 6, 0
1, 4, 0
1, 2, 1
