0, 6, 0
0, 13, 0
0, 11, 0
13, 0, 0
13, 11, 0
13, 9, 0
3, 15, 0
3, 14, 0
6, 0, 0
8, 7, 0
8, 12, 0
8, 2, 0
8, 15, 0
8, 1, 0
5, 9, 0
5, 10, 0
11, 0, 0
11, 13, 0
11, 9, 0
10, 4, 0
10, 5, 0
10, 9, 0
7, 12, 0
7, 8, 0
7, 4, 0
12, 7, 0
12, 8, 0
12, 4, 0
4, 7, 0
4, 12, 0
4, 10, 0
14, 3, 0
14, 15, 0
2, 8, 0
2, 15, 0
2, 1, 1
1, 8, 0
1, 15, 0
1, 2, 1
15, 2, 0
15, 3, 0
15, 8, 0
15, 14, 0
15, 1, 0
9, 13, 0
9, 5, 0
9, 11, 0
9, 10, 0
