13, 12, 1
13, 4, 0
13, 23, 0
13, 18, 0
13, 19, 0
13, 8, 0
13, 5, 0
13, 9, 0
17, 0, 0
17, 2, 0
17, 16, 0
17, 24, 0
17, 10, 0
17, 1, 0
23, 20, 0
23, 12, 0
23, 13, 0
23, 4, 0
23, 18, 0
23, 8, 0
23, 5, 0
23, 22, 0
23, 9, 0
5, 20, 0
5, 12, 0
5, 4, 1
5, 13, 0
5, 23, 0
5, 21, 0
5, 19, 0
5, 8, 0
5, 18, 0
5, 22, 0
5, 9, 0
11, 3, 0
11, 14, 0
11, 15, 0
11, 9, 0
1, 16, 0
1, 10, 0
1, 17, 0
1, 24, 0
1, 2, 1
20, 3, 0
20, 4, 0
20, 23, 0
20, 21, 0
20, 8, 0
20, 5, 0
20, 22, 0
20, 9, 0
4, 13, 0
4, 23, 0
4, 3, 0
4, 18, 0
4, 5, 1
4, 20, 0
4, 12, 0
4, 14, 0
4, 21, 0
4, 19, 0
4, 8, 0
4, 22, 0
14, 7, 0
14, 3, 0
14, 4, 0
14, 6, 0
14, 15, 1
14, 11, 0
14, 10, 0
24, 0, 0
24, 7, 0
24, 17, 0
24, 2, 0
24, 16, 0
24, 1, 0
24, 15, 0
24, 10, 0
8, 20, 0
8, 12, 0
8, 4, 0
8, 13, 0
8, 23, 0
8, 18, 0
8, 19, 0
8, 5, 0
15, 7, 0
15, 3, 0
15, 14, 1
15, 24, 0
15, 6, 0
15, 11, 0
15, 10, 0
22, 20, 0
22, 4, 0
22, 23, 0
22, 21, 1
22, 5, 0
22, 9, 0
0, 16, 0
0, 2, 1
0, 24, 0
0, 17, 0
0, 10, 0
3, 20, 0
3, 4, 0
3, 14, 0
3, 10, 0
3, 15, 0
3, 11, 0
3, 9, 0
16, 0, 0
16, 17, 0
16, 2, 0
16, 24, 0
16, 10, 0
16, 1, 0
6, 7, 1
6, 15, 0
6, 14, 0
6, 10, 0
10, 0, 0
10, 7, 0
10, 14, 0
10, 3, 0
10, 24, 0
10, 16, 0
10, 6, 0
10, 2, 0
10, 15, 0
10, 17, 0
10, 1, 0
7, 6, 1
7, 15, 0
7, 24, 0
7, 14, 0
7, 10, 0
12, 4, 0
12, 13, 1
12, 23, 0
12, 18, 0
12, 19, 0
12, 8, 0
12, 5, 0
2, 0, 1
2, 17, 0
2, 24, 0
2, 16, 0
2, 10, 0
2, 1, 1
21, 20, 0
21, 4, 0
21, 5, 0
21, 22, 1
19, 12, 0
19, 13, 0
19, 4, 0
19, 18, 1
19, 8, 0
19, 5, 0
18, 12, 0
18, 13, 0
18, 23, 0
18, 4, 0
18, 19, 1
18, 8, 0
18, 5, 0
9, 20, 0
9, 3, 0
9, 13, 0
9, 11, 0
9, 23, 0
9, 5, 0
9, 22, 0
