0, 5, 0
0, 10, 0
6, 7, 0
6, 11, 0
1, 3, 0
1, 5, 0
1, 2, 1
5, 0, 0
5, 3, 0
5, 2, 0
5, 1, 0
11, 6, 0
11, 4, 0
10, 0, 0
10, 8, 0
7, 6, 0
3, 2, 0
3, 4, 0
3, 5, 0
3, 1, 0
4, 3, 0
4, 11, 0
2, 3, 0
2, 5, 0
2, 1, 1
8, 9, 0
8, 10, 0
9, 8, 0
