0, 7, 0
0, 4, 0
0, 6, 0
0, 8, 0
0, 5, 0
0, 9, 0
3, 2, 0
3, 4, 0
3, 1, 0
4, 0, 0
4, 3, 0
4, 2, 0
4, 9, 0
4, 1, 0
2, 3, 0
2, 4, 0
2, 9, 0
2, 1, 1
6, 0, 0
6, 7, 1
6, 5, 0
1, 3, 0
1, 4, 0
1, 2, 1
8, 0, 0
8, 7, 1
5, 0, 0
5, 7, 0
5, 6, 0
5, 9, 0
7, 0, 0
7, 6, 1
7, 8, 1
7, 5, 0
9, 0, 0
9, 4, 0
9, 5, 0
9, 2, 0
