0, 16, 0
0, 4, 0
0, 10, 0
13, 18, 0
13, 12, 0
13, 16, 0
13, 8, 0
13, 3, 0
17, 18, 1
17, 3, 0
17, 19, 0
3, 18, 0
3, 13, 0
3, 14, 0
3, 16, 0
3, 17, 0
3, 19, 0
3, 8, 0
3, 15, 0
16, 0, 0
16, 3, 0
16, 13, 0
16, 19, 0
16, 10, 0
16, 9, 0
6, 14, 0
6, 18, 0
6, 19, 0
6, 15, 0
6, 5, 1
6, 11, 0
8, 3, 0
8, 13, 0
5, 14, 0
5, 18, 0
5, 6, 1
5, 19, 0
5, 15, 0
5, 11, 0
11, 14, 0
11, 18, 0
11, 6, 0
11, 19, 0
11, 15, 0
11, 5, 0
11, 9, 0
10, 0, 0
10, 16, 0
10, 4, 0
10, 7, 0
10, 9, 0
7, 9, 0
7, 10, 0
12, 18, 0
12, 1, 0
12, 13, 0
12, 2, 0
4, 0, 0
4, 10, 0
14, 3, 0
14, 6, 0
14, 19, 0
14, 15, 1
14, 5, 0
14, 11, 0
14, 9, 0
2, 18, 0
2, 12, 0
2, 1, 1
19, 3, 0
19, 14, 0
19, 6, 0
19, 16, 0
19, 17, 0
19, 15, 0
19, 18, 0
19, 11, 0
19, 5, 0
1, 12, 0
1, 2, 1
15, 3, 0
15, 14, 1
15, 18, 0
15, 6, 0
15, 19, 0
15, 5, 0
15, 11, 0
15, 9, 0
18, 3, 0
18, 13, 0
18, 17, 1
18, 2, 0
18, 6, 0
18, 19, 0
18, 15, 0
18, 5, 0
18, 11, 0
18, 12, 0
9, 7, 0
9, 14, 0
9, 16, 0
9, 15, 0
9, 11, 0
9, 10, 0
