12, 3, 0
12, 17, 0
12, 29, 0
12, 21, 0
12, 6, 0
12, 14, 0
12, 10, 0
12, 30, 0
13, 16, 0
13, 28, 0
13, 25, 0
13, 26, 0
17, 12, 0
17, 14, 0
17, 10, 0
26, 3, 0
26, 13, 0
26, 28, 0
26, 27, 0
26, 6, 0
23, 18, 0
23, 27, 0
23, 19, 0
23, 9, 0
2, 20, 0
2, 3, 0
2, 18, 0
2, 1, 0
5, 6, 0
5, 30, 0
5, 3, 0
11, 7, 0
11, 3, 0
11, 8, 0
11, 6, 0
1, 0, 0
1, 18, 0
1, 20, 0
1, 2, 0
20, 0, 0
20, 4, 0
20, 2, 0
20, 18, 0
20, 6, 0
20, 15, 0
20, 1, 0
4, 20, 0
4, 7, 0
4, 3, 0
4, 24, 0
4, 6, 0
4, 15, 0
14, 12, 0
14, 8, 0
14, 17, 0
14, 3, 0
14, 10, 0
24, 7, 0
24, 4, 0
28, 13, 0
28, 26, 0
30, 12, 0
30, 3, 0
30, 29, 0
30, 21, 0
30, 6, 0
30, 5, 0
8, 3, 0
8, 6, 0
8, 14, 0
8, 11, 0
8, 10, 0
15, 20, 0
15, 6, 0
15, 4, 0
22, 31, 0
0, 20, 0
0, 18, 0
0, 1, 0
3, 31, 0
3, 18, 0
3, 6, 0
3, 27, 0
3, 2, 0
3, 5, 0
3, 11, 0
3, 30, 0
3, 7, 0
3, 12, 0
3, 4, 0
3, 14, 0
3, 26, 0
3, 29, 0
3, 21, 0
3, 8, 0
16, 13, 0
16, 25, 0
16, 31, 0
6, 20, 0
6, 3, 0
6, 18, 0
6, 27, 0
6, 5, 0
6, 11, 0
6, 10, 0
6, 7, 0
6, 12, 0
6, 4, 0
6, 26, 0
6, 29, 0
6, 19, 0
6, 8, 0
6, 15, 0
6, 30, 0
27, 3, 0
27, 23, 0
27, 26, 0
27, 6, 0
27, 19, 0
27, 9, 0
7, 3, 0
7, 6, 0
7, 4, 0
7, 11, 0
7, 24, 0
18, 20, 0
18, 0, 0
18, 9, 0
18, 23, 0
18, 3, 0
18, 6, 0
18, 19, 0
18, 2, 0
18, 1, 0
25, 16, 0
25, 13, 0
31, 16, 0
31, 3, 0
31, 22, 0
29, 21, 0
29, 12, 0
29, 6, 0
29, 3, 0
29, 30, 0
21, 12, 0
21, 30, 0
21, 3, 0
21, 29, 0
19, 18, 0
19, 6, 0
19, 9, 0
19, 23, 0
19, 27, 0
10, 12, 0
10, 8, 0
10, 14, 0
10, 17, 0
10, 6, 0
9, 18, 0
9, 27, 0
9, 19, 0
9, 23, 0
