13, 20, 0
13, 12, 1
13, 8, 0
13, 15, 0
13, 4, 0
17, 20, 0
17, 0, 0
17, 2, 0
17, 8, 0
17, 11, 0
17, 10, 0
5, 7, 0
5, 0, 0
5, 10, 0
5, 1, 0
11, 0, 0
11, 20, 0
11, 17, 0
11, 2, 0
11, 9, 0
11, 10, 0
1, 7, 0
1, 18, 0
1, 19, 0
1, 5, 0
20, 13, 0
20, 17, 0
20, 8, 0
20, 15, 0
20, 11, 0
20, 9, 0
4, 13, 0
4, 12, 0
4, 8, 0
4, 15, 0
14, 21, 0
14, 16, 0
14, 19, 0
14, 3, 0
14, 6, 0
8, 20, 0
8, 12, 0
8, 13, 0
8, 17, 0
8, 4, 0
8, 15, 0
15, 20, 0
15, 12, 0
15, 8, 0
15, 13, 0
15, 4, 0
0, 17, 0
0, 2, 0
0, 19, 0
0, 5, 0
0, 11, 0
0, 10, 0
3, 16, 0
3, 6, 0
3, 19, 0
3, 14, 0
3, 21, 0
16, 21, 0
16, 3, 0
16, 19, 0
16, 14, 0
16, 6, 0
6, 18, 0
6, 3, 0
6, 19, 0
6, 14, 0
6, 16, 0
10, 0, 0
10, 17, 0
10, 5, 0
10, 11, 0
10, 2, 0
7, 5, 0
7, 1, 0
12, 13, 1
12, 8, 0
12, 15, 0
12, 4, 0
2, 0, 0
2, 17, 0
2, 11, 0
2, 10, 0
21, 16, 0
21, 3, 0
21, 14, 0
19, 0, 0
19, 3, 0
19, 14, 0
19, 16, 0
19, 6, 0
19, 18, 0
19, 1, 0
18, 6, 0
18, 19, 0
18, 1, 0
9, 20, 0
9, 11, 0
