0, 3, 0
0, 4, 0
0, 5, 0
13, 7, 0
13, 1, 0
13, 9, 0
13, 10, 0
3, 0, 0
3, 6, 0
3, 4, 1
3, 5, 0
3, 2, 0
6, 7, 0
6, 3, 0
6, 4, 0
6, 2, 0
8, 12, 0
8, 14, 0
8, 5, 0
5, 0, 0
5, 12, 0
5, 8, 0
5, 3, 0
11, 14, 0
10, 7, 0
10, 13, 0
10, 9, 1
10, 1, 0
7, 2, 0
7, 6, 0
7, 13, 0
7, 10, 0
7, 1, 0
12, 8, 0
12, 14, 0
12, 5, 0
4, 0, 0
4, 6, 0
4, 3, 1
14, 12, 0
14, 8, 0
14, 11, 0
2, 7, 0
2, 6, 0
2, 3, 0
2, 1, 0
1, 7, 0
1, 2, 0
1, 13, 0
1, 9, 0
1, 10, 0
9, 13, 0
9, 10, 1
9, 1, 0
