0, 7, 0
0, 12, 0
0, 14, 0
0, 3, 0
0, 2, 0
0, 15, 0
13, 12, 0
13, 3, 0
3, 0, 0
3, 12, 0
3, 13, 0
3, 2, 0
16, 9, 0
16, 5, 0
16, 11, 0
16, 10, 0
6, 8, 0
6, 9, 0
6, 4, 0
6, 1, 0
8, 7, 0
8, 6, 0
8, 15, 0
8, 4, 0
8, 14, 0
5, 16, 0
5, 9, 0
5, 11, 0
5, 10, 0
11, 16, 0
11, 9, 0
11, 5, 0
11, 10, 1
10, 16, 0
10, 5, 0
10, 11, 1
10, 9, 0
7, 0, 0
7, 15, 0
7, 8, 0
7, 14, 0
12, 0, 0
12, 3, 0
12, 13, 0
12, 2, 0
4, 6, 0
4, 8, 0
4, 9, 0
14, 0, 0
14, 7, 0
14, 8, 0
14, 15, 1
2, 0, 0
2, 12, 0
2, 3, 0
1, 6, 0
1, 9, 0
15, 0, 0
15, 7, 0
15, 8, 0
15, 14, 1
9, 4, 0
9, 16, 0
9, 6, 0
9, 10, 0
9, 5, 0
9, 11, 0
9, 1, 0
