13, 7, 0
13, 12, 1
13, 32, 0
13, 26, 0
13, 18, 0
13, 1, 0
13, 10, 0
17, 34, 0
17, 15, 0
31, 0, 0
31, 16, 0
31, 32, 0
31, 21, 0
23, 16, 0
23, 21, 0
23, 25, 0
10, 7, 0
10, 12, 0
10, 13, 0
10, 32, 0
10, 26, 0
10, 18, 0
10, 27, 0
10, 1, 0
10, 30, 0
2, 3, 1
2, 14, 0
2, 32, 0
2, 9, 0
5, 32, 0
5, 22, 0
5, 11, 0
5, 29, 0
11, 24, 0
11, 9, 0
11, 5, 0
11, 22, 0
11, 29, 0
1, 20, 0
1, 7, 0
1, 13, 0
1, 26, 0
1, 32, 0
1, 12, 0
1, 18, 0
1, 19, 0
1, 8, 0
1, 10, 0
20, 7, 0
20, 26, 0
20, 32, 0
20, 18, 0
20, 19, 1
20, 8, 0
20, 1, 0
4, 15, 0
14, 3, 0
14, 26, 0
14, 32, 0
14, 2, 0
14, 6, 0
14, 9, 0
24, 22, 0
24, 11, 0
24, 9, 0
28, 25, 0
28, 29, 0
30, 27, 0
30, 10, 0
8, 20, 0
8, 7, 0
8, 32, 0
8, 26, 0
8, 18, 0
8, 6, 0
8, 19, 0
8, 1, 0
15, 7, 0
15, 4, 0
15, 17, 0
22, 32, 0
22, 24, 0
22, 29, 0
22, 5, 0
22, 11, 0
22, 9, 0
0, 21, 0
0, 16, 0
0, 31, 0
0, 32, 0
3, 14, 0
3, 26, 0
3, 32, 0
3, 2, 1
3, 6, 0
3, 9, 0
34, 7, 0
34, 33, 0
34, 17, 0
16, 0, 0
16, 21, 0
16, 25, 0
16, 31, 0
16, 23, 0
6, 7, 0
6, 3, 0
6, 14, 0
6, 32, 0
6, 26, 0
6, 18, 0
6, 19, 0
6, 8, 0
6, 9, 0
27, 7, 0
27, 33, 0
27, 10, 0
27, 30, 0
7, 20, 0
7, 12, 0
7, 13, 0
7, 34, 0
7, 18, 0
7, 6, 0
7, 8, 0
7, 1, 0
7, 15, 0
7, 10, 0
7, 27, 0
12, 7, 0
12, 18, 0
12, 13, 1
12, 10, 0
12, 1, 0
25, 16, 0
25, 21, 0
25, 28, 0
25, 23, 0
25, 32, 0
32, 0, 0
32, 13, 0
32, 31, 0
32, 6, 0
32, 29, 0
32, 5, 0
32, 1, 0
32, 20, 0
32, 3, 0
32, 14, 0
32, 26, 0
32, 2, 0
32, 25, 0
32, 8, 0
32, 10, 0
32, 22, 0
32, 9, 0
29, 11, 0
29, 28, 0
29, 22, 0
29, 32, 0
29, 5, 0
21, 0, 0
21, 16, 0
21, 25, 0
21, 31, 0
21, 23, 0
33, 34, 0
33, 27, 0
19, 20, 1
19, 6, 0
19, 8, 0
19, 18, 0
19, 1, 0
26, 20, 0
26, 3, 0
26, 13, 0
26, 14, 0
26, 32, 0
26, 18, 0
26, 6, 0
26, 1, 0
26, 8, 0
26, 10, 0
18, 20, 0
18, 7, 0
18, 13, 0
18, 26, 0
18, 12, 0
18, 6, 0
18, 19, 0
18, 8, 0
18, 10, 0
18, 1, 0
9, 3, 0
9, 14, 0
9, 11, 0
9, 32, 0
9, 24, 0
9, 6, 0
9, 2, 0
9, 22, 0
