0, 7, 0
0, 13, 0
0, 10, 0
0, 1, 1
13, 0, 0
13, 7, 0
13, 10, 0
13, 1, 0
3, 4, 1
3, 14, 0
3, 2, 1
3, 8, 0
3, 5, 0
3, 9, 0
6, 7, 0
6, 8, 0
6, 1, 0
8, 7, 0
8, 12, 0
8, 4, 0
8, 14, 0
8, 9, 0
8, 3, 0
8, 6, 0
8, 1, 0
8, 5, 0
8, 11, 0
8, 10, 0
5, 2, 0
5, 3, 0
5, 8, 0
5, 4, 0
5, 9, 0
11, 12, 1
11, 8, 0
11, 14, 0
11, 10, 0
10, 0, 0
10, 12, 0
10, 13, 0
10, 14, 0
10, 8, 0
10, 11, 0
10, 1, 0
7, 0, 0
7, 6, 0
7, 8, 0
7, 13, 0
7, 1, 0
12, 8, 0
12, 14, 0
12, 11, 1
12, 4, 0
12, 10, 0
4, 12, 0
4, 14, 0
4, 3, 1
4, 8, 0
4, 5, 0
4, 9, 0
14, 12, 0
14, 4, 0
14, 9, 0
14, 3, 0
14, 2, 0
14, 8, 0
14, 11, 0
14, 10, 0
2, 3, 1
2, 14, 0
2, 5, 0
2, 9, 0
1, 0, 1
1, 7, 0
1, 13, 0
1, 6, 0
1, 8, 0
1, 10, 0
9, 3, 0
9, 4, 0
9, 14, 0
9, 2, 0
9, 8, 0
9, 5, 0
