0, 7, 0
0, 14, 0
0, 5, 0
0, 11, 0
0, 1, 0
13, 7, 0
13, 12, 0
13, 11, 0
13, 2, 0
3, 7, 0
3, 6, 0
3, 8, 0
3, 4, 0
3, 11, 0
6, 7, 0
6, 3, 0
6, 11, 0
6, 2, 0
8, 7, 1
8, 3, 0
8, 4, 0
8, 11, 0
5, 0, 0
5, 12, 0
5, 7, 0
5, 11, 0
11, 0, 0
11, 13, 0
11, 3, 0
11, 6, 0
11, 5, 0
11, 1, 0
11, 7, 0
11, 12, 1
11, 4, 0
11, 14, 0
11, 2, 0
11, 8, 0
10, 4, 0
10, 9, 0
7, 0, 0
7, 13, 0
7, 12, 0
7, 6, 0
7, 5, 0
7, 11, 0
7, 1, 0
7, 3, 0
7, 4, 0
7, 14, 0
7, 2, 0
7, 8, 1
12, 7, 0
12, 13, 0
12, 5, 0
12, 11, 1
4, 7, 0
4, 3, 0
4, 8, 0
4, 10, 0
4, 11, 0
4, 9, 0
14, 0, 0
14, 7, 0
14, 11, 0
14, 1, 0
2, 7, 0
2, 6, 0
2, 13, 0
2, 11, 0
1, 0, 0
1, 7, 0
1, 14, 0
1, 11, 0
9, 4, 0
9, 10, 0
