0, 7, 0
0, 6, 0
0, 11, 0
13, 3, 0
13, 4, 0
13, 2, 0
13, 6, 0
13, 15, 0
13, 5, 0
13, 1, 0
3, 13, 0
3, 4, 0
3, 6, 0
3, 1, 1
3, 15, 0
3, 10, 0
16, 12, 0
16, 8, 0
16, 14, 0
16, 5, 0
16, 9, 0
6, 0, 0
6, 7, 0
6, 13, 0
6, 4, 0
6, 3, 0
6, 1, 0
6, 2, 0
6, 15, 0
6, 11, 0
6, 10, 0
8, 16, 0
8, 12, 0
8, 14, 0
8, 9, 1
5, 16, 0
5, 12, 0
5, 4, 0
5, 13, 0
5, 9, 0
11, 0, 0
11, 6, 0
11, 7, 0
11, 10, 0
10, 3, 0
10, 2, 0
10, 6, 0
10, 15, 0
10, 11, 0
10, 1, 0
7, 0, 0
7, 6, 0
7, 11, 0
12, 4, 0
12, 14, 0
12, 16, 0
12, 8, 0
12, 5, 0
12, 9, 0
4, 12, 0
4, 13, 0
4, 3, 0
4, 2, 0
4, 6, 0
4, 5, 0
4, 1, 0
14, 16, 0
14, 12, 0
14, 8, 0
14, 9, 0
2, 13, 0
2, 4, 0
2, 6, 0
2, 1, 1
2, 15, 0
2, 10, 0
1, 3, 1
1, 13, 0
1, 4, 0
1, 2, 1
1, 6, 0
1, 15, 0
1, 10, 0
15, 3, 0
15, 13, 0
15, 2, 0
15, 6, 0
15, 1, 0
15, 10, 0
9, 16, 0
9, 12, 0
9, 8, 1
9, 14, 0
9, 5, 0
