13, 25, 0
13, 17, 0
13, 24, 0
13, 18, 0
13, 14, 1
13, 15, 0
13, 10, 0
17, 13, 0
17, 18, 0
17, 35, 0
17, 5, 0
17, 10, 0
17, 33, 0
17, 4, 0
17, 43, 0
17, 32, 0
17, 24, 0
17, 14, 0
17, 8, 0
17, 41, 0
17, 9, 0
23, 16, 0
23, 11, 0
46, 29, 0
46, 42, 0
46, 19, 0
46, 15, 0
46, 47, 0
46, 27, 0
20, 34, 0
20, 4, 0
20, 51, 0
20, 31, 0
20, 18, 0
20, 40, 0
20, 39, 0
20, 41, 0
34, 20, 0
34, 0, 0
34, 4, 0
34, 31, 0
34, 51, 0
34, 12, 0
34, 39, 0
34, 41, 0
34, 44, 0
14, 33, 0
14, 13, 1
14, 25, 0
14, 32, 0
14, 24, 0
14, 17, 0
14, 5, 0
14, 41, 0
14, 4, 0
14, 10, 0
24, 13, 0
24, 17, 0
24, 31, 0
24, 51, 0
24, 18, 0
24, 5, 0
24, 10, 0
24, 33, 0
24, 4, 0
24, 25, 1
24, 32, 0
24, 14, 0
24, 41, 0
28, 16, 0
28, 38, 0
28, 52, 0
28, 26, 0
28, 29, 0
28, 37, 0
28, 27, 0
28, 19, 0
28, 15, 0
28, 48, 0
15, 45, 0
15, 13, 0
15, 28, 0
15, 51, 0
15, 27, 0
15, 2, 0
15, 46, 0
15, 47, 0
15, 30, 0
15, 52, 0
15, 29, 0
15, 42, 0
15, 19, 0
15, 39, 0
15, 22, 0
15, 9, 0
41, 17, 0
41, 34, 0
41, 18, 0
41, 40, 0
41, 20, 0
41, 33, 0
41, 4, 0
41, 43, 0
41, 24, 0
41, 25, 0
41, 14, 0
41, 8, 0
41, 9, 0
0, 45, 0
0, 34, 0
0, 12, 0
0, 44, 0
0, 1, 1
8, 4, 0
8, 43, 0
8, 31, 0
8, 51, 0
8, 35, 0
8, 17, 0
8, 32, 0
8, 10, 0
8, 5, 0
8, 41, 0
8, 9, 1
51, 45, 0
51, 18, 0
51, 40, 0
51, 44, 0
51, 47, 0
51, 1, 0
51, 20, 0
51, 34, 0
51, 31, 0
51, 24, 0
51, 42, 0
51, 8, 0
51, 15, 0
51, 9, 0
3, 16, 0
3, 38, 0
38, 3, 0
38, 28, 0
38, 26, 0
38, 16, 0
38, 19, 0
38, 48, 0
47, 51, 0
47, 29, 0
47, 27, 0
47, 19, 0
47, 15, 0
47, 46, 0
47, 22, 0
47, 9, 0
10, 33, 0
10, 13, 0
10, 43, 0
10, 24, 0
10, 18, 0
10, 25, 0
10, 14, 0
10, 8, 0
10, 5, 0
10, 17, 0
10, 9, 0
7, 6, 1
7, 50, 0
7, 32, 0
7, 36, 0
33, 43, 0
33, 25, 0
33, 24, 0
33, 18, 0
33, 14, 0
33, 41, 0
33, 17, 0
33, 10, 0
32, 25, 0
32, 17, 0
32, 18, 0
32, 35, 0
32, 5, 0
32, 7, 0
32, 43, 0
32, 50, 0
32, 24, 0
32, 21, 0
32, 14, 0
32, 8, 0
32, 9, 0
2, 45, 0
2, 15, 0
2, 30, 0
21, 6, 0
21, 49, 0
21, 32, 0
21, 36, 0
25, 41, 0
25, 33, 0
25, 4, 0
25, 14, 0
25, 31, 0
25, 32, 0
25, 24, 1
25, 13, 0
25, 5, 0
25, 10, 0
19, 28, 0
19, 27, 0
19, 46, 0
19, 47, 0
19, 38, 0
19, 52, 0
19, 26, 0
19, 29, 0
19, 37, 0
19, 42, 0
19, 15, 0
19, 48, 0
19, 22, 0
49, 21, 0
49, 35, 0
48, 27, 0
48, 19, 0
48, 38, 0
48, 26, 0
48, 28, 0
31, 20, 0
31, 34, 0
31, 4, 0
31, 25, 0
31, 51, 0
31, 24, 0
31, 18, 0
31, 40, 0
31, 8, 0
31, 39, 0
31, 9, 0
39, 20, 0
39, 34, 0
39, 31, 0
39, 18, 0
39, 15, 0
39, 40, 1
29, 52, 0
29, 47, 0
29, 26, 0
29, 27, 0
29, 37, 0
29, 28, 0
29, 19, 0
29, 15, 0
29, 46, 0
29, 22, 0
40, 20, 0
40, 4, 0
40, 31, 0
40, 51, 0
40, 18, 0
40, 39, 1
40, 41, 0
11, 23, 0
5, 8, 0
5, 43, 0
5, 9, 0
5, 32, 0
5, 24, 0
5, 18, 0
5, 25, 0
5, 14, 0
5, 35, 0
5, 17, 0
5, 10, 0
37, 28, 0
37, 19, 0
37, 52, 0
37, 26, 0
37, 29, 0
4, 17, 0
4, 18, 0
4, 40, 0
4, 20, 0
4, 34, 0
4, 43, 0
4, 31, 0
4, 24, 0
4, 25, 0
4, 14, 0
4, 8, 0
4, 41, 0
4, 9, 0
35, 49, 0
35, 17, 0
35, 32, 0
35, 43, 0
35, 8, 0
35, 5, 0
35, 9, 0
30, 45, 0
30, 15, 0
30, 2, 0
42, 51, 0
42, 27, 0
42, 19, 0
42, 15, 0
42, 46, 0
42, 9, 0
22, 19, 0
22, 15, 0
22, 47, 0
22, 29, 0
36, 7, 0
36, 21, 0
36, 50, 0
36, 6, 0
45, 0, 0
45, 12, 0
45, 51, 0
45, 2, 0
45, 1, 0
45, 15, 0
45, 44, 0
45, 30, 0
16, 28, 0
16, 3, 0
16, 38, 0
16, 23, 0
27, 28, 0
27, 26, 1
27, 29, 0
27, 42, 0
27, 19, 0
27, 15, 0
27, 48, 0
27, 47, 0
27, 46, 0
1, 0, 1
1, 45, 0
1, 44, 0
1, 51, 0
1, 12, 0
44, 0, 0
44, 12, 0
44, 45, 0
44, 51, 0
44, 34, 0
44, 1, 0
12, 0, 0
12, 34, 0
12, 45, 0
12, 44, 0
12, 1, 0
18, 13, 0
18, 17, 0
18, 32, 0
18, 51, 0
18, 40, 0
18, 5, 0
18, 10, 0
18, 20, 0
18, 33, 0
18, 4, 0
18, 31, 0
18, 24, 0
18, 39, 0
18, 41, 0
52, 28, 0
52, 26, 0
52, 29, 0
52, 37, 0
52, 19, 0
52, 15, 0
50, 7, 0
50, 6, 0
50, 32, 0
50, 36, 0
26, 52, 0
26, 28, 0
26, 29, 0
26, 37, 0
26, 27, 1
26, 19, 0
26, 38, 0
26, 48, 0
6, 7, 1
6, 21, 0
6, 50, 0
6, 36, 0
43, 41, 0
43, 33, 0
43, 4, 0
43, 17, 0
43, 9, 0
43, 32, 0
43, 35, 0
43, 8, 0
43, 5, 0
43, 10, 0
9, 17, 0
9, 32, 0
9, 51, 0
9, 5, 0
9, 47, 0
9, 10, 0
9, 4, 0
9, 43, 0
9, 31, 0
9, 35, 0
9, 42, 0
9, 8, 1
9, 15, 0
9, 41, 0
