0, 7, 0
0, 4, 0
0, 2, 0
0, 6, 0
0, 8, 0
0, 10, 0
0, 1, 0
6, 0, 0
6, 8, 0
6, 9, 0
6, 11, 0
6, 10, 0
1, 0, 0
1, 4, 0
1, 2, 1
5, 3, 0
11, 6, 0
11, 8, 0
11, 9, 0
10, 0, 0
10, 6, 0
10, 8, 0
10, 7, 0
7, 0, 0
7, 8, 1
7, 10, 0
3, 4, 0
3, 5, 0
3, 2, 0
4, 0, 0
4, 3, 0
4, 2, 0
4, 1, 0
2, 0, 0
2, 3, 0
2, 4, 0
2, 1, 1
8, 0, 0
8, 7, 1
8, 6, 0
8, 11, 0
8, 10, 0
9, 6, 0
9, 11, 0
