12, 20, 0
12, 21, 0
12, 17, 0
12, 16, 0
12, 25, 0
12, 15, 0
13, 4, 0
13, 31, 0
13, 27, 0
13, 9, 0
13, 5, 0
13, 1, 0
17, 21, 0
17, 12, 0
17, 16, 0
26, 7, 0
26, 3, 0
26, 6, 0
26, 18, 0
26, 27, 0
26, 8, 0
26, 11, 0
23, 4, 0
2, 27, 0
2, 4, 0
2, 31, 0
2, 9, 0
5, 27, 0
5, 13, 0
5, 31, 0
5, 1, 0
11, 0, 0
11, 28, 0
11, 18, 0
11, 6, 0
11, 30, 0
11, 7, 0
11, 3, 0
11, 14, 0
11, 26, 0
11, 27, 0
11, 25, 0
11, 19, 0
11, 8, 0
11, 10, 0
11, 22, 0
1, 27, 0
1, 13, 0
1, 5, 0
1, 31, 0
20, 12, 0
20, 15, 0
4, 13, 0
4, 31, 0
4, 23, 0
4, 24, 0
4, 27, 0
4, 2, 0
14, 0, 0
14, 7, 0
14, 11, 0
14, 27, 0
14, 6, 0
14, 8, 0
14, 22, 0
14, 10, 0
24, 27, 0
24, 4, 0
24, 31, 0
28, 0, 0
28, 7, 0
28, 25, 0
28, 29, 1
28, 6, 0
28, 8, 0
28, 10, 0
28, 11, 0
28, 27, 0
30, 7, 0
30, 6, 0
30, 18, 0
30, 27, 0
30, 8, 0
30, 11, 0
8, 0, 0
8, 28, 0
8, 27, 0
8, 11, 0
8, 30, 0
8, 7, 1
8, 14, 0
8, 26, 0
8, 25, 0
8, 19, 0
8, 10, 0
8, 22, 0
15, 20, 0
15, 12, 0
15, 25, 0
22, 0, 0
22, 7, 0
22, 14, 0
22, 27, 0
22, 29, 0
22, 6, 0
22, 19, 0
22, 8, 0
22, 11, 0
22, 10, 0
0, 28, 0
0, 22, 0
0, 29, 0
0, 6, 0
0, 14, 0
0, 8, 0
0, 11, 0
0, 27, 0
3, 19, 0
3, 26, 0
3, 11, 0
16, 21, 0
16, 12, 0
16, 17, 0
16, 10, 0
6, 0, 0
6, 7, 1
6, 28, 0
6, 11, 0
6, 26, 0
6, 14, 0
6, 19, 0
6, 30, 0
6, 25, 0
6, 22, 0
6, 10, 0
27, 0, 0
27, 13, 0
27, 28, 0
27, 26, 0
27, 18, 0
27, 1, 0
27, 2, 0
27, 5, 0
27, 11, 0
27, 30, 0
27, 4, 0
27, 14, 0
27, 31, 0
27, 24, 0
27, 19, 0
27, 8, 0
27, 22, 0
7, 11, 0
7, 25, 0
7, 26, 0
7, 28, 0
7, 6, 1
7, 14, 0
7, 8, 1
7, 30, 0
7, 19, 0
7, 22, 0
7, 10, 0
18, 27, 0
18, 26, 0
18, 11, 0
18, 30, 0
25, 7, 0
25, 12, 0
25, 28, 0
25, 29, 0
25, 21, 0
25, 6, 0
25, 8, 0
25, 15, 0
25, 11, 0
25, 10, 0
31, 13, 0
31, 9, 0
31, 4, 0
31, 2, 0
31, 27, 0
31, 24, 0
31, 5, 0
31, 1, 0
29, 0, 0
29, 25, 0
29, 19, 0
29, 28, 1
29, 22, 0
21, 16, 0
21, 12, 0
21, 17, 0
21, 25, 0
21, 10, 0
19, 7, 0
19, 3, 0
19, 11, 0
19, 29, 0
19, 6, 0
19, 8, 0
19, 22, 0
19, 27, 0
10, 7, 0
10, 21, 0
10, 28, 0
10, 11, 0
10, 16, 0
10, 6, 0
10, 14, 0
10, 8, 0
10, 25, 0
10, 22, 0
9, 13, 0
9, 31, 0
9, 2, 0
