13, 7, 0
13, 20, 0
13, 27, 0
13, 6, 0
13, 19, 0
13, 48, 0
17, 12, 0
17, 3, 0
17, 18, 1
17, 49, 0
17, 15, 0
17, 36, 0
23, 39, 0
23, 25, 0
42, 45, 0
42, 9, 0
42, 31, 0
42, 26, 0
42, 44, 0
42, 10, 0
42, 41, 0
42, 30, 0
46, 4, 0
46, 28, 0
46, 47, 1
46, 16, 0
46, 43, 0
46, 22, 0
20, 7, 0
20, 13, 0
20, 28, 0
20, 31, 0
20, 6, 0
20, 27, 0
20, 19, 0
20, 48, 0
34, 21, 0
34, 8, 0
14, 11, 0
14, 36, 0
24, 0, 0
24, 35, 0
24, 1, 0
28, 20, 0
28, 4, 0
28, 43, 0
28, 47, 0
28, 16, 0
28, 46, 0
28, 22, 0
28, 5, 0
39, 37, 0
39, 40, 0
39, 11, 0
39, 23, 0
41, 31, 0
41, 42, 0
41, 30, 0
41, 38, 0
41, 44, 0
41, 9, 0
0, 33, 0
0, 1, 0
0, 24, 0
8, 34, 0
8, 35, 0
33, 0, 0
33, 2, 0
15, 12, 0
15, 17, 0
15, 3, 0
15, 21, 0
15, 49, 0
15, 18, 0
15, 36, 0
47, 43, 0
47, 28, 0
47, 46, 1
47, 22, 0
10, 45, 0
10, 26, 0
10, 42, 0
10, 9, 1
10, 44, 0
10, 30, 0
7, 20, 0
7, 6, 1
7, 13, 0
7, 48, 0
3, 12, 0
3, 17, 0
3, 21, 0
3, 49, 0
3, 15, 0
3, 36, 0
32, 27, 0
32, 43, 0
2, 33, 0
21, 34, 0
21, 12, 0
21, 49, 0
21, 15, 0
21, 3, 0
19, 20, 0
19, 13, 0
19, 31, 0
19, 6, 0
19, 27, 0
19, 48, 0
49, 12, 0
49, 17, 0
49, 3, 0
49, 21, 0
49, 15, 0
49, 18, 0
49, 36, 0
18, 12, 0
18, 49, 0
18, 15, 0
18, 17, 1
18, 36, 0
31, 20, 0
31, 44, 0
31, 42, 0
31, 19, 0
31, 9, 0
31, 38, 0
31, 41, 0
31, 30, 0
29, 38, 0
29, 48, 0
40, 37, 0
40, 39, 0
40, 11, 0
11, 37, 0
11, 40, 0
11, 14, 0
11, 39, 0
5, 25, 0
5, 4, 0
5, 28, 0
5, 16, 0
5, 43, 0
5, 22, 0
37, 40, 0
37, 39, 0
37, 11, 0
4, 28, 0
4, 16, 0
4, 43, 0
4, 46, 0
4, 22, 0
4, 5, 0
35, 1, 0
35, 8, 0
35, 24, 0
30, 45, 0
30, 31, 0
30, 26, 0
30, 44, 0
30, 42, 0
30, 10, 0
30, 38, 0
30, 41, 0
30, 9, 0
38, 30, 0
38, 41, 0
38, 31, 0
38, 29, 0
22, 4, 0
22, 28, 0
22, 16, 0
22, 43, 0
22, 46, 0
22, 47, 0
22, 5, 0
36, 12, 0
36, 14, 0
36, 3, 0
36, 18, 0
36, 17, 0
36, 49, 0
36, 15, 0
45, 9, 0
45, 26, 0
45, 42, 0
45, 30, 0
45, 44, 1
45, 10, 0
16, 4, 0
16, 28, 0
16, 43, 0
16, 46, 0
16, 22, 0
16, 5, 0
27, 20, 0
27, 19, 0
27, 13, 0
27, 32, 0
1, 0, 0
1, 35, 0
1, 24, 0
44, 45, 1
44, 31, 0
44, 26, 0
44, 42, 0
44, 30, 0
44, 10, 0
44, 41, 0
44, 9, 0
48, 20, 0
48, 7, 0
48, 13, 0
48, 29, 0
48, 6, 0
48, 19, 0
12, 3, 0
12, 17, 0
12, 21, 0
12, 49, 0
12, 15, 0
12, 18, 0
12, 36, 0
25, 5, 0
25, 23, 0
26, 45, 0
26, 42, 0
26, 9, 0
26, 44, 0
26, 10, 0
26, 30, 0
6, 7, 1
6, 20, 0
6, 19, 0
6, 13, 0
6, 48, 0
43, 4, 0
43, 28, 0
43, 22, 0
43, 32, 0
43, 16, 0
43, 5, 0
43, 47, 0
43, 46, 0
9, 41, 0
9, 45, 0
9, 31, 0
9, 26, 0
9, 42, 0
9, 10, 1
9, 44, 0
9, 30, 0
