0, 13, 0
0, 10, 0
13, 0, 0
13, 1, 0
13, 4, 0
13, 10, 0
3, 11, 0
3, 9, 0
6, 8, 0
6, 2, 0
8, 6, 0
8, 11, 0
8, 9, 0
5, 7, 0
5, 12, 0
5, 9, 0
11, 3, 0
11, 8, 0
10, 0, 0
10, 13, 0
10, 4, 0
10, 1, 0
7, 12, 0
7, 4, 0
7, 9, 0
7, 5, 0
7, 1, 0
12, 7, 0
12, 5, 0
4, 7, 0
4, 13, 0
4, 10, 0
4, 1, 0
2, 6, 0
1, 7, 0
1, 13, 0
1, 4, 0
1, 10, 0
9, 7, 0
9, 3, 0
9, 8, 0
9, 5, 0
