0, 3, 0
0, 14, 0
13, 7, 0
13, 2, 0
13, 6, 0
13, 10, 0
13, 11, 0
13, 9, 0
3, 0, 0
3, 8, 0
3, 5, 0
3, 4, 0
6, 13, 0
6, 2, 0
8, 3, 0
8, 4, 0
8, 5, 0
5, 3, 0
5, 8, 0
5, 4, 0
5, 2, 0
11, 7, 0
11, 12, 1
11, 13, 0
11, 10, 0
11, 9, 0
10, 7, 0
10, 13, 0
10, 11, 0
10, 9, 1
7, 13, 0
7, 9, 0
7, 11, 0
7, 10, 0
12, 11, 1
4, 3, 0
4, 8, 0
4, 5, 0
14, 0, 0
14, 1, 0
2, 6, 0
2, 13, 0
2, 5, 0
1, 14, 0
9, 7, 0
9, 13, 0
9, 11, 0
9, 10, 1
