0, 6, 0
0, 8, 0
0, 5, 0
0, 2, 0
13, 7, 0
13, 12, 1
13, 3, 0
3, 7, 0
3, 12, 0
3, 13, 0
3, 14, 0
3, 4, 0
3, 8, 0
3, 9, 0
6, 0, 0
6, 5, 0
8, 0, 0
8, 3, 0
8, 4, 0
8, 2, 0
8, 1, 0
8, 5, 0
8, 10, 0
5, 0, 0
5, 6, 0
5, 8, 0
5, 2, 0
11, 4, 0
11, 10, 1
11, 1, 0
10, 4, 0
10, 8, 0
10, 11, 1
10, 1, 0
7, 12, 0
7, 13, 0
7, 14, 0
7, 9, 0
7, 3, 0
12, 7, 0
12, 3, 0
12, 13, 1
12, 14, 1
4, 3, 0
4, 9, 0
4, 1, 0
4, 8, 0
4, 11, 0
4, 10, 0
14, 7, 0
14, 12, 1
14, 3, 0
2, 0, 0
2, 8, 0
2, 5, 0
1, 8, 0
1, 9, 0
1, 11, 0
1, 4, 0
1, 10, 0
9, 7, 0
9, 3, 0
9, 4, 0
9, 1, 0
