0, 19, 0
0, 1, 0
13, 14, 0
13, 15, 0
13, 17, 0
17, 14, 0
17, 13, 0
17, 15, 0
17, 4, 0
17, 12, 0
3, 16, 0
3, 7, 0
3, 8, 0
3, 18, 0
3, 11, 0
16, 7, 0
16, 12, 0
16, 8, 0
16, 3, 0
6, 18, 0
6, 10, 0
6, 5, 0
6, 9, 0
8, 16, 0
8, 12, 0
8, 7, 0
8, 3, 0
5, 2, 0
5, 18, 0
5, 6, 0
5, 19, 0
5, 9, 0
5, 10, 0
11, 18, 0
11, 3, 0
10, 6, 0
10, 5, 0
10, 9, 1
7, 16, 0
7, 12, 0
7, 8, 0
7, 3, 0
12, 16, 0
12, 7, 0
12, 8, 0
12, 17, 0
12, 4, 0
4, 12, 0
4, 17, 0
14, 15, 1
14, 13, 0
14, 17, 0
2, 19, 0
2, 5, 0
19, 0, 0
19, 2, 0
19, 5, 0
19, 1, 0
1, 0, 0
1, 19, 0
15, 14, 1
15, 13, 0
15, 17, 0
18, 6, 0
18, 9, 0
18, 5, 0
18, 11, 0
18, 3, 0
9, 18, 0
9, 6, 0
9, 5, 0
9, 10, 1
