13, 7, 0
13, 50, 0
13, 2, 0
17, 8, 0
17, 15, 0
17, 4, 0
17, 36, 0
23, 40, 0
23, 31, 0
42, 21, 0
42, 12, 0
42, 41, 1
42, 6, 0
46, 12, 0
46, 39, 0
46, 35, 0
20, 34, 0
20, 14, 0
20, 11, 0
34, 20, 0
34, 40, 0
34, 28, 0
14, 20, 0
14, 22, 0
14, 11, 0
24, 7, 0
24, 0, 0
24, 29, 0
24, 50, 0
24, 1, 0
28, 34, 0
28, 31, 0
39, 46, 0
39, 10, 0
41, 12, 0
41, 6, 0
41, 42, 1
0, 16, 0
0, 37, 0
0, 1, 1
0, 50, 0
0, 24, 0
8, 17, 0
8, 15, 0
8, 26, 0
8, 36, 0
51, 38, 0
51, 26, 0
33, 27, 0
33, 4, 0
33, 30, 0
15, 8, 0
15, 17, 0
15, 26, 0
15, 36, 0
47, 49, 0
47, 9, 0
47, 10, 0
10, 39, 0
10, 47, 0
7, 13, 0
7, 24, 0
3, 5, 0
3, 22, 0
32, 18, 0
32, 45, 0
2, 13, 0
2, 25, 0
2, 44, 0
21, 6, 0
21, 25, 0
21, 44, 0
21, 42, 0
19, 18, 1
19, 48, 0
19, 5, 0
49, 38, 0
49, 47, 0
49, 9, 0
18, 45, 0
18, 19, 1
18, 48, 0
18, 32, 0
18, 5, 0
31, 40, 0
31, 28, 0
31, 23, 0
29, 37, 0
29, 43, 0
29, 50, 0
29, 24, 0
29, 16, 0
29, 1, 0
40, 34, 0
40, 31, 0
40, 23, 0
11, 20, 0
11, 14, 0
11, 22, 0
5, 18, 0
5, 3, 0
5, 19, 0
5, 48, 0
37, 0, 0
37, 16, 0
37, 43, 0
37, 29, 0
4, 33, 0
4, 17, 0
4, 27, 0
4, 30, 0
35, 12, 0
35, 46, 0
30, 33, 0
30, 4, 0
30, 27, 0
38, 49, 0
38, 51, 0
38, 9, 0
22, 3, 0
22, 14, 0
22, 11, 0
36, 17, 0
36, 8, 0
36, 15, 0
36, 26, 0
45, 18, 0
45, 43, 0
45, 32, 0
16, 0, 0
16, 43, 0
16, 50, 0
16, 29, 0
16, 37, 0
16, 1, 0
27, 33, 0
27, 4, 0
27, 30, 0
1, 0, 1
1, 16, 0
1, 29, 0
1, 50, 0
1, 24, 0
44, 21, 0
44, 25, 0
44, 2, 0
48, 18, 0
48, 19, 0
48, 5, 0
12, 46, 0
12, 42, 0
12, 41, 0
12, 35, 0
25, 21, 0
25, 44, 0
25, 2, 0
50, 0, 0
50, 13, 0
50, 29, 0
50, 16, 0
50, 24, 0
50, 1, 0
26, 8, 0
26, 15, 0
26, 51, 0
26, 36, 0
6, 21, 0
6, 42, 0
6, 41, 0
43, 37, 0
43, 45, 0
43, 16, 0
43, 29, 0
9, 49, 0
9, 38, 0
9, 47, 0
