0, 3, 0
0, 4, 0
0, 2, 0
0, 6, 0
0, 5, 0
0, 1, 0
3, 0, 0
3, 7, 0
3, 8, 0
3, 5, 0
4, 0, 0
4, 6, 0
4, 1, 0
4, 5, 0
4, 2, 0
7, 3, 0
7, 8, 0
7, 5, 0
2, 0, 0
2, 6, 0
2, 4, 0
2, 5, 0
2, 1, 1
6, 0, 0
6, 1, 0
6, 4, 0
6, 5, 0
6, 2, 0
8, 7, 0
8, 3, 0
5, 0, 0
5, 3, 0
5, 4, 0
5, 2, 0
5, 6, 0
5, 7, 0
5, 1, 0
1, 0, 0
1, 6, 0
1, 4, 0
1, 5, 0
1, 2, 1
