0, 7, 0
0, 3, 0
0, 4, 0
0, 13, 0
0, 2, 0
0, 6, 0
0, 1, 0
0, 10, 0
0, 5, 0
0, 11, 0
0, 9, 0
13, 0, 0
13, 3, 0
13, 4, 0
13, 6, 0
13, 5, 0
13, 11, 0
13, 10, 0
3, 0, 0
3, 13, 0
3, 4, 0
3, 6, 0
3, 5, 0
3, 11, 0
3, 10, 0
6, 0, 0
6, 12, 0
6, 13, 0
6, 4, 0
6, 3, 0
6, 5, 0
6, 7, 0
6, 11, 0
6, 1, 0
8, 7, 0
8, 12, 0
8, 2, 0
8, 9, 1
8, 1, 0
5, 0, 0
5, 3, 0
5, 13, 0
5, 4, 1
5, 6, 0
5, 11, 0
5, 10, 0
11, 0, 0
11, 3, 0
11, 13, 0
11, 4, 0
11, 12, 0
11, 6, 0
11, 2, 0
11, 5, 0
11, 10, 1
10, 0, 0
10, 3, 0
10, 13, 0
10, 4, 0
10, 5, 0
10, 11, 1
7, 0, 0
7, 12, 0
7, 2, 0
7, 6, 0
7, 1, 0
7, 8, 0
7, 9, 0
12, 7, 0
12, 2, 0
12, 6, 0
12, 1, 0
12, 8, 0
12, 11, 0
12, 9, 0
4, 0, 0
4, 3, 0
4, 13, 0
4, 6, 0
4, 5, 1
4, 11, 0
4, 10, 0
2, 0, 0
2, 12, 0
2, 7, 0
2, 1, 0
2, 8, 0
2, 11, 0
2, 9, 0
1, 0, 0
1, 12, 0
1, 7, 0
1, 2, 0
1, 6, 0
1, 8, 0
1, 9, 0
9, 0, 0
9, 12, 0
9, 7, 0
9, 2, 0
9, 8, 1
9, 1, 0
