0, 3, 0
0, 5, 0
0, 10, 0
8, 7, 1
8, 11, 0
3, 0, 0
3, 12, 0
3, 4, 0
3, 6, 0
3, 1, 0
3, 5, 0
3, 10, 0
6, 12, 0
6, 4, 0
6, 9, 0
6, 3, 0
6, 1, 0
5, 0, 0
5, 3, 0
5, 10, 0
11, 7, 0
11, 2, 0
11, 8, 0
11, 1, 0
10, 0, 0
10, 12, 0
10, 4, 0
10, 5, 0
10, 3, 0
7, 8, 1
7, 11, 0
12, 3, 0
12, 6, 0
12, 4, 0
12, 10, 0
4, 12, 0
4, 9, 0
4, 3, 0
4, 10, 0
4, 6, 0
2, 11, 0
2, 1, 0
1, 6, 0
1, 3, 0
1, 11, 0
1, 2, 0
9, 6, 0
9, 4, 0
