0, 6, 0
0, 8, 0
0, 1, 0
0, 9, 0
0, 2, 0
3, 7, 0
3, 4, 1
3, 2, 0
4, 7, 0
4, 3, 1
4, 5, 1
4, 2, 0
2, 0, 0
2, 3, 0
2, 4, 0
2, 6, 0
2, 7, 0
2, 5, 0
6, 0, 0
6, 7, 0
6, 1, 0
6, 9, 0
6, 2, 0
1, 0, 0
1, 6, 0
1, 8, 0
1, 9, 0
8, 0, 0
8, 1, 0
8, 9, 1
5, 7, 0
5, 4, 1
5, 2, 0
7, 3, 0
7, 6, 0
7, 4, 0
7, 5, 0
7, 2, 0
9, 0, 0
9, 6, 0
9, 8, 1
9, 1, 0
