2, 3, 1
2, 19, 0
2, 28, 0
13, 6, 0
13, 8, 0
13, 26, 0
13, 27, 0
17, 0, 0
17, 6, 0
17, 4, 0
17, 5, 0
17, 29, 0
23, 4, 0
23, 15, 0
23, 24, 1
29, 0, 0
29, 6, 0
29, 17, 0
29, 5, 0
5, 0, 0
5, 4, 0
5, 17, 0
5, 29, 0
5, 6, 0
5, 15, 0
11, 18, 0
11, 12, 0
11, 14, 0
11, 10, 0
1, 21, 0
1, 14, 0
1, 25, 0
1, 10, 0
20, 16, 0
20, 7, 0
20, 19, 1
4, 15, 0
4, 17, 0
4, 5, 0
4, 23, 0
4, 24, 0
14, 21, 0
14, 10, 0
14, 25, 0
14, 11, 0
14, 1, 0
24, 4, 0
24, 15, 0
24, 23, 1
28, 3, 0
28, 2, 0
8, 6, 0
8, 13, 0
8, 26, 0
15, 4, 0
15, 5, 0
15, 23, 0
15, 24, 0
22, 7, 0
22, 12, 0
0, 6, 0
0, 17, 0
0, 5, 0
0, 29, 0
12, 7, 0
12, 18, 0
12, 22, 0
12, 11, 0
16, 20, 0
16, 7, 0
16, 19, 0
6, 0, 0
6, 13, 0
6, 17, 0
6, 29, 0
6, 27, 0
6, 8, 0
6, 5, 0
10, 14, 0
10, 11, 0
10, 1, 0
7, 16, 0
7, 20, 0
7, 19, 0
7, 22, 0
7, 12, 0
3, 28, 0
3, 2, 1
25, 21, 0
25, 14, 0
25, 1, 0
26, 27, 1
26, 8, 0
26, 13, 0
26, 9, 0
27, 6, 0
27, 13, 0
27, 26, 1
27, 9, 0
21, 14, 0
21, 9, 0
21, 25, 0
21, 1, 0
19, 20, 1
19, 7, 0
19, 16, 0
19, 2, 0
18, 12, 0
18, 11, 0
9, 21, 0
9, 27, 0
9, 26, 0
