0, 7, 0
0, 6, 0
0, 8, 0
0, 5, 0
0, 11, 0
0, 9, 0
8, 0, 0
8, 7, 0
8, 9, 0
8, 6, 0
8, 10, 0
8, 11, 0
8, 1, 0
3, 7, 0
3, 4, 1
3, 5, 0
3, 9, 0
6, 0, 0
6, 7, 0
6, 9, 0
6, 8, 0
6, 11, 0
6, 1, 0
5, 0, 0
5, 7, 0
5, 4, 0
5, 3, 0
5, 9, 0
11, 0, 0
11, 7, 0
11, 9, 0
11, 2, 0
11, 6, 0
11, 8, 0
11, 1, 0
10, 12, 0
10, 8, 0
10, 1, 0
7, 0, 0
7, 3, 0
7, 4, 0
7, 6, 0
7, 8, 0
7, 5, 0
7, 11, 0
7, 9, 0
12, 2, 0
12, 10, 0
12, 1, 0
4, 7, 0
4, 3, 1
4, 5, 0
4, 9, 0
2, 12, 0
2, 11, 0
2, 1, 0
1, 12, 0
1, 9, 0
1, 2, 0
1, 6, 0
1, 8, 0
1, 11, 0
1, 10, 0
9, 0, 0
9, 7, 0
9, 4, 0
9, 3, 0
9, 6, 0
9, 8, 0
9, 5, 0
9, 11, 0
9, 1, 0
