0, 6, 0
0, 2, 0
0, 1, 0
3, 6, 0
3, 8, 0
3, 4, 0
3, 2, 0
4, 7, 0
4, 3, 0
4, 8, 0
4, 5, 0
4, 2, 0
7, 4, 0
7, 5, 0
2, 0, 0
2, 3, 0
2, 8, 0
2, 4, 0
2, 6, 0
6, 0, 0
6, 3, 0
6, 2, 0
8, 3, 0
8, 4, 0
8, 2, 0
5, 7, 0
5, 4, 0
1, 0, 0
