0, 12, 0
0, 11, 0
0, 1, 1
8, 3, 0
8, 4, 0
8, 9, 0
8, 11, 0
8, 10, 0
3, 8, 0
3, 4, 1
3, 10, 0
6, 7, 0
6, 5, 0
6, 2, 0
5, 7, 0
5, 6, 0
5, 10, 0
5, 2, 0
11, 0, 0
11, 12, 0
11, 8, 0
11, 9, 0
11, 1, 0
10, 3, 0
10, 8, 0
10, 5, 0
10, 4, 0
10, 2, 0
7, 6, 0
7, 5, 0
7, 2, 0
12, 0, 0
12, 11, 0
12, 1, 0
4, 3, 1
4, 8, 0
4, 10, 0
2, 7, 0
2, 6, 0
2, 5, 0
2, 10, 0
1, 0, 1
1, 12, 0
1, 11, 0
9, 8, 0
9, 11, 0
