0, 2, 0
0, 6, 0
0, 8, 0
0, 10, 0
0, 9, 0
3, 6, 0
3, 9, 0
4, 1, 0
4, 5, 1
4, 2, 0
2, 0, 0
2, 1, 0
2, 4, 0
2, 5, 0
2, 10, 0
6, 0, 0
6, 3, 0
6, 8, 0
6, 9, 0
1, 7, 0
1, 4, 0
1, 5, 0
1, 2, 0
8, 0, 0
8, 6, 0
8, 9, 1
5, 7, 0
5, 1, 0
5, 4, 1
5, 2, 0
7, 5, 0
7, 1, 0
10, 0, 0
10, 2, 0
9, 0, 0
9, 6, 0
9, 8, 1
9, 3, 0
