0, 6, 0
0, 1, 0
0, 13, 0
0, 9, 0
13, 0, 0
13, 6, 0
13, 1, 0
13, 9, 0
3, 7, 0
3, 8, 0
3, 2, 0
6, 0, 0
6, 13, 0
8, 7, 0
8, 3, 0
5, 12, 0
5, 4, 0
5, 1, 0
11, 4, 0
11, 10, 0
11, 2, 0
10, 4, 0
10, 11, 0
7, 3, 0
7, 8, 0
12, 4, 0
12, 5, 0
12, 9, 0
4, 12, 0
4, 2, 0
4, 9, 0
4, 5, 0
4, 11, 0
4, 10, 0
2, 3, 0
2, 4, 0
2, 11, 0
1, 0, 0
1, 13, 0
1, 5, 0
1, 9, 0
9, 0, 0
9, 12, 0
9, 13, 0
9, 4, 0
9, 1, 0
