0, 1, 0
0, 5, 0
0, 2, 0
6, 7, 1
6, 3, 0
6, 8, 0
6, 11, 0
6, 9, 0
1, 0, 0
1, 5, 0
5, 0, 0
5, 2, 0
5, 1, 0
11, 7, 0
11, 3, 0
11, 4, 0
11, 6, 0
11, 8, 0
11, 9, 0
10, 2, 0
10, 9, 0
7, 6, 1
7, 8, 0
7, 11, 0
7, 3, 0
3, 7, 0
3, 4, 0
3, 6, 0
3, 8, 0
3, 11, 0
3, 9, 0
4, 3, 0
4, 11, 0
4, 9, 0
2, 0, 0
2, 5, 0
2, 10, 0
8, 7, 0
8, 6, 0
8, 11, 0
8, 3, 0
9, 6, 0
9, 4, 0
9, 3, 0
9, 11, 0
9, 10, 0
