0, 7, 0
0, 12, 0
0, 13, 0
0, 9, 0
0, 4, 0
0, 3, 0
0, 8, 0
0, 11, 0
0, 10, 0
13, 0, 0
13, 3, 0
13, 9, 0
13, 12, 0
13, 8, 0
13, 11, 0
13, 10, 0
3, 0, 0
3, 13, 0
3, 9, 0
3, 6, 0
3, 8, 0
3, 5, 0
3, 10, 0
6, 3, 0
6, 8, 0
6, 5, 0
6, 10, 0
8, 0, 0
8, 3, 0
8, 13, 0
8, 6, 0
8, 10, 0
8, 9, 1
5, 6, 0
5, 3, 0
11, 0, 0
11, 12, 0
11, 13, 0
11, 4, 0
11, 2, 0
11, 10, 0
11, 7, 0
11, 1, 0
10, 0, 0
10, 12, 0
10, 13, 0
10, 3, 0
10, 6, 0
10, 8, 0
10, 7, 0
10, 11, 0
7, 0, 0
7, 12, 0
7, 11, 0
7, 10, 0
12, 0, 0
12, 7, 0
12, 13, 0
12, 11, 0
12, 10, 0
4, 0, 0
4, 2, 0
4, 11, 0
4, 1, 0
2, 4, 0
2, 11, 0
2, 1, 1
1, 4, 0
1, 11, 0
1, 2, 1
9, 0, 0
9, 3, 0
9, 8, 1
9, 13, 0
