12, 16, 0
12, 7, 0
12, 17, 0
12, 31, 0
12, 29, 0
13, 33, 0
13, 4, 0
13, 25, 0
13, 24, 0
13, 10, 0
13, 5, 0
13, 1, 0
17, 16, 1
17, 12, 0
17, 29, 0
31, 7, 0
31, 12, 0
31, 35, 0
31, 2, 0
31, 11, 0
31, 36, 0
23, 4, 0
23, 28, 0
24, 33, 0
24, 13, 0
24, 5, 0
24, 4, 0
24, 1, 0
5, 0, 0
5, 13, 0
5, 28, 0
5, 3, 0
5, 34, 0
5, 29, 0
5, 1, 0
5, 20, 0
5, 33, 0
5, 4, 0
5, 14, 0
5, 32, 0
5, 24, 0
5, 25, 0
5, 30, 0
5, 10, 0
11, 29, 0
11, 35, 0
11, 36, 0
11, 31, 0
11, 2, 0
1, 33, 0
1, 13, 0
1, 25, 0
1, 4, 0
1, 24, 0
1, 5, 0
20, 25, 0
20, 27, 0
20, 30, 0
20, 8, 0
20, 15, 0
20, 5, 0
20, 9, 0
21, 25, 0
21, 3, 0
21, 15, 0
21, 27, 0
21, 30, 0
4, 13, 0
4, 28, 0
4, 23, 0
4, 24, 0
4, 25, 0
4, 5, 0
4, 1, 0
14, 34, 0
14, 25, 0
14, 33, 0
14, 29, 0
14, 5, 0
14, 10, 0
35, 36, 0
35, 31, 0
35, 11, 0
35, 2, 0
28, 4, 0
28, 25, 0
28, 23, 0
28, 26, 0
28, 37, 0
28, 6, 0
28, 5, 0
30, 20, 0
30, 3, 0
30, 21, 0
30, 27, 0
30, 15, 0
30, 5, 0
8, 20, 0
8, 27, 0
8, 15, 0
15, 20, 0
15, 27, 0
15, 8, 0
15, 21, 0
15, 30, 0
22, 18, 0
22, 19, 0
22, 25, 0
22, 9, 0
36, 35, 0
36, 31, 0
36, 11, 0
36, 2, 0
0, 37, 0
0, 6, 0
0, 5, 0
0, 26, 0
0, 32, 0
6, 37, 0
6, 0, 0
6, 28, 0
6, 26, 0
3, 21, 0
3, 25, 0
3, 5, 0
3, 32, 0
3, 30, 0
16, 12, 0
16, 17, 1
16, 29, 0
27, 20, 0
27, 25, 0
27, 21, 0
27, 8, 0
27, 15, 0
27, 30, 0
10, 34, 0
10, 13, 0
10, 14, 0
10, 33, 0
10, 29, 0
10, 25, 0
10, 5, 0
7, 12, 0
7, 31, 0
34, 25, 0
34, 10, 0
34, 14, 0
34, 5, 0
34, 29, 0
25, 13, 0
25, 28, 0
25, 3, 0
25, 34, 0
25, 27, 0
25, 5, 0
25, 10, 0
25, 20, 0
25, 33, 0
25, 4, 0
25, 14, 0
25, 32, 0
25, 29, 0
25, 21, 0
25, 37, 0
25, 1, 0
25, 22, 0
33, 13, 0
33, 14, 0
33, 24, 0
33, 25, 0
33, 10, 0
33, 5, 0
33, 1, 0
32, 0, 0
32, 3, 0
32, 25, 0
32, 26, 0
32, 37, 0
32, 5, 0
2, 36, 0
2, 31, 0
2, 11, 0
2, 35, 0
37, 0, 0
37, 25, 0
37, 28, 0
37, 32, 0
37, 26, 0
37, 6, 0
29, 34, 0
29, 17, 0
29, 14, 0
29, 12, 0
29, 16, 0
29, 25, 0
29, 5, 0
29, 11, 0
29, 10, 0
19, 18, 1
19, 22, 0
26, 37, 0
26, 6, 0
26, 28, 0
26, 32, 0
26, 0, 0
18, 19, 1
18, 22, 0
9, 20, 0
9, 22, 0
