0, 12, 0
0, 13, 0
0, 4, 0
0, 3, 0
0, 6, 0
0, 2, 0
0, 1, 0
13, 0, 0
13, 12, 1
13, 4, 0
13, 2, 0
3, 0, 0
3, 6, 0
3, 2, 0
3, 1, 0
6, 0, 0
6, 12, 0
6, 4, 0
6, 3, 0
6, 1, 0
8, 7, 1
8, 4, 0
8, 2, 0
8, 10, 0
8, 5, 0
8, 9, 0
5, 7, 0
5, 4, 0
5, 9, 0
5, 2, 0
5, 8, 0
5, 10, 0
11, 7, 0
11, 10, 1
10, 7, 0
10, 8, 0
10, 5, 0
10, 11, 1
10, 9, 1
7, 4, 0
7, 9, 0
7, 2, 0
7, 8, 1
7, 5, 0
7, 11, 0
7, 10, 0
12, 0, 0
12, 6, 0
12, 13, 1
12, 4, 0
4, 0, 0
4, 12, 0
4, 13, 0
4, 2, 0
4, 6, 0
4, 8, 0
4, 5, 0
4, 7, 0
4, 9, 0
2, 0, 0
2, 7, 0
2, 13, 0
2, 4, 0
2, 3, 0
2, 8, 0
2, 5, 0
2, 1, 0
1, 0, 0
1, 6, 0
1, 2, 0
1, 3, 0
9, 7, 0
9, 8, 0
9, 5, 0
9, 4, 0
9, 10, 1
