0, 3, 0
0, 4, 0
0, 5, 0
3, 0, 0
3, 7, 0
3, 4, 0
3, 5, 0
4, 0, 0
4, 3, 0
4, 5, 0
4, 6, 0
7, 3, 0
7, 1, 0
7, 8, 0
7, 5, 0
7, 2, 0
2, 7, 0
2, 8, 0
2, 1, 0
6, 4, 0
8, 7, 0
8, 2, 0
5, 0, 0
5, 3, 0
5, 7, 0
5, 4, 0
1, 7, 0
1, 2, 0
