0, 3, 0
0, 4, 0
0, 2, 0
0, 1, 0
0, 8, 0
0, 9, 0
3, 0, 0
3, 2, 0
3, 9, 0
3, 4, 1
3, 1, 0
4, 0, 0
4, 3, 1
4, 1, 0
4, 9, 0
2, 7, 0
2, 3, 0
2, 6, 0
2, 1, 0
2, 8, 0
2, 0, 0
2, 5, 0
2, 9, 0
6, 7, 0
6, 8, 0
6, 5, 1
6, 2, 0
1, 0, 0
1, 3, 0
1, 4, 0
1, 2, 0
1, 8, 0
1, 9, 0
8, 0, 0
8, 7, 0
8, 6, 0
8, 1, 0
8, 2, 0
5, 7, 0
5, 6, 1
5, 2, 0
7, 6, 0
7, 8, 0
7, 5, 0
7, 2, 0
9, 0, 0
9, 3, 0
9, 1, 0
9, 4, 0
9, 2, 0
