13, 24, 0
13, 9, 0
13, 10, 0
17, 7, 0
17, 23, 0
17, 18, 1
17, 19, 0
17, 8, 0
17, 22, 0
23, 7, 0
23, 17, 0
23, 18, 0
23, 19, 0
23, 8, 0
23, 22, 1
5, 0, 0
5, 4, 1
5, 14, 0
11, 12, 0
1, 16, 0
1, 12, 0
20, 21, 1
20, 7, 0
20, 15, 0
4, 0, 0
4, 14, 0
4, 5, 1
14, 0, 0
14, 3, 0
14, 4, 0
14, 5, 0
14, 2, 0
24, 0, 0
24, 6, 0
24, 13, 0
24, 10, 0
8, 7, 0
8, 17, 0
8, 23, 0
8, 18, 0
8, 19, 0
8, 15, 0
8, 22, 0
15, 20, 0
15, 16, 0
15, 8, 0
15, 7, 0
15, 21, 0
22, 19, 0
22, 8, 0
22, 17, 0
22, 23, 1
0, 4, 0
0, 14, 0
0, 24, 0
0, 6, 0
0, 5, 0
0, 10, 0
3, 14, 0
3, 2, 0
16, 15, 0
16, 1, 0
6, 0, 0
6, 10, 0
6, 24, 0
10, 0, 0
10, 6, 0
10, 13, 0
10, 24, 0
7, 20, 0
7, 17, 0
7, 23, 0
7, 21, 0
7, 19, 0
7, 8, 0
7, 15, 0
12, 11, 0
12, 1, 0
2, 3, 0
2, 19, 0
2, 14, 0
21, 20, 1
21, 7, 0
21, 15, 0
19, 7, 0
19, 17, 0
19, 23, 0
19, 2, 0
19, 18, 0
19, 8, 0
19, 22, 0
18, 19, 0
18, 8, 0
18, 17, 1
18, 23, 0
9, 13, 0
