0, 2, 0
0, 3, 0
0, 9, 0
0, 10, 0
0, 1, 0
13, 7, 0
13, 4, 0
13, 8, 0
13, 11, 0
13, 10, 0
3, 7, 0
3, 0, 0
3, 4, 1
3, 2, 1
3, 1, 0
3, 8, 0
3, 11, 0
3, 10, 0
6, 12, 0
6, 8, 0
6, 5, 1
8, 12, 0
8, 13, 0
8, 3, 0
8, 4, 0
8, 2, 0
8, 6, 0
8, 10, 0
8, 5, 0
8, 1, 0
5, 12, 0
5, 8, 0
5, 6, 1
11, 7, 0
11, 3, 0
11, 13, 0
11, 4, 0
11, 2, 0
11, 1, 0
11, 10, 0
10, 0, 0
10, 3, 0
10, 13, 0
10, 4, 0
10, 2, 0
10, 1, 0
10, 8, 0
10, 7, 0
10, 11, 0
10, 9, 0
7, 3, 0
7, 13, 0
7, 2, 0
7, 9, 0
7, 10, 0
7, 11, 0
7, 1, 0
12, 6, 0
12, 8, 0
12, 5, 0
4, 3, 1
4, 13, 0
4, 8, 0
4, 10, 0
4, 11, 0
4, 1, 0
2, 7, 0
2, 3, 1
2, 0, 0
2, 8, 0
2, 10, 0
2, 11, 0
2, 1, 0
1, 0, 0
1, 7, 0
1, 4, 0
1, 3, 0
1, 2, 0
1, 8, 0
1, 11, 0
1, 10, 0
9, 0, 0
9, 7, 0
9, 10, 0
