0, 8, 0
0, 14, 0
0, 11, 0
0, 1, 1
13, 4, 0
13, 11, 0
3, 7, 0
3, 12, 0
3, 6, 0
3, 9, 0
3, 5, 0
3, 10, 0
6, 7, 0
6, 3, 0
6, 9, 0
6, 5, 1
6, 2, 0
8, 0, 0
8, 14, 0
8, 11, 0
8, 1, 0
5, 7, 0
5, 6, 1
5, 9, 0
5, 3, 0
5, 2, 0
11, 0, 0
11, 8, 0
11, 13, 0
11, 1, 0
10, 12, 0
10, 3, 0
7, 2, 0
7, 6, 0
7, 9, 0
7, 5, 0
7, 3, 0
12, 3, 0
12, 10, 0
4, 13, 0
4, 9, 0
14, 0, 0
14, 8, 0
14, 1, 0
2, 7, 0
2, 6, 0
2, 5, 0
2, 9, 0
1, 0, 1
1, 8, 0
1, 14, 0
1, 11, 0
9, 7, 0
9, 3, 0
9, 4, 0
9, 2, 0
9, 6, 0
9, 5, 0
