0, 7, 0
0, 3, 0
0, 4, 0
0, 6, 0
0, 8, 0
0, 10, 0
0, 11, 0
0, 9, 0
6, 0, 0
6, 7, 1
6, 3, 0
6, 9, 0
6, 11, 0
6, 10, 0
1, 3, 0
1, 5, 0
1, 2, 0
5, 3, 0
5, 2, 0
5, 11, 0
5, 1, 0
11, 0, 0
11, 3, 0
11, 7, 0
11, 9, 0
11, 2, 0
11, 6, 0
11, 8, 0
11, 5, 0
11, 10, 0
10, 0, 0
10, 7, 0
10, 6, 0
10, 8, 0
10, 11, 0
10, 9, 0
7, 0, 0
7, 3, 0
7, 9, 0
7, 6, 1
7, 8, 1
7, 11, 0
7, 10, 0
3, 0, 0
3, 7, 0
3, 2, 0
3, 6, 0
3, 8, 0
3, 5, 0
3, 11, 0
3, 1, 0
4, 0, 0
4, 9, 0
2, 3, 0
2, 5, 0
2, 11, 0
2, 1, 0
8, 0, 0
8, 7, 1
8, 3, 0
8, 9, 0
8, 11, 0
8, 10, 0
9, 0, 0
9, 7, 0
9, 4, 0
9, 6, 0
9, 8, 0
9, 11, 0
9, 10, 0
