0, 2, 0
0, 3, 0
0, 9, 0
0, 1, 0
3, 0, 0
3, 9, 0
3, 2, 1
4, 7, 0
4, 6, 0
4, 1, 0
2, 0, 0
2, 3, 1
2, 9, 0
6, 4, 0
1, 0, 0
1, 7, 0
1, 4, 0
8, 5, 0
8, 10, 0
5, 8, 0
5, 10, 0
5, 9, 0
7, 4, 0
7, 1, 0
10, 8, 0
10, 5, 0
9, 0, 0
9, 3, 0
9, 5, 0
9, 2, 0
