13, 19, 0
13, 4, 0
13, 10, 0
13, 9, 0
17, 33, 0
17, 43, 0
17, 23, 0
17, 2, 0
17, 16, 1
17, 28, 0
17, 27, 0
17, 40, 0
17, 18, 1
17, 22, 0
17, 44, 0
23, 2, 0
23, 17, 0
23, 3, 0
23, 16, 0
23, 35, 0
23, 44, 0
23, 11, 0
23, 46, 0
23, 33, 0
23, 43, 0
23, 24, 1
23, 21, 0
23, 25, 1
23, 38, 0
23, 22, 1
23, 36, 0
46, 23, 0
46, 33, 0
46, 39, 0
46, 40, 0
46, 44, 0
46, 20, 0
46, 3, 0
46, 43, 0
46, 50, 0
46, 31, 0
46, 38, 0
46, 22, 0
46, 36, 0
20, 46, 0
20, 31, 0
34, 19, 0
34, 8, 0
14, 21, 0
14, 37, 0
14, 49, 0
14, 12, 0
14, 35, 0
24, 37, 0
24, 25, 1
24, 23, 1
24, 35, 0
24, 21, 0
24, 11, 0
28, 17, 0
28, 3, 0
28, 16, 0
28, 27, 1
28, 2, 0
28, 40, 0
28, 44, 0
28, 11, 0
28, 12, 0
28, 33, 0
28, 43, 0
28, 50, 0
28, 29, 1
28, 30, 1
28, 49, 0
28, 39, 0
28, 18, 0
28, 36, 0
15, 0, 0
15, 7, 0
15, 6, 0
15, 19, 0
15, 5, 0
15, 1, 0
41, 42, 0
41, 19, 0
41, 26, 0
41, 32, 0
41, 5, 0
0, 7, 0
0, 35, 0
0, 6, 0
0, 19, 0
0, 15, 0
0, 5, 0
8, 34, 0
8, 19, 0
8, 4, 0
51, 36, 0
51, 52, 1
51, 50, 1
51, 56, 1
51, 2, 0
3, 33, 0
3, 43, 0
3, 50, 0
3, 23, 0
3, 27, 0
3, 28, 0
3, 39, 0
3, 38, 0
3, 46, 0
3, 22, 0
3, 36, 0
38, 23, 0
38, 3, 0
38, 35, 0
38, 46, 0
38, 33, 0
38, 43, 0
38, 50, 0
38, 2, 0
38, 21, 0
38, 39, 1
38, 22, 0
38, 36, 0
47, 19, 0
47, 22, 0
47, 48, 0
47, 26, 0
47, 5, 0
10, 19, 0
10, 13, 0
10, 1, 0
10, 49, 0
10, 9, 0
7, 0, 0
7, 35, 0
7, 6, 1
7, 19, 0
7, 15, 0
7, 1, 0
33, 16, 0
33, 17, 0
33, 23, 0
33, 18, 0
33, 39, 0
33, 44, 0
33, 11, 0
33, 46, 0
33, 3, 0
33, 43, 0
33, 21, 0
33, 28, 0
33, 38, 0
33, 22, 0
33, 36, 0
53, 52, 1
53, 50, 1
53, 56, 1
53, 2, 0
53, 54, 1
53, 36, 0
32, 42, 0
32, 19, 0
32, 41, 0
2, 53, 0
2, 28, 0
2, 23, 0
2, 40, 0
2, 11, 0
2, 43, 0
2, 17, 0
2, 38, 0
2, 22, 0
2, 36, 0
2, 56, 0
2, 51, 0
2, 18, 0
2, 27, 0
2, 55, 0
2, 44, 0
2, 16, 0
2, 52, 0
2, 50, 0
2, 21, 0
2, 54, 0
2, 49, 0
21, 35, 0
21, 23, 0
21, 12, 0
21, 27, 0
21, 2, 0
21, 44, 0
21, 11, 0
21, 33, 0
21, 29, 0
21, 25, 0
21, 24, 0
21, 14, 0
21, 49, 0
21, 38, 0
21, 22, 0
52, 51, 1
52, 50, 1
52, 56, 1
52, 2, 0
52, 53, 1
52, 36, 0
19, 0, 0
19, 45, 0
19, 13, 0
19, 26, 0
19, 10, 0
19, 6, 0
19, 5, 0
19, 47, 0
19, 1, 0
19, 7, 0
19, 34, 0
19, 4, 0
19, 32, 0
19, 35, 0
19, 42, 0
19, 8, 0
19, 15, 0
19, 41, 0
19, 48, 0
19, 9, 0
49, 12, 0
49, 37, 0
49, 14, 0
49, 2, 0
49, 21, 0
49, 28, 0
49, 35, 0
49, 40, 0
49, 11, 0
49, 10, 0
48, 45, 0
48, 19, 0
48, 5, 0
48, 47, 0
31, 20, 0
31, 46, 0
39, 3, 0
39, 43, 0
39, 50, 0
39, 33, 0
39, 28, 0
39, 36, 0
39, 38, 1
39, 46, 0
39, 27, 0
29, 12, 0
29, 28, 1
29, 44, 0
29, 21, 0
29, 27, 1
29, 18, 0
29, 11, 0
29, 30, 1
40, 28, 0
40, 56, 0
40, 16, 0
40, 27, 0
40, 44, 0
40, 11, 0
40, 46, 0
40, 12, 0
40, 43, 0
40, 50, 0
40, 2, 0
40, 17, 0
40, 49, 0
40, 18, 0
40, 22, 0
40, 36, 0
11, 35, 0
11, 28, 0
11, 23, 0
11, 12, 0
11, 27, 0
11, 2, 0
11, 40, 0
11, 44, 0
11, 30, 0
11, 33, 0
11, 25, 0
11, 24, 0
11, 21, 0
11, 29, 0
11, 49, 0
11, 22, 0
5, 0, 0
5, 45, 0
5, 48, 0
5, 26, 0
5, 35, 0
5, 6, 1
5, 19, 0
5, 15, 0
5, 41, 0
5, 47, 0
5, 1, 0
37, 24, 0
37, 12, 0
37, 14, 0
37, 35, 0
37, 25, 0
37, 49, 0
37, 22, 0
4, 19, 0
4, 8, 0
4, 13, 0
35, 0, 0
35, 45, 0
35, 37, 0
35, 23, 0
35, 6, 0
35, 5, 0
35, 11, 0
35, 1, 0
35, 7, 0
35, 12, 0
35, 44, 0
35, 25, 0
35, 27, 0
35, 24, 0
35, 21, 0
35, 43, 0
35, 14, 0
35, 49, 0
35, 38, 0
35, 19, 0
35, 22, 0
30, 27, 1
30, 12, 0
30, 28, 1
30, 11, 0
30, 29, 1
42, 19, 0
42, 41, 0
42, 26, 0
42, 32, 0
22, 17, 0
22, 23, 1
22, 3, 0
22, 16, 0
22, 2, 0
22, 40, 0
22, 46, 0
22, 11, 0
22, 44, 0
22, 33, 0
22, 21, 0
22, 43, 0
22, 47, 0
22, 35, 0
22, 37, 0
22, 38, 0
22, 18, 0
22, 36, 0
36, 52, 0
36, 53, 0
36, 28, 0
36, 51, 0
36, 23, 0
36, 3, 0
36, 38, 0
36, 55, 0
36, 40, 0
36, 46, 0
36, 33, 0
36, 43, 0
36, 50, 0
36, 2, 0
36, 54, 0
36, 56, 0
36, 39, 0
36, 22, 0
25, 37, 0
25, 23, 1
25, 24, 1
25, 21, 0
25, 35, 0
25, 11, 0
45, 6, 0
45, 19, 0
45, 35, 0
45, 5, 0
45, 48, 0
56, 53, 1
56, 52, 1
56, 50, 1
56, 51, 1
56, 2, 0
56, 54, 1
56, 55, 1
56, 40, 0
56, 36, 0
16, 33, 0
16, 17, 1
16, 43, 0
16, 50, 0
16, 23, 0
16, 2, 0
16, 28, 0
16, 40, 0
16, 44, 0
16, 22, 0
16, 27, 0
27, 35, 0
27, 28, 1
27, 12, 0
27, 16, 0
27, 2, 0
27, 40, 0
27, 44, 0
27, 11, 0
27, 30, 1
27, 3, 0
27, 43, 0
27, 50, 0
27, 29, 1
27, 21, 0
27, 17, 0
27, 39, 0
27, 18, 0
1, 7, 0
1, 35, 0
1, 6, 0
1, 19, 0
1, 15, 0
1, 5, 0
1, 10, 0
55, 36, 0
55, 54, 1
55, 50, 1
55, 56, 1
55, 2, 0
44, 28, 0
44, 23, 0
44, 12, 0
44, 16, 0
44, 27, 0
44, 35, 0
44, 40, 0
44, 46, 0
44, 11, 0
44, 33, 0
44, 29, 0
44, 43, 0
44, 2, 0
44, 21, 0
44, 17, 0
44, 18, 0
44, 22, 0
12, 28, 0
12, 18, 0
12, 27, 0
12, 35, 0
12, 40, 0
12, 44, 0
12, 11, 0
12, 30, 0
12, 37, 0
12, 14, 0
12, 29, 0
12, 21, 0
12, 49, 0
18, 33, 0
18, 17, 1
18, 28, 0
18, 27, 0
18, 2, 0
18, 43, 0
18, 29, 0
18, 40, 0
18, 44, 0
18, 22, 0
18, 12, 0
54, 55, 1
54, 50, 1
54, 56, 1
54, 2, 0
54, 53, 1
54, 36, 0
50, 53, 1
50, 28, 0
50, 56, 1
50, 51, 1
50, 16, 0
50, 27, 0
50, 55, 1
50, 40, 0
50, 46, 0
50, 3, 0
50, 52, 1
50, 54, 1
50, 39, 0
50, 2, 0
50, 43, 0
50, 38, 0
50, 36, 0
26, 42, 0
26, 19, 0
26, 41, 0
26, 47, 0
26, 5, 0
6, 0, 0
6, 7, 1
6, 45, 0
6, 35, 0
6, 19, 0
6, 15, 0
6, 5, 1
6, 1, 0
43, 17, 0
43, 23, 0
43, 33, 0
43, 16, 0
43, 27, 0
43, 35, 0
43, 40, 0
43, 44, 0
43, 46, 0
43, 3, 0
43, 50, 0
43, 39, 0
43, 2, 0
43, 28, 0
43, 38, 0
43, 18, 0
43, 22, 0
43, 36, 0
9, 19, 0
9, 13, 0
9, 10, 0
