0, 7, 0
0, 4, 0
0, 2, 0
6, 1, 0
6, 8, 0
6, 10, 0
1, 6, 0
1, 8, 0
1, 9, 0
5, 7, 0
11, 7, 0
11, 3, 0
11, 4, 0
11, 2, 0
10, 6, 0
10, 8, 0
7, 0, 0
7, 4, 0
7, 5, 0
7, 11, 0
3, 4, 0
3, 11, 0
3, 9, 0
4, 0, 0
4, 3, 0
4, 7, 0
4, 2, 0
4, 11, 0
4, 9, 0
2, 0, 0
2, 4, 0
2, 11, 0
8, 6, 0
8, 1, 0
8, 10, 0
9, 3, 0
9, 4, 0
9, 1, 0
