13, 7, 0
13, 12, 1
13, 6, 0
13, 14, 1
13, 9, 1
17, 0, 0
17, 18, 1
17, 28, 0
17, 29, 0
17, 21, 0
17, 27, 0
17, 19, 1
31, 16, 0
31, 33, 1
31, 30, 1
31, 32, 1
31, 24, 0
23, 21, 0
23, 9, 0
23, 25, 0
23, 1, 0
10, 7, 0
10, 12, 1
10, 14, 1
10, 6, 0
10, 11, 1
10, 9, 1
2, 21, 0
2, 8, 0
2, 5, 0
5, 3, 0
5, 4, 0
5, 2, 0
11, 7, 0
11, 12, 1
11, 6, 0
11, 10, 1
11, 9, 1
1, 7, 0
1, 21, 0
1, 25, 0
1, 23, 0
1, 9, 0
20, 15, 0
20, 26, 0
4, 3, 1
4, 5, 0
14, 7, 0
14, 12, 1
14, 13, 1
14, 6, 0
14, 9, 1
14, 10, 1
24, 33, 0
24, 32, 0
24, 31, 0
24, 16, 0
24, 15, 0
24, 30, 0
28, 18, 0
28, 27, 0
28, 21, 0
28, 17, 0
28, 29, 0
30, 16, 0
30, 33, 1
30, 31, 1
30, 32, 1
30, 24, 0
8, 21, 0
8, 22, 0
8, 2, 0
15, 20, 0
15, 6, 0
15, 16, 0
15, 26, 0
15, 24, 0
22, 3, 0
22, 8, 0
0, 6, 0
0, 25, 0
0, 17, 0
0, 29, 0
12, 7, 0
12, 13, 1
12, 14, 1
12, 6, 0
12, 10, 1
12, 11, 1
12, 9, 1
16, 32, 0
16, 31, 0
16, 24, 0
16, 6, 0
16, 15, 0
16, 30, 0
6, 0, 0
6, 13, 0
6, 16, 0
6, 11, 0
6, 10, 0
6, 7, 1
6, 12, 0
6, 14, 0
6, 26, 0
6, 25, 0
6, 15, 0
6, 9, 0
27, 21, 0
27, 28, 0
27, 17, 0
27, 29, 0
7, 12, 0
7, 13, 0
7, 14, 0
7, 9, 0
7, 26, 0
7, 33, 0
7, 6, 1
7, 10, 0
7, 11, 0
7, 1, 0
3, 4, 1
3, 5, 0
3, 22, 0
25, 0, 0
25, 23, 0
25, 29, 0
25, 6, 0
25, 9, 0
25, 1, 0
32, 16, 0
32, 33, 1
32, 24, 0
32, 31, 1
32, 30, 1
29, 0, 0
29, 25, 0
29, 28, 0
29, 27, 0
29, 18, 0
29, 17, 0
21, 28, 0
21, 23, 0
21, 2, 0
21, 27, 0
21, 19, 0
21, 8, 0
21, 17, 0
21, 1, 0
33, 7, 0
33, 24, 0
33, 31, 1
33, 32, 1
33, 30, 1
19, 18, 1
19, 21, 0
19, 17, 1
26, 20, 0
26, 6, 0
26, 7, 0
26, 15, 0
18, 17, 1
18, 19, 1
18, 28, 0
18, 29, 0
9, 7, 0
9, 12, 1
9, 13, 1
9, 14, 1
9, 23, 0
9, 6, 0
9, 10, 1
9, 25, 0
9, 11, 1
9, 1, 0
