0, 20, 0
0, 3, 0
0, 13, 0
0, 4, 0
0, 12, 0
0, 6, 0
0, 19, 0
0, 9, 0
0, 15, 0
0, 1, 1
7, 20, 0
7, 12, 0
7, 17, 0
7, 16, 0
7, 1, 0
7, 15, 0
7, 5, 0
7, 18, 0
7, 9, 0
13, 0, 0
13, 3, 0
13, 4, 0
13, 14, 1
17, 16, 1
17, 12, 0
17, 7, 0
17, 5, 0
17, 9, 0
3, 0, 0
3, 13, 0
3, 14, 0
3, 4, 0
3, 6, 0
3, 11, 0
3, 10, 0
16, 7, 0
16, 12, 0
16, 17, 1
16, 18, 1
16, 5, 0
16, 9, 0
6, 0, 0
6, 3, 0
6, 1, 0
6, 15, 0
6, 11, 0
6, 10, 0
8, 12, 0
8, 2, 0
5, 7, 0
5, 12, 0
5, 17, 0
5, 2, 0
5, 16, 0
5, 18, 0
5, 9, 0
11, 3, 0
11, 4, 0
11, 14, 0
11, 6, 0
11, 15, 0
11, 10, 1
10, 6, 0
10, 11, 1
10, 3, 0
20, 0, 0
20, 7, 0
20, 19, 1
20, 9, 0
20, 1, 0
12, 0, 0
12, 7, 0
12, 17, 0
12, 9, 0
12, 2, 0
12, 16, 0
12, 8, 0
12, 18, 0
12, 5, 0
4, 0, 0
4, 3, 0
4, 13, 0
4, 14, 0
4, 11, 0
14, 3, 0
14, 13, 1
14, 11, 0
14, 4, 0
2, 12, 0
2, 8, 0
2, 5, 0
19, 0, 0
19, 20, 1
19, 9, 0
19, 1, 0
1, 0, 1
1, 20, 0
1, 7, 0
1, 6, 0
1, 19, 0
1, 15, 0
1, 9, 0
15, 0, 0
15, 7, 0
15, 6, 0
15, 9, 0
15, 11, 0
15, 1, 0
18, 16, 1
18, 12, 0
18, 7, 0
18, 5, 0
18, 9, 0
9, 0, 0
9, 20, 0
9, 7, 0
9, 17, 0
9, 12, 0
9, 16, 0
9, 19, 0
9, 15, 0
9, 5, 0
9, 18, 0
9, 1, 0
