12, 3, 0
12, 4, 0
12, 28, 0
12, 16, 0
12, 15, 0
12, 5, 0
13, 18, 0
13, 24, 0
13, 5, 0
13, 1, 0
13, 20, 0
13, 3, 0
13, 4, 0
13, 25, 0
13, 26, 0
13, 29, 0
13, 8, 0
13, 15, 0
17, 3, 0
17, 4, 0
17, 31, 0
17, 16, 0
17, 15, 0
17, 5, 0
17, 9, 0
26, 13, 0
26, 23, 0
26, 18, 0
26, 27, 0
26, 24, 0
26, 5, 0
26, 3, 0
26, 4, 0
26, 14, 0
26, 29, 0
26, 8, 0
26, 15, 0
23, 3, 0
23, 4, 0
23, 14, 0
23, 26, 0
23, 29, 0
23, 27, 0
23, 8, 0
2, 3, 0
2, 4, 0
2, 11, 0
2, 6, 0
5, 13, 0
5, 17, 0
5, 26, 0
5, 1, 0
5, 20, 0
5, 12, 0
5, 4, 1
5, 25, 0
5, 31, 0
5, 29, 0
5, 28, 0
5, 15, 0
5, 9, 0
11, 3, 0
11, 29, 0
11, 4, 0
11, 24, 0
11, 6, 0
11, 2, 0
11, 27, 0
1, 20, 0
1, 13, 0
1, 25, 0
1, 4, 0
1, 18, 0
1, 8, 0
1, 15, 0
1, 5, 0
20, 13, 0
20, 25, 0
20, 4, 0
20, 18, 0
20, 28, 0
20, 15, 0
20, 5, 0
20, 1, 0
4, 13, 0
4, 17, 0
4, 31, 0
4, 23, 0
4, 29, 0
4, 5, 1
4, 11, 0
4, 1, 0
4, 20, 0
4, 14, 0
4, 28, 0
4, 8, 0
4, 15, 0
4, 12, 0
4, 16, 0
4, 27, 0
4, 7, 0
4, 3, 1
4, 25, 0
4, 26, 0
4, 2, 0
4, 18, 0
4, 9, 0
14, 3, 0
14, 4, 0
14, 23, 0
14, 26, 0
14, 18, 0
14, 8, 0
24, 7, 0
24, 3, 0
24, 13, 0
24, 26, 0
24, 29, 0
24, 6, 0
24, 8, 0
24, 15, 0
24, 11, 0
24, 27, 0
28, 20, 0
28, 12, 0
28, 4, 0
28, 3, 0
28, 16, 0
28, 15, 0
28, 5, 0
28, 9, 0
30, 0, 0
30, 27, 0
30, 19, 0
30, 22, 0
30, 10, 0
8, 3, 0
8, 4, 0
8, 13, 0
8, 26, 0
8, 23, 0
8, 24, 0
8, 18, 0
8, 14, 0
8, 27, 0
8, 1, 0
15, 13, 0
15, 28, 0
15, 3, 0
15, 16, 0
15, 24, 0
15, 5, 0
15, 1, 0
15, 20, 0
15, 12, 0
15, 4, 0
15, 25, 0
15, 26, 0
15, 29, 0
15, 17, 0
15, 9, 0
22, 21, 1
22, 0, 0
22, 19, 0
22, 10, 0
22, 30, 0
0, 21, 0
0, 27, 0
0, 19, 0
0, 30, 0
0, 22, 0
0, 10, 0
3, 16, 0
3, 13, 0
3, 17, 0
3, 26, 0
3, 23, 0
3, 18, 0
3, 6, 0
3, 29, 0
3, 11, 0
3, 27, 0
3, 7, 0
3, 12, 0
3, 4, 1
3, 25, 0
3, 31, 0
3, 24, 0
3, 2, 0
3, 28, 0
3, 14, 0
3, 8, 0
3, 15, 0
16, 12, 0
16, 4, 0
16, 17, 0
16, 31, 0
16, 3, 0
16, 28, 0
16, 15, 0
6, 7, 0
6, 3, 0
6, 31, 0
6, 2, 0
6, 27, 0
6, 24, 0
6, 11, 0
27, 0, 0
27, 23, 0
27, 6, 0
27, 29, 0
27, 11, 0
27, 30, 0
27, 3, 0
27, 4, 0
27, 26, 0
27, 24, 0
27, 19, 0
27, 8, 0
27, 10, 0
7, 3, 0
7, 6, 0
7, 4, 0
7, 31, 0
7, 24, 0
18, 20, 0
18, 3, 0
18, 4, 0
18, 14, 0
18, 26, 0
18, 13, 0
18, 8, 0
18, 1, 0
25, 20, 0
25, 3, 0
25, 13, 0
25, 4, 0
25, 15, 0
25, 5, 0
25, 1, 0
31, 7, 0
31, 3, 0
31, 4, 0
31, 17, 0
31, 16, 0
31, 6, 0
31, 5, 0
29, 3, 0
29, 4, 0
29, 13, 0
29, 23, 0
29, 26, 0
29, 24, 0
29, 27, 0
29, 15, 0
29, 5, 0
29, 11, 0
21, 0, 0
21, 19, 0
21, 22, 1
21, 10, 0
19, 0, 0
19, 21, 0
19, 27, 0
19, 30, 0
19, 22, 0
19, 10, 0
10, 0, 0
10, 21, 0
10, 27, 0
10, 19, 0
10, 22, 0
10, 30, 0
9, 28, 0
9, 4, 0
9, 15, 0
9, 5, 0
9, 17, 0
