13, 0, 0
13, 8, 0
13, 22, 0
13, 10, 0
17, 18, 0
17, 6, 0
17, 19, 0
17, 14, 0
17, 24, 0
23, 21, 0
23, 7, 0
23, 16, 0
2, 27, 0
5, 16, 0
5, 3, 0
11, 4, 0
11, 24, 0
1, 14, 0
1, 24, 0
20, 21, 0
20, 12, 0
20, 15, 0
4, 15, 0
4, 11, 0
14, 6, 0
14, 24, 0
14, 17, 0
14, 1, 0
24, 14, 0
24, 17, 0
24, 11, 0
24, 1, 0
8, 3, 0
8, 13, 0
8, 22, 0
8, 9, 0
15, 20, 0
15, 4, 0
22, 0, 0
22, 8, 0
22, 13, 0
0, 13, 0
0, 22, 0
0, 10, 0
3, 8, 0
3, 25, 0
3, 5, 0
3, 26, 0
3, 9, 0
16, 7, 0
16, 21, 0
16, 5, 0
16, 23, 0
6, 18, 0
6, 14, 0
6, 19, 0
6, 17, 0
6, 27, 0
10, 0, 0
10, 13, 0
7, 16, 0
7, 21, 0
7, 23, 0
12, 20, 0
12, 21, 0
25, 3, 0
25, 26, 1
25, 9, 0
26, 3, 0
26, 25, 1
26, 9, 0
27, 18, 0
27, 6, 0
27, 19, 0
27, 2, 0
21, 20, 0
21, 7, 0
21, 16, 0
21, 23, 0
21, 12, 0
19, 18, 0
19, 6, 0
19, 17, 0
19, 27, 0
18, 27, 0
18, 19, 0
18, 17, 0
18, 6, 0
9, 3, 0
9, 8, 0
9, 25, 0
9, 26, 0
