0, 1, 0
3, 8, 0
3, 5, 0
3, 2, 0
4, 7, 0
4, 2, 0
4, 8, 0
4, 10, 0
2, 7, 0
2, 3, 0
2, 8, 0
2, 5, 0
2, 4, 0
6, 8, 0
6, 10, 0
6, 9, 0
1, 0, 0
1, 5, 0
8, 7, 1
8, 3, 0
8, 6, 0
8, 4, 0
8, 2, 0
5, 3, 0
5, 1, 0
5, 2, 0
7, 8, 1
7, 4, 0
7, 2, 0
10, 6, 0
10, 4, 0
9, 6, 0
