0, 7, 0
0, 12, 0
0, 5, 0
0, 10, 0
13, 11, 0
13, 9, 0
3, 12, 0
3, 8, 0
3, 11, 0
6, 4, 0
6, 9, 0
8, 12, 0
8, 3, 0
8, 10, 0
5, 0, 0
5, 7, 0
11, 12, 0
11, 13, 0
11, 3, 0
11, 2, 0
11, 9, 0
11, 1, 0
10, 0, 0
10, 12, 0
10, 8, 0
7, 0, 0
7, 5, 0
12, 0, 0
12, 3, 0
12, 2, 0
12, 1, 0
12, 8, 0
12, 11, 0
12, 10, 0
4, 6, 0
4, 9, 0
2, 12, 0
2, 11, 0
2, 1, 1
1, 12, 0
1, 11, 0
1, 2, 1
9, 6, 0
9, 13, 0
9, 11, 0
9, 4, 0
