0, 16, 0
0, 3, 0
0, 17, 0
0, 5, 0
13, 12, 0
13, 2, 0
17, 0, 0
17, 12, 0
17, 5, 0
3, 0, 0
3, 18, 0
3, 14, 0
3, 16, 0
3, 8, 0
3, 9, 0
16, 0, 0
16, 3, 0
16, 14, 0
6, 7, 1
6, 18, 0
6, 9, 0
8, 18, 0
8, 3, 0
5, 0, 0
5, 17, 0
11, 4, 0
11, 15, 0
11, 10, 1
11, 1, 0
10, 4, 0
10, 15, 0
10, 11, 1
10, 1, 0
7, 18, 0
7, 6, 1
7, 9, 0
12, 13, 0
12, 17, 0
12, 2, 0
4, 10, 0
4, 15, 0
4, 11, 0
4, 1, 0
14, 16, 0
14, 3, 0
14, 9, 0
2, 12, 0
2, 13, 0
2, 15, 0
1, 4, 0
1, 15, 0
1, 11, 0
1, 10, 0
15, 2, 0
15, 4, 0
15, 10, 0
15, 11, 0
15, 1, 0
18, 7, 0
18, 6, 0
18, 8, 0
18, 9, 0
18, 3, 0
9, 7, 0
9, 6, 0
9, 14, 0
9, 18, 0
9, 3, 0
