0, 12, 0
0, 4, 0
0, 6, 0
8, 7, 0
8, 3, 0
8, 6, 0
8, 10, 0
8, 5, 0
8, 9, 1
3, 8, 0
3, 9, 0
3, 10, 0
6, 0, 0
6, 12, 0
6, 7, 0
6, 9, 0
6, 4, 0
6, 8, 0
6, 5, 0
6, 10, 0
5, 7, 0
5, 2, 0
5, 6, 0
5, 1, 0
5, 8, 0
5, 11, 0
5, 10, 0
11, 2, 0
11, 5, 0
11, 1, 0
10, 6, 0
10, 8, 0
10, 9, 0
10, 5, 0
10, 3, 0
7, 6, 0
7, 8, 0
7, 5, 0
7, 9, 0
12, 0, 0
12, 6, 0
12, 4, 0
4, 0, 0
4, 12, 0
4, 6, 0
2, 5, 0
2, 11, 0
2, 1, 1
1, 5, 0
1, 11, 0
1, 2, 1
9, 7, 0
9, 3, 0
9, 6, 0
9, 8, 1
9, 10, 0
