0, 7, 0
0, 12, 0
0, 2, 0
0, 1, 0
13, 6, 0
13, 11, 0
13, 9, 0
3, 5, 0
3, 10, 0
16, 8, 0
16, 15, 0
6, 4, 0
6, 13, 0
6, 11, 0
6, 9, 0
8, 16, 0
8, 15, 0
8, 14, 0
5, 3, 0
5, 15, 0
11, 6, 0
11, 13, 0
11, 9, 0
10, 7, 0
10, 3, 0
7, 0, 0
7, 12, 0
7, 2, 0
7, 10, 0
7, 1, 0
12, 0, 0
12, 7, 0
12, 1, 0
12, 9, 0
12, 2, 0
4, 6, 0
14, 8, 0
14, 15, 0
2, 0, 0
2, 12, 0
2, 7, 0
2, 1, 1
1, 0, 0
1, 12, 0
1, 7, 0
1, 2, 1
15, 16, 0
15, 8, 0
15, 14, 0
15, 5, 0
9, 12, 0
9, 13, 0
9, 11, 0
9, 6, 0
