0, 7, 0
0, 3, 0
0, 8, 0
0, 1, 0
8, 0, 0
8, 3, 0
8, 2, 0
8, 4, 0
8, 1, 0
3, 0, 0
3, 7, 0
3, 4, 0
3, 9, 0
3, 12, 0
3, 2, 0
3, 6, 0
3, 8, 0
3, 5, 0
3, 1, 0
6, 3, 0
6, 4, 0
6, 2, 0
6, 1, 0
6, 9, 0
6, 5, 0
6, 11, 0
6, 10, 0
5, 6, 0
5, 10, 0
5, 3, 0
5, 11, 0
5, 9, 0
11, 6, 0
11, 9, 0
11, 5, 0
11, 10, 0
10, 6, 0
10, 5, 0
10, 11, 0
10, 9, 1
7, 0, 0
7, 12, 0
7, 3, 0
7, 1, 0
12, 7, 0
12, 3, 0
12, 1, 0
4, 3, 0
4, 6, 0
4, 8, 0
4, 2, 0
2, 6, 0
2, 8, 0
2, 3, 0
2, 4, 0
2, 1, 0
1, 0, 0
1, 12, 0
1, 7, 0
1, 3, 0
1, 2, 0
1, 6, 0
1, 8, 0
9, 6, 0
9, 3, 0
9, 5, 0
9, 11, 0
9, 10, 1
