0, 7, 0
0, 6, 0
0, 8, 0
7, 0, 0
7, 6, 1
7, 8, 0
13, 19, 0
13, 8, 0
13, 1, 0
17, 14, 0
17, 1, 0
17, 15, 0
17, 9, 0
3, 4, 0
3, 9, 0
3, 2, 1
16, 18, 0
16, 12, 0
16, 11, 0
16, 10, 0
6, 0, 0
6, 7, 1
6, 8, 0
8, 0, 0
8, 6, 0
8, 19, 0
8, 7, 0
8, 13, 0
5, 20, 0
5, 4, 0
11, 20, 0
11, 12, 0
11, 16, 0
11, 18, 0
10, 16, 0
10, 12, 0
10, 18, 0
20, 4, 0
20, 5, 0
20, 11, 0
12, 18, 0
12, 16, 0
12, 11, 0
12, 10, 0
4, 20, 0
4, 3, 0
4, 9, 0
4, 5, 0
4, 2, 0
14, 15, 0
14, 9, 0
14, 17, 0
14, 1, 0
2, 3, 1
2, 4, 0
2, 9, 0
19, 8, 0
19, 13, 0
1, 14, 0
1, 13, 0
1, 15, 0
1, 17, 0
15, 14, 0
15, 9, 0
15, 17, 0
15, 1, 0
18, 16, 0
18, 12, 0
18, 11, 0
18, 10, 0
9, 3, 0
9, 4, 0
9, 14, 0
9, 2, 0
9, 17, 0
9, 15, 0
