12, 20, 0
12, 7, 0
12, 23, 0
12, 27, 0
12, 11, 1
12, 36, 0
13, 20, 0
13, 33, 0
13, 32, 0
13, 34, 0
13, 21, 0
13, 35, 0
13, 24, 0
17, 16, 0
17, 19, 0
17, 15, 0
17, 1, 0
31, 24, 0
31, 3, 0
31, 14, 0
31, 9, 0
31, 29, 0
31, 8, 0
31, 30, 0
23, 7, 0
23, 12, 0
23, 27, 0
23, 11, 0
23, 36, 0
24, 13, 0
24, 31, 0
24, 32, 0
24, 29, 0
5, 4, 1
5, 26, 0
5, 2, 0
5, 37, 0
5, 6, 1
5, 15, 0
11, 7, 0
11, 12, 1
11, 36, 0
11, 23, 0
11, 27, 0
1, 16, 0
1, 15, 0
1, 17, 0
20, 34, 0
20, 13, 0
20, 32, 0
20, 35, 0
20, 21, 0
20, 33, 0
20, 27, 0
20, 12, 0
21, 20, 0
21, 34, 0
21, 13, 0
21, 33, 0
21, 35, 0
4, 37, 0
4, 15, 0
4, 5, 1
4, 26, 0
4, 2, 0
14, 3, 0
14, 9, 0
14, 31, 0
14, 30, 0
14, 8, 0
14, 10, 0
35, 21, 0
35, 34, 1
35, 20, 0
35, 13, 0
35, 32, 0
28, 3, 0
30, 14, 0
30, 31, 0
30, 29, 0
30, 8, 0
30, 10, 0
30, 9, 0
8, 9, 1
8, 14, 0
8, 31, 0
8, 30, 0
15, 4, 0
15, 17, 0
15, 26, 0
15, 16, 0
15, 19, 0
15, 5, 0
15, 1, 0
19, 18, 0
19, 17, 0
19, 16, 0
19, 38, 0
19, 15, 0
19, 22, 0
22, 18, 0
22, 19, 0
22, 38, 0
36, 7, 0
36, 12, 0
36, 11, 0
36, 23, 0
36, 27, 0
0, 37, 0
0, 7, 0
0, 25, 0
0, 26, 0
38, 18, 0
38, 19, 0
38, 22, 0
3, 28, 0
3, 14, 0
3, 31, 0
3, 10, 0
16, 17, 0
16, 26, 0
16, 2, 0
16, 37, 0
16, 19, 0
16, 15, 0
16, 1, 0
6, 37, 0
6, 5, 1
6, 26, 0
6, 2, 0
10, 3, 0
10, 14, 0
10, 30, 0
7, 0, 0
7, 12, 0
7, 11, 0
7, 23, 0
7, 36, 0
34, 20, 0
34, 33, 1
34, 13, 0
34, 32, 0
34, 35, 1
34, 21, 0
25, 37, 0
25, 0, 0
25, 26, 1
33, 21, 0
33, 34, 1
33, 20, 0
33, 13, 0
32, 20, 0
32, 34, 0
32, 35, 0
32, 13, 0
32, 24, 0
27, 20, 0
27, 12, 0
27, 11, 0
27, 23, 0
27, 36, 0
37, 0, 0
37, 4, 0
37, 25, 0
37, 26, 0
37, 2, 0
37, 16, 0
37, 6, 0
37, 5, 0
29, 30, 0
29, 9, 0
29, 31, 0
29, 24, 0
2, 37, 0
2, 4, 0
2, 26, 0
2, 16, 0
2, 6, 0
2, 5, 0
26, 0, 0
26, 16, 0
26, 4, 0
26, 25, 1
26, 2, 0
26, 37, 0
26, 6, 0
26, 15, 0
26, 5, 0
18, 19, 0
18, 38, 0
18, 22, 0
9, 29, 0
9, 8, 1
9, 14, 0
9, 31, 0
9, 30, 0
