0, 6, 0
0, 5, 0
0, 9, 0
3, 10, 0
3, 9, 0
3, 5, 0
3, 4, 1
3, 2, 1
4, 3, 1
4, 1, 0
4, 10, 0
4, 5, 0
4, 9, 0
2, 3, 1
2, 10, 0
2, 5, 0
2, 9, 0
6, 0, 0
6, 7, 0
6, 8, 0
6, 9, 0
1, 4, 0
1, 5, 0
1, 10, 0
8, 7, 0
8, 6, 0
8, 9, 0
5, 0, 0
5, 3, 0
5, 4, 0
5, 2, 0
5, 1, 0
5, 10, 0
5, 9, 0
7, 6, 0
7, 8, 0
10, 3, 0
10, 4, 0
10, 2, 0
10, 1, 0
10, 5, 0
10, 9, 0
9, 0, 0
9, 3, 0
9, 4, 0
9, 2, 0
9, 6, 0
9, 8, 0
9, 5, 0
9, 10, 0
