0, 12, 0
0, 8, 0
8, 0, 0
8, 12, 0
8, 2, 0
8, 11, 0
8, 3, 0
3, 8, 0
3, 11, 0
3, 2, 0
6, 12, 0
6, 4, 0
6, 5, 1
5, 12, 0
5, 4, 0
5, 6, 1
11, 2, 0
11, 3, 0
11, 8, 0
11, 1, 0
10, 9, 1
10, 1, 0
7, 9, 0
7, 1, 0
12, 0, 0
12, 6, 0
12, 8, 0
12, 5, 0
12, 4, 0
4, 12, 0
4, 5, 0
4, 6, 0
2, 3, 0
2, 8, 0
2, 11, 0
1, 7, 0
1, 9, 0
1, 11, 0
1, 10, 0
9, 7, 0
9, 10, 1
9, 1, 0
