13, 21, 0
13, 20, 0
13, 3, 0
17, 3, 0
17, 5, 0
23, 7, 0
23, 4, 0
23, 25, 0
23, 24, 0
23, 6, 0
23, 19, 0
5, 18, 0
5, 17, 0
11, 12, 1
11, 8, 0
11, 9, 0
1, 14, 0
1, 22, 0
20, 21, 1
20, 3, 0
20, 13, 0
4, 0, 0
4, 6, 0
4, 7, 0
4, 23, 0
14, 10, 0
14, 22, 0
14, 1, 0
24, 19, 0
24, 25, 1
24, 23, 0
8, 16, 0
8, 12, 0
8, 26, 0
8, 11, 0
8, 9, 0
15, 16, 0
15, 19, 0
22, 14, 0
22, 26, 0
22, 1, 0
0, 4, 0
0, 2, 0
3, 20, 0
3, 21, 0
3, 13, 0
3, 17, 0
16, 8, 0
16, 15, 0
6, 7, 1
6, 4, 0
6, 23, 0
10, 14, 0
7, 6, 1
7, 4, 0
7, 23, 0
12, 8, 0
12, 11, 1
12, 9, 0
25, 19, 0
25, 23, 0
25, 24, 1
26, 8, 0
26, 22, 0
26, 9, 0
2, 0, 0
2, 18, 0
21, 20, 1
21, 3, 0
21, 13, 0
19, 25, 0
19, 15, 0
19, 23, 0
19, 24, 0
18, 5, 0
18, 2, 0
9, 12, 0
9, 8, 0
9, 26, 0
9, 11, 0
