0, 7, 0
0, 12, 0
0, 9, 0
0, 1, 0
13, 3, 0
13, 8, 0
13, 4, 0
3, 7, 0
3, 12, 0
3, 4, 1
3, 13, 0
3, 2, 0
3, 6, 0
3, 8, 0
3, 11, 0
3, 9, 0
6, 3, 0
6, 8, 0
6, 9, 0
8, 6, 0
8, 13, 0
8, 3, 0
5, 7, 0
5, 12, 0
5, 10, 0
5, 14, 0
5, 1, 0
11, 3, 0
11, 4, 0
11, 2, 0
10, 12, 0
10, 14, 0
10, 5, 0
10, 1, 0
7, 0, 0
7, 12, 0
7, 3, 0
7, 5, 0
7, 9, 0
12, 0, 0
12, 7, 0
12, 14, 0
12, 3, 0
12, 10, 0
12, 5, 0
12, 1, 0
4, 3, 1
4, 13, 0
4, 11, 0
14, 12, 0
14, 10, 0
14, 5, 0
14, 1, 0
2, 3, 0
2, 15, 0
2, 11, 0
1, 0, 0
1, 12, 0
1, 14, 0
1, 5, 0
1, 10, 0
15, 2, 0
9, 0, 0
9, 6, 0
9, 7, 0
9, 3, 0
