0, 3, 0
0, 14, 0
0, 17, 0
0, 5, 0
0, 11, 0
0, 10, 0
13, 7, 0
13, 3, 0
13, 17, 0
13, 8, 0
13, 15, 0
13, 9, 0
17, 0, 0
17, 3, 0
17, 13, 0
17, 14, 0
17, 16, 1
17, 8, 0
17, 5, 0
17, 9, 0
3, 0, 0
3, 13, 0
3, 14, 0
3, 16, 0
3, 17, 0
3, 8, 0
3, 9, 0
16, 3, 0
16, 14, 0
16, 17, 1
16, 9, 0
6, 12, 0
6, 4, 0
8, 3, 0
8, 13, 0
8, 17, 0
8, 9, 1
5, 0, 0
5, 12, 0
5, 17, 0
5, 11, 0
5, 10, 0
11, 0, 0
11, 5, 0
11, 10, 1
10, 0, 0
10, 5, 0
10, 11, 1
7, 13, 0
7, 15, 0
7, 1, 0
12, 6, 0
12, 4, 0
12, 5, 0
4, 12, 0
4, 2, 0
4, 6, 0
14, 0, 0
14, 16, 0
14, 9, 0
14, 17, 0
14, 3, 0
2, 4, 0
1, 7, 0
15, 7, 0
15, 13, 0
9, 3, 0
9, 13, 0
9, 14, 0
9, 16, 0
9, 17, 0
9, 8, 1
