0, 15, 0
0, 2, 0
13, 3, 0
13, 4, 0
13, 15, 0
13, 11, 0
17, 2, 0
17, 9, 0
3, 13, 0
3, 15, 0
3, 4, 1
16, 1, 0
16, 14, 0
16, 10, 0
6, 7, 1
6, 12, 0
6, 11, 0
8, 9, 0
5, 12, 0
5, 14, 0
5, 1, 0
11, 7, 0
11, 12, 0
11, 13, 0
11, 14, 0
11, 6, 0
10, 16, 0
10, 14, 0
10, 1, 0
7, 12, 0
7, 11, 0
7, 6, 1
12, 7, 0
12, 14, 0
12, 6, 0
12, 5, 0
12, 11, 0
12, 1, 0
4, 3, 1
4, 13, 0
4, 15, 0
14, 12, 0
14, 16, 0
14, 10, 0
14, 5, 0
14, 11, 0
14, 1, 0
2, 0, 0
2, 17, 0
1, 16, 0
1, 12, 0
1, 14, 0
1, 5, 0
1, 10, 0
15, 0, 0
15, 3, 0
15, 13, 0
15, 4, 0
9, 8, 0
9, 17, 0
