0, 2, 0
0, 1, 1
3, 7, 0
3, 4, 0
3, 2, 0
3, 6, 0
3, 8, 0
3, 5, 0
4, 7, 0
4, 3, 0
4, 8, 0
4, 5, 0
4, 6, 0
7, 3, 0
7, 4, 0
7, 2, 0
2, 0, 0
2, 3, 0
2, 7, 0
6, 3, 0
6, 8, 0
6, 5, 1
6, 4, 0
8, 3, 0
8, 4, 0
8, 5, 0
8, 6, 0
5, 3, 0
5, 8, 0
5, 4, 0
5, 6, 1
1, 0, 1
