0, 1, 0
0, 9, 0
0, 2, 0
3, 7, 0
4, 6, 0
4, 8, 0
4, 5, 0
4, 1, 0
2, 0, 0
2, 5, 0
2, 1, 1
6, 7, 0
6, 8, 0
6, 4, 0
1, 0, 0
1, 2, 1
1, 4, 0
1, 5, 0
1, 9, 0
8, 7, 0
8, 6, 0
8, 4, 0
5, 1, 0
5, 4, 0
5, 2, 0
7, 3, 0
7, 8, 0
7, 6, 0
9, 0, 0
9, 1, 0
