12, 13, 0
12, 9, 0
13, 12, 0
13, 10, 0
17, 16, 1
17, 18, 1
17, 20, 0
17, 7, 0
17, 3, 0
26, 6, 0
26, 15, 0
26, 28, 0
26, 27, 0
23, 20, 0
23, 22, 1
23, 31, 0
23, 30, 0
2, 6, 0
2, 1, 0
5, 0, 0
5, 4, 0
5, 25, 0
5, 30, 0
11, 19, 0
1, 6, 0
1, 2, 0
20, 7, 0
20, 16, 0
20, 4, 0
20, 17, 0
20, 31, 0
20, 23, 0
20, 18, 0
20, 22, 0
20, 30, 0
4, 0, 0
4, 20, 0
4, 25, 0
4, 19, 0
4, 5, 0
4, 30, 0
14, 21, 0
14, 3, 0
14, 9, 0
14, 24, 0
24, 21, 0
24, 3, 0
24, 9, 0
24, 14, 0
24, 29, 0
28, 6, 0
28, 26, 0
28, 10, 0
30, 20, 0
30, 0, 0
30, 4, 0
30, 23, 0
30, 31, 1
30, 19, 0
30, 5, 0
30, 22, 0
8, 6, 0
8, 27, 0
15, 27, 0
15, 26, 0
22, 20, 0
22, 0, 0
22, 23, 1
22, 31, 0
22, 30, 0
0, 4, 0
0, 5, 0
0, 22, 0
0, 30, 0
3, 7, 0
3, 18, 0
3, 14, 0
3, 24, 0
3, 16, 0
3, 17, 0
3, 29, 0
3, 9, 0
16, 20, 0
16, 7, 0
16, 17, 1
16, 3, 0
6, 28, 0
6, 26, 0
6, 2, 0
6, 27, 0
6, 8, 0
6, 1, 0
27, 6, 0
27, 8, 0
27, 15, 0
27, 26, 0
7, 20, 0
7, 3, 0
7, 16, 0
7, 17, 0
7, 18, 0
18, 20, 0
18, 7, 0
18, 17, 1
18, 3, 0
25, 19, 0
25, 4, 0
25, 5, 0
31, 20, 0
31, 23, 0
31, 22, 0
31, 30, 1
29, 21, 0
29, 3, 0
29, 24, 0
29, 9, 0
21, 24, 0
21, 9, 0
21, 14, 0
21, 29, 0
19, 4, 0
19, 25, 0
19, 11, 0
19, 30, 0
10, 13, 0
10, 28, 0
9, 12, 0
9, 14, 0
9, 3, 0
9, 24, 0
9, 21, 0
9, 29, 0
