0, 7, 0
0, 1, 0
0, 4, 0
0, 9, 0
3, 6, 0
3, 8, 0
3, 5, 0
3, 4, 0
4, 0, 0
4, 3, 0
4, 7, 0
4, 1, 0
4, 5, 0
4, 9, 0
2, 8, 0
6, 3, 0
6, 8, 0
6, 5, 0
1, 0, 0
1, 4, 0
1, 9, 0
8, 3, 0
8, 6, 0
8, 2, 0
5, 7, 0
5, 3, 0
5, 4, 0
5, 6, 0
7, 0, 0
7, 4, 0
7, 5, 0
7, 9, 0
9, 0, 0
9, 7, 0
9, 4, 0
9, 1, 0
