0, 7, 0
0, 6, 0
0, 10, 0
0, 1, 0
3, 4, 0
3, 5, 0
3, 2, 1
4, 3, 0
4, 2, 0
4, 5, 0
4, 9, 0
2, 3, 1
2, 4, 0
2, 5, 0
6, 0, 0
6, 7, 0
6, 8, 0
6, 1, 0
1, 0, 0
1, 6, 0
1, 8, 0
1, 10, 0
8, 7, 1
8, 6, 0
8, 1, 0
5, 3, 0
5, 4, 0
5, 2, 0
7, 0, 0
7, 6, 0
7, 8, 1
7, 9, 0
7, 10, 0
10, 0, 0
10, 7, 0
10, 1, 0
10, 9, 0
9, 7, 0
9, 4, 0
9, 10, 0
