0, 4, 0
0, 17, 0
0, 2, 0
13, 7, 0
13, 4, 0
13, 17, 0
13, 2, 0
13, 16, 0
13, 15, 0
17, 0, 0
17, 13, 0
17, 4, 0
3, 9, 0
16, 7, 0
16, 13, 0
16, 15, 1
6, 14, 0
6, 1, 0
8, 18, 0
8, 5, 0
8, 9, 0
5, 18, 0
5, 8, 0
11, 7, 0
11, 14, 0
10, 18, 0
10, 12, 0
10, 1, 0
10, 2, 0
7, 16, 0
7, 13, 0
7, 15, 0
7, 11, 0
7, 2, 0
12, 18, 0
12, 1, 0
12, 10, 0
12, 2, 0
4, 0, 0
4, 13, 0
4, 17, 0
14, 6, 0
14, 11, 0
14, 2, 0
2, 7, 0
2, 12, 0
2, 13, 0
2, 14, 0
2, 18, 0
2, 0, 0
2, 10, 0
2, 1, 0
1, 2, 0
1, 12, 0
1, 10, 0
1, 6, 0
15, 16, 1
15, 7, 0
15, 13, 0
18, 12, 0
18, 9, 0
18, 2, 0
18, 8, 0
18, 5, 0
18, 10, 0
9, 18, 0
9, 3, 0
9, 8, 0
