13, 20, 0
13, 12, 0
13, 17, 0
17, 21, 0
17, 13, 0
5, 7, 0
5, 10, 0
5, 11, 0
5, 1, 0
11, 18, 0
11, 5, 0
11, 1, 0
1, 5, 0
1, 11, 0
20, 12, 0
20, 13, 0
4, 0, 0
4, 6, 0
4, 16, 0
14, 3, 0
14, 19, 0
14, 15, 1
14, 9, 0
8, 0, 0
8, 3, 0
15, 3, 0
15, 14, 1
0, 3, 0
0, 8, 0
0, 4, 0
0, 6, 0
3, 0, 0
3, 15, 0
3, 8, 0
3, 14, 0
16, 21, 0
16, 6, 0
16, 4, 0
16, 2, 0
6, 16, 0
6, 0, 0
6, 4, 0
6, 21, 0
10, 7, 0
10, 5, 0
7, 5, 0
7, 10, 0
12, 20, 0
12, 13, 0
2, 16, 0
2, 21, 0
21, 16, 0
21, 6, 0
21, 17, 0
21, 2, 0
19, 18, 0
19, 14, 0
19, 9, 0
18, 19, 0
18, 11, 0
9, 19, 0
9, 14, 0
