0, 6, 0
0, 5, 0
0, 1, 0
6, 0, 0
6, 8, 0
6, 5, 0
1, 7, 0
1, 0, 0
1, 4, 0
1, 9, 0
1, 3, 0
1, 2, 0
1, 8, 0
1, 11, 0
1, 10, 0
5, 0, 0
5, 6, 0
11, 10, 1
11, 1, 0
10, 11, 1
10, 1, 0
7, 3, 0
7, 4, 0
7, 9, 0
7, 1, 0
3, 7, 0
3, 4, 1
3, 9, 0
3, 2, 1
3, 8, 0
3, 1, 0
4, 7, 0
4, 3, 1
4, 1, 0
2, 3, 1
2, 1, 0
2, 8, 0
2, 9, 0
8, 2, 0
8, 6, 0
8, 9, 0
8, 3, 0
8, 1, 0
9, 7, 0
9, 3, 0
9, 1, 0
9, 8, 0
9, 2, 0
