0, 12, 0
0, 4, 0
0, 3, 0
0, 2, 0
0, 1, 0
0, 5, 0
0, 9, 0
8, 7, 1
8, 12, 0
8, 6, 0
8, 10, 0
8, 5, 0
8, 11, 0
8, 1, 0
3, 0, 0
3, 12, 0
3, 4, 0
3, 2, 0
3, 5, 0
3, 1, 0
6, 7, 0
6, 12, 0
6, 1, 0
6, 8, 0
6, 11, 0
6, 10, 0
5, 0, 0
5, 12, 0
5, 4, 1
5, 3, 0
5, 2, 0
5, 8, 0
5, 11, 0
5, 9, 0
11, 7, 0
11, 12, 0
11, 2, 0
11, 6, 0
11, 8, 0
11, 5, 0
11, 10, 1
11, 1, 0
10, 7, 0
10, 6, 0
10, 8, 0
10, 11, 1
10, 1, 0
7, 6, 0
7, 8, 1
7, 10, 0
7, 11, 0
7, 1, 0
12, 0, 0
12, 3, 0
12, 4, 0
12, 2, 0
12, 6, 0
12, 8, 0
12, 5, 0
12, 11, 0
12, 1, 0
4, 0, 0
4, 12, 0
4, 3, 0
4, 2, 0
4, 5, 1
4, 1, 0
2, 0, 0
2, 12, 0
2, 4, 0
2, 3, 0
2, 9, 0
2, 5, 0
2, 11, 0
2, 1, 0
1, 0, 0
1, 12, 0
1, 7, 0
1, 4, 0
1, 3, 0
1, 2, 0
1, 6, 0
1, 8, 0
1, 11, 0
1, 10, 0
9, 0, 0
9, 5, 0
9, 2, 0
