0, 7, 0
0, 3, 0
0, 4, 0
0, 13, 0
0, 9, 0
0, 12, 0
0, 6, 0
0, 8, 0
0, 11, 0
0, 10, 0
13, 0, 0
13, 3, 0
13, 6, 0
13, 1, 0
13, 5, 0
13, 9, 0
3, 0, 0
3, 12, 0
3, 4, 0
3, 13, 0
3, 2, 1
3, 6, 0
3, 5, 0
3, 9, 0
6, 0, 0
6, 12, 0
6, 13, 0
6, 4, 0
6, 3, 0
6, 5, 1
6, 9, 0
8, 0, 0
8, 4, 0
8, 11, 0
5, 12, 0
5, 13, 0
5, 3, 0
5, 6, 1
5, 9, 0
5, 1, 0
11, 0, 0
11, 8, 0
11, 10, 0
10, 0, 0
10, 7, 0
10, 11, 0
7, 0, 0
7, 4, 0
7, 10, 0
12, 0, 0
12, 3, 0
12, 6, 0
12, 5, 0
12, 2, 0
4, 0, 0
4, 7, 0
4, 3, 0
4, 2, 0
4, 6, 0
4, 8, 0
2, 12, 0
2, 4, 0
2, 3, 1
1, 13, 0
1, 5, 0
1, 9, 0
9, 0, 0
9, 3, 0
9, 13, 0
9, 6, 0
9, 5, 0
9, 1, 0
