0, 8, 0
0, 5, 0
0, 9, 0
3, 2, 0
3, 8, 0
3, 1, 0
4, 7, 0
4, 6, 0
4, 8, 0
4, 5, 0
4, 10, 0
2, 3, 0
2, 1, 1
6, 4, 0
6, 10, 0
1, 2, 1
1, 3, 0
1, 8, 0
1, 9, 0
8, 0, 0
8, 3, 0
8, 1, 0
8, 4, 0
8, 9, 0
5, 0, 0
5, 7, 0
5, 4, 0
7, 4, 0
7, 5, 0
7, 10, 0
10, 7, 0
10, 6, 0
10, 4, 0
9, 0, 0
9, 8, 0
9, 1, 0
