0, 7, 0
0, 6, 0
0, 5, 0
0, 1, 0
3, 7, 0
3, 8, 0
3, 9, 0
3, 2, 0
4, 7, 0
4, 1, 0
4, 2, 0
2, 7, 0
2, 3, 0
2, 8, 0
2, 5, 0
2, 4, 0
6, 0, 0
6, 7, 1
6, 5, 1
6, 1, 0
1, 0, 0
1, 7, 0
1, 4, 0
1, 5, 0
1, 6, 0
8, 3, 0
8, 2, 0
8, 9, 1
5, 0, 0
5, 6, 1
5, 2, 0
5, 1, 0
7, 0, 0
7, 3, 0
7, 4, 0
7, 2, 0
7, 6, 1
7, 9, 0
7, 1, 0
9, 7, 0
9, 3, 0
9, 8, 1
