0, 7, 0
0, 4, 0
0, 9, 0
0, 10, 0
13, 6, 0
13, 15, 0
13, 5, 0
13, 1, 0
17, 14, 0
17, 1, 0
3, 16, 0
3, 8, 0
3, 15, 0
3, 5, 0
3, 9, 0
16, 3, 0
16, 8, 0
16, 15, 0
16, 9, 0
6, 13, 0
8, 3, 0
8, 2, 0
8, 16, 0
8, 15, 0
8, 5, 0
8, 9, 0
5, 7, 0
5, 3, 0
5, 4, 0
5, 14, 0
5, 2, 0
5, 13, 0
5, 1, 0
5, 8, 0
5, 15, 0
5, 11, 0
5, 9, 0
11, 7, 0
11, 12, 0
11, 15, 0
11, 14, 0
11, 5, 0
10, 0, 0
10, 7, 0
10, 4, 0
10, 15, 0
10, 9, 0
7, 0, 0
7, 4, 0
7, 15, 0
7, 5, 0
7, 11, 0
7, 10, 0
12, 14, 0
12, 11, 0
4, 0, 0
4, 7, 0
4, 9, 0
4, 5, 0
4, 10, 0
14, 12, 0
14, 17, 0
14, 5, 0
14, 11, 0
14, 1, 0
2, 8, 0
2, 15, 0
2, 5, 0
1, 14, 0
1, 13, 0
1, 15, 0
1, 5, 0
1, 17, 0
15, 7, 0
15, 3, 0
15, 13, 0
15, 2, 0
15, 16, 0
15, 10, 0
15, 1, 0
15, 8, 0
15, 5, 0
15, 11, 0
15, 9, 0
9, 0, 0
9, 3, 0
9, 4, 0
9, 16, 0
9, 8, 0
9, 15, 0
9, 5, 0
9, 10, 0
