0, 12, 0
0, 11, 0
8, 10, 0
8, 1, 0
3, 7, 0
3, 11, 0
3, 9, 0
6, 4, 0
6, 9, 0
6, 5, 0
6, 2, 0
5, 7, 0
5, 6, 0
5, 4, 1
5, 9, 0
5, 2, 0
11, 0, 0
11, 12, 0
11, 7, 0
11, 4, 0
11, 3, 0
10, 12, 0
10, 8, 0
10, 1, 0
7, 3, 0
7, 4, 0
7, 5, 0
7, 11, 0
7, 9, 0
12, 0, 0
12, 11, 0
12, 10, 0
4, 7, 0
4, 2, 0
4, 6, 0
4, 5, 1
4, 11, 0
4, 9, 0
2, 6, 0
2, 1, 0
2, 4, 0
2, 5, 0
2, 9, 0
1, 2, 0
1, 8, 0
1, 10, 0
9, 7, 0
9, 3, 0
9, 4, 0
9, 2, 0
9, 6, 0
9, 5, 0
