0, 2, 0
0, 1, 0
6, 7, 1
6, 8, 0
6, 11, 0
1, 0, 0
1, 11, 0
5, 3, 0
5, 4, 0
5, 9, 0
5, 10, 0
11, 7, 0
11, 6, 0
11, 8, 0
11, 1, 0
10, 3, 0
10, 8, 0
10, 5, 0
10, 4, 0
7, 6, 1
7, 8, 0
7, 11, 0
3, 10, 0
3, 4, 0
3, 5, 0
3, 9, 0
4, 3, 0
4, 9, 0
4, 5, 0
4, 10, 0
2, 0, 0
8, 7, 0
8, 6, 0
8, 11, 0
8, 10, 0
9, 3, 0
9, 4, 0
9, 5, 0
