0, 11, 0
0, 1, 1
8, 7, 0
8, 9, 0
8, 5, 0
8, 10, 0
3, 4, 0
3, 11, 0
3, 2, 1
6, 7, 0
6, 4, 0
6, 5, 0
5, 7, 0
5, 6, 0
5, 8, 0
11, 0, 0
11, 12, 1
11, 4, 0
11, 3, 0
11, 2, 0
11, 1, 0
10, 8, 0
10, 9, 0
7, 6, 0
7, 8, 0
7, 5, 0
7, 4, 0
12, 4, 0
12, 11, 1
12, 2, 0
4, 7, 0
4, 12, 0
4, 3, 0
4, 2, 0
4, 6, 0
4, 11, 0
4, 1, 0
2, 12, 0
2, 4, 0
2, 11, 0
2, 3, 1
1, 0, 1
1, 4, 0
1, 11, 0
9, 8, 0
9, 10, 0
