0, 7, 0
0, 4, 0
0, 9, 0
0, 8, 0
0, 5, 0
0, 10, 0
3, 7, 0
3, 6, 0
3, 2, 0
3, 10, 0
4, 0, 0
4, 7, 0
4, 8, 0
4, 5, 0
4, 1, 0
2, 7, 0
2, 3, 0
2, 6, 0
6, 7, 0
6, 3, 0
6, 2, 0
1, 7, 0
1, 4, 0
8, 0, 0
8, 7, 0
8, 4, 0
8, 5, 0
5, 0, 0
5, 8, 0
5, 4, 0
7, 0, 0
7, 3, 0
7, 4, 0
7, 2, 0
7, 6, 0
7, 1, 0
7, 8, 0
7, 10, 0
7, 9, 0
10, 0, 0
10, 3, 0
10, 7, 0
10, 9, 0
9, 0, 0
9, 7, 0
9, 10, 0
