12, 7, 0
12, 13, 0
12, 14, 0
12, 2, 0
12, 16, 0
12, 25, 0
12, 15, 0
12, 11, 0
12, 10, 0
13, 7, 0
13, 12, 0
13, 14, 0
13, 23, 0
13, 2, 0
13, 16, 0
13, 6, 0
13, 20, 0
13, 18, 0
13, 11, 0
13, 1, 0
17, 3, 0
17, 28, 0
17, 31, 0
17, 18, 0
17, 27, 0
17, 5, 0
26, 21, 0
26, 19, 0
26, 4, 0
26, 9, 0
26, 30, 0
23, 13, 0
23, 25, 0
23, 29, 0
23, 16, 0
23, 24, 1
23, 15, 0
23, 11, 0
2, 7, 0
2, 12, 0
2, 13, 0
2, 14, 0
2, 6, 0
2, 10, 0
2, 11, 0
2, 1, 1
5, 18, 0
5, 27, 0
5, 28, 0
5, 17, 0
5, 31, 0
11, 12, 0
11, 13, 0
11, 25, 0
11, 23, 0
11, 24, 0
11, 16, 0
11, 2, 0
11, 29, 0
11, 15, 0
11, 10, 0
1, 7, 0
1, 20, 0
1, 13, 0
1, 14, 0
1, 2, 1
1, 18, 0
1, 6, 0
1, 10, 0
20, 7, 0
20, 16, 0
20, 13, 0
20, 14, 0
20, 29, 0
20, 18, 0
20, 6, 0
20, 10, 0
20, 25, 0
20, 1, 0
4, 0, 0
4, 26, 0
4, 21, 0
4, 19, 0
4, 8, 0
4, 22, 0
4, 9, 0
14, 20, 0
14, 7, 0
14, 13, 0
14, 25, 0
14, 12, 0
14, 16, 0
14, 6, 0
14, 2, 0
14, 15, 0
14, 18, 0
14, 1, 0
24, 25, 0
24, 11, 0
24, 23, 1
24, 29, 0
28, 3, 0
28, 17, 0
28, 31, 0
28, 18, 0
28, 27, 0
28, 5, 0
30, 21, 0
30, 0, 0
30, 19, 0
30, 26, 0
30, 9, 0
8, 0, 0
8, 21, 0
8, 19, 0
8, 4, 0
8, 22, 0
15, 12, 0
15, 14, 0
15, 23, 0
15, 29, 0
15, 16, 0
15, 25, 0
15, 11, 0
15, 10, 0
22, 0, 0
22, 4, 0
22, 21, 0
22, 19, 0
22, 8, 0
22, 9, 0
0, 4, 0
0, 9, 0
0, 21, 0
0, 19, 0
0, 8, 0
0, 22, 0
0, 30, 0
3, 18, 0
3, 28, 0
3, 17, 0
3, 31, 0
3, 27, 0
16, 7, 0
16, 13, 0
16, 23, 0
16, 18, 0
16, 6, 0
16, 11, 0
16, 20, 0
16, 12, 0
16, 14, 0
16, 29, 0
16, 25, 0
16, 15, 0
6, 20, 0
6, 7, 1
6, 13, 0
6, 14, 0
6, 2, 0
6, 16, 0
6, 25, 0
6, 1, 0
27, 3, 0
27, 28, 0
27, 31, 0
27, 18, 0
27, 17, 0
27, 10, 0
27, 5, 0
27, 9, 0
7, 20, 0
7, 12, 0
7, 13, 0
7, 14, 0
7, 2, 0
7, 16, 0
7, 6, 1
7, 25, 0
7, 1, 0
18, 13, 0
18, 28, 0
18, 16, 0
18, 27, 0
18, 5, 0
18, 1, 0
18, 20, 0
18, 3, 0
18, 25, 0
18, 31, 0
18, 17, 0
18, 14, 0
18, 10, 0
25, 7, 0
25, 23, 0
25, 16, 0
25, 6, 0
25, 24, 0
25, 11, 0
25, 10, 0
25, 20, 0
25, 12, 0
25, 14, 0
25, 29, 0
25, 15, 0
25, 18, 0
31, 3, 0
31, 17, 0
31, 27, 0
31, 18, 0
31, 28, 0
31, 5, 0
29, 20, 0
29, 25, 0
29, 23, 0
29, 24, 0
29, 16, 0
29, 15, 0
29, 11, 0
21, 0, 0
21, 4, 0
21, 9, 0
21, 26, 0
21, 19, 0
21, 8, 0
21, 22, 0
21, 30, 0
19, 0, 0
19, 4, 0
19, 9, 0
19, 26, 0
19, 21, 0
19, 8, 0
19, 22, 0
19, 30, 0
10, 20, 0
10, 12, 0
10, 25, 0
10, 2, 0
10, 18, 0
10, 27, 0
10, 15, 0
10, 11, 0
10, 1, 0
9, 0, 0
9, 4, 0
9, 26, 0
9, 21, 0
9, 27, 0
9, 19, 0
9, 22, 0
9, 30, 0
