13, 3, 0
13, 14, 0
13, 32, 0
13, 29, 0
13, 2, 0
13, 33, 0
13, 42, 0
13, 8, 0
13, 39, 0
13, 47, 0
13, 9, 0
17, 43, 0
17, 5, 0
23, 20, 0
23, 40, 0
23, 24, 1
23, 18, 0
23, 6, 0
23, 2, 0
23, 38, 0
42, 12, 0
42, 13, 0
42, 11, 0
42, 32, 0
42, 3, 0
46, 12, 0
46, 34, 0
20, 21, 0
20, 31, 0
20, 23, 0
20, 24, 0
20, 18, 0
20, 6, 0
20, 30, 0
20, 38, 0
20, 1, 0
34, 46, 0
14, 2, 0
14, 13, 0
14, 39, 0
14, 29, 0
24, 20, 0
24, 7, 0
24, 4, 0
24, 23, 1
24, 18, 0
24, 6, 0
24, 38, 0
24, 44, 0
24, 1, 0
28, 27, 1
28, 35, 0
28, 10, 0
39, 3, 0
39, 13, 0
39, 14, 0
39, 32, 0
39, 29, 0
39, 2, 0
39, 8, 0
39, 47, 0
39, 9, 0
41, 16, 0
41, 45, 0
41, 15, 0
41, 48, 0
41, 10, 0
0, 45, 0
0, 35, 0
0, 16, 0
0, 27, 0
0, 2, 0
0, 40, 0
0, 10, 0
0, 33, 0
0, 31, 0
0, 29, 0
0, 37, 0
0, 30, 0
0, 48, 0
0, 18, 0
0, 9, 0
8, 13, 0
8, 39, 0
8, 32, 0
8, 47, 0
33, 0, 0
33, 2, 0
33, 13, 0
33, 31, 0
33, 9, 0
15, 16, 1
15, 45, 0
15, 10, 0
15, 41, 0
15, 48, 0
47, 13, 0
47, 8, 0
47, 39, 0
47, 32, 0
47, 2, 0
10, 0, 0
10, 45, 0
10, 4, 0
10, 28, 0
10, 35, 0
10, 27, 0
10, 41, 0
10, 15, 0
10, 44, 0
10, 22, 0
10, 36, 0
7, 40, 0
7, 4, 0
7, 24, 0
7, 18, 0
7, 6, 0
7, 38, 0
3, 42, 0
3, 13, 0
3, 39, 0
3, 32, 0
32, 3, 0
32, 13, 0
32, 2, 0
32, 42, 0
32, 8, 0
32, 39, 0
32, 47, 0
32, 12, 0
2, 0, 0
2, 13, 0
2, 26, 0
2, 23, 0
2, 47, 0
2, 32, 0
2, 33, 0
2, 14, 0
2, 31, 0
2, 29, 0
2, 19, 0
2, 36, 0
2, 39, 0
2, 48, 0
2, 9, 0
21, 20, 0
21, 4, 0
21, 43, 0
21, 31, 0
21, 6, 0
21, 30, 0
21, 38, 0
21, 44, 0
21, 1, 0
19, 48, 0
19, 26, 0
19, 2, 0
18, 0, 0
18, 7, 0
18, 23, 0
18, 6, 0
18, 35, 0
18, 40, 0
18, 44, 0
18, 1, 0
18, 20, 0
18, 4, 0
18, 24, 0
18, 38, 0
18, 22, 0
31, 0, 0
31, 6, 0
31, 2, 0
31, 44, 0
31, 30, 1
31, 20, 0
31, 33, 0
31, 4, 0
31, 43, 0
31, 35, 0
31, 21, 0
31, 29, 0
31, 1, 0
31, 38, 0
31, 22, 0
29, 0, 0
29, 13, 0
29, 14, 0
29, 31, 0
29, 2, 0
29, 39, 0
29, 9, 0
40, 0, 0
40, 23, 0
40, 18, 0
40, 6, 0
40, 44, 0
40, 27, 0
40, 7, 0
40, 4, 0
40, 35, 0
40, 37, 0
40, 1, 0
40, 38, 0
40, 22, 0
40, 36, 0
11, 12, 0
11, 42, 0
5, 25, 0
5, 17, 0
5, 1, 0
37, 0, 0
37, 4, 0
37, 38, 0
37, 35, 0
37, 27, 0
37, 40, 0
37, 44, 0
37, 22, 0
37, 36, 1
4, 18, 0
4, 6, 0
4, 40, 0
4, 44, 0
4, 27, 0
4, 7, 0
4, 37, 0
4, 31, 0
4, 24, 0
4, 21, 0
4, 30, 0
4, 10, 0
35, 0, 0
35, 18, 0
35, 28, 0
35, 31, 0
35, 37, 0
35, 27, 0
35, 30, 0
35, 40, 0
35, 22, 0
35, 10, 0
30, 0, 0
30, 6, 0
30, 44, 0
30, 1, 0
30, 20, 0
30, 4, 0
30, 43, 0
30, 31, 1
30, 35, 0
30, 21, 0
30, 38, 0
30, 22, 0
38, 7, 0
38, 23, 0
38, 18, 0
38, 6, 0
38, 40, 0
38, 30, 0
38, 20, 0
38, 21, 0
38, 31, 0
38, 24, 0
38, 37, 0
38, 1, 0
22, 18, 0
22, 31, 0
22, 35, 0
22, 37, 0
22, 27, 0
22, 36, 0
22, 10, 0
22, 40, 0
22, 44, 0
22, 30, 0
36, 2, 0
36, 37, 1
36, 27, 0
36, 40, 0
36, 22, 0
36, 10, 0
45, 0, 0
45, 16, 0
45, 10, 0
45, 15, 0
45, 48, 0
45, 41, 0
16, 0, 0
16, 45, 0
16, 15, 1
16, 41, 0
16, 48, 0
27, 0, 0
27, 4, 0
27, 28, 1
27, 35, 0
27, 37, 0
27, 36, 0
27, 40, 0
27, 44, 0
27, 22, 0
27, 10, 0
1, 18, 0
1, 6, 0
1, 40, 0
1, 5, 0
1, 30, 0
1, 20, 0
1, 43, 0
1, 31, 0
1, 24, 0
1, 21, 0
1, 25, 0
1, 38, 0
44, 18, 0
44, 6, 0
44, 40, 0
44, 27, 0
44, 21, 0
44, 4, 0
44, 31, 0
44, 24, 0
44, 37, 0
44, 30, 0
44, 10, 0
44, 22, 0
48, 0, 0
48, 45, 0
48, 26, 0
48, 2, 0
48, 16, 0
48, 19, 0
48, 15, 0
48, 41, 0
12, 42, 0
12, 46, 0
12, 11, 0
12, 32, 0
25, 5, 0
25, 1, 0
26, 19, 0
26, 48, 0
26, 2, 0
6, 7, 0
6, 23, 0
6, 18, 0
6, 40, 0
6, 44, 0
6, 30, 0
6, 20, 0
6, 4, 0
6, 43, 0
6, 31, 0
6, 24, 0
6, 21, 0
6, 1, 0
6, 38, 0
43, 17, 0
43, 31, 0
43, 21, 0
43, 6, 0
43, 30, 0
43, 1, 0
9, 0, 0
9, 33, 0
9, 13, 0
9, 29, 0
9, 2, 0
9, 39, 0
