0, 2, 0
0, 6, 0
0, 8, 0
0, 9, 0
0, 1, 0
3, 7, 0
3, 6, 0
3, 2, 1
4, 7, 0
4, 5, 1
2, 0, 0
2, 3, 1
2, 7, 0
2, 6, 0
2, 1, 0
2, 8, 0
2, 9, 0
6, 0, 0
6, 3, 0
6, 7, 0
6, 2, 0
1, 0, 0
1, 2, 0
1, 8, 0
1, 9, 0
8, 0, 0
8, 1, 0
8, 9, 1
8, 2, 0
5, 4, 1
7, 2, 0
7, 6, 0
7, 4, 0
7, 3, 0
9, 0, 0
9, 1, 0
9, 8, 1
9, 2, 0
