0, 2, 0
3, 4, 0
3, 2, 0
4, 7, 1
4, 3, 0
4, 6, 1
4, 1, 0
4, 8, 1
4, 5, 1
4, 10, 1
4, 9, 1
2, 0, 0
2, 3, 0
6, 7, 1
6, 4, 1
6, 5, 1
6, 1, 0
1, 7, 0
1, 4, 0
1, 6, 0
1, 8, 0
1, 5, 0
1, 10, 0
1, 9, 0
8, 7, 1
8, 1, 0
8, 4, 1
8, 5, 1
8, 9, 1
5, 7, 1
5, 4, 1
5, 6, 1
5, 1, 0
5, 8, 1
5, 9, 1
7, 4, 1
7, 6, 1
7, 1, 0
7, 8, 1
7, 5, 1
7, 9, 1
10, 1, 0
10, 4, 1
10, 9, 1
9, 7, 1
9, 4, 1
9, 1, 0
9, 8, 1
9, 5, 1
9, 10, 1
