0, 3, 0
0, 1, 0
3, 0, 0
3, 7, 0
3, 4, 0
3, 9, 0
3, 8, 0
3, 1, 0
4, 3, 0
4, 1, 0
2, 6, 0
2, 5, 0
6, 7, 0
6, 5, 0
6, 2, 0
1, 0, 0
1, 3, 0
1, 4, 0
8, 7, 0
8, 3, 0
8, 9, 1
5, 6, 0
5, 2, 0
7, 3, 0
7, 6, 0
7, 8, 0
7, 9, 0
9, 7, 0
9, 3, 0
9, 8, 1
