13, 20, 0
13, 12, 0
13, 6, 0
17, 18, 0
17, 20, 0
17, 4, 0
17, 14, 0
17, 3, 0
5, 20, 0
5, 4, 1
5, 15, 0
11, 7, 0
11, 16, 0
11, 2, 0
11, 21, 0
11, 19, 0
11, 8, 0
11, 10, 0
11, 9, 0
1, 6, 0
1, 19, 0
1, 10, 0
20, 12, 0
20, 13, 0
20, 17, 0
20, 4, 0
20, 3, 0
20, 18, 0
20, 6, 0
20, 14, 0
20, 15, 0
20, 5, 0
20, 10, 0
4, 20, 0
4, 3, 1
4, 15, 0
4, 5, 1
4, 17, 0
14, 20, 0
14, 18, 0
14, 15, 0
14, 17, 0
14, 3, 0
8, 7, 1
8, 2, 0
8, 16, 0
8, 10, 0
8, 11, 0
8, 9, 1
15, 20, 0
15, 3, 0
15, 4, 0
15, 14, 0
15, 12, 0
15, 18, 0
15, 5, 0
22, 21, 0
22, 0, 0
22, 2, 0
0, 21, 0
0, 22, 0
0, 2, 0
3, 20, 0
3, 4, 1
3, 14, 0
3, 18, 0
3, 17, 0
3, 15, 0
16, 7, 0
16, 9, 0
16, 2, 0
16, 19, 0
16, 8, 0
16, 11, 0
16, 10, 0
6, 20, 0
6, 12, 0
6, 13, 0
6, 19, 0
6, 1, 0
6, 10, 0
10, 20, 0
10, 7, 0
10, 9, 0
10, 2, 0
10, 16, 0
10, 6, 0
10, 19, 0
10, 8, 0
10, 11, 0
10, 1, 0
7, 2, 0
7, 16, 0
7, 19, 0
7, 8, 1
7, 11, 0
7, 10, 0
12, 20, 0
12, 6, 0
12, 13, 0
12, 15, 0
2, 0, 0
2, 7, 0
2, 9, 0
2, 11, 0
2, 21, 0
2, 16, 0
2, 19, 0
2, 8, 0
2, 22, 0
2, 10, 0
21, 0, 0
21, 22, 0
21, 11, 0
21, 2, 0
19, 7, 0
19, 2, 0
19, 16, 0
19, 6, 0
19, 1, 0
19, 11, 0
19, 10, 0
18, 20, 0
18, 14, 0
18, 15, 0
18, 17, 0
18, 3, 0
9, 16, 0
9, 2, 0
9, 8, 1
9, 11, 0
9, 10, 0
