0, 6, 0
0, 13, 0
0, 9, 0
0, 3, 0
0, 2, 0
13, 0, 0
13, 3, 0
13, 12, 0
13, 2, 0
13, 1, 0
13, 5, 0
13, 9, 0
3, 0, 0
3, 13, 0
3, 2, 1
6, 0, 0
6, 11, 0
8, 10, 0
5, 13, 0
5, 9, 0
5, 4, 1
5, 1, 0
11, 7, 0
11, 6, 0
10, 12, 0
10, 8, 0
7, 11, 0
12, 1, 0
12, 13, 0
12, 10, 0
4, 9, 0
4, 5, 1
4, 1, 0
2, 0, 0
2, 3, 1
2, 13, 0
2, 9, 0
1, 12, 0
1, 13, 0
1, 5, 0
1, 4, 0
1, 9, 0
9, 0, 0
9, 13, 0
9, 4, 0
9, 2, 0
9, 5, 0
9, 1, 0
