0, 7, 0
0, 5, 0
8, 9, 1
8, 11, 0
8, 10, 0
3, 4, 0
3, 2, 0
6, 11, 0
6, 2, 0
5, 7, 0
5, 0, 0
5, 10, 0
11, 2, 0
11, 6, 0
11, 8, 0
11, 10, 0
11, 9, 0
10, 8, 0
10, 5, 0
10, 11, 0
10, 9, 0
7, 0, 0
7, 5, 0
12, 4, 0
12, 1, 0
4, 12, 0
4, 2, 0
4, 3, 0
4, 1, 0
2, 6, 0
2, 4, 0
2, 11, 0
2, 3, 0
1, 12, 0
1, 4, 0
9, 8, 1
9, 11, 0
9, 10, 0
