0, 8, 0
0, 13, 0
13, 0, 0
13, 4, 0
13, 14, 0
13, 9, 0
13, 8, 0
13, 15, 0
13, 1, 0
3, 6, 0
3, 2, 0
3, 14, 0
3, 1, 0
6, 3, 0
6, 1, 0
6, 14, 0
6, 10, 0
8, 0, 0
8, 13, 0
8, 4, 0
5, 7, 0
5, 12, 0
5, 14, 0
5, 1, 0
11, 7, 0
11, 14, 0
11, 1, 0
10, 6, 0
10, 9, 0
10, 14, 0
10, 1, 0
7, 14, 0
7, 5, 0
7, 11, 0
7, 1, 0
12, 1, 0
12, 14, 0
12, 5, 0
12, 2, 0
4, 8, 0
4, 13, 0
14, 13, 0
14, 12, 0
14, 6, 0
14, 5, 0
14, 11, 0
14, 1, 0
14, 7, 0
14, 3, 0
14, 2, 0
14, 10, 0
14, 15, 1
14, 9, 0
2, 12, 0
2, 14, 0
2, 3, 0
2, 1, 1
1, 13, 0
1, 3, 0
1, 6, 0
1, 5, 0
1, 11, 0
1, 10, 0
1, 7, 0
1, 12, 0
1, 14, 0
1, 2, 1
1, 15, 0
1, 9, 0
15, 13, 0
15, 14, 1
15, 9, 0
15, 1, 0
9, 15, 0
9, 13, 0
9, 14, 0
9, 10, 0
9, 1, 0
