0, 3, 0
0, 6, 0
13, 16, 0
13, 12, 1
13, 15, 0
13, 1, 0
17, 4, 0
17, 14, 0
3, 0, 0
3, 6, 0
16, 12, 0
16, 13, 0
16, 15, 1
16, 5, 0
16, 1, 0
6, 0, 0
6, 3, 0
6, 14, 0
6, 2, 0
8, 4, 0
8, 11, 0
5, 7, 0
5, 12, 0
5, 16, 0
5, 1, 0
5, 15, 0
5, 10, 0
11, 8, 0
11, 14, 0
11, 4, 0
11, 9, 0
10, 7, 0
10, 5, 0
7, 5, 0
7, 10, 0
12, 16, 0
12, 13, 1
12, 15, 0
12, 5, 0
12, 1, 0
4, 14, 0
4, 8, 0
4, 17, 0
4, 11, 0
14, 4, 0
14, 17, 0
14, 2, 0
14, 6, 0
14, 11, 0
14, 1, 0
2, 6, 0
2, 14, 0
1, 12, 0
1, 13, 0
1, 14, 0
1, 16, 0
1, 15, 0
1, 5, 0
1, 9, 0
15, 16, 1
15, 12, 0
15, 13, 0
15, 5, 0
15, 1, 0
9, 11, 0
9, 1, 0
