12, 0, 0
12, 29, 0
12, 23, 0
12, 24, 0
13, 21, 0
13, 28, 0
13, 10, 0
17, 7, 0
17, 26, 0
26, 27, 0
26, 17, 0
26, 31, 0
23, 20, 0
23, 12, 0
23, 29, 0
23, 24, 0
2, 21, 0
2, 10, 0
2, 1, 0
5, 21, 0
5, 3, 0
5, 11, 0
11, 21, 0
11, 5, 0
11, 22, 0
1, 21, 0
1, 15, 0
1, 14, 0
1, 25, 0
1, 2, 0
20, 8, 0
20, 23, 0
20, 29, 0
4, 6, 0
4, 25, 0
14, 21, 0
14, 25, 0
14, 15, 1
14, 1, 0
24, 0, 0
24, 12, 0
24, 23, 0
24, 29, 0
28, 21, 0
28, 13, 0
28, 22, 0
30, 3, 0
30, 8, 0
30, 29, 1
8, 20, 0
8, 30, 0
8, 29, 0
15, 25, 0
15, 14, 1
15, 1, 0
22, 21, 1
22, 28, 0
22, 11, 0
0, 18, 0
0, 12, 0
0, 24, 0
0, 29, 0
3, 21, 0
3, 30, 0
3, 5, 0
3, 29, 0
16, 27, 0
16, 31, 0
6, 4, 0
6, 25, 0
27, 16, 0
27, 26, 0
27, 31, 0
27, 9, 0
7, 19, 0
7, 17, 0
18, 0, 0
18, 9, 0
25, 4, 0
25, 14, 0
25, 21, 0
25, 6, 0
25, 15, 0
25, 1, 0
31, 16, 0
31, 27, 0
31, 26, 0
29, 20, 0
29, 3, 0
29, 8, 0
29, 12, 0
29, 23, 0
29, 24, 0
29, 21, 0
29, 30, 1
29, 0, 0
21, 13, 0
21, 28, 0
21, 2, 0
21, 5, 0
21, 11, 0
21, 1, 0
21, 3, 0
21, 25, 0
21, 29, 0
21, 14, 0
21, 10, 0
21, 22, 1
19, 7, 0
19, 9, 0
10, 21, 0
10, 13, 0
10, 2, 0
9, 18, 0
9, 27, 0
9, 19, 0
