0, 9, 0
0, 5, 0
0, 2, 0
3, 6, 0
3, 4, 0
3, 5, 0
4, 3, 0
4, 5, 0
4, 6, 0
2, 0, 0
2, 5, 0
6, 3, 0
6, 4, 0
6, 5, 0
1, 10, 0
8, 7, 1
8, 10, 0
8, 9, 0
5, 0, 0
5, 3, 0
5, 6, 0
5, 4, 0
5, 2, 0
7, 8, 1
7, 10, 0
7, 9, 0
10, 7, 0
10, 1, 0
10, 8, 0
10, 9, 0
9, 0, 0
9, 7, 0
9, 8, 0
9, 10, 0
