0, 6, 0
0, 9, 0
0, 1, 0
3, 7, 0
3, 4, 0
3, 5, 0
3, 2, 1
4, 7, 0
4, 3, 0
4, 6, 0
4, 8, 0
4, 9, 0
2, 7, 0
2, 3, 1
2, 5, 0
6, 0, 0
6, 1, 0
6, 4, 0
6, 9, 0
1, 0, 0
1, 6, 0
1, 9, 0
8, 7, 0
8, 4, 0
8, 9, 0
5, 7, 0
5, 3, 0
5, 2, 0
7, 3, 0
7, 4, 0
7, 2, 0
7, 8, 0
7, 5, 0
7, 9, 0
9, 0, 0
9, 7, 0
9, 4, 0
9, 6, 0
9, 8, 0
9, 1, 0
