171651, 171650, 2
171651, 171652, 1
171653, 171652, 2
171650, 171651, 1
171650, 171649, 2
171652, 171651, 2
171652, 171653, 1
171648, 171649, 1
171648, 171647, 2
171649, 171650, 1
171649, 171648, 2
171647, 171648, 1
