301388, 301387, 2
301388, 301386, 2
301388, 301389, 1
301386, 301387, 2
301386, 301388, 2
301386, 301390, 2
301386, 301385, 2
301386, 301389, 2
301390, 301386, 2
301390, 301389, 2
301390, 301391, 1
301391, 301390, 2
301391, 301389, 2
301387, 301388, 1
301387, 301386, 2
301387, 301385, 2
301385, 301387, 1
301385, 301386, 0
301389, 301388, 2
301389, 301386, 2
301389, 301390, 1
301389, 301391, 2
