15817, 15821, 2
15817, 15818, 2
15817, 15816, 2
15817, 15820, 2
15817, 15819, 2
15819, 15817, 2
15819, 15818, 2
15819, 15820, 2
15819, 15822, 2
15816, 15817, 0
15816, 15818, 3
15816, 15820, 1
15816, 15821, 2
15822, 15821, 2
15822, 15819, 2
15822, 15824, 2
15822, 15825, 2
15822, 15820, 2
15822, 15826, 2
15822, 15823, 2
15822, 15818, 2
15821, 15817, 2
15821, 15816, 2
15821, 15822, 2
15821, 15824, 2
15821, 15818, 2
15821, 15820, 2
15821, 15825, 2
15821, 15823, 2
15825, 15822, 2
15825, 15821, 2
15825, 15826, 2
15825, 15820, 2
15825, 15824, 2
15824, 15821, 2
15824, 15826, 3
15824, 15822, 2
15824, 15825, 0
15824, 15820, 2
15824, 15823, 2
15820, 15817, 2
15820, 15819, 2
15820, 15816, 2
15820, 15822, 3
15820, 15821, 0
15820, 15825, 2
15820, 15824, 1
15820, 15818, 2
15826, 15825, 2
15826, 15822, 2
15826, 15823, 2
15826, 15824, 2
15823, 15821, 2
15823, 15826, 2
15823, 15822, 2
15823, 15824, 2
15818, 15817, 2
15818, 15819, 2
15818, 15816, 2
15818, 15822, 2
15818, 15821, 2
15818, 15820, 2
