72301, 72300, 2
72301, 72302, 1
72305, 72306, 1
72305, 72304, 2
72300, 72301, 1
72300, 72299, 2
72303, 72304, 1
72303, 72302, 2
72306, 72305, 2
72306, 72304, 2
72299, 72300, 1
72302, 72301, 2
72302, 72303, 1
72304, 72305, 1
72304, 72306, 2
72304, 72303, 2
