17554, 17556, 2
17554, 17552, 2
17554, 17555, 2
17554, 17553, 2
17554, 17551, 2
17545, 17544, 2
17545, 17551, 2
17545, 17542, 2
17545, 17547, 1
17545, 17543, 2
17545, 17546, 3
17551, 17549, 2
17551, 17543, 2
17551, 17552, 2
17551, 17550, 2
17551, 17545, 2
17551, 17553, 2
17551, 17548, 2
17551, 17542, 2
17551, 17547, 2
17551, 17554, 2
17551, 17555, 2
17548, 17549, 2
17548, 17546, 2
17548, 17547, 2
17548, 17550, 2
17548, 17551, 2
17556, 17555, 2
17556, 17554, 2
17543, 17550, 2
17543, 17545, 2
17543, 17551, 2
17543, 17553, 2
17543, 17542, 2
17543, 17547, 2
17543, 17546, 2
17543, 17544, 2
17544, 17543, 2
17544, 17542, 2
17544, 17546, 2
17544, 17545, 2
17549, 17552, 2
17549, 17550, 2
17549, 17551, 2
17549, 17548, 2
17552, 17549, 2
17552, 17550, 2
17552, 17554, 2
17552, 17553, 2
17552, 17551, 2
17550, 17549, 2
17550, 17552, 3
17550, 17553, 1
17550, 17551, 0
17550, 17548, 2
17550, 17543, 2
17550, 17547, 2
17553, 17552, 2
17553, 17550, 2
17553, 17551, 2
17553, 17543, 2
17553, 17554, 3
17553, 17555, 1
17542, 17543, 0
17542, 17544, 3
17542, 17545, 1
17542, 17551, 2
17547, 17550, 1
17547, 17545, 2
17547, 17551, 2
17547, 17548, 3
17547, 17546, 2
17547, 17543, 2
17555, 17556, 3
17555, 17554, 2
17555, 17553, 2
17555, 17551, 2
17546, 17543, 2
17546, 17547, 2
17546, 17545, 2
17546, 17544, 2
17546, 17548, 2
