22174, 22173, 2
22174, 22175, 1
22174, 22172, 2
22178, 22173, 2
22178, 22177, 2
22178, 22179, 1
22176, 22173, 2
22176, 22177, 1
22176, 22175, 2
22175, 22174, 2
22175, 22172, 2
22175, 22176, 1
22175, 22173, 2
22173, 22174, 2
22173, 22178, 2
22173, 22176, 2
22173, 22175, 2
22173, 22172, 2
22173, 22177, 2
22180, 22179, 2
22172, 22174, 1
22172, 22175, 2
22172, 22173, 0
22177, 22173, 2
22177, 22178, 1
22177, 22176, 2
22179, 22180, 1
22179, 22178, 2
