61539, 61540, 1
61539, 61541, 2
61539, 61536, 2
61539, 61538, 2
61541, 61540, 2
61541, 61539, 2
61541, 61542, 2
61541, 61544, 2
61536, 61539, 2
61536, 61540, 2
61536, 61537, 1
61536, 61538, 2
61542, 61541, 2
61542, 61540, 2
61542, 61543, 1
61542, 61544, 2
61537, 61536, 2
61537, 61538, 1
61543, 61544, 1
61543, 61542, 2
61540, 61539, 2
61540, 61541, 8
61540, 61536, 2
61540, 61542, 1
61544, 61541, 2
61544, 61542, 2
61544, 61545, 0
61544, 61543, 2
61545, 61544, 2
61538, 61539, 1
61538, 61536, 2
61538, 61537, 2
