71168, 71169, 1
71168, 71170, 2
71168, 71167, 2
71166, 71167, 1
71171, 71169, 2
71171, 71170, 2
71169, 71168, 2
71169, 71170, 1
71169, 71171, 2
71170, 71168, 2
71170, 71169, 2
71170, 71171, 3
71167, 71168, 1
71167, 71166, 2
