294943, 294941, 2
294943, 294944, 1
294943, 294942, 2
294942, 294943, 1
294942, 294944, 2
294942, 294939, 2
294942, 294937, 2
294942, 294941, 2
294942, 294938, 2
294944, 294946, 1
294944, 294938, 2
294944, 294942, 2
294944, 294943, 2
294944, 294941, 2
294944, 294945, 3
294939, 294937, 2
294939, 294940, 1
294939, 294938, 2
294939, 294942, 2
294940, 294941, 1
294940, 294939, 2
294940, 294938, 2
294937, 294942, 1
294937, 294939, 0
294937, 294938, 3
294947, 294946, 2
294941, 294943, 2
294941, 294944, 2
294941, 294940, 2
294941, 294942, 2
294941, 294938, 2
294946, 294947, 1
294946, 294944, 2
294946, 294945, 2
294945, 294946, 2
294945, 294944, 2
294945, 294938, 2
294938, 294942, 2
294938, 294944, 2
294938, 294939, 2
294938, 294940, 2
294938, 294937, 2
294938, 294941, 2
294938, 294945, 2
