71729, 71730, 1
71731, 71733, 1
71731, 71730, 2
71731, 71734, 2
71731, 71735, 2
71731, 71732, 8
71732, 71733, 2
71732, 71731, 2
71732, 71735, 2
71732, 71730, 2
71733, 71731, 2
71733, 71732, 2
71733, 71735, 1
71733, 71734, 6
71733, 71730, 2
71734, 71733, 2
71734, 71731, 2
71734, 71735, 2
71734, 71730, 2
71735, 71733, 2
71735, 71731, 2
71735, 71734, 2
71735, 71732, 2
71730, 71733, 2
71730, 71729, 2
71730, 71731, 1
71730, 71734, 2
71730, 71732, 2
