70612, 70613, 2
70612, 70614, 2
70612, 70615, 2
70612, 70611, 2
70613, 70612, 2
70613, 70614, 2
70613, 70611, 2
70614, 70612, 2
70614, 70613, 2
70614, 70615, 0
70614, 70611, 2
70615, 70612, 2
70615, 70614, 2
70611, 70612, 0
70611, 70613, 8
70611, 70614, 1
