22100, 22101, 1
22100, 22099, 2
22100, 22098, 2
22098, 22100, 2
22098, 22099, 2
22098, 22101, 2
22098, 22103, 2
22098, 22102, 2
22104, 22102, 2
22104, 22103, 2
22099, 22100, 1
22099, 22098, 6
22099, 22101, 2
22099, 22102, 2
22102, 22101, 2
22102, 22098, 2
22102, 22104, 2
22102, 22103, 2
22102, 22099, 2
22101, 22100, 2
22101, 22098, 2
22101, 22102, 2
22101, 22103, 1
22101, 22099, 2
22103, 22101, 2
22103, 22098, 2
22103, 22104, 3
22103, 22102, 6
