162122, 162120, 2
162122, 162123, 1
162122, 162121, 2
162109, 162110, 1
162109, 162113, 2
162111, 162110, 2
162111, 162112, 1
162111, 162113, 2
162112, 162115, 2
162112, 162114, 2
162112, 162113, 3
162112, 162117, 2
162112, 162111, 2
162112, 162110, 2
162112, 162116, 1
162121, 162120, 2
162121, 162118, 2
162121, 162122, 2
162121, 162115, 2
162121, 162119, 2
162121, 162117, 2
162120, 162119, 2
162120, 162118, 2
162120, 162121, 3
162120, 162115, 2
162120, 162122, 1
162115, 162120, 2
162115, 162114, 2
162115, 162113, 2
162115, 162117, 2
162115, 162112, 2
162115, 162121, 2
162115, 162116, 2
162114, 162115, 1
162114, 162113, 2
162114, 162112, 2
162113, 162115, 2
162113, 162114, 1
162113, 162109, 2
162113, 162116, 2
162113, 162111, 2
162113, 162110, 2
162113, 162112, 2
162113, 162117, 2
162116, 162115, 2
162116, 162117, 1
162116, 162112, 2
162116, 162113, 2
162123, 162122, 2
162117, 162118, 1
162117, 162121, 2
162117, 162113, 2
162117, 162116, 2
162117, 162115, 2
162117, 162112, 2
162110, 162111, 1
162110, 162109, 2
162110, 162112, 2
162110, 162113, 2
162119, 162120, 1
162119, 162118, 2
162119, 162121, 2
162118, 162120, 2
162118, 162121, 2
162118, 162119, 1
162118, 162117, 2
