185201, 185200, 2
185201, 185202, 1
185191, 185190, 2
185191, 185192, 1
185193, 185194, 1
185193, 185192, 2
185197, 185196, 2
185197, 185198, 1
185196, 185195, 2
185196, 185197, 1
185199, 185200, 1
185199, 185198, 2
185202, 185200, 2
185202, 185201, 2
185198, 185199, 1
185198, 185197, 2
185195, 185196, 1
185195, 185194, 2
185190, 185191, 1
185190, 185192, 2
185194, 185195, 1
185194, 185193, 2
185200, 185199, 2
185200, 185202, 2
185200, 185201, 1
185192, 185190, 2
185192, 185191, 2
185192, 185193, 1
