184782, 184783, 1
184782, 184781, 2
184783, 184782, 2
184783, 184781, 2
184783, 184784, 1
184788, 184787, 2
184788, 184786, 2
184788, 184789, 1
184781, 184782, 1
184781, 184783, 2
184781, 184780, 2
184781, 184779, 2
184784, 184783, 2
184784, 184785, 1
184789, 184787, 2
184789, 184788, 2
184787, 184789, 2
184787, 184786, 2
184787, 184788, 1
184785, 184786, 1
184785, 184784, 2
184780, 184781, 1
184780, 184779, 2
184779, 184780, 1
184779, 184781, 2
184786, 184787, 1
184786, 184788, 2
184786, 184785, 2
