21389, 21390, 0
21389, 21391, 1
21389, 21392, 2
21390, 21389, 2
21390, 21391, 2
21390, 21392, 2
21393, 21392, 2
21393, 21394, 1
21394, 21393, 2
21394, 21395, 1
21391, 21389, 2
21391, 21390, 2
21391, 21392, 1
21392, 21389, 2
21392, 21390, 2
21392, 21393, 1
21392, 21391, 2
21395, 21394, 2
