126461, 126458, 2
126461, 126459, 2
126461, 126464, 2
126461, 126462, 1
126461, 126460, 2
126441, 126440, 2
126441, 126442, 1
126441, 126460, 2
126459, 126461, 3
126459, 126458, 2
126459, 126463, 2
126459, 126462, 2
126459, 126460, 0
126459, 126464, 1
126463, 126459, 2
126463, 126464, 2
126463, 126462, 2
126463, 126460, 2
126455, 126454, 2
126455, 126456, 1
126455, 126460, 2
126462, 126461, 2
126462, 126459, 2
126462, 126463, 1
126462, 126464, 2
126462, 126460, 2
126449, 126448, 2
126449, 126451, 1
126449, 126450, 8
126446, 126447, 1
126446, 126445, 2
126438, 126437, 2
126438, 126439, 1
126437, 126438, 1
126437, 126434, 2
126437, 126435, 2
126437, 126436, 2
126442, 126441, 2
126442, 126443, 1
126442, 126444, 2
126460, 126461, 2
126460, 126441, 2
126460, 126459, 2
126460, 126463, 2
126460, 126456, 2
126460, 126462, 2
126460, 126448, 2
126460, 126464, 2
126460, 126465, 2
126460, 126458, 2
126460, 126431, 2
126460, 126439, 2
126460, 126455, 2
126460, 126434, 2
126460, 126445, 2
126453, 126454, 1
126453, 126452, 2
126434, 126433, 2
126434, 126437, 2
126434, 126435, 1
126434, 126460, 2
126457, 126458, 1
126457, 126456, 2
126450, 126451, 2
126450, 126449, 2
126433, 126432, 2
126433, 126434, 1
126456, 126455, 2
126456, 126457, 1
126456, 126460, 2
126436, 126437, 2
126436, 126439, 2
126436, 126435, 2
126451, 126448, 2
126451, 126450, 2
126451, 126452, 1
126451, 126449, 2
126458, 126461, 2
126458, 126459, 1
126458, 126457, 2
126458, 126460, 2
126440, 126441, 1
126440, 126439, 2
126444, 126442, 2
126444, 126443, 2
126444, 126445, 1
126464, 126461, 2
126464, 126459, 2
126464, 126463, 2
126464, 126462, 2
126464, 126460, 2
126464, 126465, 1
126454, 126453, 2
126454, 126455, 1
126432, 126433, 1
126432, 126431, 2
126448, 126460, 2
126448, 126447, 2
126448, 126451, 2
126448, 126449, 1
126465, 126464, 2
126465, 126460, 2
126431, 126432, 1
126431, 126430, 2
126431, 126460, 2
126439, 126440, 1
126439, 126460, 2
126439, 126436, 2
126439, 126438, 2
126443, 126442, 2
126443, 126444, 1
126452, 126453, 1
126452, 126451, 2
126430, 126431, 1
126447, 126448, 1
126447, 126446, 2
126435, 126437, 1
126435, 126434, 2
126435, 126436, 8
126445, 126444, 2
126445, 126446, 1
126445, 126460, 2
