15843, 15842, 2
15843, 15844, 1
15839, 15840, 2
15839, 15838, 2
15839, 15841, 2
15848, 15846, 2
15848, 15847, 2
15848, 15844, 2
15848, 15845, 2
15847, 15846, 2
15847, 15848, 2
15847, 15844, 2
15847, 15841, 2
15847, 15845, 2
15841, 15840, 2
15841, 15839, 2
15841, 15842, 1
15841, 15847, 2
15841, 15838, 2
15845, 15848, 1
15845, 15847, 3
15845, 15844, 2
15845, 15846, 0
15840, 15839, 2
15840, 15838, 2
15840, 15841, 2
15838, 15840, 0
15838, 15839, 3
15838, 15841, 1
15846, 15848, 2
15846, 15847, 2
15846, 15844, 2
15846, 15845, 2
15842, 15843, 1
15842, 15841, 2
15844, 15843, 2
15844, 15845, 1
15844, 15847, 2
15844, 15848, 2
15844, 15846, 2
