300693, 300692, 2
300693, 300695, 2
300693, 300694, 1
300693, 300691, 2
300695, 300693, 2
300695, 300691, 2
300695, 300694, 2
300695, 300696, 2
300694, 300693, 2
300694, 300695, 6
300694, 300696, 1
300691, 300693, 1
300691, 300692, 3
300691, 300695, 2
300696, 300695, 2
300696, 300694, 2
300692, 300693, 2
300692, 300691, 2
