222215, 222216, 1
222215, 222217, 2
222218, 222219, 1
222218, 222217, 2
222220, 222221, 1
222220, 222219, 2
222220, 222222, 2
222217, 222215, 2
222217, 222218, 1
222217, 222216, 2
222219, 222218, 2
222219, 222220, 1
222221, 222220, 2
222221, 222222, 1
222216, 222215, 2
222216, 222217, 1
222222, 222221, 2
222222, 222220, 2
