185288, 185287, 2
185288, 185289, 1
185288, 185290, 2
185290, 185293, 2
185290, 185291, 2
185290, 185289, 2
185290, 185288, 2
185287, 185293, 2
185287, 185288, 1
185292, 185294, 2
185292, 185293, 2
185292, 185291, 2
185291, 185294, 1
185291, 185293, 0
185291, 185292, 3
185291, 185289, 2
185291, 185290, 2
185300, 185301, 1
185300, 185299, 2
185297, 185296, 2
185297, 185299, 2
185297, 185298, 2
185293, 185289, 2
185293, 185290, 2
185293, 185294, 2
185293, 185287, 2
185293, 185292, 2
185293, 185291, 2
185289, 185294, 2
185289, 185293, 2
185289, 185291, 1
185289, 185288, 2
185289, 185290, 8
185299, 185297, 2
185299, 185300, 1
185299, 185296, 2
185299, 185295, 2
185299, 185298, 2
185294, 185293, 2
185294, 185289, 2
185294, 185292, 2
185294, 185291, 2
185294, 185295, 1
185294, 185296, 2
185294, 185298, 2
185301, 185300, 2
185295, 185294, 2
185295, 185296, 3
185295, 185299, 2
185295, 185298, 1
185296, 185297, 2
185296, 185294, 2
185296, 185295, 2
185296, 185299, 2
185296, 185298, 2
185298, 185297, 2
185298, 185294, 2
185298, 185296, 2
185298, 185295, 2
185298, 185299, 1
