257840, 257838, 2
257840, 257839, 2
257837, 257838, 1
257837, 257836, 2
257838, 257840, 2
257838, 257837, 2
257838, 257839, 1
257838, 257836, 2
257839, 257840, 1
257839, 257838, 2
257836, 257837, 1
257836, 257838, 2
