337821, 337819, 2
337821, 337818, 2
337821, 337823, 2
337821, 337820, 2
337821, 337822, 1
337837, 337839, 1
337837, 337838, 0
337837, 337836, 2
337834, 337832, 2
337834, 337833, 2
337834, 337835, 1
337834, 337836, 2
337819, 337818, 2
337819, 337821, 1
337819, 337820, 3
337819, 337817, 2
337831, 337832, 1
337831, 337829, 2
337831, 337828, 2
337831, 337830, 2
337833, 337832, 2
337833, 337829, 2
337833, 337828, 2
337833, 337834, 2
337841, 337839, 2
337841, 337842, 0
337841, 337843, 1
337841, 337840, 2
337826, 337825, 2
337826, 337828, 2
337826, 337827, 1
337835, 337834, 2
337835, 337836, 1
337842, 337843, 2
337842, 337841, 2
337842, 337840, 2
337842, 337838, 2
337842, 337839, 2
337813, 337814, 1
337813, 337812, 2
337838, 337839, 2
337838, 337842, 2
337838, 337837, 2
337838, 337836, 2
337839, 337842, 2
337839, 337838, 2
337839, 337840, 1
337839, 337837, 2
337839, 337841, 2
337839, 337836, 2
337825, 337827, 2
337825, 337828, 2
337825, 337824, 2
337825, 337826, 1
337836, 337839, 2
337836, 337837, 1
337836, 337835, 2
337836, 337838, 2
337836, 337834, 2
337814, 337813, 2
337814, 337815, 1
337812, 337813, 1
337823, 337821, 2
337823, 337824, 1
337823, 337822, 2
337832, 337831, 2
337832, 337833, 3
337832, 337834, 1
337816, 337817, 1
337816, 337815, 2
337840, 337839, 2
337840, 337842, 2
337840, 337841, 1
337818, 337819, 1
337818, 337821, 2
337818, 337817, 2
337829, 337831, 2
337829, 337833, 2
337829, 337828, 2
337829, 337830, 1
337822, 337821, 2
337822, 337823, 1
337820, 337819, 2
337820, 337821, 2
337817, 337819, 2
337817, 337818, 1
337817, 337816, 2
337817, 337815, 2
337843, 337842, 2
337843, 337841, 2
337827, 337825, 2
337827, 337828, 1
337827, 337826, 2
337828, 337829, 1
337828, 337827, 2
337828, 337825, 2
337828, 337833, 2
337828, 337831, 2
337828, 337826, 2
337828, 337830, 2
337830, 337831, 1
337830, 337828, 2
337830, 337829, 2
337824, 337825, 1
337824, 337823, 2
337815, 337814, 2
337815, 337816, 1
337815, 337817, 2
