71116, 71117, 2
71116, 71112, 2
71116, 71115, 2
71116, 71114, 2
71113, 71112, 2
71113, 71115, 2
71113, 71114, 2
71112, 71116, 2
71112, 71113, 0
71112, 71115, 2
71112, 71114, 1
71114, 71116, 2
71114, 71113, 2
71114, 71112, 2
71114, 71115, 1
71115, 71116, 3
71115, 71113, 2
71115, 71112, 2
71115, 71114, 2
71115, 71117, 0
71117, 71116, 2
71117, 71115, 2
