67045, 67049, 2
67045, 67046, 1
67045, 67052, 2
67045, 67050, 2
67045, 67051, 2
67045, 67048, 2
67045, 67044, 2
67045, 67047, 2
67045, 67064, 2
67045, 67067, 2
67045, 67043, 2
67045, 67054, 2
67049, 67045, 2
67049, 67046, 2
67049, 67052, 2
67049, 67055, 2
67049, 67051, 1
67049, 67053, 2
67049, 67058, 2
67049, 67048, 2
67049, 67050, 3
67049, 67047, 2
67049, 67054, 2
67049, 67059, 2
67063, 67070, 2
67063, 67065, 1
67063, 67059, 2
67063, 67064, 6
67063, 67067, 2
67063, 67057, 2
67063, 67068, 2
67063, 67066, 2
67063, 67062, 2
67051, 67049, 2
67051, 67050, 2
67051, 67052, 2
67051, 67045, 2
67051, 67055, 2
67051, 67056, 2
67051, 67058, 2
67051, 67053, 2
67051, 67054, 1
67058, 67049, 2
67058, 67055, 2
67058, 67060, 2
67058, 67051, 2
67058, 67056, 2
67058, 67062, 2
67058, 67050, 2
67058, 67047, 2
67058, 67061, 2
67058, 67057, 2
67058, 67054, 2
67058, 67059, 1
67062, 67058, 2
67062, 67063, 1
67062, 67052, 2
67062, 67061, 2
67062, 67059, 2
67062, 67056, 2
67062, 67064, 2
67062, 67067, 2
67062, 67055, 2
67062, 67054, 2
67062, 67060, 2
67044, 67045, 1
67044, 67043, 2
67064, 67045, 2
67064, 67063, 2
67064, 67068, 2
67064, 67070, 2
67064, 67065, 2
67064, 67060, 2
67064, 67067, 2
67064, 67054, 2
67064, 67066, 2
67064, 67062, 2
67043, 67045, 2
67043, 67044, 1
67061, 67060, 2
67061, 67052, 2
67061, 67055, 2
67061, 67059, 2
67061, 67056, 2
67061, 67058, 2
67061, 67054, 2
67061, 67070, 2
67061, 67062, 2
67052, 67049, 2
67052, 67061, 2
67052, 67054, 2
67052, 67050, 2
67052, 67051, 2
67052, 67053, 1
67052, 67048, 2
67052, 67062, 2
67052, 67060, 2
67052, 67047, 2
67052, 67045, 2
67052, 67046, 2
67060, 67061, 3
67060, 67052, 2
67060, 67054, 2
67060, 67055, 2
67060, 67059, 2
67060, 67056, 2
67060, 67064, 2
67060, 67053, 2
67060, 67057, 2
67060, 67058, 2
67060, 67062, 1
67059, 67049, 2
67059, 67061, 2
67059, 67057, 2
67059, 67063, 2
67059, 67056, 2
67059, 67058, 2
67059, 67062, 2
67059, 67050, 2
67059, 67047, 2
67059, 67070, 2
67059, 67060, 2
67059, 67068, 2
67059, 67055, 2
67059, 67054, 2
67059, 67066, 2
67053, 67049, 2
67053, 67060, 2
67053, 67047, 2
67053, 67052, 2
67053, 67055, 1
67053, 67051, 2
67053, 67054, 2
67053, 67050, 2
67069, 67067, 2
67069, 67070, 2
67069, 67068, 2
67055, 67049, 2
67055, 67061, 2
67055, 67060, 2
67055, 67051, 2
67055, 67053, 2
67055, 67058, 2
67055, 67062, 2
67055, 67050, 2
67055, 67047, 2
67055, 67070, 2
67055, 67056, 0
67055, 67046, 2
67055, 67057, 3
67055, 67054, 2
67055, 67059, 2
67048, 67049, 1
67048, 67046, 2
67048, 67047, 2
67048, 67052, 2
67048, 67045, 2
67068, 67063, 2
67068, 67070, 1
67068, 67065, 2
67068, 67059, 2
67068, 67064, 2
67068, 67067, 2
67068, 67057, 2
67068, 67069, 0
67068, 67066, 2
67050, 67049, 2
67050, 67045, 2
67050, 67052, 2
67050, 67055, 2
67050, 67051, 2
67050, 67053, 2
67050, 67058, 2
67050, 67059, 2
67050, 67047, 2
67050, 67056, 2
67050, 67046, 2
67050, 67054, 2
67047, 67049, 2
67047, 67050, 2
67047, 67052, 2
67047, 67045, 2
67047, 67046, 2
67047, 67059, 2
67047, 67056, 2
67047, 67058, 2
67047, 67053, 2
67047, 67055, 2
67047, 67048, 2
67070, 67063, 2
67070, 67055, 2
67070, 67059, 2
67070, 67069, 2
67070, 67068, 2
67070, 67061, 2
67070, 67065, 2
67070, 67064, 2
67070, 67067, 2
67070, 67057, 2
67070, 67054, 2
67070, 67066, 2
67065, 67063, 2
67065, 67070, 2
67065, 67064, 2
67065, 67067, 2
67065, 67057, 2
67065, 67066, 1
67065, 67068, 2
67056, 67061, 2
67056, 67047, 2
67056, 67050, 2
67056, 67060, 2
67056, 67051, 2
67056, 67058, 1
67056, 67055, 2
67056, 67057, 2
67056, 67054, 2
67056, 67059, 2
67056, 67062, 2
67046, 67045, 2
67046, 67049, 2
67046, 67047, 3
67046, 67052, 2
67046, 67050, 2
67046, 67055, 2
67046, 67054, 2
67046, 67048, 1
67067, 67045, 2
67067, 67063, 2
67067, 67062, 2
67067, 67054, 2
67067, 67065, 2
67067, 67069, 2
67067, 67070, 2
67067, 67064, 2
67067, 67066, 2
67067, 67068, 2
67057, 67055, 2
67057, 67063, 2
67057, 67070, 2
67057, 67065, 2
67057, 67060, 2
67057, 67059, 2
67057, 67056, 2
67057, 67058, 2
67057, 67054, 2
67057, 67066, 2
67057, 67068, 2
67054, 67049, 2
67054, 67055, 2
67054, 67052, 4
67054, 67061, 2
67054, 67051, 2
67054, 67053, 2
67054, 67058, 2
67054, 67062, 2
67054, 67050, 2
67054, 67045, 2
67054, 67056, 2
67054, 67059, 2
67054, 67060, 1
67054, 67064, 2
67054, 67067, 2
67054, 67057, 2
67054, 67046, 2
67054, 67070, 2
67066, 67063, 2
67066, 67065, 2
67066, 67059, 2
67066, 67064, 2
67066, 67067, 6
67066, 67057, 2
67066, 67070, 2
67066, 67068, 1
