20392, 20391, 2
20392, 20394, 2
20392, 20395, 2
20392, 20390, 2
20392, 20396, 2
20392, 20393, 2
20374, 20375, 1
20374, 20373, 2
20374, 20376, 2
20374, 20379, 2
20374, 20378, 2
20366, 20364, 2
20366, 20367, 2
20366, 20365, 2
20370, 20373, 2
20370, 20367, 2
20370, 20371, 1
20370, 20372, 2
20370, 20369, 2
20388, 20387, 2
20388, 20389, 2
20388, 20385, 2
20376, 20377, 3
20376, 20375, 2
20376, 20374, 2
20376, 20378, 2
20376, 20373, 2
20386, 20390, 2
20386, 20387, 3
20386, 20389, 1
20386, 20385, 2
20400, 20398, 2
20400, 20399, 2
20400, 20393, 2
20389, 20391, 1
20389, 20387, 2
20389, 20390, 0
20389, 20388, 2
20389, 20386, 2
20389, 20385, 2
20364, 20366, 2
20364, 20363, 2
20364, 20362, 2
20364, 20365, 1
20364, 20367, 2
20368, 20367, 2
20368, 20369, 2
20362, 20364, 1
20362, 20363, 6
20379, 20375, 2
20379, 20374, 2
20379, 20383, 2
20379, 20381, 2
20379, 20377, 2
20379, 20378, 2
20379, 20380, 1
20393, 20391, 2
20393, 20392, 2
20393, 20400, 2
20393, 20394, 0
20393, 20395, 2
20393, 20397, 2
20393, 20399, 2
20395, 20392, 2
20395, 20396, 2
20395, 20394, 2
20395, 20393, 2
20375, 20377, 2
20375, 20374, 2
20375, 20379, 1
20375, 20378, 8
20375, 20376, 0
20396, 20397, 1
20396, 20392, 2
20396, 20394, 2
20396, 20395, 2
20383, 20379, 2
20383, 20381, 2
20383, 20380, 2
20383, 20382, 2
20383, 20384, 1
20383, 20385, 2
20399, 20398, 2
20399, 20400, 2
20399, 20393, 2
20369, 20368, 2
20369, 20367, 2
20369, 20370, 1
20363, 20364, 2
20363, 20362, 2
20365, 20364, 2
20365, 20367, 1
20365, 20366, 8
20387, 20388, 1
20387, 20386, 2
20387, 20389, 2
20387, 20385, 2
20397, 20398, 1
20397, 20396, 2
20397, 20393, 2
20371, 20373, 2
20371, 20372, 1
20371, 20370, 2
20384, 20383, 2
20384, 20385, 1
20372, 20373, 1
20372, 20371, 2
20372, 20370, 2
20391, 20392, 0
20391, 20389, 2
20391, 20393, 1
20391, 20390, 2
20398, 20397, 2
20398, 20399, 3
20398, 20400, 1
20394, 20392, 2
20394, 20396, 1
20394, 20395, 3
20394, 20393, 2
20380, 20382, 2
20380, 20383, 1
20380, 20379, 2
20380, 20381, 0
20390, 20391, 2
20390, 20392, 2
20390, 20386, 2
20390, 20389, 2
20390, 20385, 2
20377, 20375, 2
20377, 20376, 2
20377, 20379, 2
20377, 20378, 2
20373, 20374, 1
20373, 20371, 2
20373, 20376, 2
20373, 20372, 2
20373, 20370, 2
20367, 20364, 2
20367, 20368, 8
20367, 20365, 2
20367, 20370, 2
20367, 20366, 2
20367, 20369, 1
20382, 20383, 2
20382, 20381, 2
20382, 20380, 2
20378, 20375, 2
20378, 20377, 2
20378, 20376, 2
20378, 20379, 2
20378, 20374, 2
20381, 20382, 3
20381, 20383, 2
20381, 20379, 2
20381, 20380, 2
20385, 20386, 1
20385, 20387, 2
20385, 20388, 2
20385, 20390, 2
20385, 20383, 2
20385, 20384, 2
20385, 20389, 2
