162864, 162871, 2
162864, 162870, 2
162864, 162863, 2
162864, 162859, 2
162864, 162865, 1
162864, 162868, 2
162864, 162861, 2
162864, 162877, 2
162864, 162872, 2
162864, 162875, 2
162864, 162860, 2
162864, 162858, 2
162864, 162862, 2
162871, 162865, 2
162871, 162868, 2
162871, 162862, 2
162871, 162877, 2
162871, 162870, 2
162871, 162864, 2
162871, 162863, 2
162871, 162875, 2
162871, 162874, 1
162876, 162873, 2
162876, 162863, 2
162870, 162865, 2
162870, 162868, 2
162870, 162871, 6
162870, 162877, 1
162870, 162872, 4
162870, 162864, 2
162870, 162863, 2
162870, 162875, 2
162870, 162874, 2
162875, 162865, 2
162875, 162871, 2
162875, 162877, 2
162875, 162870, 2
162875, 162864, 2
162875, 162863, 2
162875, 162862, 2
162875, 162874, 2
162863, 162871, 2
162863, 162876, 2
162863, 162870, 2
162863, 162864, 4
162863, 162866, 6
162863, 162868, 2
162863, 162874, 2
162863, 162865, 2
162863, 162869, 2
162863, 162877, 2
162863, 162872, 2
162863, 162873, 2
162863, 162867, 2
162863, 162862, 2
162863, 162860, 2
162863, 162875, 2
162866, 162869, 2
162866, 162861, 2
162866, 162867, 1
162866, 162860, 2
162866, 162873, 2
162866, 162863, 2
162866, 162858, 2
162866, 162862, 2
162869, 162873, 1
162869, 162866, 2
162869, 162863, 2
162869, 162867, 2
162859, 162860, 1
162859, 162864, 2
162859, 162858, 2
162859, 162862, 2
162865, 162864, 2
162865, 162868, 1
162865, 162871, 2
162865, 162877, 2
162865, 162870, 2
162865, 162872, 2
162865, 162863, 2
162865, 162875, 2
162865, 162874, 2
162868, 162865, 2
162868, 162871, 2
162868, 162877, 2
162868, 162870, 1
162868, 162872, 2
162868, 162864, 2
162868, 162863, 2
162868, 162874, 2
162861, 162862, 1
162861, 162864, 2
162861, 162866, 2
162861, 162860, 2
162877, 162865, 2
162877, 162868, 2
162877, 162871, 2
162877, 162870, 2
162877, 162872, 2
162877, 162864, 2
162877, 162863, 2
162877, 162875, 2
162877, 162874, 2
162874, 162865, 2
162874, 162868, 2
162874, 162871, 2
162874, 162877, 2
162874, 162870, 2
162874, 162863, 2
162874, 162875, 6
162872, 162865, 2
162872, 162868, 2
162872, 162864, 2
162872, 162877, 2
162872, 162870, 2
162872, 162863, 2
162873, 162869, 2
162873, 162862, 2
162873, 162867, 2
162873, 162876, 1
162873, 162863, 2
162873, 162866, 2
162867, 162873, 2
162867, 162869, 1
162867, 162863, 2
162867, 162866, 2
162860, 162863, 2
162860, 162861, 1
162860, 162864, 2
162860, 162858, 2
162860, 162866, 2
162860, 162859, 2
162858, 162864, 2
162858, 162866, 2
162858, 162860, 2
162858, 162859, 1
162862, 162864, 2
162862, 162871, 2
162862, 162873, 2
162862, 162861, 2
162862, 162863, 1
162862, 162866, 2
162862, 162875, 2
162862, 162859, 2
