301439, 301438, 2
301437, 301435, 2
301437, 301438, 2
301437, 301436, 2
301438, 301435, 2
301438, 301439, 1
301438, 301437, 2
301438, 301436, 2
301434, 301435, 1
301434, 301433, 2
301434, 301436, 2
301435, 301434, 2
301435, 301438, 1
301435, 301437, 8
301435, 301436, 3
301433, 301434, 1
301436, 301434, 2
301436, 301435, 2
301436, 301437, 2
301436, 301438, 2
