134313, 134303, 2
134313, 134310, 2
134313, 134340, 2
134313, 134299, 2
134313, 134315, 2
134313, 134345, 2
134313, 134328, 2
134313, 134314, 1
134313, 134309, 2
134313, 134318, 2
134313, 134319, 2
134313, 134312, 2
134313, 134317, 2
134313, 134316, 2
134313, 134307, 2
134313, 134311, 2
134313, 134308, 2
134313, 134320, 2
134313, 134304, 2
134313, 134347, 2
134313, 134305, 2
134313, 134327, 2
134313, 134324, 2
134365, 134367, 2
134365, 134366, 1
134365, 134364, 2
134310, 134313, 2
134310, 134309, 2
134310, 134312, 2
134310, 134304, 2
134310, 134311, 1
134310, 134308, 2
134344, 134348, 2
134344, 134350, 2
134344, 134347, 4
134344, 134342, 2
134344, 134338, 2
134344, 134346, 2
134344, 134345, 6
134344, 134364, 2
134344, 134351, 1
134344, 134349, 2
134344, 134343, 2
134364, 134358, 2
134364, 134361, 2
134364, 134344, 2
134364, 134343, 2
134364, 134359, 2
134364, 134365, 1
134364, 134338, 2
134364, 134345, 2
134364, 134367, 2
134364, 134357, 2
134364, 134354, 2
134364, 134366, 2
134364, 134355, 2
134364, 134363, 2
134364, 134350, 2
134364, 134362, 2
134364, 134353, 2
134364, 134360, 2
134364, 134347, 2
134317, 134320, 2
134317, 134313, 2
134317, 134319, 2
134317, 134315, 2
134317, 134318, 2
134317, 134321, 2
134317, 134316, 2
134317, 134314, 2
134354, 134351, 2
134354, 134352, 2
134354, 134359, 2
134354, 134364, 2
134354, 134343, 2
134354, 134356, 1
134354, 134355, 8
134354, 134353, 2
134354, 134347, 2
134354, 134342, 2
134354, 134338, 2
134354, 134358, 2
134332, 134333, 3
134332, 134330, 2
134332, 134331, 2
134332, 134337, 1
134332, 134336, 2
134332, 134326, 2
134332, 134339, 2
134332, 134338, 2
134332, 134345, 2
134332, 134329, 2
134332, 134334, 2
134332, 134327, 2
134367, 134365, 2
134367, 134366, 2
134367, 134364, 2
134340, 134313, 2
134340, 134347, 2
134340, 134336, 2
134340, 134334, 2
134340, 134341, 2
134340, 134339, 2
134340, 134338, 2
134340, 134335, 2
134302, 134304, 2
134302, 134303, 2
134302, 134305, 1
134302, 134298, 2
134302, 134301, 2
134315, 134313, 2
134315, 134319, 2
134315, 134318, 2
134315, 134316, 8
134315, 134314, 2
134315, 134317, 1
134339, 134336, 2
134339, 134343, 2
134339, 134332, 2
134339, 134340, 8
134339, 134346, 2
134339, 134342, 2
134339, 134338, 2
134339, 134345, 2
134339, 134341, 1
134339, 134334, 2
134339, 134337, 2
134339, 134335, 2
134347, 134313, 2
134347, 134351, 2
134347, 134344, 2
134347, 134352, 2
134347, 134336, 2
134347, 134343, 2
134347, 134364, 2
134347, 134354, 2
134347, 134340, 2
134347, 134353, 2
134347, 134361, 2
134347, 134342, 2
134347, 134338, 2
134347, 134355, 2
134347, 134334, 2
134347, 134341, 2
134301, 134304, 2
134301, 134303, 2
134301, 134302, 1
134301, 134299, 2
134301, 134312, 2
134301, 134305, 2
134301, 134300, 2
134301, 134298, 2
134338, 134351, 2
134338, 134344, 2
134338, 134364, 2
134338, 134336, 2
134338, 134343, 1
134338, 134332, 2
134338, 134340, 2
134338, 134348, 2
134338, 134346, 2
134338, 134339, 3
134338, 134342, 2
134338, 134355, 2
134338, 134354, 2
134338, 134345, 2
134338, 134341, 2
134338, 134337, 2
134338, 134347, 2
134351, 134348, 2
134351, 134350, 2
134351, 134347, 2
134351, 134344, 2
134351, 134342, 2
134351, 134338, 2
134351, 134354, 2
134351, 134352, 1
134351, 134353, 2
134351, 134349, 2
134351, 134343, 2
134337, 134336, 2
134337, 134333, 2
134337, 134339, 2
134337, 134338, 1
134337, 134334, 2
134337, 134332, 2
134306, 134304, 2
134306, 134305, 2
134306, 134308, 2
134330, 134333, 2
134330, 134326, 2
134330, 134331, 2
134330, 134334, 2
134330, 134329, 2
134330, 134332, 2
134362, 134363, 2
134362, 134361, 2
134362, 134364, 2
134325, 134323, 2
134325, 134326, 1
134325, 134327, 2
134325, 134324, 2
134349, 134351, 2
134349, 134348, 2
134349, 134350, 2
134349, 134344, 2
134311, 134313, 2
134311, 134299, 2
134311, 134310, 2
134311, 134312, 2
134311, 134304, 2
134311, 134309, 2
134311, 134308, 2
134320, 134313, 2
134320, 134319, 2
134320, 134321, 1
134320, 134316, 2
134320, 134314, 2
134320, 134317, 2
134320, 134324, 2
134304, 134313, 2
134304, 134303, 6
134304, 134302, 2
134304, 134309, 2
134304, 134298, 2
134304, 134307, 2
134304, 134311, 2
134304, 134308, 2
134304, 134312, 1
134304, 134300, 2
134304, 134299, 2
134304, 134301, 4
134304, 134305, 2
134304, 134306, 2
134304, 134310, 2
134357, 134356, 2
134357, 134353, 2
134357, 134361, 2
134357, 134359, 2
134357, 134358, 2
134357, 134364, 2
134357, 134360, 2
134321, 134320, 2
134321, 134319, 2
134321, 134323, 1
134321, 134317, 2
134321, 134324, 2
134321, 134328, 2
134321, 134314, 2
134321, 134327, 2
134321, 134322, 8
134361, 134357, 2
134361, 134347, 2
134361, 134364, 2
134361, 134363, 1
134361, 134359, 2
134361, 134362, 8
134361, 134360, 2
134312, 134313, 1
134312, 134307, 2
134312, 134310, 2
134312, 134304, 2
134312, 134305, 2
134312, 134301, 2
134312, 134308, 2
134312, 134311, 2
134312, 134309, 2
134342, 134346, 2
134342, 134339, 2
134342, 134344, 2
134342, 134338, 2
134342, 134343, 2
134342, 134345, 2
134342, 134341, 2
134342, 134351, 2
134342, 134354, 2
134342, 134347, 2
134358, 134356, 2
134358, 134357, 2
134358, 134353, 2
134358, 134364, 2
134358, 134359, 1
134358, 134354, 2
134350, 134348, 2
134350, 134351, 2
134350, 134344, 2
134350, 134352, 2
134350, 134359, 2
134350, 134345, 2
134350, 134364, 2
134350, 134353, 2
134350, 134349, 2
134341, 134340, 2
134341, 134339, 2
134341, 134342, 1
134341, 134338, 2
134341, 134345, 2
134341, 134347, 2
134360, 134359, 2
134360, 134357, 2
134360, 134353, 2
134360, 134361, 1
134360, 134364, 2
134335, 134336, 2
134335, 134340, 2
134335, 134334, 2
134335, 134339, 2
134303, 134313, 2
134303, 134307, 8
134303, 134300, 2
134303, 134309, 1
134303, 134299, 2
134303, 134304, 2
134303, 134302, 2
134303, 134301, 2
134303, 134298, 2
134300, 134304, 2
134300, 134298, 2
134300, 134299, 2
134300, 134303, 2
134300, 134301, 2
134323, 134319, 2
134323, 134321, 2
134323, 134325, 2
134323, 134326, 2
134323, 134322, 2
134323, 134328, 2
134323, 134327, 2
134323, 134324, 2
134309, 134313, 2
134309, 134303, 2
134309, 134310, 2
134309, 134312, 2
134309, 134304, 2
134309, 134298, 2
134309, 134307, 2
134309, 134311, 2
134352, 134350, 2
134352, 134351, 2
134352, 134347, 2
134352, 134353, 1
134352, 134345, 2
134352, 134354, 2
134336, 134340, 2
134336, 134347, 2
134336, 134338, 2
134336, 134334, 2
134336, 134335, 2
134336, 134339, 2
134336, 134337, 2
134336, 134332, 2
134359, 134354, 2
134359, 134356, 2
134359, 134350, 2
134359, 134361, 2
134359, 134364, 1
134359, 134363, 2
134359, 134358, 2
134359, 134345, 2
134359, 134353, 2
134359, 134357, 2
134359, 134360, 3
134318, 134313, 2
134318, 134319, 1
134318, 134315, 2
134318, 134314, 2
134318, 134317, 2
134345, 134313, 2
134345, 134319, 2
134345, 134344, 2
134345, 134364, 2
134345, 134343, 2
134345, 134359, 2
134345, 134352, 2
134345, 134332, 2
134345, 134348, 2
134345, 134346, 3
134345, 134339, 2
134345, 134342, 2
134345, 134338, 2
134345, 134350, 2
134345, 134341, 2
134345, 134353, 2
134345, 134314, 2
134345, 134326, 2
134356, 134357, 1
134356, 134353, 2
134356, 134358, 2
134356, 134355, 2
134356, 134359, 2
134356, 134354, 2
134299, 134304, 2
134299, 134303, 2
134299, 134300, 3
134299, 134313, 2
134299, 134305, 2
134299, 134301, 2
134299, 134298, 2
134299, 134311, 2
134299, 134308, 2
134346, 134348, 1
134346, 134339, 2
134346, 134344, 2
134346, 134342, 2
134346, 134338, 2
134346, 134343, 2
134346, 134345, 2
134355, 134356, 2
134355, 134353, 2
134355, 134347, 2
134355, 134364, 2
134355, 134338, 2
134355, 134354, 2
134363, 134359, 2
134363, 134362, 2
134363, 134361, 2
134363, 134364, 2
134334, 134340, 2
134334, 134333, 2
134334, 134330, 2
134334, 134335, 8
134334, 134336, 1
134334, 134332, 2
134334, 134339, 2
134334, 134337, 2
134334, 134347, 2
134328, 134313, 2
134328, 134323, 2
134328, 134326, 2
134328, 134321, 2
134328, 134329, 2
134328, 134327, 2
134314, 134320, 2
134314, 134313, 2
134314, 134319, 2
134314, 134315, 3
134314, 134318, 1
134314, 134321, 2
134314, 134345, 2
134314, 134316, 2
134314, 134317, 2
134319, 134320, 3
134319, 134313, 2
134319, 134345, 2
134319, 134321, 2
134319, 134318, 2
134319, 134323, 2
134319, 134315, 2
134319, 134327, 2
134319, 134314, 2
134319, 134317, 2
134319, 134324, 1
134333, 134337, 2
134333, 134334, 1
134333, 134326, 2
134333, 134330, 2
134333, 134332, 2
134297, 134298, 1
134343, 134348, 2
134343, 134346, 2
134343, 134339, 2
134343, 134344, 1
134343, 134342, 2
134343, 134338, 2
134343, 134351, 2
134343, 134345, 2
134343, 134364, 2
134343, 134354, 2
134343, 134347, 2
134298, 134304, 1
134298, 134307, 2
134298, 134300, 2
134298, 134309, 2
134298, 134299, 3
134298, 134301, 2
134298, 134297, 2
134298, 134302, 2
134298, 134305, 2
134298, 134303, 2
134298, 134308, 2
134316, 134320, 2
134316, 134313, 2
134316, 134315, 2
134316, 134314, 2
134316, 134317, 2
134307, 134313, 2
134307, 134303, 2
134307, 134309, 2
134307, 134312, 2
134307, 134304, 2
134307, 134298, 2
134308, 134313, 2
134308, 134299, 2
134308, 134310, 1
134308, 134312, 2
134308, 134304, 2
134308, 134305, 2
134308, 134298, 2
134308, 134306, 2
134308, 134311, 2
134331, 134329, 2
134331, 134326, 2
134331, 134330, 2
134331, 134327, 2
134331, 134332, 1
134348, 134346, 2
134348, 134351, 2
134348, 134344, 2
134348, 134343, 2
134348, 134338, 2
134348, 134350, 1
134348, 134345, 2
134348, 134349, 8
134326, 134333, 2
134326, 134323, 2
134326, 134330, 2
134326, 134325, 2
134326, 134331, 1
134326, 134328, 2
134326, 134345, 2
134326, 134324, 2
134326, 134329, 2
134326, 134327, 3
134326, 134332, 2
134366, 134367, 0
134366, 134365, 2
134366, 134364, 2
134353, 134358, 1
134353, 134351, 2
134353, 134352, 2
134353, 134359, 2
134353, 134364, 2
134353, 134357, 2
134353, 134356, 2
134353, 134354, 3
134353, 134347, 2
134353, 134355, 2
134353, 134350, 2
134353, 134345, 2
134353, 134360, 2
134305, 134313, 2
134305, 134302, 2
134305, 134312, 2
134305, 134299, 2
134305, 134304, 2
134305, 134298, 2
134305, 134301, 2
134305, 134306, 8
134305, 134308, 1
134322, 134321, 2
134322, 134323, 2
134322, 134327, 2
134329, 134326, 2
134329, 134330, 1
134329, 134331, 2
134329, 134328, 2
134329, 134327, 2
134329, 134332, 2
134327, 134313, 2
134327, 134319, 2
134327, 134323, 2
134327, 134325, 2
134327, 134331, 2
134327, 134328, 8
134327, 134332, 2
134327, 134326, 2
134327, 134321, 2
134327, 134324, 2
134327, 134329, 1
134327, 134322, 2
134324, 134320, 2
134324, 134313, 2
134324, 134319, 2
134324, 134321, 2
134324, 134325, 1
134324, 134326, 2
134324, 134323, 2
134324, 134327, 2
