336407, 336405, 2
336407, 336408, 2
336407, 336418, 2
336407, 336406, 2
336408, 336407, 2
336408, 336405, 2
336408, 336410, 2
336408, 336406, 2
336408, 336409, 1
336422, 336423, 1
336422, 336424, 2
336422, 336421, 2
336418, 336407, 2
336418, 336419, 1
336418, 336416, 2
336418, 336415, 2
336418, 336417, 2
336418, 336420, 2
336418, 336409, 2
336418, 336411, 2
336416, 336415, 2
336416, 336418, 2
336416, 336417, 1
336415, 336414, 2
336415, 336411, 2
336415, 336418, 2
336415, 336416, 1
336415, 336409, 2
336411, 336412, 0
336411, 336418, 2
336411, 336409, 2
336411, 336414, 2
336411, 336415, 2
336411, 336410, 2
336411, 336413, 1
336424, 336423, 2
336424, 336422, 2
336424, 336421, 2
336412, 336414, 2
336412, 336411, 2
336412, 336410, 2
336412, 336413, 2
336406, 336407, 3
336406, 336405, 2
336406, 336408, 1
336410, 336411, 1
336410, 336408, 2
336410, 336412, 2
336410, 336409, 2
336405, 336407, 2
336405, 336408, 2
336405, 336404, 2
336405, 336406, 1
336419, 336420, 1
336419, 336418, 2
336419, 336421, 2
336417, 336418, 2
336417, 336416, 2
336414, 336415, 1
336414, 336412, 2
336414, 336413, 2
336414, 336411, 2
336414, 336409, 2
336423, 336424, 1
336423, 336422, 2
336423, 336421, 2
336420, 336419, 2
336420, 336418, 2
336420, 336421, 1
336413, 336414, 1
336413, 336411, 2
336413, 336412, 2
336413, 336409, 2
336404, 336405, 1
336421, 336423, 2
336421, 336424, 2
336421, 336422, 0
336421, 336419, 2
336421, 336420, 2
336409, 336408, 2
336409, 336418, 1
336409, 336415, 2
336409, 336414, 2
336409, 336411, 2
336409, 336410, 0
336409, 336413, 2
