185980, 185977, 2
185980, 185979, 2
185980, 185978, 2
185980, 185971, 2
185967, 185969, 2
185967, 185965, 2
185967, 185968, 1
185967, 185971, 2
185967, 185966, 2
185960, 185959, 2
185960, 185961, 1
185970, 185969, 2
185970, 185972, 2
185970, 185971, 2
185956, 185955, 2
185956, 185958, 2
185956, 185957, 1
185968, 185969, 1
185968, 185967, 2
185968, 185972, 2
185968, 185971, 2
185975, 185976, 2
185975, 185977, 2
185975, 185974, 2
185977, 185975, 2
185977, 185980, 2
185977, 185978, 1
185977, 185976, 2
185977, 185973, 2
185977, 185974, 2
185977, 185971, 2
185953, 185952, 2
185953, 185954, 1
185957, 185956, 2
185957, 185958, 1
185969, 185967, 2
185969, 185972, 1
185969, 185970, 3
185969, 185971, 0
185969, 185968, 2
185962, 185963, 1
185962, 185961, 2
185959, 185958, 2
185959, 185960, 1
185961, 185962, 1
185961, 185960, 2
185971, 185980, 2
185971, 185967, 2
185971, 185972, 2
185971, 185977, 2
185971, 185969, 2
185971, 185970, 2
185971, 185976, 2
185971, 185968, 2
185971, 185965, 2
185971, 185964, 2
185963, 185962, 2
185963, 185964, 1
185973, 185976, 1
185973, 185977, 2
185973, 185972, 2
185973, 185974, 3
185964, 185963, 2
185964, 185965, 1
185964, 185966, 2
185964, 185971, 2
185965, 185967, 2
185965, 185966, 1
185965, 185971, 2
185965, 185964, 2
185955, 185956, 1
185955, 185954, 2
185954, 185955, 1
185954, 185952, 2
185954, 185953, 2
185952, 185953, 1
185952, 185954, 2
185966, 185967, 1
185966, 185964, 2
185966, 185965, 2
185972, 185973, 1
185972, 185976, 2
185972, 185968, 2
185972, 185969, 2
185972, 185970, 2
185972, 185974, 2
185972, 185971, 2
185979, 185980, 1
185979, 185978, 2
185978, 185980, 2
185978, 185977, 2
185978, 185979, 1
185976, 185975, 2
185976, 185977, 1
185976, 185972, 2
185976, 185973, 2
185976, 185974, 2
185976, 185971, 2
185974, 185975, 2
185974, 185973, 2
185974, 185972, 2
185974, 185976, 2
185974, 185977, 2
185958, 185959, 1
185958, 185956, 2
185958, 185957, 2
