340633, 340634, 2
340633, 340630, 2
340633, 340632, 2
340629, 340628, 2
340629, 340630, 1
340634, 340633, 2
340634, 340632, 2
340631, 340630, 2
340631, 340632, 1
340628, 340629, 1
340628, 340627, 2
340627, 340628, 1
340630, 340629, 2
340630, 340633, 2
340630, 340631, 1
340630, 340632, 2
340632, 340633, 3
340632, 340631, 2
340632, 340634, 1
340632, 340630, 2
