168819, 168820, 2
168819, 168818, 2
168819, 168821, 2
168820, 168819, 2
168820, 168821, 1
168820, 168818, 2
168818, 168819, 3
168818, 168820, 1
168818, 168821, 2
168821, 168819, 2
168821, 168820, 2
168821, 168818, 2
