171508, 171509, 2
171508, 171507, 2
171508, 171506, 2
171504, 171503, 2
171504, 171505, 3
171504, 171506, 2
171503, 171505, 2
171503, 171506, 1
171503, 171504, 3
171505, 171503, 2
171505, 171506, 2
171505, 171504, 2
171506, 171508, 2
171506, 171503, 2
171506, 171505, 2
171506, 171504, 2
171506, 171507, 1
171507, 171508, 6
171507, 171506, 2
171507, 171509, 1
171509, 171508, 2
171509, 171507, 2
