21233, 21235, 2
21233, 21234, 1
21237, 21238, 1
21237, 21235, 2
21237, 21236, 2
21238, 21237, 2
21238, 21235, 2
21238, 21236, 2
21235, 21233, 2
21235, 21237, 2
21235, 21238, 2
21235, 21234, 2
21235, 21236, 1
21236, 21237, 1
21236, 21238, 2
21236, 21235, 2
21234, 21233, 2
21234, 21235, 1
