123324, 123336, 2
123324, 123328, 2
123324, 123319, 2
123324, 123329, 2
123324, 123330, 2
123324, 123325, 2
123324, 123334, 2
123324, 123332, 2
123324, 123333, 2
123324, 123323, 2
123324, 123340, 2
123324, 123320, 2
123324, 123327, 2
123324, 123326, 2
123338, 123336, 2
123338, 123333, 2
123338, 123337, 6
123338, 123340, 0
123338, 123342, 2
123338, 123339, 3
123321, 123322, 2
123321, 123326, 2
123321, 123320, 2
123320, 123324, 2
123320, 123323, 2
123320, 123321, 8
123320, 123319, 2
123320, 123322, 1
123320, 123326, 2
123336, 123333, 2
123336, 123324, 2
123336, 123338, 1
123336, 123339, 2
123336, 123334, 2
123336, 123337, 2
123336, 123335, 2
123340, 123333, 2
123340, 123324, 2
123340, 123338, 2
123340, 123341, 2
123340, 123342, 2
123340, 123337, 2
123340, 123339, 2
123322, 123319, 2
123322, 123323, 2
123322, 123321, 2
123322, 123325, 2
123322, 123320, 2
123322, 123327, 2
123322, 123326, 2
123342, 123340, 2
123342, 123337, 2
123342, 123341, 2
123342, 123338, 2
123342, 123339, 2
123328, 123324, 2
123328, 123326, 2
123328, 123325, 2
123328, 123329, 2
123328, 123330, 2
123328, 123327, 2
123328, 123331, 2
123337, 123336, 2
123337, 123333, 2
123337, 123338, 2
123337, 123340, 2
123337, 123332, 2
123337, 123330, 2
123337, 123342, 2
123337, 123334, 2
123337, 123339, 2
123341, 123339, 2
123341, 123342, 2
123341, 123340, 2
123331, 123328, 2
123331, 123329, 2
123331, 123332, 2
123331, 123330, 2
123331, 123327, 2
123331, 123335, 2
123319, 123333, 2
123319, 123324, 2
123319, 123323, 1
123319, 123326, 2
123319, 123325, 2
123319, 123322, 2
123319, 123320, 3
123319, 123327, 2
123329, 123324, 2
123329, 123326, 2
123329, 123325, 2
123329, 123330, 1
123329, 123331, 2
123329, 123328, 2
123330, 123333, 2
123330, 123324, 2
123330, 123337, 2
123330, 123331, 3
123330, 123325, 2
123330, 123332, 1
123330, 123329, 2
123330, 123328, 2
123334, 123336, 1
123334, 123324, 2
123334, 123337, 2
123334, 123333, 6
123334, 123332, 2
123334, 123335, 3
123332, 123333, 2
123332, 123324, 2
123332, 123337, 2
123332, 123331, 2
123332, 123330, 2
123332, 123334, 1
123332, 123335, 2
123333, 123336, 2
123333, 123324, 2
123333, 123337, 2
123333, 123340, 2
123333, 123325, 2
123333, 123332, 2
123333, 123330, 2
123333, 123319, 2
123333, 123334, 2
123333, 123338, 2
123333, 123335, 2
123339, 123336, 2
123339, 123338, 2
123339, 123341, 8
123339, 123340, 2
123339, 123342, 1
123339, 123337, 2
123339, 123335, 2
123323, 123319, 2
123323, 123324, 2
123323, 123326, 2
123323, 123325, 1
123323, 123322, 2
123323, 123320, 2
123326, 123324, 2
123326, 123323, 2
123326, 123328, 1
123326, 123319, 2
123326, 123325, 2
123326, 123329, 2
123326, 123322, 2
123326, 123320, 2
123326, 123327, 8
123326, 123321, 2
123325, 123333, 2
123325, 123324, 6
123325, 123323, 2
123325, 123326, 3
123325, 123319, 2
123325, 123329, 1
123325, 123330, 2
123325, 123322, 2
123325, 123328, 2
123327, 123324, 2
123327, 123326, 2
123327, 123319, 2
123327, 123322, 2
123327, 123328, 2
123327, 123331, 2
123335, 123336, 2
123335, 123333, 2
123335, 123339, 2
123335, 123331, 2
123335, 123332, 2
123335, 123334, 2
