302213, 302215, 2
302213, 302219, 2
302213, 302214, 1
302218, 302216, 2
302218, 302215, 2
302218, 302220, 1
302218, 302219, 6
302218, 302217, 2
302216, 302218, 1
302216, 302220, 2
302216, 302215, 6
302216, 302219, 2
302216, 302214, 2
302216, 302217, 8
302215, 302213, 2
302215, 302218, 2
302215, 302216, 2
302215, 302219, 2
302215, 302214, 2
302215, 302217, 2
302217, 302218, 2
302217, 302216, 2
302217, 302215, 2
302217, 302219, 2
302217, 302214, 2
302217, 302220, 2
302219, 302218, 2
302219, 302213, 2
302219, 302216, 2
302219, 302215, 2
302219, 302220, 2
302219, 302214, 2
302219, 302217, 2
302214, 302213, 2
302214, 302216, 1
302214, 302215, 2
302214, 302219, 2
302214, 302217, 2
302220, 302218, 2
302220, 302216, 2
302220, 302219, 2
302220, 302217, 2
