123277, 123271, 2
123277, 123280, 2
123277, 123278, 1
123277, 123276, 2
123277, 123279, 2
123277, 123275, 2
123292, 123291, 2
123285, 123284, 2
123285, 123286, 1
123289, 123287, 2
123289, 123288, 2
123289, 123270, 2
123289, 123290, 1
123289, 123286, 2
123290, 123289, 2
123290, 123291, 1
123279, 123274, 2
123279, 123271, 2
123279, 123280, 2
123279, 123286, 2
123279, 123278, 2
123279, 123277, 2
123279, 123288, 2
123279, 123282, 2
123272, 123273, 1
123272, 123270, 2
123272, 123271, 2
123272, 123269, 2
123291, 123288, 2
123291, 123270, 2
123291, 123290, 2
123291, 123292, 1
123269, 123270, 3
123269, 123271, 0
123269, 123272, 1
123284, 123283, 2
123284, 123285, 1
123286, 123289, 2
123286, 123287, 1
123286, 123288, 2
123286, 123279, 2
123286, 123285, 2
123275, 123274, 2
123275, 123276, 1
123275, 123277, 2
123282, 123283, 1
123282, 123288, 2
123282, 123279, 2
123282, 123281, 2
123287, 123289, 1
123287, 123288, 0
123287, 123286, 2
123283, 123284, 1
123283, 123282, 2
123273, 123274, 1
123273, 123272, 2
123278, 123277, 2
123278, 123279, 0
123278, 123280, 1
123271, 123274, 2
123271, 123269, 2
123271, 123277, 2
123271, 123270, 2
123271, 123272, 2
123271, 123279, 2
123288, 123287, 2
123288, 123291, 2
123288, 123286, 2
123288, 123289, 2
123288, 123280, 2
123288, 123279, 2
123288, 123282, 2
123280, 123270, 2
123280, 123278, 2
123280, 123277, 2
123280, 123288, 2
123280, 123279, 2
123280, 123281, 1
123274, 123273, 2
123274, 123270, 2
123274, 123276, 2
123274, 123271, 2
123274, 123279, 2
123274, 123275, 1
123270, 123291, 2
123270, 123274, 2
123270, 123269, 2
123270, 123289, 2
123270, 123271, 2
123270, 123272, 2
123270, 123280, 2
123276, 123274, 2
123276, 123277, 1
123276, 123275, 2
123281, 123280, 2
123281, 123282, 1
