125444, 125445, 4
125444, 125443, 2
125444, 125446, 6
125444, 125447, 1
125450, 125464, 2
125450, 125454, 2
125450, 125449, 2
125450, 125455, 2
125450, 125447, 2
125450, 125451, 2
125450, 125452, 2
125452, 125464, 2
125452, 125456, 2
125452, 125450, 2
125452, 125449, 2
125452, 125463, 2
125452, 125447, 2
125452, 125451, 2
125452, 125454, 2
125452, 125453, 1
125447, 125444, 2
125447, 125445, 2
125447, 125452, 2
125447, 125451, 1
125447, 125456, 2
125447, 125453, 2
125447, 125459, 2
125447, 125454, 2
125447, 125443, 2
125447, 125455, 2
125447, 125458, 2
125447, 125450, 2
125447, 125448, 3
125447, 125462, 2
125447, 125446, 2
125447, 125449, 2
125460, 125454, 2
125460, 125463, 2
125460, 125455, 2
125460, 125474, 2
125460, 125466, 2
125460, 125458, 2
125460, 125473, 2
125460, 125472, 2
125460, 125467, 2
125460, 125462, 2
125459, 125464, 2
125459, 125461, 1
125459, 125449, 2
125459, 125463, 2
125459, 125447, 2
125459, 125451, 2
125459, 125456, 2
125459, 125454, 2
125459, 125457, 2
125459, 125462, 2
125457, 125456, 2
125457, 125459, 2
125457, 125454, 2
125472, 125471, 2
125472, 125460, 2
125472, 125473, 1
125472, 125469, 2
125472, 125467, 2
125472, 125468, 2
125470, 125469, 2
125470, 125471, 2
125443, 125444, 1
125443, 125445, 2
125443, 125446, 2
125443, 125447, 2
125463, 125465, 2
125463, 125452, 2
125463, 125454, 2
125463, 125458, 2
125463, 125459, 2
125463, 125467, 2
125463, 125464, 3
125463, 125456, 2
125463, 125466, 1
125463, 125455, 2
125463, 125460, 2
125463, 125461, 2
125463, 125462, 2
125461, 125464, 2
125461, 125454, 2
125461, 125459, 2
125461, 125463, 2
125461, 125462, 1
125473, 125471, 2
125473, 125460, 2
125473, 125458, 2
125473, 125474, 1
125473, 125472, 2
125473, 125467, 2
125448, 125451, 2
125448, 125454, 2
125448, 125449, 1
125448, 125447, 2
125469, 125465, 2
125469, 125470, 8
125469, 125468, 2
125469, 125449, 2
125469, 125462, 2
125469, 125472, 2
125469, 125467, 2
125469, 125471, 1
125446, 125444, 2
125446, 125443, 2
125446, 125455, 2
125446, 125447, 2
125468, 125465, 2
125468, 125469, 1
125468, 125472, 2
125468, 125467, 2
125468, 125462, 2
125465, 125464, 2
125465, 125454, 2
125465, 125449, 2
125465, 125463, 2
125465, 125467, 2
125465, 125469, 2
125465, 125462, 2
125465, 125466, 2
125465, 125468, 2
125445, 125444, 2
125445, 125443, 2
125445, 125447, 2
125449, 125465, 2
125449, 125450, 3
125449, 125452, 2
125449, 125447, 2
125449, 125451, 2
125449, 125456, 2
125449, 125459, 2
125449, 125464, 2
125449, 125454, 2
125449, 125448, 2
125449, 125469, 2
125449, 125462, 2
125474, 125460, 2
125474, 125473, 2
125474, 125471, 2
125451, 125456, 2
125451, 125450, 2
125451, 125452, 2
125451, 125455, 2
125451, 125447, 2
125451, 125458, 2
125451, 125454, 1
125451, 125448, 2
125451, 125453, 2
125451, 125459, 2
125451, 125449, 2
125454, 125465, 2
125454, 125450, 2
125454, 125452, 4
125454, 125447, 2
125454, 125458, 2
125454, 125459, 2
125454, 125457, 2
125454, 125453, 2
125454, 125464, 2
125454, 125451, 2
125454, 125456, 2
125454, 125463, 1
125454, 125460, 2
125454, 125461, 2
125454, 125448, 2
125454, 125462, 2
125454, 125455, 6
125454, 125449, 2
125467, 125465, 2
125467, 125468, 3
125467, 125471, 2
125467, 125463, 2
125467, 125458, 2
125467, 125460, 2
125467, 125473, 2
125467, 125469, 2
125467, 125462, 2
125467, 125466, 2
125467, 125472, 1
125464, 125465, 1
125464, 125461, 2
125464, 125450, 2
125464, 125449, 2
125464, 125463, 2
125464, 125454, 2
125464, 125459, 2
125464, 125456, 2
125464, 125462, 2
125464, 125466, 2
125464, 125452, 2
125456, 125464, 2
125456, 125454, 2
125456, 125452, 2
125456, 125463, 2
125456, 125447, 2
125456, 125451, 2
125456, 125459, 1
125456, 125453, 2
125456, 125457, 8
125456, 125449, 2
125455, 125454, 2
125455, 125450, 2
125455, 125446, 2
125455, 125463, 2
125455, 125460, 1
125455, 125451, 2
125455, 125447, 2
125455, 125458, 8
125458, 125454, 2
125458, 125463, 2
125458, 125455, 2
125458, 125451, 2
125458, 125460, 2
125458, 125473, 2
125458, 125447, 2
125458, 125467, 2
125466, 125464, 2
125466, 125465, 2
125466, 125467, 1
125466, 125463, 2
125466, 125460, 2
125471, 125470, 2
125471, 125474, 2
125471, 125473, 2
125471, 125469, 2
125471, 125472, 2
125471, 125467, 2
125453, 125451, 2
125453, 125454, 2
125453, 125452, 2
125453, 125456, 1
125453, 125447, 2
125462, 125465, 2
125462, 125449, 2
125462, 125447, 2
125462, 125460, 2
125462, 125459, 2
125462, 125467, 2
125462, 125464, 2
125462, 125461, 2
125462, 125463, 2
125462, 125469, 2
125462, 125454, 2
125462, 125468, 2
