118310, 118311, 1
118310, 118312, 2
118310, 118309, 2
118308, 118307, 2
118308, 118309, 1
118306, 118307, 1
118306, 118305, 2
118305, 118306, 1
118305, 118304, 2
118307, 118308, 1
118307, 118306, 2
118312, 118311, 2
118312, 118310, 2
118311, 118312, 1
118311, 118310, 2
118309, 118308, 2
118309, 118310, 1
118304, 118305, 1
