21274, 21273, 2
21269, 21271, 0
21269, 21272, 1
21269, 21270, 3
21273, 21274, 3
21273, 21271, 2
21273, 21272, 2
21273, 21270, 2
21271, 21273, 2
21271, 21272, 2
21271, 21269, 2
21271, 21270, 2
21272, 21273, 1
21272, 21271, 2
21272, 21269, 2
21272, 21270, 2
21270, 21273, 2
21270, 21271, 2
21270, 21269, 2
21270, 21272, 2
