66999, 66992, 2
66999, 66987, 2
66999, 66993, 2
66999, 67001, 3
66999, 66997, 2
66999, 66994, 2
66999, 67009, 2
66999, 67005, 2
66999, 67004, 2
66999, 66996, 2
66999, 66991, 2
67003, 67004, 2
67003, 67010, 2
67003, 67002, 2
67003, 67000, 2
67003, 66997, 2
67003, 67012, 2
67003, 67007, 2
67003, 67006, 2
67003, 66996, 2
67003, 66998, 2
66990, 66986, 2
66990, 66988, 2
66990, 66993, 2
66990, 66989, 2
66990, 66995, 2
66990, 66998, 2
66988, 66986, 2
66988, 66990, 3
66988, 66989, 0
66988, 66993, 2
66988, 66995, 2
66988, 66998, 2
67001, 66999, 2
67001, 67004, 2
67001, 66991, 2
67001, 67008, 2
67001, 66997, 2
67001, 66994, 2
67001, 67009, 2
67001, 67005, 2
67001, 66992, 2
66994, 66999, 2
66994, 67001, 2
66994, 66995, 2
66994, 66992, 2
66994, 66996, 2
66994, 66987, 2
66994, 66986, 2
66994, 66991, 2
66994, 66993, 2
66994, 66997, 2
66994, 66998, 2
66994, 67005, 2
66994, 67004, 2
67009, 66999, 2
67009, 67010, 2
67009, 67008, 2
67009, 67001, 2
67009, 67011, 2
67009, 67012, 2
67009, 67005, 2
67009, 67007, 2
66996, 66999, 2
66996, 67003, 2
66996, 66989, 2
66996, 66993, 2
66996, 66995, 2
66996, 67004, 2
66996, 66994, 2
66996, 66997, 1
66996, 67005, 2
66996, 67006, 2
66996, 66998, 2
66986, 66990, 2
66986, 66987, 4
66986, 66988, 6
66986, 66993, 1
66986, 66989, 2
66986, 66995, 2
66986, 66992, 2
66986, 66994, 2
66986, 66998, 2
66986, 66991, 2
67010, 67003, 2
67010, 67009, 2
67010, 67002, 2
67010, 67000, 2
67010, 67008, 2
67010, 67011, 2
67010, 67012, 2
67010, 67007, 2
67010, 67006, 2
67010, 66998, 2
66989, 66986, 2
66989, 66990, 2
66989, 66988, 2
66989, 66993, 2
66989, 66995, 2
66989, 66997, 2
66989, 66998, 2
66989, 66996, 2
66997, 66999, 4
66997, 67003, 2
66997, 67000, 2
66997, 67001, 2
66997, 66995, 2
66997, 66992, 2
66997, 66994, 2
66997, 66996, 2
66997, 66989, 2
66997, 66993, 2
66997, 67004, 1
66997, 66998, 6
66997, 67005, 2
66997, 67006, 2
66997, 67002, 2
67012, 67003, 2
67012, 67009, 2
67012, 67008, 2
67012, 67010, 2
67012, 67011, 2
67005, 66999, 2
67005, 67001, 2
67005, 66992, 2
67005, 66994, 2
67005, 67009, 2
67005, 67007, 2
67005, 66996, 2
67005, 66997, 2
67005, 66987, 2
67005, 66993, 2
67005, 67004, 2
67005, 67006, 2
66998, 67003, 2
66998, 66990, 2
66998, 66988, 2
66998, 67000, 4
66998, 66995, 2
66998, 66992, 2
66998, 66994, 2
66998, 66996, 2
66998, 66986, 2
66998, 67010, 2
66998, 66989, 2
66998, 66993, 2
66998, 66997, 2
66998, 67006, 2
66998, 67004, 2
67000, 67003, 2
67000, 67004, 2
67000, 67010, 2
67000, 67002, 2
67000, 66997, 2
67000, 66998, 2
66995, 66986, 2
66995, 66990, 2
66995, 66989, 2
66995, 66988, 2
66995, 66993, 2
66995, 66997, 2
66995, 66994, 2
66995, 66998, 2
66995, 66996, 2
66992, 66999, 2
66992, 66986, 2
66992, 66991, 2
66992, 66993, 2
66992, 67001, 2
66992, 66997, 2
66992, 66994, 2
66992, 66998, 2
66992, 67005, 2
66992, 67004, 2
66992, 66987, 2
67011, 67012, 1
67011, 67009, 2
67011, 67008, 2
67011, 67010, 2
67007, 67003, 2
67007, 67010, 2
67007, 67008, 1
67007, 67004, 2
67007, 67009, 2
67007, 67005, 2
67007, 67006, 2
66987, 66999, 2
66987, 66986, 2
66987, 66991, 0
66987, 66993, 2
66987, 66992, 3
66987, 66994, 2
66987, 67005, 2
66987, 67004, 2
66991, 66999, 2
66991, 66986, 2
66991, 66987, 2
66991, 66993, 2
66991, 67001, 2
66991, 66992, 2
66991, 66994, 2
66993, 66999, 2
66993, 66990, 2
66993, 66988, 2
66993, 66995, 0
66993, 66992, 2
66993, 66994, 3
66993, 66991, 2
66993, 66996, 1
66993, 66998, 2
66993, 66987, 2
66993, 66986, 2
66993, 66989, 2
66993, 66997, 2
66993, 67006, 2
66993, 67005, 2
66993, 67004, 2
67004, 66999, 2
67004, 67003, 2
67004, 67000, 2
67004, 67001, 2
67004, 66992, 2
67004, 66994, 2
67004, 67007, 1
67004, 66996, 2
67004, 66987, 2
67004, 66993, 2
67004, 66997, 2
67004, 67006, 0
67004, 67005, 3
67004, 66998, 2
67006, 67003, 2
67006, 67004, 2
67006, 67010, 2
67006, 67002, 2
67006, 66993, 2
67006, 66997, 2
67006, 66998, 2
67006, 67005, 2
67006, 67007, 2
67006, 66996, 2
67002, 67003, 3
67002, 66997, 2
67002, 67010, 2
67002, 67000, 2
67002, 67006, 2
67008, 67010, 0
67008, 67001, 2
67008, 67011, 1
67008, 67009, 3
67008, 67007, 2
67008, 67012, 2
