295655, 295656, 1
295655, 295654, 2
295654, 295656, 2
295654, 295652, 2
295654, 295647, 2
295654, 295655, 1
295654, 295657, 2
295654, 295653, 2
295649, 295647, 2
295649, 295650, 1
295649, 295648, 2
295647, 295651, 2
295647, 295656, 2
295647, 295646, 2
295647, 295645, 2
295647, 295654, 2
295647, 295649, 2
295647, 295650, 2
295647, 295648, 2
295647, 295657, 2
295648, 295649, 1
295648, 295646, 2
295648, 295647, 6
295648, 295645, 2
295657, 295656, 2
295657, 295647, 2
295657, 295654, 2
295651, 295650, 2
295651, 295652, 1
295651, 295647, 2
295651, 295653, 2
295656, 295655, 2
295656, 295647, 2
295656, 295657, 0
295656, 295654, 2
295646, 295647, 2
295646, 295648, 1
295646, 295645, 2
295652, 295651, 2
295652, 295654, 2
295652, 295650, 2
295652, 295653, 1
295645, 295646, 1
295645, 295647, 2
295645, 295648, 2
295650, 295651, 1
295650, 295649, 2
295650, 295652, 2
295650, 295647, 2
295653, 295651, 2
295653, 295654, 1
295653, 295652, 2
