197519, 197521, 2
197519, 197520, 1
197519, 197522, 2
197524, 197521, 2
197524, 197523, 2
197524, 197522, 2
197524, 197525, 2
197525, 197524, 2
197525, 197521, 2
197525, 197523, 2
197525, 197522, 2
197521, 197519, 2
197521, 197525, 1
197521, 197524, 2
197521, 197523, 2
197521, 197520, 2
197521, 197522, 8
197523, 197521, 2
197523, 197524, 1
197523, 197522, 2
197523, 197525, 2
197520, 197519, 2
197520, 197521, 1
197520, 197522, 2
197522, 197519, 2
197522, 197524, 2
197522, 197525, 2
197522, 197521, 2
197522, 197523, 1
197522, 197520, 2
