71284, 71285, 0
71284, 71283, 2
71284, 71282, 2
71285, 71284, 2
71283, 71284, 1
71283, 71282, 2
71280, 71281, 1
71280, 71282, 2
71281, 71280, 2
71281, 71282, 1
71282, 71284, 2
71282, 71280, 2
71282, 71283, 1
71282, 71281, 2
