221396, 221394, 2
221396, 221395, 2
221391, 221392, 1
221392, 221391, 2
221392, 221393, 1
221393, 221394, 1
221393, 221392, 2
221394, 221396, 2
221394, 221393, 2
221394, 221395, 1
221395, 221396, 1
221395, 221394, 2
