185744, 185745, 1
185744, 185743, 2
185746, 185747, 3
185746, 185745, 2
185746, 185748, 1
185759, 185760, 1
185759, 185761, 2
185759, 185758, 2
185748, 185747, 2
185748, 185746, 2
185748, 185745, 2
185748, 185749, 1
185766, 185767, 1
185766, 185765, 2
185766, 185763, 2
185766, 185764, 2
185747, 185746, 2
185747, 185748, 2
185753, 185752, 2
185753, 185754, 2
185749, 185750, 1
185749, 185748, 2
185763, 185766, 2
185763, 185765, 2
185763, 185761, 2
185763, 185762, 2
185763, 185764, 1
185743, 185744, 1
185764, 185766, 1
185764, 185763, 2
185764, 185765, 8
185764, 185767, 2
185752, 185751, 2
185752, 185754, 1
185752, 185753, 8
185760, 185759, 2
185760, 185761, 1
185760, 185758, 2
185751, 185750, 2
185751, 185752, 1
185761, 185760, 2
185761, 185763, 1
185761, 185758, 2
185761, 185759, 2
185761, 185762, 3
185758, 185760, 2
185758, 185759, 1
185758, 185761, 2
185758, 185757, 2
185755, 185757, 2
185755, 185754, 2
185755, 185756, 1
185762, 185763, 2
185762, 185761, 2
185745, 185744, 2
185745, 185746, 1
185745, 185748, 2
185754, 185752, 2
185754, 185753, 2
185754, 185755, 1
185757, 185758, 1
185757, 185755, 2
185757, 185756, 2
185750, 185751, 1
185750, 185749, 2
185765, 185766, 2
185765, 185763, 2
185765, 185764, 2
185767, 185766, 2
185767, 185764, 2
185756, 185757, 1
185756, 185755, 2
