332883, 332884, 1
332883, 332882, 2
332885, 332886, 1
332885, 332884, 2
332887, 332886, 2
332887, 332888, 1
332888, 332887, 2
332879, 332880, 1
332880, 332881, 1
332880, 332879, 2
332881, 332880, 2
332881, 332882, 1
332884, 332883, 2
332884, 332885, 1
332884, 332886, 2
332882, 332883, 1
332882, 332881, 2
332886, 332887, 1
332886, 332885, 2
332886, 332884, 2
