197616, 197615, 2
197616, 197617, 1
197617, 197616, 2
197617, 197613, 2
197617, 197618, 1
197614, 197615, 1
197614, 197613, 2
197614, 197612, 2
197619, 197618, 2
197615, 197616, 1
197615, 197613, 2
197615, 197612, 2
197615, 197614, 2
197613, 197615, 2
197613, 197612, 2
197613, 197617, 2
197613, 197614, 2
197612, 197615, 2
197612, 197613, 3
197612, 197614, 1
197618, 197617, 2
197618, 197619, 1
