221667, 221665, 2
221667, 221666, 2
221666, 221665, 2
221666, 221667, 1
221663, 221665, 2
221663, 221662, 2
221663, 221664, 1
221663, 221661, 2
221665, 221667, 2
221665, 221664, 2
221665, 221666, 1
221665, 221663, 2
221662, 221661, 2
221662, 221663, 1
221664, 221665, 1
221664, 221663, 2
221661, 221662, 1
221661, 221663, 2
