72764, 72766, 2
72764, 72765, 1
72764, 72763, 2
72767, 72766, 2
72767, 72769, 2
72767, 72768, 1
72768, 72767, 2
72768, 72769, 3
72765, 72764, 2
72765, 72766, 1
72769, 72767, 2
72769, 72768, 2
72766, 72764, 2
72766, 72767, 1
72766, 72765, 2
72763, 72764, 1
