196112, 196114, 1
196112, 196116, 2
196112, 196113, 3
196117, 196118, 3
196117, 196119, 8
196117, 196120, 1
196117, 196121, 2
196117, 196116, 2
196119, 196118, 2
196119, 196120, 2
196119, 196117, 2
196114, 196115, 3
196114, 196112, 2
196114, 196116, 1
196114, 196113, 2
196122, 196123, 1
196122, 196121, 2
196123, 196121, 2
196123, 196122, 2
196115, 196114, 2
196115, 196116, 2
196115, 196113, 2
196121, 196123, 2
196121, 196118, 2
196121, 196120, 2
196121, 196122, 1
196121, 196117, 2
196113, 196115, 2
196113, 196112, 2
196113, 196114, 2
196118, 196119, 2
196118, 196120, 2
196118, 196121, 2
196118, 196116, 2
196118, 196117, 2
196120, 196118, 2
196120, 196119, 2
196120, 196121, 1
196120, 196117, 2
196116, 196118, 2
196116, 196115, 2
196116, 196112, 2
196116, 196114, 2
196116, 196117, 1
