15559, 15558, 2
15559, 15561, 2
15559, 15560, 1
15562, 15566, 2
15562, 15564, 2
15562, 15561, 2
15562, 15563, 2
15562, 15565, 2
15562, 15567, 2
15561, 15559, 2
15561, 15562, 2
15561, 15563, 1
15561, 15560, 2
15561, 15564, 2
15561, 15558, 2
15561, 15566, 2
15561, 15565, 2
15560, 15559, 2
15560, 15558, 2
15560, 15561, 1
15564, 15566, 2
15564, 15562, 2
15564, 15561, 2
15564, 15563, 2
15564, 15567, 2
15564, 15565, 2
15565, 15566, 2
15565, 15562, 2
15565, 15561, 2
15565, 15564, 2
15565, 15563, 2
15565, 15567, 2
15563, 15566, 1
15563, 15562, 6
15563, 15561, 2
15563, 15564, 8
15563, 15565, 2
15563, 15567, 2
15558, 15559, 1
15558, 15561, 2
15558, 15560, 2
15566, 15562, 2
15566, 15561, 2
15566, 15564, 2
15566, 15563, 2
15566, 15565, 6
15566, 15567, 1
15567, 15566, 2
15567, 15562, 2
15567, 15563, 2
15567, 15565, 2
15567, 15564, 2
