16947, 16945, 2
16947, 16943, 2
16947, 16949, 2
16947, 16944, 2
16947, 16946, 2
16947, 16950, 2
16947, 16948, 1
16947, 16952, 2
16953, 16951, 2
16953, 16950, 2
16953, 16952, 2
16941, 16940, 2
16941, 16942, 2
16941, 16943, 2
16950, 16951, 3
16950, 16953, 1
16950, 16947, 2
16950, 16949, 2
16950, 16944, 2
16950, 16946, 2
16950, 16945, 2
16950, 16948, 2
16950, 16952, 0
16940, 16943, 2
16940, 16942, 1
16940, 16941, 0
16946, 16947, 2
16946, 16945, 2
16946, 16943, 2
16946, 16948, 2
16946, 16944, 2
16946, 16950, 2
16946, 16949, 2
16946, 16952, 2
16952, 16951, 2
16952, 16947, 2
16952, 16953, 2
16952, 16944, 2
16952, 16946, 2
16952, 16950, 2
16952, 16945, 2
16952, 16948, 2
16951, 16950, 2
16951, 16953, 2
16951, 16949, 2
16951, 16952, 2
16945, 16947, 2
16945, 16943, 2
16945, 16949, 2
16945, 16944, 2
16945, 16946, 2
16945, 16950, 2
16945, 16948, 2
16945, 16952, 2
16943, 16947, 2
16943, 16945, 2
16943, 16944, 1
16943, 16946, 2
16943, 16940, 2
16943, 16941, 2
16943, 16942, 2
16948, 16947, 2
16948, 16945, 2
16948, 16944, 2
16948, 16946, 2
16948, 16950, 2
16948, 16949, 1
16948, 16952, 2
16944, 16947, 8
16944, 16945, 0
16944, 16943, 2
16944, 16946, 3
16944, 16950, 1
16944, 16948, 2
16944, 16952, 2
16942, 16940, 2
16942, 16943, 1
16942, 16941, 2
16949, 16947, 2
16949, 16951, 2
16949, 16945, 2
16949, 16950, 2
16949, 16946, 2
16949, 16948, 2
