222015, 222016, 1
222015, 222017, 2
222016, 222015, 2
222016, 222017, 1
222019, 222020, 8
222019, 222018, 2
222019, 222021, 1
222022, 222021, 2
222020, 222019, 2
222020, 222018, 2
222020, 222021, 2
222017, 222015, 2
222017, 222016, 2
222017, 222018, 1
222018, 222020, 2
222018, 222017, 2
222018, 222019, 1
222018, 222021, 2
222021, 222020, 2
222021, 222019, 2
222021, 222022, 1
222021, 222018, 2
