134097, 134098, 1
134097, 134096, 2
134096, 134094, 2
134096, 134097, 1
134096, 134095, 2
134094, 134096, 1
134094, 134095, 3
134098, 134097, 2
134098, 134099, 1
134100, 134099, 2
134099, 134098, 2
134099, 134100, 1
134095, 134094, 2
134095, 134096, 2
