254188, 254187, 2
254188, 254189, 1
254188, 254186, 2
254197, 254198, 2
254197, 254200, 2
254197, 254199, 2
254197, 254196, 2
254194, 254193, 2
254194, 254198, 2
254194, 254195, 2
254194, 254192, 2
254194, 254196, 2
254204, 254203, 2
254204, 254205, 2
254186, 254189, 2
254186, 254188, 1
254186, 254187, 3
254196, 254195, 2
254196, 254194, 2
254196, 254200, 1
254196, 254193, 2
254196, 254197, 0
254196, 254198, 3
254193, 254196, 2
254193, 254194, 3
254193, 254191, 2
254193, 254190, 2
254193, 254195, 1
254193, 254189, 2
254193, 254192, 2
254195, 254193, 2
254195, 254194, 2
254195, 254196, 1
254205, 254203, 2
254205, 254204, 2
254205, 254200, 2
254205, 254201, 2
254198, 254197, 2
254198, 254194, 2
254198, 254200, 2
254198, 254199, 2
254198, 254196, 2
254190, 254193, 2
254190, 254189, 2
254190, 254192, 2
254190, 254191, 2
254187, 254188, 2
254187, 254189, 2
254187, 254186, 2
254187, 254191, 2
254199, 254197, 2
254199, 254198, 2
254199, 254201, 2
254199, 254200, 2
254200, 254202, 1
254200, 254198, 2
254200, 254203, 2
254200, 254196, 2
254200, 254197, 2
254200, 254201, 3
254200, 254199, 2
254200, 254205, 2
254191, 254190, 2
254191, 254193, 2
254191, 254187, 2
254191, 254189, 2
254191, 254192, 2
254203, 254204, 0
254203, 254202, 2
254203, 254205, 3
254203, 254200, 2
254203, 254201, 2
254202, 254203, 1
254202, 254201, 2
254202, 254200, 2
254189, 254193, 1
254189, 254188, 2
254189, 254187, 2
254189, 254186, 2
254189, 254191, 3
254189, 254190, 0
254201, 254202, 2
254201, 254203, 2
254201, 254205, 2
254201, 254199, 2
254201, 254200, 2
254192, 254190, 2
254192, 254193, 2
254192, 254194, 2
254192, 254191, 2
