333649, 333650, 1
333649, 333648, 2
333651, 333650, 2
333651, 333648, 2
333643, 333645, 2
333643, 333642, 2
333643, 333644, 1
333646, 333645, 2
333646, 333647, 1
333641, 333642, 1
333641, 333640, 2
333644, 333645, 1
333644, 333643, 2
333648, 333647, 2
333648, 333651, 2
333648, 333649, 0
333648, 333650, 2
333645, 333646, 1
333645, 333644, 2
333645, 333643, 2
333647, 333646, 2
333647, 333648, 1
333642, 333641, 2
333642, 333643, 1
333650, 333651, 1
333650, 333649, 2
333650, 333648, 2
333640, 333641, 1
