130863, 130865, 1
130863, 130859, 2
130863, 130856, 2
130863, 130861, 2
130861, 130846, 2
130861, 130863, 1
130861, 130853, 2
130861, 130838, 2
130861, 130844, 2
130861, 130854, 2
130861, 130856, 2
130861, 130859, 2
130841, 130838, 2
130841, 130844, 1
130841, 130831, 2
130841, 130839, 2
130850, 130848, 2
130850, 130847, 2
130850, 130870, 2
130850, 130851, 1
130850, 130831, 2
130850, 130849, 2
130834, 130837, 2
130834, 130830, 2
130834, 130833, 2
130834, 130836, 2
130834, 130831, 2
130834, 130835, 1
130866, 130870, 2
130866, 130864, 2
130866, 130862, 2
130866, 130860, 2
130866, 130856, 2
130866, 130868, 1
130835, 130837, 1
130835, 130836, 8
130835, 130834, 2
130835, 130831, 2
130872, 130873, 1
130872, 130874, 2
130872, 130871, 2
130833, 130834, 1
130833, 130832, 2
130833, 130830, 2
130833, 130831, 2
130860, 130864, 2
130860, 130862, 1
130860, 130870, 2
130860, 130866, 2
130860, 130871, 2
130860, 130854, 2
130860, 130856, 2
130860, 130858, 2
130874, 130872, 2
130874, 130875, 1
130874, 130871, 2
130874, 130873, 2
130849, 130850, 2
130849, 130848, 2
130849, 130847, 2
130849, 130853, 2
130849, 130831, 2
130849, 130851, 2
130857, 130855, 2
130857, 130856, 2
130857, 130854, 2
130857, 130852, 2
130857, 130858, 1
130859, 130846, 2
130859, 130865, 2
130859, 130863, 2
130859, 130861, 0
130859, 130853, 2
130859, 130838, 2
130859, 130831, 2
130859, 130871, 2
130859, 130855, 2
130859, 130844, 2
130859, 130854, 2
130859, 130856, 2
130859, 130867, 2
130830, 130843, 2
130830, 130834, 2
130830, 130833, 2
130830, 130840, 2
130830, 130853, 2
130830, 130838, 2
130830, 130832, 2
130830, 130831, 1
130830, 130839, 2
130830, 130829, 2
130830, 130845, 2
130842, 130843, 2
130842, 130831, 2
130842, 130840, 2
130870, 130850, 2
130870, 130869, 2
130870, 130843, 2
130870, 130852, 2
130870, 130860, 2
130870, 130866, 2
130870, 130858, 2
130870, 130851, 2
130870, 130856, 2
130870, 130868, 2
130870, 130871, 2
130858, 130860, 1
130858, 130857, 2
130858, 130870, 2
130858, 130856, 2
130837, 130836, 2
130837, 130834, 2
130837, 130831, 2
130837, 130840, 1
130837, 130835, 2
130847, 130850, 2
130847, 130848, 1
130847, 130843, 2
130847, 130845, 2
130847, 130853, 2
130847, 130831, 2
130847, 130849, 2
130845, 130831, 2
130845, 130843, 2
130845, 130830, 2
130845, 130847, 2
130845, 130853, 2
130848, 130850, 1
130848, 130847, 2
130848, 130853, 2
130848, 130849, 8
130848, 130831, 2
130848, 130851, 2
130838, 130846, 2
130838, 130861, 2
130838, 130853, 2
130838, 130841, 2
130838, 130871, 2
130838, 130859, 2
130838, 130830, 2
130838, 130839, 0
130838, 130844, 2
130838, 130831, 2
130838, 130856, 2
130838, 130829, 2
130836, 130837, 2
130836, 130834, 2
130836, 130831, 2
130836, 130840, 2
130836, 130835, 2
130876, 130875, 2
130871, 130872, 1
130871, 130874, 2
130871, 130860, 2
130871, 130838, 2
130871, 130869, 2
130871, 130859, 2
130871, 130864, 2
130871, 130870, 2
130871, 130854, 2
130871, 130856, 2
130871, 130868, 2
130871, 130867, 2
130869, 130870, 0
130869, 130854, 2
130869, 130856, 2
130869, 130868, 2
130869, 130871, 2
130843, 130830, 2
130843, 130847, 1
130843, 130845, 3
130843, 130840, 2
130843, 130870, 2
130843, 130842, 2
130843, 130831, 2
130828, 130829, 1
130854, 130857, 2
130854, 130859, 2
130854, 130852, 2
130854, 130861, 2
130854, 130853, 2
130854, 130860, 2
130854, 130855, 0
130854, 130856, 1
130854, 130869, 2
130854, 130868, 2
130854, 130871, 2
130867, 130865, 2
130867, 130859, 2
130867, 130856, 2
130867, 130871, 2
130846, 130859, 2
130846, 130861, 2
130846, 130853, 2
130846, 130838, 2
130846, 130844, 2
130846, 130831, 2
130873, 130872, 2
130873, 130874, 1
130875, 130876, 1
130875, 130874, 2
130852, 130857, 2
130852, 130853, 2
130852, 130870, 2
130852, 130855, 2
130852, 130854, 2
130852, 130831, 2
130852, 130851, 2
130853, 130846, 2
130853, 130848, 2
130853, 130847, 2
130853, 130852, 2
130853, 130861, 2
130853, 130838, 2
130853, 130849, 2
130853, 130859, 2
130853, 130830, 2
130853, 130854, 1
130853, 130845, 2
130853, 130831, 2
130853, 130851, 2
130832, 130830, 2
130832, 130831, 2
130832, 130833, 1
130832, 130829, 2
130851, 130850, 2
130851, 130848, 2
130851, 130852, 1
130851, 130853, 2
130851, 130870, 2
130851, 130831, 2
130851, 130849, 2
130865, 130863, 2
130865, 130859, 2
130865, 130856, 2
130865, 130867, 1
130864, 130862, 2
130864, 130860, 2
130864, 130866, 2
130864, 130856, 2
130864, 130868, 2
130864, 130871, 2
130829, 130828, 2
130829, 130838, 2
130829, 130832, 2
130829, 130830, 1
130829, 130839, 2
130840, 130837, 2
130840, 130843, 1
130840, 130830, 2
130840, 130842, 8
130840, 130836, 2
130840, 130831, 2
130862, 130860, 2
130862, 130866, 1
130862, 130864, 8
130862, 130856, 2
130855, 130857, 2
130855, 130859, 2
130855, 130852, 2
130855, 130854, 2
130855, 130831, 2
130855, 130856, 2
130844, 130846, 1
130844, 130859, 2
130844, 130861, 2
130844, 130838, 2
130844, 130841, 2
130844, 130831, 2
130839, 130841, 1
130839, 130830, 2
130839, 130831, 2
130839, 130829, 2
130839, 130838, 2
130831, 130837, 2
130831, 130847, 2
130831, 130845, 2
130831, 130842, 2
130831, 130836, 2
130831, 130839, 2
130831, 130850, 2
130831, 130843, 2
130831, 130835, 2
130831, 130852, 2
130831, 130846, 2
130831, 130848, 2
130831, 130833, 2
130831, 130834, 2
130831, 130853, 1
130831, 130832, 6
130831, 130849, 2
130831, 130859, 2
130831, 130830, 2
130831, 130838, 4
130831, 130840, 2
130831, 130841, 2
130831, 130855, 2
130831, 130844, 2
130831, 130851, 2
130856, 130865, 2
130856, 130863, 2
130856, 130861, 2
130856, 130869, 2
130856, 130860, 2
130856, 130838, 2
130856, 130855, 2
130856, 130871, 1
130856, 130857, 6
130856, 130859, 4
130856, 130864, 2
130856, 130862, 2
130856, 130870, 2
130856, 130866, 2
130856, 130867, 2
130856, 130854, 2
130856, 130868, 2
130856, 130858, 2
130868, 130869, 1
130868, 130864, 2
130868, 130870, 2
130868, 130866, 2
130868, 130854, 2
130868, 130856, 2
130868, 130871, 2
