15535, 15536, 1
15535, 15534, 2
15537, 15536, 2
15529, 15531, 2
15529, 15528, 2
15529, 15530, 2
15534, 15535, 1
15534, 15533, 2
15531, 15528, 2
15531, 15529, 2
15531, 15530, 2
15531, 15532, 1
15533, 15532, 2
15533, 15534, 1
15530, 15531, 1
15530, 15528, 2
15530, 15529, 2
15528, 15531, 2
15528, 15529, 0
15528, 15530, 1
15532, 15531, 2
15532, 15533, 1
15536, 15535, 2
15536, 15537, 1
