72998, 72999, 2
72998, 72992, 2
72998, 72997, 2
72998, 73000, 2
72998, 72994, 2
72998, 72996, 2
72993, 72992, 2
72993, 72994, 1
72999, 72998, 2
72999, 72995, 2
72999, 72996, 2
72999, 72997, 2
72999, 73000, 2
72992, 72998, 2
72992, 72993, 1
72992, 72994, 2
72997, 72998, 6
72997, 73000, 1
72997, 72999, 8
72997, 72994, 2
72997, 72996, 2
72995, 72999, 2
72995, 72994, 2
72995, 72996, 2
73000, 72998, 2
73000, 72999, 2
73000, 72997, 2
72994, 72998, 2
72994, 72993, 2
72994, 72992, 2
72994, 72997, 2
72994, 72995, 3
72994, 72996, 1
72996, 72998, 2
72996, 72999, 2
72996, 72994, 2
72996, 72997, 1
72996, 72995, 2
