62889, 62888, 2
62889, 62890, 1
62892, 62891, 2
62882, 62880, 2
62882, 62881, 2
62882, 62883, 1
62886, 62885, 2
62886, 62887, 1
62886, 62888, 2
62887, 62886, 2
62887, 62888, 1
62881, 62882, 1
62881, 62880, 2
62888, 62889, 1
62888, 62886, 2
62888, 62887, 2
62888, 62890, 2
62891, 62892, 1
62891, 62890, 2
62884, 62885, 1
62884, 62883, 2
62885, 62884, 2
62885, 62886, 1
62890, 62889, 2
62890, 62888, 2
62890, 62891, 1
62883, 62884, 1
62883, 62882, 2
62880, 62882, 2
62880, 62881, 1
