296477, 296475, 2
296477, 296478, 1
296477, 296476, 2
296474, 296475, 0
296474, 296480, 1
296474, 296476, 3
296483, 296484, 2
296483, 296485, 2
296483, 296481, 2
296483, 296482, 2
296483, 296486, 2
296483, 296480, 2
296483, 296476, 2
296483, 296487, 2
296487, 296484, 2
296487, 296483, 2
296487, 296488, 1
296487, 296486, 2
296487, 296482, 2
296486, 296484, 2
296486, 296485, 2
296486, 296483, 2
296486, 296488, 2
296486, 296487, 2
296485, 296484, 2
296485, 296483, 2
296485, 296486, 1
296491, 296489, 2
296491, 296490, 2
296481, 296480, 2
296481, 296483, 2
296481, 296479, 2
296481, 296482, 1
296484, 296485, 1
296484, 296483, 2
296484, 296482, 2
296484, 296486, 2
296484, 296479, 2
296484, 296487, 2
296478, 296477, 2
296478, 296479, 1
296478, 296482, 2
296478, 296475, 2
296478, 296480, 2
296478, 296476, 2
296488, 296489, 0
296488, 296486, 2
296488, 296487, 2
296479, 296484, 2
296479, 296478, 2
296479, 296476, 2
296479, 296482, 2
296479, 296480, 2
296479, 296481, 2
296482, 296484, 0
296482, 296478, 2
296482, 296483, 3
296482, 296481, 2
296482, 296487, 1
296482, 296479, 2
296482, 296480, 2
296482, 296476, 2
296489, 296491, 2
296489, 296490, 1
296489, 296488, 2
296475, 296477, 1
296475, 296474, 2
296475, 296478, 2
296475, 296476, 2
296475, 296480, 2
296480, 296474, 2
296480, 296483, 2
296480, 296481, 1
296480, 296482, 2
296480, 296478, 2
296480, 296475, 2
296480, 296479, 2
296480, 296476, 2
296490, 296489, 2
296490, 296491, 1
296476, 296477, 2
296476, 296474, 2
296476, 296483, 2
296476, 296482, 2
296476, 296478, 2
296476, 296475, 2
296476, 296480, 2
296476, 296479, 2
