71705, 71704, 2
71705, 71706, 1
71705, 71703, 2
71706, 71705, 2
71706, 71701, 2
71706, 71703, 2
71704, 71705, 1
71704, 71702, 2
71704, 71703, 2
71701, 71702, 3
71701, 71706, 2
71701, 71703, 0
71702, 71704, 1
71702, 71701, 2
71702, 71703, 2
71703, 71705, 2
71703, 71704, 2
71703, 71706, 2
71703, 71701, 2
71703, 71702, 2
