168600, 168601, 1
168600, 168597, 2
168600, 168599, 2
168600, 168598, 2
168583, 168588, 2
168583, 168582, 2
168583, 168585, 1
168583, 168593, 2
168583, 168592, 2
168583, 168554, 2
168583, 168575, 2
168583, 168587, 2
168583, 168581, 2
168583, 168555, 2
168583, 168580, 2
168583, 168576, 2
168583, 168579, 2
168583, 168574, 2
168583, 168571, 2
168583, 168570, 2
168583, 168578, 2
168583, 168558, 2
168583, 168569, 2
168583, 168573, 2
168583, 168584, 2
168583, 168586, 2
168588, 168583, 2
168588, 168587, 2
168588, 168590, 2
168588, 168591, 2
168588, 168597, 2
168588, 168586, 2
168588, 168593, 1
168588, 168589, 3
168588, 168592, 8
168588, 168584, 2
168599, 168600, 3
168599, 168601, 2
168599, 168586, 2
168599, 168597, 2
168599, 168598, 2
168582, 168583, 2
168582, 168587, 2
168582, 168581, 2
168582, 168586, 2
168582, 168584, 2
168582, 168589, 2
168585, 168583, 2
168585, 168586, 1
168585, 168584, 2
168601, 168600, 2
168601, 168599, 2
168589, 168588, 2
168589, 168587, 2
168589, 168590, 1
168589, 168582, 2
168589, 168594, 2
168589, 168591, 2
168589, 168584, 2
168589, 168593, 2
168589, 168579, 2
168560, 168563, 2
168560, 168562, 2
168560, 168558, 2
168560, 168568, 2
168560, 168559, 2
168560, 168561, 1
168598, 168600, 2
168598, 168597, 2
168598, 168599, 1
168564, 168569, 2
168564, 168571, 2
168564, 168563, 2
168564, 168562, 2
168564, 168566, 2
168564, 168565, 1
168564, 168568, 2
168595, 168596, 1
168595, 168593, 2
168595, 168597, 2
168595, 168594, 2
168566, 168567, 2
168566, 168569, 2
168566, 168570, 2
168566, 168563, 2
168566, 168571, 2
168566, 168564, 2
168566, 168565, 2
168566, 168568, 2
168566, 168572, 2
168555, 168554, 2
168555, 168583, 2
168555, 168558, 1
168555, 168556, 3
168555, 168557, 8
168555, 168568, 2
168572, 168569, 2
168572, 168571, 2
168572, 168570, 2
168572, 168573, 2
168572, 168574, 2
168572, 168566, 2
168572, 168567, 2
168571, 168584, 2
168571, 168583, 2
168571, 168563, 2
168571, 168573, 2
168571, 168593, 2
168571, 168597, 2
168571, 168565, 2
168571, 168579, 2
168571, 168567, 2
168571, 168570, 2
168571, 168578, 2
168571, 168577, 2
168571, 168576, 2
168571, 168558, 2
168571, 168569, 2
168571, 168564, 2
168571, 168566, 2
168571, 168568, 2
168571, 168572, 2
168557, 168555, 2
168557, 168559, 2
168557, 168558, 2
168557, 168556, 2
168574, 168569, 2
168574, 168583, 2
168574, 168575, 2
168574, 168578, 2
168574, 168573, 2
168574, 168576, 2
168574, 168577, 2
168574, 168572, 2
168565, 168571, 2
168565, 168569, 2
168565, 168563, 2
168565, 168564, 2
168565, 168566, 1
168565, 168568, 2
168577, 168571, 2
168577, 168576, 2
168577, 168575, 2
168577, 168578, 2
168577, 168573, 2
168577, 168574, 2
168577, 168579, 2
168559, 168563, 2
168559, 168560, 2
168559, 168562, 2
168559, 168558, 2
168559, 168557, 2
168559, 168556, 2
168559, 168568, 2
168559, 168561, 2
168579, 168571, 2
168579, 168583, 2
168579, 168575, 2
168579, 168578, 2
168579, 168577, 2
168579, 168581, 2
168579, 168586, 2
168579, 168584, 2
168579, 168589, 2
168579, 168580, 1
168569, 168583, 2
168569, 168563, 2
168569, 168574, 2
168569, 168565, 2
168569, 168584, 2
168569, 168567, 2
168569, 168570, 2
168569, 168578, 2
168569, 168573, 1
168569, 168571, 2
168569, 168558, 2
168569, 168564, 2
168569, 168566, 2
168569, 168568, 6
168569, 168572, 8
168570, 168571, 1
168570, 168583, 2
168570, 168573, 2
168570, 168569, 2
168570, 168566, 2
168570, 168568, 2
168570, 168567, 2
168570, 168572, 2
168578, 168583, 2
168578, 168584, 1
168578, 168574, 2
168578, 168586, 2
168578, 168577, 2
168578, 168571, 2
168578, 168575, 2
168578, 168573, 2
168578, 168576, 2
168578, 168569, 2
168578, 168581, 2
168578, 168579, 3
168578, 168568, 2
168578, 168580, 2
168590, 168591, 1
168590, 168588, 2
168590, 168589, 2
168590, 168586, 2
168558, 168583, 2
168558, 168563, 1
168558, 168562, 2
168558, 168557, 2
168558, 168556, 2
168558, 168560, 8
168558, 168559, 3
168558, 168554, 2
168558, 168571, 2
168558, 168569, 2
168558, 168555, 2
168558, 168568, 2
168558, 168561, 2
168561, 168563, 2
168561, 168562, 1
168561, 168558, 2
168561, 168560, 2
168561, 168559, 2
168561, 168568, 2
168596, 168595, 2
168596, 168593, 2
168596, 168597, 2
168596, 168594, 2
168586, 168583, 2
168586, 168588, 2
168586, 168579, 2
168586, 168599, 2
168586, 168582, 2
168586, 168590, 2
168586, 168591, 2
168586, 168585, 2
168586, 168593, 2
168586, 168597, 2
168586, 168592, 2
168586, 168578, 2
168586, 168587, 2
168586, 168594, 2
168586, 168581, 2
168586, 168584, 2
168586, 168573, 2
168586, 168580, 2
168593, 168583, 2
168593, 168588, 2
168593, 168591, 2
168593, 168597, 1
168593, 168596, 2
168593, 168589, 2
168593, 168592, 2
168593, 168571, 2
168593, 168594, 3
168593, 168595, 2
168593, 168584, 2
168593, 168586, 2
168592, 168583, 2
168592, 168588, 2
168592, 168584, 2
168592, 168594, 2
168592, 168591, 2
168592, 168586, 2
168592, 168593, 2
168554, 168583, 2
168554, 168563, 2
168554, 168558, 2
168554, 168556, 2
168554, 168555, 1
168554, 168568, 2
168575, 168576, 1
168575, 168583, 2
168575, 168578, 2
168575, 168573, 2
168575, 168574, 2
168575, 168577, 2
168575, 168579, 2
168573, 168583, 2
168573, 168574, 3
168573, 168586, 2
168573, 168570, 2
168573, 168571, 2
168573, 168575, 8
168573, 168578, 1
168573, 168577, 2
168573, 168576, 2
168573, 168569, 2
168573, 168584, 2
168573, 168568, 2
168573, 168572, 2
168594, 168591, 2
168594, 168597, 2
168594, 168586, 2
168594, 168593, 2
168594, 168589, 2
168594, 168596, 2
168594, 168595, 1
168594, 168592, 2
168580, 168581, 1
168580, 168586, 2
168580, 168578, 2
168580, 168579, 2
168580, 168583, 2
168563, 168571, 2
168563, 168562, 2
168563, 168565, 2
168563, 168560, 2
168563, 168559, 2
168563, 168554, 2
168563, 168558, 2
168563, 168569, 1
168563, 168564, 3
168563, 168566, 2
168563, 168568, 2
168563, 168561, 2
168562, 168563, 2
168562, 168558, 2
168562, 168564, 2
168562, 168560, 2
168562, 168559, 2
168562, 168561, 2
168556, 168554, 2
168556, 168555, 2
168556, 168558, 2
168556, 168559, 2
168556, 168557, 2
168597, 168600, 2
168597, 168571, 2
168597, 168588, 2
168597, 168599, 2
168597, 168594, 2
168597, 168586, 2
168597, 168593, 2
168597, 168596, 2
168597, 168595, 2
168597, 168598, 1
168568, 168569, 2
168568, 168563, 2
168568, 168565, 2
168568, 168560, 2
168568, 168559, 2
168568, 168584, 2
168568, 168554, 2
168568, 168570, 1
168568, 168578, 2
168568, 168573, 2
168568, 168571, 2
168568, 168558, 2
168568, 168564, 2
168568, 168566, 2
168568, 168555, 2
168568, 168567, 2
168568, 168576, 2
168568, 168561, 2
168576, 168571, 2
168576, 168583, 2
168576, 168575, 2
168576, 168578, 2
168576, 168577, 1
168576, 168574, 2
168576, 168573, 2
168576, 168568, 2
168591, 168588, 2
168591, 168590, 2
168591, 168594, 2
168591, 168586, 2
168591, 168593, 2
168591, 168589, 2
168591, 168592, 2
168587, 168583, 2
168587, 168588, 2
168587, 168582, 2
168587, 168581, 2
168587, 168586, 2
168587, 168584, 2
168587, 168589, 2
168581, 168583, 2
168581, 168587, 2
168581, 168582, 2
168581, 168578, 2
168581, 168586, 2
168581, 168579, 2
168581, 168580, 2
168581, 168584, 2
168584, 168583, 6
168584, 168588, 1
168584, 168582, 2
168584, 168586, 2
168584, 168593, 2
168584, 168589, 2
168584, 168592, 2
168584, 168578, 2
168584, 168571, 2
168584, 168568, 2
168584, 168587, 8
168584, 168573, 2
168584, 168569, 2
168584, 168581, 2
168584, 168579, 2
168584, 168585, 2
168567, 168571, 2
168567, 168569, 2
168567, 168570, 2
168567, 168566, 2
168567, 168568, 2
168567, 168572, 2
