300771, 300773, 2
300771, 300772, 2
300771, 300770, 2
300769, 300772, 1
300769, 300770, 3
300772, 300771, 2
300772, 300769, 2
300772, 300770, 2
300772, 300773, 3
300770, 300771, 2
300770, 300769, 2
300770, 300772, 2
300773, 300771, 2
300773, 300772, 2
