293977, 293979, 2
293977, 293978, 1
293977, 293976, 2
293977, 293975, 2
293979, 293977, 2
293979, 293976, 2
293979, 293978, 2
293973, 293971, 2
293973, 293972, 2
293973, 293974, 1
293974, 293976, 1
293974, 293972, 2
293974, 293975, 8
293974, 293973, 2
293971, 293972, 1
293971, 293975, 2
293971, 293973, 2
293972, 293971, 2
293972, 293974, 2
293972, 293973, 1
293972, 293975, 2
293975, 293977, 2
293975, 293971, 2
293975, 293972, 2
293975, 293976, 2
293975, 293974, 2
293976, 293977, 8
293976, 293979, 1
293976, 293975, 2
293976, 293974, 2
293976, 293978, 2
293978, 293977, 2
293978, 293979, 2
293978, 293976, 2
