160911, 160910, 2
160911, 160913, 2
160911, 160912, 1
160919, 160918, 2
160916, 160917, 1
160916, 160915, 2
160916, 160914, 2
160918, 160919, 1
160918, 160917, 2
160915, 160916, 1
160915, 160917, 2
160915, 160914, 2
160914, 160916, 2
160914, 160913, 2
160914, 160917, 2
160914, 160915, 1
160910, 160911, 1
160913, 160911, 2
160913, 160914, 1
160913, 160912, 2
160917, 160916, 2
160917, 160918, 1
160917, 160915, 2
160917, 160914, 2
160912, 160911, 2
160912, 160913, 1
