300951, 300954, 2
300951, 300950, 2
300951, 300955, 2
300951, 300953, 2
300951, 300949, 2
300951, 300952, 1
300954, 300951, 2
300954, 300952, 2
300954, 300955, 3
300954, 300953, 2
300954, 300949, 2
300954, 300950, 2
300950, 300951, 2
300950, 300954, 2
300950, 300955, 2
300950, 300953, 2
300950, 300949, 2
300950, 300952, 2
300955, 300951, 2
300955, 300954, 2
300955, 300949, 2
300955, 300950, 2
300955, 300953, 2
300953, 300951, 2
300953, 300954, 2
300953, 300952, 2
300953, 300955, 2
300953, 300949, 2
300953, 300950, 2
300949, 300951, 8
300949, 300954, 1
300949, 300950, 3
300949, 300955, 2
300949, 300953, 2
300949, 300952, 2
300952, 300951, 2
300952, 300954, 2
300952, 300949, 2
300952, 300950, 2
300952, 300953, 1
