297878, 297874, 2
297878, 297875, 2
297878, 297877, 2
297878, 297876, 2
297859, 297862, 2
297859, 297860, 1
297859, 297856, 2
297859, 297858, 2
297867, 297866, 2
297867, 297875, 2
297867, 297862, 2
297867, 297868, 2
297867, 297864, 2
297867, 297865, 2
297869, 297870, 1
297869, 297868, 2
297868, 297869, 1
297868, 297866, 2
297868, 297875, 2
297868, 297867, 2
297870, 297869, 2
297870, 297871, 1
297857, 297862, 2
297857, 297856, 2
297857, 297858, 1
297857, 297855, 2
297864, 297862, 2
297864, 297861, 2
297864, 297865, 1
297864, 297863, 2
297864, 297867, 2
297865, 297866, 1
297865, 297864, 2
297865, 297867, 2
297855, 297857, 1
297855, 297856, 3
297861, 297862, 3
297861, 297864, 2
297861, 297860, 2
297861, 297863, 1
297875, 297873, 2
297875, 297878, 2
297875, 297867, 2
297875, 297874, 2
297875, 297862, 2
297875, 297868, 2
297875, 297877, 2
297875, 297876, 2
297872, 297873, 1
297872, 297871, 2
297860, 297862, 2
297860, 297861, 1
297860, 297856, 2
297860, 297859, 2
297856, 297857, 2
297856, 297859, 2
297856, 297862, 2
297856, 297860, 2
297856, 297858, 2
297856, 297863, 2
297856, 297855, 2
297877, 297878, 1
297877, 297875, 2
297877, 297876, 2
297858, 297857, 2
297858, 297862, 2
297858, 297856, 2
297858, 297859, 1
297866, 297868, 1
297866, 297865, 2
297866, 297867, 3
297873, 297874, 1
297873, 297875, 2
297873, 297876, 2
297873, 297872, 2
297876, 297874, 2
297876, 297873, 2
297876, 297878, 2
297876, 297875, 2
297876, 297877, 1
297874, 297873, 2
297874, 297878, 2
297874, 297875, 3
297874, 297876, 1
297862, 297857, 2
297862, 297861, 2
297862, 297860, 2
297862, 297875, 2
297862, 297859, 2
297862, 297867, 2
297862, 297864, 2
297862, 297856, 2
297862, 297858, 2
297862, 297863, 2
297871, 297870, 2
297871, 297872, 1
297863, 297862, 2
297863, 297861, 2
297863, 297864, 1
297863, 297856, 2
