258702, 258701, 2
258702, 258700, 2
258702, 258698, 2
258699, 258697, 2
258699, 258700, 1
258699, 258698, 2
258701, 258702, 1
258701, 258700, 2
258697, 258699, 3
258697, 258698, 6
258700, 258701, 1
258700, 258702, 2
258700, 258699, 2
258700, 258698, 2
258698, 258697, 2
258698, 258702, 2
258698, 258699, 2
258698, 258700, 2
