221858, 221861, 2
221858, 221859, 2
221858, 221860, 2
221858, 221857, 2
221858, 221862, 2
221859, 221858, 2
221859, 221861, 2
221859, 221857, 2
221859, 221860, 1
221859, 221862, 2
221863, 221862, 2
221860, 221858, 2
221860, 221861, 1
221860, 221859, 2
221860, 221862, 2
221860, 221857, 2
221861, 221858, 2
221861, 221859, 2
221861, 221862, 2
221861, 221860, 2
221857, 221858, 3
221857, 221859, 8
221857, 221862, 1
221857, 221860, 2
221862, 221858, 2
221862, 221859, 2
221862, 221863, 3
221862, 221860, 2
221862, 221861, 2
221862, 221857, 2
