132851, 132849, 2
132851, 132850, 2
132851, 132848, 2
132846, 132848, 2
132846, 132850, 2
132846, 132847, 1
132846, 132849, 2
132848, 132851, 2
132848, 132846, 2
132848, 132849, 2
132848, 132847, 2
132848, 132850, 2
132850, 132851, 2
132850, 132846, 2
132850, 132848, 2
132850, 132847, 2
132850, 132849, 2
132847, 132846, 2
132847, 132848, 8
132847, 132850, 2
132847, 132849, 1
132849, 132851, 1
132849, 132846, 2
132849, 132848, 2
132849, 132847, 2
132849, 132850, 6
