122139, 122141, 2
122139, 122140, 1
122148, 122150, 2
122148, 122152, 2
122148, 122144, 2
122148, 122151, 2
122148, 122159, 2
122148, 122149, 2
122148, 122156, 2
122148, 122141, 2
122148, 122147, 2
122142, 122143, 1
122142, 122145, 2
122142, 122144, 2
122142, 122146, 2
122142, 122141, 2
122142, 122147, 2
122150, 122148, 2
122150, 122154, 1
122150, 122149, 2
122150, 122152, 4
122150, 122158, 2
122150, 122157, 2
122150, 122153, 2
122150, 122151, 6
122150, 122147, 2
122150, 122159, 2
122150, 122156, 2
122140, 122139, 2
122140, 122141, 1
122154, 122150, 2
122154, 122147, 2
122154, 122153, 2
122154, 122158, 2
122154, 122152, 2
122154, 122157, 2
122154, 122155, 1
122154, 122159, 2
122154, 122149, 2
122154, 122151, 2
122154, 122156, 2
122151, 122148, 2
122151, 122154, 2
122151, 122149, 2
122151, 122153, 3
122151, 122157, 2
122151, 122150, 2
122151, 122159, 2
122151, 122147, 2
122151, 122156, 2
122151, 122155, 2
122157, 122154, 2
122157, 122150, 2
122157, 122153, 2
122157, 122155, 2
122157, 122152, 2
122157, 122159, 2
122157, 122151, 2
122157, 122149, 2
122149, 122148, 2
122149, 122154, 2
122149, 122147, 2
122149, 122153, 2
122149, 122158, 2
122149, 122151, 2
122149, 122150, 1
122149, 122152, 2
122149, 122157, 2
122149, 122159, 2
122149, 122155, 2
122147, 122148, 0
122147, 122154, 2
122147, 122146, 2
122147, 122150, 2
122147, 122151, 2
122147, 122149, 1
122147, 122155, 2
122147, 122143, 2
122147, 122152, 2
122147, 122145, 2
122147, 122144, 2
122147, 122153, 2
122147, 122159, 2
122147, 122142, 2
122155, 122154, 2
122155, 122152, 2
122155, 122158, 2
122155, 122157, 4
122155, 122151, 2
122155, 122153, 2
122155, 122159, 1
122155, 122147, 2
122155, 122149, 2
122155, 122156, 6
122143, 122146, 2
122143, 122142, 2
122143, 122144, 6
122143, 122145, 4
122143, 122147, 1
122152, 122148, 2
122152, 122154, 2
122152, 122149, 2
122152, 122150, 2
122152, 122158, 2
122152, 122157, 2
122152, 122155, 2
122152, 122159, 2
122152, 122156, 2
122152, 122147, 2
122158, 122154, 2
122158, 122150, 2
122158, 122153, 2
122158, 122155, 2
122158, 122152, 2
122158, 122159, 2
122158, 122149, 2
122158, 122156, 2
122145, 122143, 2
122145, 122142, 2
122145, 122141, 2
122145, 122147, 2
122144, 122148, 2
122144, 122143, 2
122144, 122142, 2
122144, 122146, 3
122144, 122141, 2
122144, 122147, 2
122153, 122154, 2
122153, 122147, 2
122153, 122150, 2
122153, 122158, 2
122153, 122151, 2
122153, 122155, 2
122153, 122159, 2
122153, 122157, 2
122153, 122149, 2
122153, 122156, 2
122159, 122148, 2
122159, 122154, 2
122159, 122153, 2
122159, 122157, 2
122159, 122151, 2
122159, 122149, 2
122159, 122147, 2
122159, 122150, 2
122159, 122152, 2
122159, 122158, 2
122159, 122155, 2
122159, 122156, 2
122146, 122143, 2
122146, 122142, 2
122146, 122147, 2
122146, 122144, 2
122156, 122148, 2
122156, 122154, 2
122156, 122153, 2
122156, 122158, 3
122156, 122152, 2
122156, 122155, 2
122156, 122150, 2
122156, 122151, 2
122156, 122159, 2
122141, 122139, 2
122141, 122148, 2
122141, 122145, 2
122141, 122140, 2
122141, 122144, 2
122141, 122142, 1
