121204, 121206, 2
121204, 121205, 1
121213, 121212, 2
121213, 121214, 1
121213, 121211, 2
121215, 121219, 2
121215, 121220, 2
121215, 121217, 4
121215, 121218, 2
121215, 121221, 1
121215, 121216, 6
121215, 121214, 2
121222, 121216, 2
121222, 121221, 2
121222, 121218, 2
121219, 121220, 2
121219, 121218, 2
121219, 121216, 2
121219, 121215, 2
121219, 121221, 2
121219, 121214, 2
121210, 121208, 2
121210, 121207, 2
121210, 121214, 2
121210, 121211, 2
121210, 121209, 2
121209, 121208, 2
121209, 121207, 2
121209, 121214, 2
121209, 121211, 2
121209, 121210, 2
121206, 121204, 2
121206, 121205, 2
121206, 121212, 2
121206, 121208, 2
121206, 121207, 1
121212, 121207, 2
121212, 121213, 2
121212, 121206, 2
121212, 121214, 2
121212, 121211, 2
121212, 121208, 2
121221, 121222, 0
121221, 121219, 2
121221, 121220, 2
121221, 121217, 2
121221, 121215, 2
121221, 121216, 2
121221, 121218, 2
121221, 121214, 2
121214, 121210, 2
121214, 121213, 2
121214, 121212, 2
121214, 121219, 2
121214, 121218, 2
121214, 121209, 2
121214, 121216, 2
121214, 121215, 1
121214, 121221, 2
121214, 121217, 2
121214, 121211, 2
121207, 121210, 2
121207, 121209, 2
121207, 121206, 2
121207, 121212, 2
121207, 121208, 3
121207, 121211, 1
121205, 121204, 2
121205, 121206, 1
121220, 121216, 2
121220, 121215, 2
121220, 121221, 2
121220, 121219, 2
121220, 121218, 2
121218, 121222, 2
121218, 121219, 8
121218, 121220, 1
121218, 121216, 2
121218, 121215, 2
121218, 121221, 2
121218, 121214, 2
121216, 121222, 2
121216, 121219, 2
121216, 121220, 2
121216, 121215, 2
121216, 121221, 2
121216, 121214, 2
121216, 121218, 3
121217, 121215, 2
121217, 121221, 2
121217, 121214, 2
121208, 121207, 2
121208, 121210, 1
121208, 121209, 8
121208, 121206, 2
121208, 121212, 2
121208, 121211, 2
121211, 121210, 2
121211, 121213, 1
121211, 121207, 2
121211, 121209, 2
121211, 121212, 0
121211, 121208, 2
121211, 121214, 2
