259475, 259477, 8
259475, 259476, 3
259475, 259478, 1
259482, 259480, 2
259482, 259481, 2
259481, 259480, 2
259481, 259482, 3
259481, 259479, 2
259481, 259478, 2
259478, 259475, 2
259478, 259477, 2
259478, 259481, 1
259478, 259480, 8
259478, 259476, 2
259478, 259479, 3
259480, 259482, 2
259480, 259481, 2
259480, 259479, 2
259480, 259478, 2
259476, 259475, 2
259476, 259477, 2
259476, 259478, 2
259477, 259475, 2
259477, 259476, 2
259477, 259479, 2
259477, 259478, 2
259479, 259480, 2
259479, 259478, 2
259479, 259477, 2
259479, 259481, 2
