64248, 64245, 2
64248, 64247, 2
64248, 64246, 2
64248, 64243, 2
64248, 64249, 2
64248, 64250, 2
64253, 64251, 2
64253, 64255, 2
64253, 64252, 2
64253, 64254, 2
64245, 64248, 2
64245, 64247, 1
64245, 64249, 2
64245, 64243, 2
64245, 64246, 8
64245, 64244, 2
64256, 64255, 2
64256, 64257, 0
64256, 64258, 1
64246, 64248, 2
64246, 64245, 2
64246, 64247, 2
64246, 64244, 2
64260, 64258, 2
64260, 64252, 2
64260, 64259, 2
64244, 64243, 2
64244, 64249, 2
64244, 64245, 1
64244, 64247, 2
64244, 64246, 2
64259, 64260, 1
64259, 64258, 2
64251, 64253, 0
64251, 64250, 2
64251, 64252, 6
64251, 64254, 1
64250, 64248, 2
64250, 64251, 1
64250, 64252, 2
64250, 64249, 2
64250, 64243, 2
64250, 64254, 2
64252, 64251, 2
64252, 64253, 2
64252, 64250, 2
64252, 64243, 2
64252, 64255, 2
64252, 64260, 2
64247, 64248, 1
64247, 64243, 2
64247, 64245, 2
64247, 64244, 2
64247, 64246, 2
64249, 64248, 2
64249, 64243, 2
64249, 64245, 2
64249, 64250, 1
64249, 64244, 2
64243, 64248, 2
64243, 64245, 2
64243, 64252, 2
64243, 64247, 2
64243, 64244, 3
64243, 64249, 1
64243, 64250, 2
64258, 64260, 2
64258, 64257, 2
64258, 64256, 2
64258, 64259, 1
64257, 64258, 2
64257, 64256, 2
64255, 64253, 2
64255, 64252, 2
64255, 64254, 2
64255, 64256, 1
64254, 64251, 2
64254, 64253, 2
64254, 64250, 2
64254, 64255, 1
