20942, 20941, 2
20942, 20939, 2
20942, 20943, 0
20942, 20940, 2
20941, 20939, 2
20941, 20940, 2
20941, 20942, 1
20939, 20941, 1
20939, 20940, 0
20939, 20942, 2
20943, 20942, 2
20940, 20941, 2
20940, 20939, 2
20940, 20942, 2
