301535, 301533, 2
301535, 301534, 2
301529, 301531, 2
301529, 301530, 1
301534, 301535, 3
301534, 301533, 2
301534, 301531, 2
301534, 301532, 2
301532, 301533, 2
301532, 301531, 2
301532, 301534, 2
301533, 301535, 2
301533, 301532, 2
301533, 301531, 2
301533, 301534, 2
301531, 301533, 3
301531, 301529, 2
301531, 301534, 1
301531, 301530, 2
301531, 301532, 0
301530, 301529, 2
301530, 301531, 1
