68235, 68236, 1
68235, 68234, 2
68259, 68258, 2
68259, 68244, 2
68259, 68261, 1
68259, 68260, 0
68234, 68235, 1
68234, 68239, 2
68234, 68233, 2
68250, 68247, 2
68250, 68248, 2
68250, 68251, 1
68250, 68249, 2
68233, 68232, 2
68233, 68234, 1
68233, 68239, 2
68247, 68245, 2
68247, 68250, 2
68247, 68246, 2
68247, 68241, 2
68247, 68248, 1
68247, 68244, 2
68247, 68249, 2
68254, 68256, 2
68254, 68255, 1
68254, 68252, 2
68254, 68253, 2
68254, 68244, 2
68254, 68251, 2
68251, 68248, 2
68251, 68250, 2
68251, 68252, 1
68251, 68253, 2
68251, 68254, 2
68251, 68244, 2
68251, 68249, 2
68261, 68259, 2
68261, 68244, 2
68261, 68260, 2
68248, 68247, 2
68248, 68251, 2
68248, 68250, 1
68248, 68249, 8
68232, 68231, 2
68232, 68239, 2
68232, 68230, 2
68232, 68233, 1
68258, 68259, 1
68258, 68257, 2
68256, 68257, 1
68256, 68253, 2
68256, 68254, 2
68256, 68255, 2
68256, 68244, 2
68257, 68253, 2
68257, 68258, 1
68257, 68244, 2
68257, 68256, 2
68255, 68254, 2
68255, 68244, 2
68255, 68256, 1
68241, 68243, 2
68241, 68239, 4
68241, 68238, 2
68241, 68237, 2
68241, 68247, 2
68241, 68246, 2
68241, 68244, 2
68241, 68242, 2
68241, 68240, 2
68241, 68245, 1
68242, 68243, 1
68242, 68238, 2
68242, 68237, 2
68242, 68246, 2
68242, 68241, 2
68242, 68245, 2
68242, 68240, 2
68252, 68253, 0
68252, 68254, 1
68252, 68251, 2
68236, 68235, 2
68236, 68239, 2
68236, 68237, 1
68231, 68232, 2
68231, 68230, 2
68239, 68232, 2
68239, 68230, 2
68239, 68238, 2
68239, 68237, 2
68239, 68233, 2
68239, 68246, 2
68239, 68241, 2
68239, 68234, 2
68239, 68236, 2
68239, 68240, 1
68246, 68243, 2
68246, 68239, 2
68246, 68247, 2
68246, 68241, 2
68246, 68245, 2
68246, 68242, 2
68246, 68244, 2
68230, 68232, 1
68230, 68231, 0
68230, 68239, 2
68249, 68247, 2
68249, 68248, 2
68249, 68251, 2
68249, 68244, 2
68249, 68250, 2
68243, 68245, 2
68243, 68237, 2
68243, 68246, 2
68243, 68241, 2
68243, 68244, 1
68243, 68242, 2
68238, 68242, 2
68238, 68241, 1
68238, 68239, 2
68238, 68240, 2
68238, 68237, 2
68237, 68236, 2
68237, 68243, 2
68237, 68239, 2
68237, 68238, 1
68237, 68241, 2
68237, 68242, 2
68237, 68240, 2
68253, 68252, 2
68253, 68257, 2
68253, 68254, 2
68253, 68251, 2
68253, 68256, 2
68245, 68243, 2
68245, 68247, 1
68245, 68246, 3
68245, 68241, 2
68245, 68244, 2
68245, 68242, 2
68244, 68259, 2
68244, 68255, 2
68244, 68247, 2
68244, 68246, 2
68244, 68254, 2
68244, 68251, 2
68244, 68261, 2
68244, 68249, 2
68244, 68243, 2
68244, 68256, 2
68244, 68257, 2
68244, 68241, 2
68244, 68245, 2
68240, 68242, 1
68240, 68241, 2
68240, 68239, 2
68240, 68238, 2
68240, 68237, 2
68260, 68259, 2
68260, 68261, 2
