17259, 17258, 2
17258, 17259, 1
17258, 17256, 2
17258, 17257, 2
17255, 17254, 2
17255, 17253, 2
17255, 17256, 1
17251, 17252, 1
17251, 17249, 2
17251, 17250, 2
17248, 17249, 2
17248, 17246, 2
17248, 17247, 2
17256, 17258, 1
17256, 17255, 2
17256, 17257, 8
17247, 17248, 8
17247, 17246, 2
17247, 17249, 1
17257, 17258, 2
17257, 17256, 2
17249, 17248, 2
17249, 17247, 2
17249, 17250, 8
17249, 17251, 1
17245, 17246, 1
17250, 17249, 2
17250, 17251, 2
17252, 17253, 1
17252, 17254, 2
17252, 17251, 2
17254, 17252, 2
17254, 17253, 2
17254, 17255, 1
17246, 17248, 2
17246, 17245, 2
17246, 17247, 1
17253, 17252, 2
17253, 17254, 1
17253, 17255, 2
