185418, 185417, 2
185418, 185419, 1
185413, 185414, 3
185413, 185415, 1
185413, 185412, 2
185420, 185419, 2
185420, 185421, 1
185414, 185413, 2
185414, 185415, 2
185414, 185412, 2
185419, 185418, 2
185419, 185420, 1
185421, 185420, 2
185421, 185422, 1
185422, 185423, 1
185422, 185421, 2
185411, 185410, 2
185411, 185412, 1
185415, 185413, 2
185415, 185414, 2
185415, 185412, 2
185415, 185417, 2
185415, 185416, 1
185416, 185417, 1
185416, 185415, 2
185423, 185424, 1
185423, 185422, 2
185417, 185418, 1
185417, 185415, 2
185417, 185416, 2
185410, 185411, 1
185410, 185412, 2
185412, 185411, 2
185412, 185413, 1
185412, 185410, 2
185412, 185415, 2
185412, 185414, 2
185424, 185423, 2
