301117, 301118, 1
301118, 301117, 2
301118, 301120, 2
301118, 301119, 1
301122, 301119, 2
301122, 301123, 1
301122, 301120, 2
301122, 301121, 2
301120, 301118, 2
301120, 301121, 2
301120, 301122, 2
301120, 301119, 2
301121, 301123, 2
301121, 301122, 2
301121, 301120, 2
301121, 301119, 2
301119, 301118, 2
301119, 301123, 2
301119, 301122, 1
301119, 301120, 3
301119, 301121, 8
301123, 301119, 2
301123, 301122, 2
301123, 301121, 2
