299927, 299928, 3
299927, 299926, 2
299927, 299925, 2
299928, 299927, 2
299928, 299926, 2
299928, 299925, 2
299924, 299925, 3
299924, 299926, 1
299925, 299927, 2
299925, 299928, 2
299925, 299924, 2
299925, 299926, 2
299926, 299927, 1
299926, 299928, 2
299926, 299924, 2
299926, 299925, 2
