294487, 294486, 2
294487, 294483, 2
294487, 294484, 2
294487, 294488, 3
294487, 294485, 2
294480, 294484, 2
294480, 294481, 1
294480, 294479, 2
294481, 294483, 2
294481, 294484, 2
294481, 294482, 1
294481, 294480, 2
294481, 294479, 2
294488, 294484, 2
294488, 294487, 2
294488, 294483, 2
294488, 294485, 2
294484, 294487, 2
294484, 294480, 2
294484, 294485, 2
294484, 294488, 2
294484, 294486, 2
294484, 294482, 2
294484, 294483, 2
294484, 294479, 2
294484, 294481, 2
294482, 294484, 2
294482, 294483, 1
294482, 294481, 2
294483, 294487, 2
294483, 294485, 1
294483, 294488, 2
294483, 294484, 3
294483, 294482, 2
294483, 294486, 2
294483, 294481, 2
294486, 294484, 2
294486, 294487, 3
294486, 294483, 2
294486, 294485, 2
294479, 294484, 2
294479, 294480, 1
294479, 294481, 2
294485, 294484, 2
294485, 294487, 2
294485, 294483, 2
294485, 294486, 1
294485, 294488, 2
