130682, 130680, 2
130682, 130681, 2
130680, 130682, 2
130680, 130681, 2
130680, 130678, 2
130680, 130679, 2
130681, 130682, 1
130681, 130680, 2
130681, 130678, 2
130681, 130679, 2
130678, 130680, 2
130678, 130681, 2
130678, 130679, 1
130679, 130680, 8
130679, 130681, 1
130679, 130678, 2
