302008, 302007, 2
302008, 302009, 1
302008, 302014, 2
302007, 302008, 1
302007, 302006, 2
302007, 302014, 2
302012, 302013, 1
302012, 302011, 2
302012, 302014, 2
302009, 302008, 2
302009, 302011, 2
302009, 302010, 1
302009, 302014, 2
302011, 302013, 2
302011, 302012, 1
302011, 302009, 2
302011, 302010, 2
302011, 302014, 2
302013, 302012, 2
302013, 302011, 2
302013, 302014, 3
302006, 302007, 1
302006, 302014, 2
302010, 302009, 2
302010, 302011, 1
302010, 302014, 2
302014, 302008, 2
302014, 302007, 2
302014, 302012, 2
302014, 302009, 2
302014, 302011, 2
302014, 302013, 2
302014, 302006, 2
302014, 302010, 2
