185059, 185058, 2
185048, 185049, 1
185048, 185047, 2
185048, 185050, 2
185050, 185052, 2
185050, 185049, 2
185050, 185051, 2
185050, 185048, 2
185052, 185053, 3
185052, 185049, 2
185052, 185051, 2
185052, 185054, 1
185052, 185050, 2
185054, 185052, 2
185054, 185053, 2
185054, 185055, 1
185054, 185049, 2
185057, 185055, 2
185057, 185058, 1
185057, 185056, 2
185049, 185051, 8
185049, 185048, 2
185049, 185050, 3
185049, 185052, 1
185049, 185055, 2
185049, 185054, 2
185051, 185052, 2
185051, 185049, 2
185051, 185050, 2
185056, 185055, 2
185056, 185057, 1
185053, 185052, 2
185053, 185054, 2
185047, 185048, 1
185055, 185049, 2
185055, 185057, 2
185055, 185054, 2
185055, 185056, 1
185058, 185059, 1
185058, 185057, 2
