186946, 186945, 2
186946, 186943, 2
186944, 186945, 1
186944, 186943, 2
186944, 186942, 2
186942, 186945, 2
186942, 186943, 3
186942, 186939, 2
186942, 186944, 1
186942, 186941, 2
186945, 186946, 3
186945, 186943, 2
186945, 186944, 2
186945, 186942, 2
186940, 186943, 2
186940, 186939, 2
186940, 186941, 2
186943, 186946, 2
186943, 186944, 2
186943, 186942, 2
186943, 186945, 2
186943, 186940, 2
186943, 186939, 2
186941, 186940, 2
186941, 186939, 2
186941, 186942, 1
186939, 186940, 3
186939, 186943, 2
186939, 186941, 1
186939, 186942, 2
