219368, 219370, 1
219368, 219369, 3
219368, 219367, 2
219380, 219379, 2
219380, 219382, 1
219380, 219381, 3
219387, 219385, 2
219387, 219388, 2
219387, 219384, 2
219387, 219386, 2
219369, 219368, 2
219369, 219370, 2
219390, 219389, 2
219390, 219391, 1
219371, 219373, 8
219371, 219372, 3
219371, 219370, 2
219371, 219374, 1
219383, 219385, 8
219383, 219386, 1
219383, 219384, 3
219383, 219382, 2
219378, 219377, 2
219378, 219379, 1
219372, 219373, 2
219372, 219375, 2
219372, 219374, 2
219372, 219370, 2
219372, 219371, 2
219385, 219386, 2
219385, 219384, 2
219385, 219383, 2
219385, 219387, 2
219384, 219385, 2
219384, 219383, 2
219384, 219387, 2
219384, 219382, 2
219384, 219386, 2
219377, 219378, 1
219377, 219376, 2
219388, 219389, 1
219388, 219386, 2
219388, 219387, 2
219375, 219373, 2
219375, 219374, 2
219375, 219372, 2
219375, 219376, 2
219391, 219389, 2
219391, 219390, 2
219382, 219384, 2
219382, 219380, 2
219382, 219383, 1
219382, 219379, 2
219382, 219381, 2
219376, 219377, 1
219376, 219375, 2
219376, 219374, 2
219389, 219388, 2
219389, 219391, 2
219389, 219390, 1
219374, 219376, 1
219374, 219373, 2
219374, 219375, 3
219374, 219372, 2
219374, 219371, 2
219367, 219368, 1
219367, 219370, 2
219373, 219375, 2
219373, 219372, 2
219373, 219374, 2
219373, 219371, 2
219379, 219378, 2
219379, 219380, 1
219379, 219382, 2
219386, 219385, 2
219386, 219383, 2
219386, 219384, 2
219386, 219387, 3
219386, 219388, 1
219370, 219368, 2
219370, 219372, 2
219370, 219367, 2
219370, 219369, 2
219370, 219371, 1
219381, 219380, 2
219381, 219382, 2
