73147, 73145, 2
73147, 73146, 2
73147, 73148, 1
73151, 73145, 2
73151, 73150, 2
73151, 73148, 2
73151, 73149, 2
73151, 73152, 2
73145, 73147, 1
73145, 73151, 2
73145, 73146, 3
73146, 73147, 2
73146, 73145, 2
73146, 73148, 2
73146, 73149, 2
73148, 73147, 2
73148, 73151, 2
73148, 73146, 2
73148, 73149, 1
73149, 73151, 2
73149, 73146, 2
73149, 73148, 2
73149, 73150, 1
73152, 73151, 2
73152, 73150, 2
73150, 73151, 6
73150, 73149, 2
73150, 73152, 1
