185899, 185908, 2
185899, 185905, 2
185899, 185898, 2
185899, 185904, 2
185899, 185901, 2
185899, 185911, 2
185899, 185900, 2
185908, 185899, 2
185908, 185906, 2
185908, 185905, 2
185908, 185911, 2
185908, 185901, 2
185908, 185909, 2
185908, 185910, 2
185908, 185907, 2
185908, 185913, 2
185922, 185921, 2
185922, 185919, 2
185922, 185923, 1
185922, 185920, 2
185920, 185921, 1
185920, 185922, 2
185920, 185919, 2
185920, 185918, 2
185920, 185913, 2
185902, 185904, 1
185902, 185903, 8
185902, 185905, 2
185902, 185901, 2
185901, 185899, 2
185901, 185908, 2
185901, 185904, 2
185901, 185903, 2
185901, 185902, 1
185901, 185898, 2
185901, 185900, 2
185905, 185899, 2
185905, 185908, 2
185905, 185902, 2
185905, 185904, 2
185905, 185906, 1
185904, 185899, 2
185904, 185902, 2
185904, 185905, 1
185904, 185901, 2
185904, 185903, 2
185898, 185899, 0
185898, 185901, 1
185898, 185900, 3
185909, 185908, 2
185909, 185910, 3
185909, 185907, 2
185909, 185911, 1
185912, 185913, 0
185912, 185911, 2
185912, 185914, 1
185900, 185899, 2
185900, 185901, 2
185900, 185898, 2
185923, 185922, 2
185923, 185919, 2
185915, 185916, 1
185915, 185914, 2
185914, 185916, 2
185914, 185912, 2
185914, 185915, 1
185914, 185919, 2
185914, 185913, 2
185919, 185918, 2
185919, 185916, 2
185919, 185920, 2
185919, 185922, 2
185919, 185914, 2
185919, 185917, 2
185919, 185923, 2
185919, 185913, 2
185913, 185908, 2
185913, 185918, 2
185913, 185916, 2
185913, 185906, 2
185913, 185911, 2
185913, 185919, 2
185913, 185914, 2
185913, 185912, 2
185913, 185907, 2
185913, 185920, 2
185903, 185902, 2
185903, 185904, 2
185903, 185901, 2
185918, 185916, 2
185918, 185917, 2
185918, 185913, 2
185918, 185919, 0
185918, 185920, 1
185916, 185918, 1
185916, 185915, 2
185916, 185914, 2
185916, 185917, 8
185916, 185919, 2
185916, 185913, 2
185911, 185899, 2
185911, 185908, 2
185911, 185909, 2
185911, 185910, 2
185911, 185912, 1
185911, 185907, 2
185911, 185913, 2
185921, 185922, 1
185921, 185920, 2
185917, 185919, 2
185917, 185918, 2
185917, 185916, 2
185910, 185908, 2
185910, 185909, 2
185910, 185911, 2
185907, 185908, 0
185907, 185909, 1
185907, 185913, 2
185907, 185906, 2
185907, 185911, 2
185906, 185908, 2
185906, 185905, 2
185906, 185907, 1
185906, 185913, 2
