251495, 251494, 2
251487, 251486, 2
251487, 251488, 1
251493, 251494, 1
251493, 251492, 2
251493, 251490, 2
251485, 251486, 3
251485, 251491, 1
251489, 251490, 1
251489, 251488, 2
251490, 251493, 2
251490, 251492, 2
251490, 251489, 2
251490, 251494, 2
251490, 251491, 2
251490, 251488, 2
251486, 251487, 1
251486, 251485, 2
251491, 251490, 2
251491, 251492, 1
251491, 251485, 2
251488, 251490, 2
251488, 251487, 2
251488, 251489, 1
251494, 251495, 1
251494, 251490, 2
251494, 251493, 2
251492, 251490, 2
251492, 251491, 2
251492, 251493, 3
