217378, 217377, 2
217378, 217380, 2
217378, 217376, 2
217378, 217379, 1
217378, 217375, 2
217376, 217378, 1
217376, 217375, 2
217376, 217380, 2
217376, 217377, 6
217388, 217380, 2
217388, 217387, 2
217388, 217386, 2
217387, 217388, 1
217387, 217386, 2
217386, 217380, 2
217386, 217388, 2
217386, 217384, 2
217386, 217387, 1
217386, 217385, 2
217383, 217382, 2
217383, 217380, 2
217383, 217384, 1
217383, 217385, 2
217377, 217378, 2
217377, 217380, 2
217377, 217376, 2
217377, 217375, 2
217377, 217379, 2
217375, 217378, 2
217375, 217376, 1
217375, 217380, 2
217375, 217377, 2
217384, 217383, 2
217384, 217380, 2
217384, 217385, 3
217384, 217386, 1
217381, 217382, 1
217381, 217379, 2
217381, 217380, 2
217380, 217378, 2
217380, 217376, 2
217380, 217388, 2
217380, 217381, 2
217380, 217383, 2
217380, 217382, 2
217380, 217379, 2
217380, 217386, 2
217380, 217377, 2
217380, 217375, 2
217380, 217384, 2
217382, 217383, 1
217382, 217381, 2
217382, 217380, 2
217379, 217378, 2
217379, 217380, 6
217379, 217381, 1
217379, 217377, 2
217385, 217383, 2
217385, 217384, 2
217385, 217386, 2
