123014, 123017, 2
123014, 123012, 2
123014, 123008, 2
123014, 123010, 2
123014, 123020, 2
123014, 123016, 2
123014, 123003, 2
123014, 123018, 2
123014, 123009, 2
123014, 123022, 2
123014, 123011, 2
123008, 123005, 2
123008, 123014, 2
123008, 123004, 2
123008, 123006, 2
123008, 123010, 2
123008, 123016, 2
123008, 123009, 2
123008, 123003, 2
123008, 123007, 2
123008, 123011, 2
123020, 123019, 2
123020, 123014, 2
123020, 123017, 2
123020, 123018, 2
123020, 123021, 2
123020, 123016, 2
123020, 123022, 2
123013, 123007, 2
123013, 123012, 2
123013, 123010, 2
123013, 123016, 2
123013, 123015, 1
123013, 123009, 2
123013, 123003, 2
123013, 123011, 2
123003, 123007, 2
123003, 123014, 2
123003, 123002, 2
123003, 123008, 2
123003, 123013, 2
123003, 123001, 2
123003, 123009, 2
123003, 123000, 2
123003, 123004, 1
123000, 123002, 2
123000, 123001, 1
123000, 123003, 2
123004, 123003, 2
123004, 123008, 2
123004, 123005, 1
123006, 123007, 3
123006, 123005, 2
123006, 123009, 1
123006, 123008, 0
123018, 123019, 3
123018, 123014, 2
123018, 123020, 0
123018, 123017, 2
123018, 123021, 2
123018, 123022, 1
123022, 123019, 2
123022, 123014, 2
123022, 123020, 2
123022, 123018, 2
123022, 123021, 1
123022, 123015, 2
123022, 123011, 2
123016, 123014, 2
123016, 123012, 2
123016, 123008, 2
123016, 123017, 1
123016, 123020, 2
123016, 123013, 2
123016, 123015, 2
123016, 123009, 2
123016, 123011, 2
123005, 123007, 2
123005, 123006, 1
123005, 123004, 2
123005, 123008, 2
123005, 123009, 2
123012, 123013, 4
123012, 123016, 1
123012, 123014, 6
123012, 123015, 2
123012, 123011, 2
123010, 123013, 2
123010, 123014, 2
123010, 123009, 2
123010, 123008, 2
123010, 123011, 1
123007, 123005, 2
123007, 123006, 2
123007, 123013, 2
123007, 123008, 2
123007, 123009, 2
123007, 123003, 2
123015, 123019, 2
123015, 123012, 2
123015, 123017, 2
123015, 123013, 2
123015, 123022, 2
123015, 123016, 2
123019, 123020, 2
123019, 123018, 2
123019, 123017, 2
123019, 123021, 2
123019, 123015, 2
123019, 123022, 2
123001, 123002, 3
123001, 123003, 1
123001, 123000, 2
123017, 123019, 2
123017, 123014, 2
123017, 123020, 2
123017, 123018, 1
123017, 123021, 2
123017, 123016, 2
123017, 123015, 2
123017, 123011, 2
123021, 123019, 2
123021, 123017, 2
123021, 123022, 2
123021, 123018, 2
123021, 123020, 2
123002, 123001, 2
123002, 123003, 2
123002, 123000, 2
123009, 123005, 2
123009, 123014, 2
123009, 123008, 2
123009, 123010, 1
123009, 123007, 2
123009, 123006, 2
123009, 123003, 2
123009, 123013, 2
123009, 123016, 2
123011, 123016, 2
123011, 123014, 2
123011, 123012, 1
123011, 123008, 2
123011, 123010, 2
123011, 123017, 2
123011, 123013, 2
123011, 123022, 2
