259292, 259293, 1
259292, 259291, 2
259292, 259295, 2
259296, 259297, 1
259296, 259295, 2
259297, 259296, 2
259297, 259295, 2
259293, 259292, 2
259293, 259294, 1
259293, 259295, 2
259294, 259293, 2
259294, 259295, 1
259291, 259292, 1
259295, 259292, 2
259295, 259296, 1
259295, 259294, 2
259295, 259293, 2
259295, 259297, 2
