166546, 166549, 2
166546, 166548, 1
166546, 166547, 3
166547, 166546, 2
166547, 166548, 2
166547, 166549, 2
166549, 166546, 2
166549, 166547, 2
166549, 166548, 2
166548, 166546, 2
166548, 166547, 2
166548, 166549, 1
