161939, 161938, 2
161939, 161936, 2
161939, 161940, 2
161939, 161937, 2
161935, 161936, 1
161936, 161939, 2
161936, 161935, 2
161936, 161938, 2
161936, 161937, 1
161937, 161939, 3
161937, 161936, 2
161937, 161938, 0
161937, 161940, 1
161942, 161943, 2
161942, 161941, 2
161942, 161945, 2
161942, 161946, 2
161942, 161944, 2
161942, 161940, 2
161948, 161949, 1
161948, 161947, 2
161948, 161946, 2
161938, 161939, 2
161938, 161936, 2
161938, 161940, 2
161938, 161937, 2
161941, 161943, 1
161941, 161944, 2
161941, 161942, 0
161941, 161940, 2
161941, 161946, 2
161940, 161943, 2
161940, 161939, 2
161940, 161941, 1
161940, 161937, 2
161940, 161944, 2
161940, 161942, 2
161940, 161938, 2
161943, 161941, 2
161943, 161942, 2
161943, 161940, 2
161943, 161944, 1
161943, 161945, 2
161947, 161949, 2
161947, 161948, 1
161947, 161946, 2
161945, 161943, 2
161945, 161944, 2
161945, 161942, 2
161945, 161946, 2
161946, 161947, 1
161946, 161941, 2
161946, 161945, 2
161946, 161944, 2
161946, 161942, 2
161946, 161948, 2
161949, 161947, 2
161949, 161948, 2
161944, 161943, 2
161944, 161941, 2
161944, 161945, 0
161944, 161946, 1
161944, 161942, 2
161944, 161940, 2
