127273, 127265, 2
127273, 127272, 2
127273, 127270, 2
127273, 127271, 2
127273, 127276, 2
127273, 127266, 2
127273, 127255, 2
127273, 127267, 2
127273, 127269, 2
127273, 127254, 2
127273, 127274, 1
127272, 127277, 2
127272, 127273, 2
127272, 127271, 2
127272, 127276, 2
127272, 127275, 2
127272, 127267, 2
127272, 127274, 2
127278, 127277, 2
127278, 127279, 1
127276, 127277, 2
127276, 127273, 2
127276, 127272, 2
127276, 127271, 2
127276, 127275, 2
127276, 127274, 2
127247, 127249, 2
127247, 127246, 2
127247, 127248, 2
127242, 127241, 2
127242, 127246, 2
127242, 127243, 3
127242, 127244, 1
127242, 127245, 2
127261, 127265, 2
127261, 127264, 2
127261, 127260, 2
127261, 127266, 2
127261, 127258, 2
127261, 127253, 2
127261, 127257, 2
127261, 127262, 2
127261, 127259, 2
127261, 127263, 2
127244, 127246, 1
127244, 127242, 2
127244, 127243, 2
127244, 127245, 3
127264, 127266, 2
127264, 127265, 1
127264, 127261, 2
127264, 127263, 2
127277, 127255, 2
127277, 127272, 2
127277, 127278, 1
127277, 127276, 2
127277, 127275, 2
127277, 127254, 2
127277, 127267, 2
127277, 127274, 2
127255, 127273, 2
127255, 127258, 2
127255, 127253, 2
127255, 127263, 2
127255, 127277, 2
127255, 127265, 2
127255, 127256, 2
127255, 127259, 2
127255, 127254, 2
127255, 127257, 2
127255, 127262, 2
127255, 127260, 2
127252, 127249, 2
127252, 127253, 2
127252, 127250, 2
127279, 127278, 2
127245, 127246, 2
127245, 127242, 2
127245, 127243, 2
127245, 127244, 2
127254, 127277, 2
127254, 127255, 3
127254, 127256, 2
127254, 127260, 2
127254, 127265, 2
127254, 127253, 2
127254, 127257, 2
127254, 127273, 2
127254, 127259, 2
127254, 127263, 2
127267, 127277, 2
127267, 127273, 1
127267, 127272, 2
127267, 127268, 0
127267, 127270, 2
127267, 127271, 2
127267, 127265, 2
127267, 127266, 2
127267, 127269, 2
127256, 127255, 2
127256, 127254, 2
127256, 127257, 1
127256, 127253, 2
127248, 127249, 2
127248, 127247, 2
127248, 127246, 2
127260, 127255, 2
127260, 127254, 2
127260, 127261, 0
127260, 127259, 2
127260, 127262, 1
127262, 127255, 2
127262, 127261, 2
127262, 127260, 2
127262, 127263, 1
127251, 127249, 2
127251, 127253, 2
127251, 127250, 2
127271, 127273, 2
127271, 127272, 1
127271, 127267, 2
127271, 127270, 2
127271, 127276, 2
127249, 127251, 2
127249, 127246, 2
127249, 127250, 1
127249, 127252, 2
127249, 127248, 2
127249, 127253, 2
127249, 127247, 2
127275, 127277, 1
127275, 127272, 2
127275, 127274, 2
127275, 127276, 0
127258, 127255, 2
127258, 127257, 2
127258, 127261, 2
127258, 127259, 1
127253, 127255, 2
127253, 127250, 2
127253, 127252, 2
127253, 127251, 2
127253, 127256, 1
127253, 127254, 3
127253, 127261, 2
127253, 127249, 2
127243, 127241, 2
127243, 127246, 2
127243, 127242, 2
127243, 127244, 2
127243, 127245, 2
127269, 127266, 2
127269, 127273, 2
127269, 127267, 2
127269, 127268, 2
127269, 127270, 1
127263, 127255, 2
127263, 127266, 2
127263, 127261, 2
127263, 127254, 2
127263, 127262, 2
127263, 127264, 1
127266, 127273, 2
127266, 127268, 2
127266, 127265, 2
127266, 127263, 2
127266, 127267, 2
127266, 127261, 2
127266, 127269, 2
127266, 127264, 2
127246, 127249, 1
127246, 127245, 2
127246, 127247, 3
127246, 127242, 2
127246, 127243, 2
127246, 127248, 0
127246, 127244, 2
127250, 127251, 4
127250, 127253, 1
127250, 127252, 6
127250, 127249, 2
127268, 127266, 2
127268, 127265, 2
127268, 127267, 2
127268, 127269, 1
127270, 127273, 2
127270, 127267, 2
127270, 127269, 2
127270, 127271, 1
127241, 127242, 1
127241, 127243, 2
127257, 127255, 2
127257, 127254, 2
127257, 127261, 2
127257, 127256, 2
127257, 127258, 1
127265, 127273, 2
127265, 127268, 2
127265, 127255, 2
127265, 127266, 0
127265, 127254, 2
127265, 127267, 1
127265, 127261, 2
127265, 127264, 2
127259, 127255, 2
127259, 127254, 2
127259, 127261, 2
127259, 127260, 1
127259, 127258, 2
127274, 127275, 1
127274, 127273, 2
127274, 127272, 2
127274, 127277, 2
127274, 127276, 2
