163003, 163004, 2
163003, 163002, 2
163003, 163000, 2
163003, 163016, 2
163015, 163014, 2
163015, 163016, 3
163015, 163000, 2
163015, 163017, 1
163016, 163014, 2
163016, 163015, 2
163016, 163003, 2
163016, 163004, 2
163016, 162999, 2
163016, 163006, 2
163016, 163000, 2
163016, 163017, 2
163010, 163009, 2
163010, 163000, 2
163010, 163011, 1
163010, 163008, 2
163008, 163006, 2
163008, 163005, 2
163008, 163007, 2
163008, 163004, 2
163008, 163009, 1
163008, 163010, 2
163004, 163003, 2
163004, 163002, 2
163004, 163006, 1
163004, 163005, 0
163004, 163007, 2
163004, 163008, 2
163004, 163016, 2
163004, 163000, 2
163001, 163000, 2
163001, 163002, 1
163001, 162999, 2
163013, 163014, 2
163013, 163000, 2
163013, 163012, 2
163013, 163011, 2
163006, 163014, 1
163006, 163005, 2
163006, 163007, 0
163006, 163008, 2
163006, 163004, 2
163006, 163016, 2
163006, 163000, 2
163006, 163012, 2
163000, 163003, 2
163000, 163016, 2
163000, 163010, 2
163000, 163004, 2
163000, 163013, 2
163000, 163006, 2
163000, 163001, 2
163000, 163014, 2
163000, 163002, 2
163000, 163012, 2
163000, 163011, 2
163000, 162999, 2
163000, 163015, 2
163017, 163018, 1
163017, 163016, 2
163017, 163015, 2
163014, 163013, 2
163014, 163015, 1
163014, 163000, 2
163014, 163006, 2
163014, 163016, 2
163002, 163004, 1
163002, 163003, 3
163002, 163001, 2
163002, 163000, 2
163005, 163004, 2
163005, 163006, 2
163005, 163007, 2
163005, 163008, 2
163007, 163004, 2
163007, 163006, 2
163007, 163005, 2
163007, 163008, 1
163018, 163017, 2
163009, 163010, 1
163009, 163008, 2
162999, 163000, 4
162999, 163016, 2
162999, 163001, 1
163011, 163013, 2
163011, 163000, 2
163011, 163012, 1
163011, 163010, 2
163012, 163013, 1
163012, 163006, 2
163012, 163000, 2
163012, 163011, 2
