339153, 339154, 2
339153, 339156, 2
339153, 339152, 2
339153, 339155, 2
339154, 339153, 2
339154, 339152, 2
339154, 339155, 1
339156, 339153, 2
339156, 339155, 2
339152, 339153, 0
339152, 339154, 1
339152, 339155, 2
339155, 339153, 2
339155, 339154, 2
339155, 339152, 2
339155, 339156, 0
