335899, 335898, 2
335899, 335897, 2
335899, 335900, 1
335913, 335911, 2
335913, 335914, 2
335913, 335915, 2
335913, 335912, 2
335915, 335913, 2
335915, 335914, 2
335900, 335899, 2
335900, 335901, 3
335900, 335902, 1
335909, 335910, 1
335909, 335908, 2
335909, 335906, 2
335909, 335907, 2
335901, 335902, 2
335901, 335900, 2
335910, 335909, 2
335910, 335911, 1
335910, 335906, 2
335910, 335907, 2
335905, 335904, 2
335905, 335908, 1
335905, 335906, 0
335905, 335907, 3
335904, 335905, 1
335904, 335903, 2
335904, 335907, 2
335914, 335913, 2
335914, 335915, 1
335914, 335912, 2
335907, 335909, 2
335907, 335906, 2
335907, 335910, 2
335907, 335905, 2
335907, 335904, 2
335907, 335908, 2
335898, 335899, 2
335898, 335897, 2
335902, 335901, 2
335902, 335903, 1
335902, 335900, 2
335906, 335909, 2
335906, 335907, 2
335906, 335910, 2
335906, 335905, 2
335906, 335908, 2
335906, 335912, 2
335897, 335899, 1
335897, 335898, 0
335903, 335902, 2
335903, 335904, 1
335912, 335906, 2
335912, 335911, 2
335912, 335913, 2
335912, 335914, 1
335911, 335910, 2
335911, 335913, 3
335911, 335912, 0
335908, 335909, 1
335908, 335905, 2
335908, 335906, 2
335908, 335907, 2
