17863, 17862, 2
17863, 17865, 2
17863, 17864, 1
17863, 17861, 2
17854, 17856, 1
17854, 17855, 8
17854, 17853, 2
17854, 17857, 2
17853, 17854, 1
17853, 17855, 2
17857, 17856, 2
17857, 17854, 2
17857, 17858, 1
17857, 17855, 2
17860, 17861, 1
17860, 17862, 2
17860, 17858, 2
17860, 17859, 2
17856, 17854, 2
17856, 17857, 1
17856, 17855, 2
17868, 17867, 2
17868, 17869, 1
17869, 17868, 2
17862, 17863, 1
17862, 17860, 2
17862, 17864, 2
17862, 17861, 2
17859, 17858, 2
17859, 17860, 1
17859, 17861, 2
17865, 17863, 2
17865, 17866, 1
17865, 17864, 2
17855, 17856, 2
17855, 17854, 2
17855, 17853, 2
17855, 17857, 2
17867, 17868, 1
17867, 17866, 2
17864, 17863, 2
17864, 17862, 2
17864, 17865, 1
17864, 17861, 2
17866, 17867, 1
17866, 17865, 2
17858, 17857, 2
17858, 17860, 2
17858, 17859, 1
17861, 17863, 2
17861, 17862, 1
17861, 17860, 2
17861, 17864, 2
17861, 17859, 2
