121276, 121279, 1
121276, 121277, 3
121276, 121271, 2
121276, 121278, 0
121276, 121275, 2
121264, 121261, 2
121264, 121263, 2
121264, 121266, 1
121264, 121267, 2
121264, 121277, 2
121264, 121262, 2
121263, 121264, 4
121263, 121267, 1
121263, 121261, 2
121263, 121266, 2
121263, 121265, 6
121263, 121262, 2
121273, 121272, 2
121273, 121274, 1
121273, 121271, 2
121272, 121271, 2
121272, 121273, 1
121272, 121269, 2
121272, 121270, 2
121272, 121278, 2
121272, 121268, 2
121265, 121263, 2
121265, 121267, 2
121265, 121271, 2
121265, 121261, 2
121265, 121262, 2
121265, 121269, 2
121265, 121278, 2
121265, 121268, 2
121269, 121270, 3
121269, 121272, 1
121269, 121265, 2
121269, 121271, 0
121269, 121268, 2
121275, 121276, 1
121275, 121274, 2
121275, 121271, 2
121275, 121279, 2
121275, 121278, 2
121275, 121277, 2
121268, 121267, 2
121268, 121271, 2
121268, 121266, 2
121268, 121270, 2
121268, 121272, 2
121268, 121265, 2
121268, 121269, 1
121268, 121262, 2
121266, 121264, 2
121266, 121263, 2
121266, 121267, 2
121266, 121277, 2
121266, 121270, 2
121266, 121268, 2
121274, 121273, 2
121274, 121271, 2
121274, 121275, 1
121274, 121278, 2
121271, 121276, 2
121271, 121267, 2
121271, 121274, 2
121271, 121273, 2
121271, 121270, 2
121271, 121272, 2
121271, 121265, 2
121271, 121269, 2
121271, 121275, 2
121271, 121278, 2
121271, 121268, 2
121267, 121264, 2
121267, 121263, 2
121267, 121271, 2
121267, 121261, 2
121267, 121266, 2
121267, 121265, 2
121267, 121262, 2
121267, 121268, 1
121261, 121264, 2
121261, 121263, 2
121261, 121267, 2
121261, 121265, 2
121261, 121262, 1
121279, 121276, 2
121279, 121278, 2
121279, 121275, 2
121279, 121277, 2
121277, 121276, 2
121277, 121264, 2
121277, 121266, 2
121277, 121279, 2
121277, 121278, 2
121277, 121275, 2
121270, 121266, 2
121270, 121271, 2
121270, 121272, 2
121270, 121269, 2
121270, 121268, 2
121278, 121276, 2
121278, 121274, 2
121278, 121271, 2
121278, 121279, 2
121278, 121272, 2
121278, 121265, 2
121278, 121275, 2
121278, 121277, 2
121262, 121264, 2
121262, 121263, 1
121262, 121261, 2
121262, 121267, 2
121262, 121265, 2
121262, 121268, 2
