294957, 294955, 2
294957, 294953, 2
294957, 294958, 1
294957, 294956, 6
294949, 294950, 1
294949, 294956, 2
294949, 294952, 2
294949, 294953, 2
294949, 294951, 2
294960, 294958, 2
294960, 294961, 2
294960, 294959, 2
294958, 294957, 2
294958, 294959, 1
294958, 294953, 2
294958, 294960, 2
294958, 294956, 2
294951, 294950, 2
294951, 294949, 2
294951, 294953, 2
294951, 294952, 1
294956, 294957, 2
294956, 294949, 2
294956, 294961, 2
294956, 294958, 2
294956, 294955, 2
294956, 294952, 2
294956, 294959, 2
294956, 294954, 2
294956, 294953, 2
294954, 294952, 2
294954, 294955, 1
294954, 294953, 2
294954, 294956, 2
294953, 294957, 2
294953, 294950, 2
294953, 294949, 2
294953, 294958, 2
294953, 294951, 2
294953, 294955, 2
294953, 294952, 2
294953, 294956, 2
294953, 294954, 2
294953, 294961, 2
294953, 294959, 2
294950, 294949, 2
294950, 294953, 2
294950, 294951, 1
294961, 294959, 2
294961, 294953, 2
294961, 294960, 2
294961, 294956, 2
294959, 294961, 1
294959, 294953, 2
294959, 294960, 3
294959, 294958, 2
294959, 294956, 2
294955, 294957, 1
294955, 294954, 2
294955, 294953, 2
294955, 294956, 2
294952, 294949, 2
294952, 294956, 2
294952, 294954, 1
294952, 294953, 6
294952, 294951, 2
