166503, 166504, 2
166503, 166502, 2
166503, 166505, 2
166504, 166503, 2
166504, 166502, 2
166504, 166505, 1
166502, 166503, 3
166502, 166504, 0
166502, 166505, 2
166505, 166503, 2
166505, 166504, 2
166505, 166502, 2
