121040, 121038, 2
121040, 121039, 2
121040, 121041, 1
121040, 121043, 2
121040, 121042, 2
121040, 121044, 2
121037, 121035, 2
121037, 121038, 1
121037, 121036, 2
121037, 121039, 2
121050, 121051, 1
121050, 121049, 2
121041, 121040, 2
121041, 121042, 1
121041, 121039, 2
121046, 121051, 2
121046, 121048, 2
121046, 121045, 2
121046, 121049, 2
121046, 121043, 2
121046, 121044, 2
121046, 121047, 0
121038, 121040, 1
121038, 121037, 2
121038, 121039, 0
121042, 121040, 2
121042, 121045, 1
121042, 121039, 2
121042, 121041, 2
121042, 121047, 2
121042, 121043, 3
121042, 121044, 0
121044, 121040, 2
121044, 121045, 2
121044, 121039, 2
121044, 121043, 2
121044, 121046, 2
121044, 121042, 2
121044, 121047, 2
121035, 121037, 1
121035, 121034, 2
121035, 121036, 3
121035, 121033, 2
121035, 121039, 2
121051, 121050, 2
121051, 121046, 2
121048, 121046, 2
121048, 121049, 1
121048, 121047, 2
121045, 121047, 2
121045, 121043, 2
121045, 121044, 2
121045, 121042, 2
121045, 121046, 1
121033, 121035, 2
121033, 121034, 1
121033, 121039, 2
121039, 121035, 2
121039, 121040, 2
121039, 121033, 2
121039, 121038, 2
121039, 121037, 2
121039, 121047, 2
121039, 121041, 2
121039, 121042, 2
121039, 121044, 2
121049, 121047, 2
121049, 121050, 1
121049, 121048, 2
121049, 121046, 2
121036, 121035, 2
121036, 121037, 2
121047, 121048, 1
121047, 121045, 2
121047, 121039, 2
121047, 121049, 2
121047, 121046, 2
121047, 121042, 2
121047, 121044, 2
121034, 121035, 1
121034, 121033, 2
121043, 121040, 2
121043, 121046, 2
121043, 121045, 2
121043, 121042, 2
121043, 121044, 2
