66220, 66216, 2
66220, 66221, 2
66220, 66219, 2
66211, 66216, 2
66211, 66210, 2
66211, 66214, 2
66211, 66212, 1
66214, 66216, 2
66214, 66213, 2
66214, 66215, 1
66214, 66212, 2
66214, 66211, 2
66212, 66216, 2
66212, 66215, 2
66212, 66213, 0
66212, 66214, 1
66212, 66211, 2
66216, 66217, 2
66216, 66213, 2
66216, 66211, 2
66216, 66206, 2
66216, 66222, 2
66216, 66214, 2
66216, 66224, 2
66216, 66207, 2
66216, 66210, 2
66216, 66215, 2
66216, 66226, 2
66216, 66218, 2
66216, 66219, 2
66216, 66212, 2
66216, 66220, 2
66207, 66216, 2
66207, 66206, 2
66207, 66210, 2
66207, 66208, 3
66207, 66209, 1
66215, 66216, 6
66215, 66217, 1
66215, 66213, 2
66215, 66214, 2
66215, 66212, 2
66224, 66216, 2
66224, 66225, 3
66224, 66226, 0
66224, 66223, 2
66209, 66207, 2
66209, 66210, 1
66209, 66208, 2
66221, 66222, 1
66221, 66219, 2
66221, 66220, 2
66223, 66222, 2
66223, 66224, 1
66204, 66206, 2
66204, 66205, 1
66225, 66222, 2
66225, 66226, 2
66225, 66224, 2
66213, 66216, 2
66213, 66215, 2
66213, 66214, 2
66213, 66212, 2
66210, 66216, 2
66210, 66207, 2
66210, 66208, 2
66210, 66209, 2
66210, 66211, 1
66206, 66216, 2
66206, 66207, 1
66206, 66208, 2
66206, 66204, 2
66206, 66205, 2
66222, 66216, 2
66222, 66221, 2
66222, 66223, 1
66222, 66225, 2
66208, 66209, 2
66208, 66207, 2
66208, 66210, 2
66208, 66206, 2
66218, 66216, 2
66218, 66217, 2
66218, 66219, 1
66217, 66216, 2
66217, 66215, 2
66217, 66218, 1
66219, 66216, 2
66219, 66221, 1
66219, 66218, 2
66219, 66220, 0
66205, 66204, 2
66205, 66206, 1
66226, 66216, 2
66226, 66225, 2
66226, 66224, 2
