61718, 61719, 1
61718, 61717, 2
61718, 61716, 2
61723, 61720, 2
61723, 61725, 0
61723, 61721, 2
61723, 61719, 2
61723, 61722, 2
61723, 61724, 3
61717, 61719, 2
61717, 61718, 2
61717, 61716, 2
61717, 61720, 2
61720, 61719, 2
61720, 61723, 2
61720, 61717, 2
61720, 61721, 2
61720, 61722, 2
61720, 61716, 2
61720, 61724, 2
61721, 61719, 2
61721, 61720, 2
61721, 61723, 2
61721, 61722, 2
61722, 61721, 2
61722, 61720, 2
61722, 61723, 1
61722, 61719, 2
61725, 61723, 2
61725, 61724, 2
61719, 61718, 2
61719, 61723, 2
61719, 61717, 2
61719, 61720, 3
61719, 61721, 0
61719, 61722, 1
61719, 61716, 2
61716, 61719, 2
61716, 61718, 1
61716, 61717, 3
61716, 61720, 2
61724, 61720, 2
61724, 61723, 2
61724, 61725, 2
