171958, 171960, 1
171958, 171963, 2
171958, 171959, 3
171958, 171961, 2
171958, 171964, 2
171964, 171958, 2
171964, 171962, 2
171964, 171959, 2
171964, 171963, 2
171964, 171965, 1
171961, 171960, 2
171961, 171958, 2
171961, 171962, 1
171961, 171959, 2
171961, 171963, 4
171966, 171965, 2
171966, 171963, 2
171960, 171958, 2
171960, 171961, 1
171960, 171963, 2
171960, 171959, 2
171962, 171961, 2
171962, 171959, 2
171962, 171963, 2
171962, 171964, 1
171959, 171958, 2
171959, 171964, 2
171959, 171961, 2
171959, 171960, 2
171959, 171962, 2
171959, 171963, 2
171963, 171958, 2
171963, 171965, 2
171963, 171961, 2
171963, 171966, 2
171963, 171960, 2
171963, 171962, 2
171963, 171959, 2
171963, 171964, 2
171965, 171966, 3
171965, 171964, 2
171965, 171963, 2
