334373, 334372, 2
334373, 334374, 1
334371, 334372, 1
334371, 334369, 2
334371, 334370, 2
334368, 334369, 1
334368, 334367, 2
334378, 334377, 2
334378, 334379, 1
334375, 334374, 2
334375, 334376, 8
334375, 334377, 1
334380, 334379, 2
334369, 334371, 2
334369, 334370, 1
334369, 334368, 2
334369, 334367, 2
334370, 334369, 2
334370, 334371, 1
334376, 334377, 2
334376, 334375, 2
334367, 334369, 2
334367, 334368, 1
334377, 334378, 1
334377, 334376, 2
334377, 334375, 2
334372, 334373, 1
334372, 334371, 2
334374, 334373, 2
334374, 334375, 1
334379, 334380, 1
334379, 334378, 2
