127984, 127982, 2
127984, 127988, 2
127984, 127983, 2
127984, 127981, 2
127984, 127985, 2
127984, 127986, 2
127980, 127982, 2
127980, 127989, 2
127980, 127994, 2
127980, 128014, 2
127980, 127987, 2
127980, 127992, 2
127980, 127981, 1
127980, 127979, 2
127980, 127986, 2
127980, 127985, 2
127989, 127987, 2
127989, 127980, 2
127989, 127981, 2
127989, 127991, 1
127989, 127993, 2
127997, 128001, 2
127997, 127981, 2
127997, 127995, 2
127997, 127999, 1
128005, 128002, 2
128005, 128006, 1
128005, 128014, 2
128005, 128003, 2
128005, 128009, 2
128005, 127981, 2
127998, 128002, 2
127998, 128003, 1
127998, 128014, 2
127998, 127996, 2
127998, 127981, 2
127998, 128000, 3
127992, 127980, 2
127992, 127994, 1
127992, 127990, 2
127992, 127988, 2
127992, 127981, 2
127992, 127986, 2
128016, 128018, 2
128016, 128013, 2
128016, 128012, 2
128016, 127981, 2
128016, 128015, 2
128016, 128017, 0
128016, 128014, 2
127979, 127982, 2
127979, 127980, 1
127979, 128014, 2
127979, 127987, 2
127979, 127981, 2
127979, 127985, 2
128017, 128018, 1
128017, 128016, 2
128017, 127981, 2
128017, 128014, 2
127982, 127984, 2
127982, 127980, 2
127982, 127979, 2
127982, 127983, 3
127982, 127981, 2
127982, 127985, 1
128018, 128016, 2
128018, 127981, 2
128018, 128019, 1
128018, 128017, 2
128001, 128004, 1
128001, 127981, 2
128001, 127997, 2
128001, 127995, 2
128001, 127999, 2
127994, 127980, 2
127994, 127996, 1
127994, 127981, 2
127994, 128014, 2
127994, 127992, 2
128007, 128008, 1
128007, 128004, 2
128007, 127981, 2
128007, 127999, 2
127988, 127984, 2
127988, 127992, 2
127988, 127981, 2
127988, 127986, 2
127988, 127990, 1
128019, 127981, 2
128019, 128018, 2
128013, 128006, 2
128013, 128014, 2
128013, 128012, 2
128013, 128016, 2
128013, 127981, 2
128013, 128015, 1
127986, 127984, 2
127986, 127980, 2
127986, 127990, 2
127986, 127988, 3
127986, 127992, 1
127986, 127981, 2
127986, 127985, 2
127996, 127990, 2
127996, 127981, 2
127996, 127994, 2
127996, 128014, 2
127996, 127998, 1
128006, 128013, 2
128006, 128005, 2
128006, 128003, 2
128006, 128009, 2
128006, 128012, 2
128006, 127981, 2
128006, 128014, 2
128003, 128002, 2
128003, 128006, 2
128003, 128014, 2
128003, 128005, 3
128003, 127998, 2
128003, 128009, 1
128003, 128012, 2
128003, 127981, 2
128003, 128000, 2
127987, 127981, 2
127987, 127980, 2
127987, 127989, 3
127987, 127991, 2
127987, 127993, 1
127987, 127979, 2
127987, 127995, 2
127990, 127996, 2
127990, 127988, 2
127990, 127992, 2
127990, 127981, 2
127990, 127986, 2
127990, 128000, 2
127981, 127984, 2
127981, 127980, 2
127981, 127989, 2
127981, 127997, 2
127981, 128005, 2
127981, 127998, 2
127981, 127992, 2
127981, 128016, 2
127981, 127979, 2
127981, 128017, 2
127981, 127982, 4
127981, 128018, 2
127981, 127994, 2
127981, 128007, 2
127981, 127988, 2
127981, 128019, 2
127981, 128013, 2
127981, 127986, 2
127981, 127987, 6
127981, 127996, 2
127981, 128006, 2
127981, 128003, 2
127981, 127983, 2
127981, 127990, 2
127981, 128010, 2
127981, 128000, 2
127981, 128008, 2
127981, 128009, 2
127981, 128015, 2
127981, 127991, 2
127981, 128014, 2
127981, 127993, 2
127981, 128002, 2
127981, 128001, 2
127981, 128011, 2
127981, 128004, 2
127981, 127995, 2
127981, 127985, 2
127981, 128012, 2
127981, 127999, 2
128010, 128008, 2
128010, 128011, 1
128010, 127981, 2
128010, 127999, 2
128000, 128003, 2
128000, 128002, 1
128000, 127981, 2
128000, 127990, 2
128000, 127998, 2
128008, 128011, 2
128008, 127981, 2
128008, 128010, 3
128008, 127999, 2
128008, 128007, 2
127983, 127984, 1
127983, 127982, 2
127983, 127981, 2
127983, 127985, 2
128015, 128012, 2
128015, 128016, 2
128015, 127981, 2
128015, 128013, 2
128015, 128014, 2
127991, 127987, 2
127991, 127981, 2
127991, 127995, 2
127991, 127989, 2
127991, 127993, 2
128014, 127996, 2
128014, 127981, 2
128014, 128006, 2
128014, 128005, 2
128014, 127998, 2
128014, 128009, 2
128014, 128016, 2
128014, 128003, 2
128014, 128015, 2
128014, 128017, 2
128014, 127980, 2
128014, 128013, 2
128014, 128012, 2
128014, 127979, 2
128014, 127994, 2
127993, 127987, 2
127993, 127991, 2
127993, 127981, 2
127993, 127995, 1
127993, 127989, 2
128002, 127981, 2
128002, 128003, 2
128002, 128000, 2
128002, 128005, 2
128002, 127998, 2
128012, 128006, 2
128012, 128014, 0
128012, 128003, 2
128012, 128009, 2
128012, 128016, 1
128012, 127981, 2
128012, 128015, 2
128012, 128013, 3
128011, 128008, 2
128011, 127981, 2
128011, 128010, 2
128004, 128001, 2
128004, 127981, 2
128004, 128007, 1
127995, 127991, 2
127995, 127997, 3
127995, 127993, 2
127995, 127987, 2
127995, 128001, 1
127995, 127981, 2
127995, 127999, 2
127985, 127984, 2
127985, 127980, 2
127985, 127981, 2
127985, 127982, 2
127985, 127983, 2
127985, 127979, 2
127985, 127986, 1
128009, 128006, 2
128009, 128014, 2
128009, 128005, 2
128009, 128003, 2
128009, 128012, 1
128009, 127981, 2
127999, 128008, 2
127999, 127997, 2
127999, 128010, 2
127999, 128007, 2
127999, 128001, 2
127999, 127981, 2
127999, 127995, 2
