340704, 340703, 2
340704, 340705, 1
340699, 340700, 1
340700, 340699, 2
340700, 340701, 1
340703, 340704, 0
340703, 340702, 2
340703, 340701, 2
340705, 340704, 2
340705, 340706, 1
340702, 340703, 2
340702, 340701, 2
340701, 340703, 1
340701, 340702, 3
340701, 340700, 2
340706, 340705, 2
