218190, 218189, 2
218190, 218191, 1
218189, 218190, 1
218189, 218188, 2
218183, 218182, 2
218183, 218184, 2
218183, 218181, 2
218191, 218190, 2
218191, 218192, 1
218191, 218193, 2
218181, 218182, 1
218181, 218180, 2
218181, 218184, 2
218181, 218183, 2
218198, 218197, 2
218194, 218192, 2
218194, 218193, 2
218194, 218195, 1
218192, 218194, 1
218192, 218191, 2
218192, 218193, 3
218192, 218195, 2
218185, 218186, 1
218185, 218182, 2
218185, 218184, 2
218185, 218187, 2
218193, 218194, 2
218193, 218192, 2
218193, 218191, 2
218180, 218181, 1
218197, 218198, 1
218197, 218196, 2
218197, 218195, 2
218188, 218189, 1
218188, 218187, 2
218186, 218187, 1
218186, 218185, 2
218182, 218184, 1
218182, 218183, 3
218182, 218185, 2
218182, 218181, 2
218184, 218182, 2
218184, 218185, 1
218184, 218183, 2
218184, 218181, 2
218196, 218197, 1
218196, 218195, 2
218195, 218194, 2
218195, 218197, 2
218195, 218192, 2
218195, 218196, 1
218187, 218186, 2
218187, 218188, 1
218187, 218185, 2
