18410, 18411, 2
18410, 18409, 2
18410, 18414, 2
18410, 18412, 1
18410, 18416, 2
18403, 18404, 0
18403, 18406, 2
18403, 18405, 1
18413, 18412, 2
18413, 18414, 2
18413, 18411, 2
18413, 18415, 1
18413, 18417, 2
18413, 18416, 2
18407, 18411, 2
18407, 18408, 1
18407, 18406, 2
18412, 18410, 2
18412, 18411, 4
18412, 18413, 1
18412, 18414, 2
18412, 18416, 2
18404, 18403, 2
18404, 18406, 2
18404, 18405, 2
18414, 18410, 2
18414, 18413, 2
18414, 18412, 2
18414, 18411, 2
18414, 18417, 2
18414, 18415, 2
18414, 18416, 1
18417, 18418, 1
18417, 18411, 2
18417, 18413, 2
18417, 18419, 2
18417, 18414, 2
18417, 18422, 2
18417, 18415, 2
18417, 18416, 2
18405, 18404, 2
18405, 18403, 2
18405, 18406, 1
18418, 18419, 1
18418, 18417, 2
18418, 18416, 2
18409, 18410, 1
18409, 18411, 2
18409, 18408, 2
18419, 18418, 2
18419, 18420, 1
18419, 18411, 2
18419, 18421, 2
18419, 18417, 2
18419, 18416, 2
18421, 18419, 2
18421, 18422, 1
18421, 18420, 2
18421, 18416, 2
18415, 18411, 2
18415, 18417, 1
18415, 18413, 2
18415, 18414, 2
18415, 18416, 2
18411, 18410, 2
18411, 18413, 2
18411, 18407, 2
18411, 18412, 2
18411, 18415, 2
18411, 18414, 1
18411, 18417, 2
18411, 18409, 2
18411, 18419, 2
18411, 18408, 2
18411, 18406, 2
18411, 18416, 2
18420, 18419, 2
18420, 18421, 1
18420, 18422, 2
18420, 18416, 2
18422, 18420, 2
18422, 18421, 2
18422, 18417, 2
18422, 18416, 2
18408, 18411, 2
18408, 18409, 1
18408, 18407, 2
18408, 18406, 2
18406, 18403, 2
18406, 18407, 1
18406, 18411, 2
18406, 18404, 2
18406, 18408, 2
18406, 18405, 2
18416, 18410, 2
18416, 18413, 2
18416, 18420, 2
18416, 18412, 2
18416, 18415, 2
18416, 18414, 2
18416, 18417, 2
18416, 18418, 2
18416, 18411, 2
18416, 18419, 2
18416, 18422, 2
18416, 18421, 2
