22573, 22571, 2
22573, 22572, 2
22573, 22574, 3
22573, 22575, 1
22570, 22571, 1
22570, 22572, 2
22570, 22568, 2
22570, 22569, 2
22572, 22573, 2
22572, 22571, 2
22572, 22574, 2
22572, 22570, 2
22568, 22570, 1
22568, 22569, 3
22575, 22573, 2
22575, 22576, 1
22575, 22574, 2
22571, 22573, 1
22571, 22570, 2
22571, 22572, 8
22571, 22574, 2
22576, 22575, 2
22574, 22573, 2
22574, 22571, 2
22574, 22572, 2
22574, 22575, 2
22569, 22570, 2
22569, 22568, 2
