161200, 161201, 4
161200, 161197, 2
161200, 161199, 2
161200, 161198, 2
161200, 161202, 6
161197, 161199, 2
161197, 161195, 2
161197, 161201, 2
161197, 161200, 2
161197, 161198, 1
161197, 161202, 2
161197, 161196, 2
161195, 161197, 1
161195, 161194, 2
161195, 161196, 6
161202, 161199, 2
161202, 161197, 2
161202, 161200, 2
161202, 161198, 2
161201, 161199, 2
161201, 161197, 2
161201, 161200, 2
161201, 161198, 2
161199, 161201, 2
161199, 161197, 2
161199, 161200, 1
161199, 161198, 2
161199, 161202, 2
161198, 161199, 1
161198, 161201, 2
161198, 161200, 2
161198, 161197, 2
161198, 161202, 2
161194, 161195, 1
161194, 161196, 2
161194, 161193, 2
161196, 161197, 2
161196, 161195, 2
161196, 161194, 2
161193, 161194, 1
