130667, 130666, 2
130667, 130665, 2
130667, 130664, 2
130667, 130663, 2
130664, 130667, 2
130664, 130666, 2
130664, 130665, 2
130664, 130663, 2
130665, 130667, 2
130665, 130664, 2
130665, 130666, 1
130665, 130663, 2
130666, 130667, 3
130666, 130664, 2
130666, 130665, 2
130666, 130663, 2
130663, 130667, 2
130663, 130664, 3
130663, 130665, 1
130663, 130666, 2
