222761, 222760, 2
222761, 222759, 2
222753, 222755, 1
222753, 222754, 3
222754, 222753, 2
222754, 222755, 2
222757, 222755, 2
222757, 222759, 2
222757, 222756, 2
222757, 222758, 1
222756, 222755, 2
222756, 222759, 2
222756, 222757, 1
222756, 222758, 2
222755, 222753, 2
222755, 222754, 2
222755, 222759, 2
222755, 222756, 1
222755, 222757, 2
222760, 222761, 1
222760, 222759, 2
222760, 222758, 2
222759, 222757, 2
222759, 222756, 2
222759, 222755, 2
222759, 222760, 2
222759, 222758, 2
222759, 222761, 2
222758, 222756, 2
222758, 222760, 1
222758, 222759, 8
222758, 222757, 2
