295863, 295862, 2
295863, 295865, 1
295863, 295864, 2
295863, 295860, 2
295863, 295861, 2
295862, 295863, 2
295862, 295866, 2
295862, 295865, 2
295862, 295858, 2
295862, 295859, 2
295862, 295860, 2
295862, 295861, 2
295859, 295862, 2
295859, 295858, 2
295859, 295860, 1
295859, 295861, 2
295860, 295863, 1
295860, 295865, 2
295860, 295852, 2
295860, 295862, 3
295860, 295859, 2
295860, 295864, 2
295860, 295861, 6
295866, 295862, 2
295866, 295865, 2
295866, 295864, 2
295866, 295861, 2
295856, 295855, 2
295856, 295852, 2
295856, 295857, 1
295854, 295855, 1
295854, 295853, 2
295854, 295852, 2
295854, 295861, 2
295852, 295856, 2
295852, 295854, 2
295852, 295860, 2
295852, 295855, 2
295852, 295861, 2
295852, 295864, 2
295852, 295853, 2
295852, 295858, 2
295852, 295857, 2
295865, 295863, 2
295865, 295866, 1
295865, 295862, 2
295865, 295864, 6
295865, 295860, 2
295865, 295861, 2
295855, 295856, 1
295855, 295854, 2
295855, 295852, 2
295857, 295856, 2
295857, 295858, 1
295857, 295852, 2
295864, 295863, 2
295864, 295866, 2
295864, 295865, 2
295864, 295858, 2
295864, 295852, 2
295864, 295853, 2
295864, 295860, 2
295864, 295861, 2
295853, 295854, 1
295853, 295864, 2
295853, 295852, 6
295853, 295861, 2
295858, 295852, 2
295858, 295862, 2
295858, 295859, 1
295858, 295857, 2
295858, 295864, 2
295858, 295861, 2
295861, 295863, 2
295861, 295866, 2
295861, 295865, 2
295861, 295858, 2
295861, 295852, 2
295861, 295854, 2
295861, 295862, 2
295861, 295864, 2
295861, 295859, 2
295861, 295853, 2
295861, 295860, 2
