166785, 166788, 2
166785, 166786, 1
166785, 166776, 2
166785, 166784, 2
166785, 166780, 2
166779, 166776, 2
166779, 166782, 2
166779, 166777, 2
166779, 166775, 2
166779, 166781, 1
166779, 166778, 2
166789, 166776, 2
166789, 166764, 2
166789, 166790, 1
166789, 166780, 2
166789, 166788, 4
166789, 166794, 2
166789, 166787, 2
166780, 166785, 2
166780, 166793, 2
166780, 166784, 2
166780, 166798, 2
166780, 166767, 2
166780, 166786, 2
166780, 166799, 2
166780, 166770, 2
166780, 166787, 2
166780, 166796, 2
166780, 166776, 2
166780, 166797, 2
166780, 166791, 2
166780, 166772, 2
166780, 166789, 2
166780, 166783, 2
166780, 166766, 2
166780, 166769, 2
166780, 166765, 2
166780, 166771, 2
166774, 166766, 2
166774, 166782, 2
166774, 166764, 2
166774, 166775, 2
166774, 166781, 2
166774, 166788, 2
166774, 166773, 2
166774, 166778, 2
166774, 166772, 2
166778, 166776, 2
166778, 166779, 1
166778, 166777, 2
166778, 166775, 2
166778, 166774, 2
166778, 166782, 2
166796, 166798, 2
166796, 166797, 0
166796, 166793, 2
166796, 166801, 1
166796, 166788, 2
166796, 166795, 2
166796, 166780, 2
166796, 166800, 8
166796, 166794, 2
166801, 166802, 1
166801, 166798, 2
166801, 166799, 2
166801, 166795, 2
166801, 166800, 2
166801, 166796, 2
166797, 166798, 1
166797, 166776, 2
166797, 166796, 2
166797, 166800, 2
166797, 166780, 2
166764, 166786, 2
166764, 166770, 2
166764, 166788, 2
166764, 166767, 2
166764, 166771, 2
166764, 166787, 2
166764, 166774, 2
166764, 166782, 2
166764, 166772, 2
166764, 166789, 2
166764, 166769, 2
166764, 166766, 2
166764, 166773, 2
166764, 166765, 2
166764, 166763, 2
166764, 166768, 2
166764, 166794, 2
166764, 166795, 2
166775, 166779, 2
166775, 166776, 0
166775, 166782, 1
166775, 166788, 2
166775, 166777, 2
166775, 166774, 2
166775, 166773, 2
166775, 166778, 2
166775, 166772, 2
166773, 166766, 2
166773, 166764, 2
166773, 166775, 2
166773, 166774, 3
166773, 166765, 2
166773, 166771, 2
166773, 166772, 2
166766, 166774, 2
166766, 166773, 2
166766, 166764, 2
166766, 166780, 2
166766, 166788, 2
166766, 166769, 2
166766, 166767, 0
166766, 166768, 2
166766, 166765, 2
166766, 166771, 1
166770, 166769, 2
166770, 166776, 2
166770, 166771, 2
166770, 166764, 2
166770, 166780, 2
166787, 166788, 2
166787, 166786, 2
166787, 166764, 2
166787, 166789, 1
166787, 166780, 2
166771, 166776, 2
166771, 166770, 2
166771, 166764, 2
166771, 166780, 2
166771, 166766, 2
166771, 166773, 2
166771, 166767, 2
166771, 166768, 2
166771, 166769, 2
166771, 166772, 1
166792, 166788, 2
166792, 166793, 1
166792, 166791, 2
166792, 166794, 2
166792, 166790, 2
166798, 166801, 2
166798, 166797, 2
166798, 166776, 2
166798, 166795, 2
166798, 166799, 1
166798, 166780, 2
166798, 166800, 2
166798, 166796, 2
166793, 166792, 2
166793, 166780, 2
166793, 166788, 2
166793, 166795, 2
166793, 166794, 3
166793, 166796, 1
166784, 166788, 2
166784, 166785, 1
166784, 166783, 2
166784, 166780, 2
166784, 166776, 2
166788, 166792, 2
166788, 166785, 2
166788, 166793, 2
166788, 166784, 2
166788, 166790, 2
166788, 166786, 2
166788, 166774, 2
166788, 166795, 2
166788, 166787, 2
166788, 166796, 2
166788, 166802, 2
166788, 166791, 2
166788, 166764, 2
166788, 166789, 2
166788, 166775, 2
166788, 166766, 2
166788, 166783, 2
166788, 166765, 2
166788, 166794, 2
166788, 166782, 2
166767, 166764, 2
166767, 166780, 2
166767, 166766, 2
166767, 166771, 2
166767, 166768, 1
166767, 166769, 2
166768, 166767, 2
166768, 166769, 1
166768, 166766, 2
166768, 166771, 2
166768, 166764, 2
166799, 166801, 2
166799, 166776, 2
166799, 166798, 2
166799, 166800, 2
166799, 166780, 2
166772, 166776, 2
166772, 166764, 2
166772, 166775, 1
166772, 166780, 2
166772, 166774, 2
166772, 166773, 3
166772, 166771, 2
166800, 166802, 2
166800, 166801, 2
166800, 166797, 2
166800, 166798, 2
166800, 166799, 2
166800, 166795, 2
166800, 166796, 2
166802, 166788, 2
166802, 166801, 2
166802, 166800, 2
166776, 166785, 2
166776, 166779, 2
166776, 166775, 2
166776, 166781, 2
166776, 166778, 2
166776, 166780, 6
166776, 166799, 2
166776, 166772, 2
166776, 166770, 2
166776, 166797, 2
166776, 166798, 2
166776, 166782, 2
166776, 166784, 2
166776, 166777, 4
166776, 166789, 2
166776, 166786, 2
166776, 166783, 2
166776, 166765, 2
166776, 166771, 2
166791, 166792, 2
166791, 166788, 2
166791, 166790, 2
166791, 166780, 2
166782, 166776, 2
166782, 166774, 2
166782, 166779, 2
166782, 166764, 2
166782, 166777, 2
166782, 166781, 2
166782, 166788, 2
166782, 166783, 1
166782, 166778, 2
166782, 166775, 2
166781, 166774, 2
166781, 166776, 2
166781, 166779, 2
166781, 166782, 2
166777, 166776, 2
166777, 166778, 1
166777, 166779, 2
166777, 166782, 2
166777, 166775, 2
166790, 166792, 1
166790, 166788, 2
166790, 166791, 0
166790, 166794, 2
166790, 166789, 2
166786, 166785, 2
166786, 166764, 2
166786, 166780, 2
166786, 166788, 2
166786, 166776, 2
166786, 166787, 1
166783, 166788, 2
166783, 166776, 2
166783, 166782, 2
166783, 166784, 1
166783, 166780, 2
166765, 166776, 2
166765, 166788, 2
166765, 166780, 2
166765, 166766, 1
166765, 166773, 2
166765, 166763, 2
166765, 166764, 4
166763, 166765, 1
166763, 166764, 2
166794, 166792, 2
166794, 166793, 2
166794, 166764, 2
166794, 166790, 2
166794, 166789, 2
166794, 166788, 2
166794, 166795, 3
166794, 166796, 2
166769, 166766, 2
166769, 166770, 1
166769, 166764, 2
166769, 166780, 2
166769, 166767, 2
166769, 166768, 2
166769, 166771, 2
166795, 166801, 2
166795, 166793, 2
166795, 166764, 2
166795, 166798, 2
166795, 166788, 2
166795, 166794, 2
166795, 166800, 2
166795, 166796, 2
