168830, 168831, 1
168830, 168829, 2
168830, 168828, 2
168828, 168830, 2
168828, 168831, 2
168828, 168829, 3
168829, 168830, 1
168829, 168828, 2
168829, 168831, 2
168831, 168830, 2
168831, 168828, 2
168831, 168829, 2
