118880, 118882, 2
118880, 118881, 1
118880, 118883, 2
118885, 118884, 2
118885, 118886, 1
118884, 118883, 2
118884, 118885, 1
118890, 118891, 1
118890, 118889, 2
118882, 118881, 2
118882, 118880, 2
118882, 118883, 1
118883, 118882, 2
118883, 118884, 1
118883, 118880, 2
118891, 118890, 2
118886, 118885, 2
118886, 118887, 1
118887, 118888, 1
118887, 118886, 2
118881, 118882, 1
118881, 118880, 2
118888, 118889, 1
118888, 118887, 2
118889, 118888, 2
118889, 118890, 1
