63161, 63163, 2
63161, 63166, 2
63161, 63162, 1
63164, 63165, 1
63164, 63163, 2
63164, 63166, 2
63164, 63162, 2
63171, 63169, 2
63171, 63174, 2
63171, 63166, 2
63171, 63170, 2
63171, 63172, 1
63172, 63171, 2
63172, 63174, 1
63172, 63166, 2
63172, 63173, 0
63168, 63166, 2
63168, 63167, 2
63168, 63169, 1
63170, 63171, 2
63170, 63166, 2
63170, 63169, 2
63173, 63174, 2
63173, 63172, 2
63167, 63165, 2
63167, 63168, 1
63167, 63163, 2
63167, 63166, 2
63166, 63161, 2
63166, 63169, 2
63166, 63164, 2
63166, 63162, 2
63166, 63171, 2
63166, 63165, 2
63166, 63167, 2
63166, 63168, 2
63166, 63172, 2
63166, 63170, 2
63166, 63174, 2
63163, 63162, 2
63163, 63161, 2
63163, 63167, 2
63163, 63164, 2
63174, 63171, 2
63174, 63172, 2
63174, 63166, 2
63174, 63173, 2
63165, 63162, 2
63165, 63166, 6
63165, 63167, 1
63165, 63164, 2
63169, 63171, 1
63169, 63168, 2
63169, 63166, 2
63169, 63170, 0
63162, 63165, 2
63162, 63161, 2
63162, 63163, 3
63162, 63166, 2
63162, 63164, 1
