171571, 171570, 2
171571, 171572, 1
171570, 171571, 1
171570, 171569, 2
171570, 171573, 2
171570, 171572, 2
171568, 171567, 2
171568, 171569, 1
171569, 171567, 2
171569, 171570, 1
171569, 171568, 2
171569, 171573, 2
171573, 171570, 2
171573, 171574, 2
171573, 171569, 2
171573, 171572, 2
171572, 171570, 2
171572, 171574, 1
171572, 171571, 2
171572, 171573, 3
171567, 171568, 1
171567, 171569, 2
171574, 171573, 2
171574, 171572, 2
