221605, 221607, 1
221605, 221606, 8
221609, 221607, 2
221609, 221608, 2
221609, 221610, 2
221607, 221605, 2
221607, 221609, 2
221607, 221608, 1
221607, 221606, 2
221611, 221608, 2
221611, 221610, 2
221608, 221607, 2
221608, 221611, 2
221608, 221609, 8
221608, 221610, 1
221606, 221605, 2
221606, 221607, 2
221610, 221611, 1
221610, 221609, 2
221610, 221608, 2
