62135, 62134, 2
62129, 62130, 2
62129, 62127, 2
62129, 62126, 2
62129, 62131, 2
62129, 62128, 2
62127, 62129, 2
62127, 62126, 2
62127, 62128, 1
62130, 62129, 2
62130, 62126, 2
62130, 62131, 2
62130, 62128, 2
62131, 62129, 2
62131, 62132, 0
62131, 62130, 2
62131, 62128, 2
62131, 62134, 2
62131, 62133, 1
62128, 62129, 0
62128, 62127, 2
62128, 62130, 8
62128, 62131, 1
62132, 62134, 2
62132, 62133, 2
62132, 62131, 2
62133, 62134, 1
62133, 62132, 2
62133, 62131, 2
62126, 62129, 2
62126, 62127, 1
62126, 62130, 2
62134, 62133, 2
62134, 62135, 0
62134, 62132, 2
62134, 62131, 2
