216253, 216250, 2
216253, 216252, 2
216253, 216254, 1
216253, 216251, 2
216254, 216253, 2
216254, 216255, 1
216257, 216258, 2
216257, 216255, 2
216257, 216256, 2
216260, 216259, 2
216250, 216252, 2
216250, 216253, 2
216250, 216251, 1
216252, 216250, 2
216252, 216253, 2
216252, 216251, 2
216258, 216257, 2
216258, 216259, 1
216258, 216256, 2
216258, 216255, 2
216259, 216260, 1
216259, 216258, 2
216255, 216257, 2
216255, 216258, 2
216255, 216254, 2
216255, 216256, 1
216256, 216257, 3
216256, 216258, 1
216256, 216255, 2
216251, 216250, 2
216251, 216252, 3
216251, 216253, 1
