219084, 219083, 2
219084, 219087, 1
219084, 219085, 0
219084, 219086, 3
219091, 219090, 2
219091, 219092, 2
219091, 219093, 2
219091, 219089, 2
219103, 219101, 2
219103, 219100, 2
219103, 219102, 2
219101, 219100, 2
219101, 219103, 1
219101, 219102, 3
219088, 219089, 1
219088, 219087, 2
219097, 219096, 2
219097, 219095, 2
219097, 219098, 2
219085, 219084, 2
219085, 219083, 2
219085, 219087, 2
219085, 219086, 2
219086, 219084, 2
219086, 219083, 2
219086, 219087, 2
219086, 219085, 2
219094, 219093, 2
219094, 219095, 1
219089, 219088, 2
219089, 219090, 1
219089, 219092, 2
219089, 219091, 2
219090, 219092, 3
219090, 219093, 1
219090, 219089, 2
219090, 219091, 0
219095, 219096, 1
219095, 219094, 2
219095, 219093, 2
219095, 219097, 2
219095, 219098, 2
219087, 219088, 1
219087, 219084, 2
219087, 219085, 2
219087, 219086, 2
219100, 219101, 1
219100, 219099, 2
219100, 219103, 2
219100, 219102, 2
219092, 219090, 2
219092, 219093, 2
219092, 219089, 2
219092, 219091, 2
219093, 219090, 2
219093, 219092, 2
219093, 219094, 1
219093, 219091, 2
219093, 219095, 2
219082, 219083, 1
219082, 219081, 2
219096, 219095, 2
219096, 219097, 3
219096, 219098, 1
219081, 219082, 1
219099, 219098, 2
219099, 219100, 1
219102, 219101, 2
219102, 219100, 2
219102, 219103, 2
219083, 219084, 1
219083, 219082, 2
219083, 219085, 2
219083, 219086, 2
219098, 219096, 2
219098, 219095, 2
219098, 219097, 2
219098, 219099, 1
