166162, 166161, 2
166162, 166146, 2
166162, 166163, 1
166156, 166154, 2
166156, 166157, 1
166156, 166155, 2
166141, 166142, 1
166141, 166146, 2
166141, 166139, 2
166141, 166140, 2
166148, 166145, 2
166148, 166143, 2
166148, 166149, 1
166148, 166135, 2
166148, 166147, 2
166148, 166151, 2
166143, 166151, 1
166143, 166148, 2
166143, 166153, 2
166143, 166142, 2
166143, 166146, 6
166143, 166145, 2
166143, 166149, 2
166143, 166144, 4
166143, 166152, 2
166143, 166147, 2
166152, 166150, 2
166152, 166149, 2
166152, 166143, 2
166152, 166153, 1
166152, 166146, 2
166152, 166157, 2
166152, 166147, 2
166152, 166155, 2
166152, 166151, 2
166158, 166159, 1
166158, 166146, 2
166158, 166154, 2
166158, 166157, 2
166165, 166164, 2
166165, 166166, 1
166155, 166150, 2
166155, 166156, 1
166155, 166153, 2
166155, 166149, 2
166155, 166151, 2
166155, 166154, 2
166155, 166152, 2
166155, 166157, 2
166157, 166152, 2
166157, 166156, 2
166157, 166149, 2
166157, 166153, 2
166157, 166158, 1
166157, 166154, 2
166157, 166146, 2
166157, 166155, 2
166168, 166167, 2
166168, 166146, 2
166168, 166169, 1
166161, 166154, 2
166161, 166162, 1
166161, 166160, 2
166161, 166147, 2
166161, 166146, 2
166139, 166138, 2
166139, 166141, 1
166139, 166140, 8
166139, 166142, 2
166139, 166146, 2
166139, 166144, 2
166140, 166142, 2
166140, 166138, 2
166140, 166139, 2
166140, 166144, 2
166140, 166141, 2
166142, 166151, 2
166142, 166141, 2
166142, 166139, 2
166142, 166140, 2
166142, 166143, 1
166142, 166146, 2
166142, 166145, 2
166142, 166147, 2
166142, 166144, 2
166154, 166167, 2
166154, 166156, 2
166154, 166166, 2
166154, 166153, 2
166154, 166169, 2
166154, 166157, 2
166154, 166155, 2
166154, 166147, 2
166154, 166164, 2
166154, 166161, 2
166154, 166159, 2
166154, 166160, 2
166154, 166158, 2
166154, 166163, 2
166154, 166151, 2
166135, 166150, 2
166135, 166133, 2
166135, 166148, 2
166135, 166137, 2
166135, 166134, 2
166135, 166144, 2
166135, 166136, 2
166151, 166150, 2
166151, 166148, 4
166151, 166143, 2
166151, 166153, 2
166151, 166144, 2
166151, 166155, 1
166151, 166149, 2
166151, 166142, 2
166151, 166146, 2
166151, 166154, 2
166151, 166147, 2
166151, 166152, 2
166150, 166149, 2
166150, 166152, 2
166150, 166135, 2
166150, 166146, 2
166150, 166155, 2
166150, 166151, 2
166167, 166168, 1
166167, 166154, 2
166167, 166166, 2
166167, 166147, 2
166160, 166159, 2
166160, 166161, 1
166160, 166154, 2
166160, 166146, 2
166166, 166164, 2
166166, 166167, 1
166166, 166154, 2
166166, 166146, 2
166166, 166165, 2
166166, 166147, 2
166137, 166138, 1
166137, 166135, 2
166137, 166144, 2
166137, 166146, 2
166137, 166136, 2
166137, 166134, 2
166169, 166146, 2
166169, 166154, 2
166169, 166168, 2
166169, 166147, 2
166136, 166135, 2
166136, 166134, 2
166136, 166137, 1
166144, 166137, 2
166144, 166143, 2
166144, 166135, 2
166144, 166140, 2
166144, 166132, 2
166144, 166138, 2
166144, 166133, 2
166144, 166139, 2
166144, 166145, 1
166144, 166142, 2
166144, 166147, 2
166144, 166151, 2
166132, 166146, 2
166132, 166144, 2
166132, 166133, 1
166134, 166146, 2
166134, 166137, 2
166134, 166136, 1
166134, 166135, 8
166134, 166133, 2
166164, 166154, 2
166164, 166165, 1
166164, 166147, 2
166164, 166163, 2
166164, 166166, 2
166138, 166146, 2
166138, 166137, 2
166138, 166144, 2
166138, 166139, 1
166138, 166140, 2
166159, 166160, 1
166159, 166158, 2
166159, 166154, 2
166159, 166146, 2
166133, 166135, 2
166133, 166144, 2
166133, 166132, 2
166133, 166134, 1
166145, 166143, 2
166145, 166142, 2
166145, 166144, 2
166145, 166147, 1
166145, 166148, 2
166149, 166150, 3
166149, 166148, 2
166149, 166143, 2
166149, 166152, 1
166149, 166157, 2
166149, 166147, 2
166149, 166155, 2
166149, 166151, 2
166146, 166150, 2
166146, 166162, 2
166146, 166160, 2
166146, 166166, 2
166146, 166141, 2
166146, 166137, 2
166146, 166143, 2
166146, 166152, 2
166146, 166158, 2
166146, 166138, 2
166146, 166157, 2
166146, 166161, 2
166146, 166132, 2
166146, 166134, 2
166146, 166168, 2
166146, 166159, 2
166146, 166139, 2
166146, 166142, 2
166146, 166169, 2
166146, 166163, 2
166146, 166151, 2
166153, 166157, 2
166153, 166143, 2
166153, 166152, 2
166153, 166154, 1
166153, 166147, 2
166153, 166155, 2
166153, 166151, 2
166147, 166167, 2
166147, 166166, 2
166147, 166148, 2
166147, 166143, 2
166147, 166153, 2
166147, 166169, 2
166147, 166149, 2
166147, 166144, 2
166147, 166164, 2
166147, 166161, 2
166147, 166145, 2
166147, 166142, 2
166147, 166154, 2
166147, 166152, 2
166147, 166151, 2
166163, 166164, 1
166163, 166162, 2
166163, 166154, 2
166163, 166146, 2
