335324, 335326, 2
335324, 335325, 1
335325, 335324, 2
335325, 335326, 1
335339, 335340, 1
335339, 335338, 2
335330, 335329, 2
335330, 335331, 1
335327, 335328, 1
335327, 335326, 2
335340, 335339, 2
335336, 335337, 1
335336, 335335, 2
335336, 335338, 2
335326, 335324, 2
335326, 335327, 1
335326, 335328, 2
335326, 335325, 2
335333, 335332, 2
335333, 335334, 2
335333, 335335, 2
335329, 335330, 1
335329, 335328, 2
335331, 335332, 1
335331, 335330, 2
335335, 335332, 2
335335, 335334, 2
335335, 335333, 2
335335, 335336, 1
335337, 335338, 1
335337, 335336, 2
335332, 335333, 8
335332, 335334, 1
335332, 335335, 2
335332, 335331, 2
335334, 335333, 2
335334, 335332, 2
335334, 335335, 1
335328, 335329, 1
335328, 335327, 2
335328, 335326, 2
335338, 335339, 1
335338, 335337, 2
335338, 335336, 2
