72679, 72682, 2
72679, 72676, 2
72679, 72678, 2
72679, 72681, 2
72679, 72680, 1
72679, 72677, 2
72678, 72679, 1
72678, 72675, 2
72678, 72677, 2
72678, 72676, 2
72677, 72678, 2
72677, 72675, 2
72677, 72679, 2
72677, 72676, 2
72676, 72677, 8
72676, 72675, 2
72676, 72679, 2
72676, 72678, 1
72675, 72678, 2
72675, 72677, 2
72675, 72676, 1
72681, 72682, 3
72681, 72680, 2
72681, 72679, 2
72680, 72679, 2
72680, 72681, 1
72680, 72682, 2
72682, 72681, 2
72682, 72680, 2
72682, 72679, 2
