71741, 71742, 1
71741, 71740, 2
71736, 71737, 0
71736, 71739, 2
71736, 71740, 1
71736, 71738, 2
71740, 71741, 1
71740, 71736, 2
71740, 71737, 2
71740, 71739, 2
71740, 71738, 2
71740, 71742, 2
71737, 71739, 2
71737, 71736, 2
71737, 71740, 2
71737, 71738, 1
71739, 71737, 2
71739, 71736, 2
71739, 71740, 2
71739, 71738, 2
71738, 71737, 2
71738, 71739, 1
71738, 71736, 2
71738, 71740, 2
71742, 71741, 2
71742, 71740, 2
