259008, 259013, 2
259008, 259011, 1
259008, 259010, 8
259008, 259007, 2
259008, 259012, 2
259008, 259009, 3
259011, 259012, 3
259011, 259009, 2
259011, 259010, 2
259011, 259013, 1
259011, 259008, 2
259010, 259012, 2
259010, 259011, 2
259010, 259008, 2
259010, 259013, 2
259010, 259009, 2
259007, 259008, 1
259007, 259009, 2
259012, 259008, 2
259012, 259011, 2
259012, 259010, 2
259012, 259013, 2
259013, 259008, 2
259013, 259011, 2
259013, 259010, 2
259013, 259012, 2
259009, 259008, 2
259009, 259011, 2
259009, 259010, 2
259009, 259007, 2
