294073, 294072, 2
294073, 294075, 1
294073, 294074, 3
294072, 294073, 1
294072, 294075, 2
294072, 294074, 2
294072, 294071, 2
294075, 294073, 2
294075, 294076, 1
294075, 294077, 2
294075, 294074, 2
294075, 294072, 2
294080, 294079, 2
294080, 294078, 2
294074, 294073, 2
294074, 294072, 2
294074, 294075, 2
294074, 294077, 2
294071, 294072, 1
294076, 294075, 2
294076, 294077, 1
294079, 294078, 2
294079, 294080, 3
294078, 294077, 2
294078, 294079, 1
294078, 294080, 2
294077, 294076, 2
294077, 294075, 2
294077, 294078, 1
294077, 294074, 2
