21446, 21447, 1
21446, 21445, 2
21447, 21446, 2
21447, 21451, 2
21447, 21448, 3
21447, 21450, 1
21447, 21445, 2
21450, 21447, 2
21450, 21448, 2
21450, 21449, 2
21450, 21451, 1
21451, 21447, 2
21451, 21448, 2
21451, 21450, 2
21451, 21449, 2
21448, 21447, 2
21448, 21449, 3
21448, 21450, 2
21448, 21451, 2
21445, 21446, 1
21445, 21447, 2
21449, 21451, 2
21449, 21448, 2
21449, 21450, 2
