301564, 301562, 2
301564, 301563, 2
301564, 301565, 2
301564, 301566, 2
301568, 301567, 2
301562, 301564, 8
301562, 301567, 2
301562, 301561, 2
301562, 301563, 3
301562, 301565, 1
301562, 301566, 2
301561, 301562, 1
301561, 301563, 2
301561, 301565, 2
301563, 301562, 2
301563, 301561, 2
301563, 301564, 2
301563, 301566, 2
301563, 301565, 2
301565, 301564, 2
301565, 301562, 2
301565, 301561, 2
301565, 301563, 2
301565, 301567, 1
301565, 301566, 3
301566, 301564, 2
301566, 301562, 2
301566, 301563, 2
301566, 301565, 2
301566, 301567, 2
301567, 301562, 2
301567, 301565, 2
301567, 301566, 2
301567, 301568, 1
