222622, 222623, 1
222622, 222621, 2
222619, 222618, 2
222619, 222620, 1
222619, 222621, 2
222626, 222625, 2
222626, 222624, 2
222621, 222620, 2
222621, 222622, 1
222621, 222619, 2
222623, 222622, 2
222623, 222624, 1
222618, 222619, 1
222624, 222623, 2
222624, 222625, 0
222624, 222626, 1
222620, 222621, 1
222620, 222619, 2
222625, 222624, 2
222625, 222626, 2
