119067, 119069, 1
119067, 119066, 2
119067, 119068, 8
119067, 119070, 2
119063, 119062, 2
119063, 119064, 1
119065, 119069, 2
119065, 119064, 2
119065, 119068, 2
119065, 119066, 1
119068, 119067, 2
119068, 119065, 2
119068, 119069, 2
119068, 119070, 2
119060, 119061, 1
119061, 119062, 1
119061, 119060, 2
119070, 119067, 2
119070, 119069, 2
119070, 119068, 2
119062, 119063, 1
119062, 119061, 2
119064, 119063, 2
119064, 119065, 1
119069, 119067, 2
119069, 119065, 2
119069, 119066, 2
119069, 119068, 2
119069, 119070, 1
119066, 119067, 1
119066, 119065, 2
119066, 119069, 2
