131180, 131181, 1
131180, 131179, 2
131136, 131134, 2
131136, 131142, 2
131136, 131139, 2
131136, 131133, 2
131136, 131137, 1
131136, 131138, 2
131136, 131135, 2
131136, 131140, 2
131136, 131132, 2
131154, 131156, 1
131154, 131153, 2
131154, 131147, 2
131154, 131155, 0
131154, 131152, 2
131135, 131134, 2
131135, 131133, 2
131135, 131136, 2
131135, 131132, 2
131153, 131154, 1
131153, 131152, 2
131138, 131137, 2
131138, 131139, 1
131138, 131136, 2
131156, 131160, 1
131156, 131159, 2
131156, 131155, 2
131156, 131147, 2
131156, 131154, 2
131156, 131158, 0
131156, 131157, 3
131179, 131181, 2
131179, 131180, 1
131179, 131178, 2
131179, 131182, 2
131178, 131182, 2
131178, 131179, 1
131178, 131171, 2
131178, 131176, 2
131178, 131177, 2
131169, 131168, 2
131169, 131160, 2
131169, 131161, 2
131169, 131167, 2
131169, 131170, 2
131150, 131151, 1
131150, 131147, 2
131150, 131149, 2
131150, 131146, 2
131147, 131156, 2
131147, 131158, 2
131147, 131150, 2
131147, 131155, 2
131147, 131148, 2
131147, 131154, 2
131147, 131151, 2
131147, 131149, 2
131147, 131146, 2
131137, 131140, 4
131137, 131141, 2
131137, 131139, 2
131137, 131143, 2
131137, 131144, 2
131137, 131142, 2
131137, 131138, 6
131137, 131145, 2
131137, 131136, 2
131137, 131146, 1
131168, 131167, 2
131168, 131165, 2
131168, 131161, 2
131168, 131163, 2
131168, 131169, 1
131152, 131154, 2
131152, 131151, 2
131152, 131153, 1
131152, 131155, 2
131162, 131160, 2
131162, 131161, 2
131162, 131163, 1
131140, 131137, 2
131140, 131142, 0
131140, 131136, 2
131140, 131146, 2
131155, 131148, 2
131155, 131151, 2
131155, 131147, 2
131155, 131152, 2
131155, 131156, 2
131155, 131154, 2
131155, 131158, 2
131155, 131149, 2
131155, 131146, 2
131141, 131137, 2
131141, 131139, 2
131141, 131143, 8
131141, 131146, 2
131141, 131144, 1
131182, 131176, 2
131182, 131171, 2
131182, 131173, 2
131182, 131170, 2
131182, 131181, 2
131182, 131179, 2
131182, 131172, 2
131182, 131178, 2
131164, 131166, 0
131164, 131170, 2
131164, 131160, 2
131164, 131161, 2
131132, 131134, 0
131132, 131133, 3
131132, 131135, 2
131132, 131136, 1
131134, 131133, 2
131134, 131135, 1
131134, 131136, 2
131134, 131132, 2
131163, 131160, 2
131163, 131162, 2
131163, 131170, 2
131163, 131168, 2
131163, 131165, 1
131163, 131161, 2
131163, 131167, 2
131173, 131171, 2
131173, 131174, 1
131173, 131172, 2
131173, 131182, 2
131158, 131160, 2
131158, 131159, 1
131158, 131147, 2
131158, 131155, 2
131158, 131156, 2
131158, 131149, 2
131158, 131157, 2
131165, 131168, 1
131165, 131161, 2
131165, 131167, 8
131165, 131163, 2
131165, 131170, 2
131161, 131166, 2
131161, 131160, 2
131161, 131167, 2
131161, 131163, 2
131161, 131170, 1
131161, 131168, 2
131161, 131165, 2
131161, 131162, 6
131161, 131164, 4
131161, 131169, 2
131174, 131170, 2
131174, 131177, 2
131174, 131175, 1
131174, 131171, 2
131174, 131173, 2
131145, 131137, 2
131145, 131146, 2
131145, 131143, 2
131145, 131144, 2
131142, 131137, 2
131142, 131140, 2
131142, 131136, 2
131142, 131146, 2
131139, 131141, 1
131139, 131143, 2
131139, 131144, 2
131139, 131137, 2
131139, 131138, 2
131139, 131146, 2
131139, 131136, 2
131143, 131141, 2
131143, 131139, 2
131143, 131144, 2
131143, 131137, 2
131143, 131146, 2
131143, 131145, 2
131176, 131177, 3
131176, 131175, 2
131176, 131171, 2
131176, 131178, 1
131176, 131182, 2
131148, 131147, 2
131148, 131149, 1
131148, 131155, 2
131148, 131146, 2
131133, 131134, 2
131133, 131135, 2
131133, 131136, 2
131133, 131132, 2
131172, 131170, 2
131172, 131182, 2
131172, 131171, 2
131172, 131173, 1
131146, 131141, 2
131146, 131148, 1
131146, 131137, 2
131146, 131139, 2
131146, 131150, 2
131146, 131143, 2
131146, 131147, 0
131146, 131155, 2
131146, 131142, 2
131146, 131140, 2
131146, 131145, 2
131151, 131150, 2
131151, 131155, 2
131151, 131147, 2
131151, 131152, 1
131175, 131171, 2
131175, 131177, 2
131175, 131174, 2
131175, 131176, 1
131170, 131163, 2
131170, 131182, 2
131170, 131165, 2
131170, 131161, 2
131170, 131174, 2
131170, 131166, 2
131170, 131167, 2
131170, 131171, 0
131170, 131169, 2
131170, 131164, 2
131170, 131172, 1
131170, 131177, 2
131181, 131180, 2
131181, 131171, 2
131181, 131179, 2
131181, 131182, 0
131157, 131156, 2
131157, 131160, 2
131157, 131158, 2
131157, 131159, 2
131166, 131170, 2
131166, 131160, 2
131166, 131161, 2
131166, 131164, 2
131160, 131166, 2
131160, 131162, 2
131160, 131159, 2
131160, 131157, 2
131160, 131156, 2
131160, 131158, 2
131160, 131161, 1
131160, 131164, 2
131160, 131163, 2
131160, 131169, 2
131167, 131163, 2
131167, 131170, 2
131167, 131168, 2
131167, 131165, 2
131167, 131161, 2
131167, 131169, 2
131171, 131178, 2
131171, 131175, 2
131171, 131170, 2
131171, 131181, 2
131171, 131173, 2
131171, 131174, 2
131171, 131172, 2
131171, 131176, 2
131171, 131182, 2
131149, 131148, 2
131149, 131158, 2
131149, 131150, 1
131149, 131155, 2
131149, 131147, 2
131144, 131137, 2
131144, 131141, 2
131144, 131139, 2
131144, 131143, 2
131144, 131145, 1
131177, 131170, 2
131177, 131175, 2
131177, 131174, 2
131177, 131178, 2
131177, 131176, 2
131159, 131156, 2
131159, 131160, 2
131159, 131158, 2
131159, 131157, 2
