216763, 216764, 3
216763, 216765, 8
216763, 216762, 2
216763, 216766, 1
216758, 216761, 2
216758, 216757, 2
216758, 216759, 2
216758, 216760, 2
216758, 216762, 2
216767, 216765, 2
216767, 216768, 2
216767, 216764, 2
216767, 216766, 2
216764, 216767, 2
216764, 216765, 2
216764, 216763, 2
216764, 216762, 2
216764, 216766, 2
216761, 216760, 2
216761, 216759, 2
216761, 216762, 2
216761, 216758, 2
216768, 216767, 2
216768, 216765, 2
216768, 216766, 2
216759, 216762, 2
216759, 216761, 2
216759, 216757, 2
216759, 216760, 1
216759, 216758, 2
216757, 216759, 1
216757, 216762, 2
216757, 216758, 3
216760, 216761, 3
216760, 216759, 2
216760, 216762, 1
216760, 216758, 2
216762, 216760, 2
216762, 216763, 1
216762, 216758, 2
216762, 216764, 2
216762, 216761, 2
216762, 216757, 2
216762, 216759, 2
216765, 216767, 2
216765, 216764, 2
216765, 216763, 2
216765, 216768, 2
216765, 216766, 2
216766, 216767, 3
216766, 216764, 2
216766, 216763, 2
216766, 216768, 1
216766, 216765, 2
