222467, 222468, 1
222467, 222469, 2
222467, 222466, 2
222467, 222471, 2
222467, 222470, 2
222467, 222465, 2
222468, 222467, 2
222468, 222470, 2
222468, 222469, 1
222471, 222467, 2
222471, 222472, 2
222471, 222473, 2
222471, 222470, 2
222471, 222469, 2
222469, 222467, 2
222469, 222472, 1
222469, 222471, 3
222469, 222470, 6
222469, 222468, 2
222472, 222469, 2
222472, 222473, 3
222472, 222470, 2
222472, 222471, 2
222466, 222467, 1
222466, 222465, 2
222473, 222472, 2
222473, 222470, 2
222473, 222471, 2
222470, 222467, 2
222470, 222468, 2
222470, 222469, 2
222470, 222472, 2
222470, 222473, 2
222470, 222471, 2
222470, 222465, 2
222465, 222467, 2
222465, 222466, 1
222465, 222470, 2
