162179, 162177, 2
162179, 162182, 2
162179, 162181, 1
162179, 162176, 2
162179, 162180, 2
162179, 162178, 2
162179, 162183, 2
162187, 162188, 3
162187, 162185, 2
162187, 162186, 2
162176, 162177, 2
162176, 162179, 2
162176, 162181, 2
162176, 162174, 2
162176, 162184, 2
162176, 162178, 1
162176, 162175, 2
162180, 162177, 2
162180, 162182, 1
162180, 162179, 2
162180, 162181, 2
162180, 162184, 2
162180, 162178, 2
162180, 162186, 2
162173, 162177, 2
162173, 162174, 1
162173, 162175, 2
162184, 162182, 2
162184, 162181, 2
162184, 162185, 1
162184, 162176, 2
162184, 162180, 2
162184, 162178, 2
162184, 162183, 2
162184, 162186, 2
162184, 162174, 2
162178, 162177, 2
162178, 162179, 2
162178, 162181, 2
162178, 162186, 2
162178, 162176, 2
162178, 162180, 1
162178, 162184, 2
162178, 162175, 2
162183, 162177, 2
162183, 162182, 2
162183, 162181, 2
162183, 162185, 2
162183, 162184, 2
162183, 162188, 2
162183, 162186, 2
162183, 162179, 2
162186, 162182, 2
162186, 162187, 1
162186, 162184, 2
162186, 162188, 2
162186, 162180, 2
162186, 162178, 2
162186, 162183, 2
162186, 162185, 2
162177, 162182, 2
162177, 162179, 1
162177, 162174, 2
162177, 162176, 2
162177, 162180, 2
162177, 162173, 2
162177, 162178, 2
162177, 162183, 2
162177, 162175, 2
162182, 162177, 2
162182, 162179, 2
162182, 162181, 2
162182, 162180, 2
162182, 162184, 2
162182, 162183, 1
162182, 162186, 2
162181, 162182, 2
162181, 162179, 2
162181, 162176, 2
162181, 162180, 2
162181, 162184, 1
162181, 162178, 2
162181, 162183, 2
162174, 162173, 2
162174, 162177, 2
162174, 162175, 2
162174, 162176, 1
162174, 162184, 2
162188, 162183, 2
162188, 162187, 2
162188, 162186, 2
162188, 162185, 2
162175, 162173, 4
162175, 162177, 1
162175, 162178, 2
162175, 162174, 2
162175, 162176, 2
162185, 162188, 2
162185, 162183, 2
162185, 162187, 2
162185, 162186, 3
162185, 162184, 2
