257938, 257937, 2
257938, 257939, 2
257938, 257940, 2
257938, 257936, 2
257939, 257937, 2
257939, 257940, 1
257939, 257938, 2
257937, 257936, 2
257937, 257939, 1
257937, 257940, 2
257937, 257938, 8
257940, 257938, 2
257940, 257939, 2
257940, 257937, 2
257936, 257937, 1
257936, 257938, 2
