15746, 15749, 1
15746, 15748, 0
15746, 15747, 3
15746, 15745, 2
15746, 15744, 2
15743, 15741, 2
15743, 15742, 2
15743, 15740, 2
15743, 15744, 2
15745, 15746, 2
15745, 15747, 2
15745, 15744, 2
15740, 15741, 3
15740, 15739, 2
15740, 15742, 0
15740, 15743, 8
15740, 15744, 1
15744, 15746, 1
15744, 15743, 2
15744, 15745, 8
15744, 15740, 2
15744, 15741, 2
15744, 15742, 2
15744, 15748, 2
15741, 15739, 2
15741, 15742, 2
15741, 15743, 2
15741, 15740, 2
15741, 15744, 2
15748, 15749, 2
15748, 15746, 2
15748, 15747, 2
15748, 15744, 2
15742, 15741, 2
15742, 15743, 2
15742, 15740, 2
15742, 15744, 2
15739, 15741, 2
15739, 15740, 1
15749, 15746, 2
15749, 15748, 2
15749, 15747, 2
15747, 15749, 2
15747, 15746, 2
15747, 15748, 2
15747, 15745, 2
