72289, 72286, 2
72289, 72285, 2
72289, 72288, 2
72288, 72289, 1
72288, 72287, 2
72288, 72286, 2
72286, 72287, 2
72286, 72284, 2
72286, 72289, 2
72286, 72288, 2
72286, 72285, 2
72287, 72286, 2
72287, 72288, 1
72287, 72285, 2
72284, 72286, 2
72284, 72283, 2
72284, 72285, 1
72283, 72284, 1
72285, 72287, 1
72285, 72284, 2
72285, 72289, 2
72285, 72286, 8
