72259, 72257, 2
72259, 72260, 1
72259, 72258, 2
72255, 72256, 1
72255, 72254, 2
72254, 72255, 1
72257, 72259, 2
72257, 72256, 2
72257, 72258, 1
72256, 72257, 1
72256, 72255, 2
72256, 72258, 2
72260, 72259, 2
72258, 72257, 2
72258, 72259, 1
72258, 72256, 2
