252929, 252930, 2
252929, 252928, 2
252927, 252923, 2
252927, 252924, 2
252927, 252928, 1
252927, 252926, 2
252933, 252934, 3
252933, 252932, 2
252931, 252930, 2
252931, 252932, 2
252923, 252924, 3
252923, 252927, 1
252923, 252926, 2
252934, 252933, 2
252934, 252935, 1
252932, 252930, 2
252932, 252933, 1
252932, 252931, 2
252925, 252924, 2
252925, 252926, 1
252935, 252934, 2
252935, 252936, 1
252926, 252923, 2
252926, 252924, 2
252926, 252927, 2
252926, 252925, 2
252937, 252936, 2
252924, 252923, 2
252924, 252927, 2
252924, 252925, 1
252924, 252926, 2
252930, 252929, 2
252930, 252932, 1
252930, 252928, 2
252930, 252931, 3
252936, 252937, 3
252936, 252935, 2
252928, 252929, 3
252928, 252927, 2
252928, 252930, 1
