20560, 20558, 2
20560, 20561, 2
20560, 20559, 2
20561, 20560, 2
20561, 20559, 2
20561, 20558, 2
20561, 20562, 0
20559, 20560, 3
20559, 20561, 1
20559, 20558, 2
20558, 20560, 2
20558, 20561, 2
20558, 20559, 1
20558, 20562, 2
20562, 20561, 2
20562, 20558, 2
