217070, 217071, 2
217070, 217072, 2
217070, 217069, 2
217070, 217073, 2
217069, 217071, 8
217069, 217070, 3
217069, 217072, 1
217069, 217075, 2
217077, 217079, 2
217077, 217078, 1
217077, 217075, 2
217077, 217076, 2
217081, 217079, 2
217081, 217080, 2
217081, 217075, 2
217078, 217079, 1
217078, 217075, 2
217078, 217077, 2
217080, 217081, 1
217080, 217079, 2
217075, 217079, 2
217075, 217069, 2
217075, 217073, 2
217075, 217076, 2
217075, 217081, 2
217075, 217077, 2
217075, 217072, 2
217075, 217074, 2
217075, 217078, 2
217079, 217073, 2
217079, 217077, 2
217079, 217081, 2
217079, 217080, 1
217079, 217078, 2
217079, 217075, 2
217071, 217070, 2
217071, 217072, 2
217071, 217069, 2
217071, 217073, 2
217073, 217079, 2
217073, 217071, 2
217073, 217070, 2
217073, 217072, 2
217073, 217074, 2
217073, 217075, 2
217076, 217072, 2
217076, 217074, 2
217076, 217075, 6
217076, 217077, 1
217072, 217071, 2
217072, 217070, 2
217072, 217069, 2
217072, 217073, 3
217072, 217076, 2
217072, 217074, 1
217072, 217075, 2
217074, 217072, 2
217074, 217075, 2
217074, 217073, 2
217074, 217076, 1
