132957, 132956, 2
132957, 132954, 2
132957, 132959, 2
132957, 132955, 2
132957, 132958, 1
132954, 132957, 1
132954, 132956, 2
132954, 132955, 3
132959, 132957, 2
132959, 132958, 2
132958, 132957, 2
132958, 132959, 1
132956, 132957, 2
132956, 132954, 2
132956, 132955, 2
132955, 132957, 2
132955, 132954, 2
132955, 132956, 1
