259342, 259343, 1
259342, 259341, 2
259340, 259339, 2
259340, 259341, 1
259343, 259342, 2
259343, 259345, 2
259343, 259344, 1
259343, 259341, 2
259339, 259340, 1
259345, 259343, 2
259345, 259344, 2
259344, 259345, 1
259344, 259343, 2
259341, 259342, 1
259341, 259340, 2
259341, 259343, 2
