169922, 169923, 2
169922, 169920, 2
169922, 169921, 2
169920, 169922, 2
169920, 169921, 1
169924, 169923, 2
169924, 169921, 2
169923, 169922, 2
169923, 169924, 1
169923, 169921, 2
169921, 169922, 8
169921, 169920, 2
169921, 169924, 2
169921, 169923, 1
