218724, 218723, 2
218724, 218725, 1
218736, 218738, 1
218736, 218735, 2
218736, 218737, 0
218726, 218728, 1
218726, 218725, 2
218726, 218727, 0
218734, 218735, 1
218734, 218733, 2
218728, 218726, 2
218728, 218729, 1
218728, 218727, 2
218739, 218738, 2
218723, 218724, 1
218723, 218722, 2
218723, 218721, 2
218723, 218719, 2
218723, 218725, 2
218723, 218720, 2
218737, 218738, 2
218737, 218736, 2
218720, 218721, 0
218720, 218723, 1
218720, 218722, 3
218720, 218719, 2
218735, 218736, 1
218735, 218733, 2
218735, 218734, 2
218733, 218729, 2
218733, 218734, 1
218733, 218732, 2
218733, 218730, 2
218733, 218731, 2
218733, 218735, 2
218738, 218736, 2
218738, 218739, 1
218738, 218737, 2
218732, 218730, 2
218732, 218731, 2
218732, 218733, 2
218729, 218730, 1
218729, 218731, 2
218729, 218727, 2
218729, 218733, 2
218729, 218728, 2
218721, 218723, 2
218721, 218720, 2
218721, 218719, 2
218721, 218722, 2
218730, 218733, 1
218730, 218731, 0
218730, 218732, 3
218730, 218729, 2
218731, 218729, 2
218731, 218730, 2
218731, 218733, 2
218731, 218732, 2
218719, 218721, 2
218719, 218723, 2
218719, 218720, 1
218725, 218724, 2
218725, 218723, 2
218725, 218726, 1
218727, 218728, 2
218727, 218726, 2
218727, 218729, 2
218722, 218721, 2
218722, 218723, 2
218722, 218720, 2
