22162, 22161, 2
22162, 22160, 2
22161, 22162, 1
22161, 22160, 2
22157, 22158, 1
22157, 22155, 2
22157, 22154, 2
22157, 22156, 2
22154, 22156, 1
22154, 22157, 2
22154, 22155, 0
22156, 22157, 1
22156, 22154, 2
22156, 22155, 2
22158, 22157, 2
22158, 22159, 1
22158, 22155, 2
22160, 22162, 2
22160, 22161, 1
22160, 22159, 2
22160, 22155, 2
22159, 22158, 2
22159, 22160, 1
22159, 22155, 2
22155, 22157, 2
22155, 22154, 2
22155, 22156, 2
22155, 22158, 2
22155, 22160, 2
22155, 22159, 2
