73201, 73203, 2
73201, 73202, 1
73201, 73206, 2
73201, 73199, 2
73201, 73200, 2
73207, 73206, 2
73207, 73205, 2
73207, 73204, 2
73203, 73201, 2
73203, 73202, 2
73203, 73204, 2
73205, 73207, 1
73205, 73206, 6
73205, 73204, 2
73202, 73201, 2
73202, 73203, 3
73202, 73206, 2
73202, 73204, 1
73200, 73201, 1
73200, 73199, 2
73204, 73207, 2
73204, 73203, 2
73204, 73205, 1
73204, 73202, 2
73204, 73206, 2
73206, 73207, 2
73206, 73201, 2
73206, 73205, 2
73206, 73202, 2
73206, 73204, 2
73206, 73199, 2
73199, 73201, 2
73199, 73206, 2
73199, 73200, 1
