123633, 123634, 3
123633, 123635, 1
123633, 123632, 2
123644, 123637, 2
123644, 123641, 2
123644, 123642, 2
123644, 123645, 1
123644, 123640, 2
123644, 123643, 2
123644, 123639, 2
123644, 123647, 2
123644, 123646, 2
123642, 123630, 2
123642, 123629, 2
123642, 123637, 2
123642, 123644, 2
123642, 123638, 2
123642, 123636, 2
123642, 123639, 2
123637, 123630, 2
123637, 123635, 2
123637, 123636, 2
123637, 123642, 2
123637, 123644, 2
123637, 123638, 2
123637, 123640, 2
123637, 123639, 2
123637, 123629, 2
123637, 123632, 2
123639, 123636, 2
123639, 123642, 6
123639, 123644, 1
123639, 123641, 2
123639, 123638, 2
123639, 123640, 4
123639, 123643, 2
123639, 123637, 2
123630, 123629, 2
123630, 123637, 2
123630, 123642, 2
123630, 123631, 3
123630, 123632, 1
123652, 123649, 2
123652, 123647, 2
123652, 123653, 1
123652, 123651, 2
123652, 123648, 2
123652, 123650, 2
123646, 123647, 2
123646, 123644, 2
123646, 123645, 2
123645, 123647, 1
123645, 123646, 3
123645, 123644, 2
123653, 123652, 2
123653, 123643, 2
123653, 123654, 0
123634, 123635, 2
123634, 123640, 2
123634, 123631, 2
123634, 123633, 2
123634, 123632, 2
123640, 123629, 2
123640, 123635, 2
123640, 123636, 2
123640, 123631, 2
123640, 123644, 2
123640, 123643, 2
123640, 123637, 2
123640, 123632, 2
123640, 123634, 2
123640, 123638, 2
123640, 123641, 1
123640, 123639, 2
123648, 123652, 1
123648, 123649, 4
123648, 123647, 2
123648, 123651, 2
123648, 123650, 6
123629, 123630, 1
123629, 123637, 2
123629, 123640, 2
123629, 123642, 2
123629, 123631, 2
123635, 123634, 2
123635, 123636, 1
123635, 123640, 2
123635, 123633, 2
123635, 123637, 2
123636, 123635, 2
123636, 123637, 0
123636, 123642, 2
123636, 123641, 2
123636, 123638, 1
123636, 123640, 2
123636, 123643, 2
123636, 123639, 2
123631, 123630, 2
123631, 123634, 2
123631, 123640, 2
123631, 123632, 2
123631, 123629, 2
123654, 123653, 2
123643, 123636, 2
123643, 123640, 2
123643, 123644, 2
123643, 123653, 2
123643, 123641, 2
123643, 123639, 2
123632, 123630, 2
123632, 123637, 2
123632, 123631, 2
123632, 123633, 1
123632, 123634, 2
123632, 123640, 2
123650, 123652, 2
123650, 123647, 2
123650, 123648, 2
123649, 123652, 2
123649, 123647, 2
123649, 123651, 1
123649, 123648, 2
123647, 123649, 2
123647, 123644, 2
123647, 123645, 2
123647, 123652, 2
123647, 123648, 1
123647, 123651, 2
123647, 123646, 2
123647, 123650, 2
123638, 123636, 2
123638, 123640, 2
123638, 123642, 2
123638, 123639, 1
123638, 123637, 2
123641, 123636, 2
123641, 123640, 2
123641, 123643, 1
123641, 123639, 2
123641, 123644, 2
123651, 123652, 2
123651, 123649, 2
123651, 123647, 2
123651, 123648, 2
