221674, 221673, 2
221671, 221670, 2
221671, 221672, 1
221670, 221671, 1
221670, 221669, 2
221670, 221668, 2
221672, 221671, 2
221672, 221673, 1
221668, 221670, 2
221668, 221669, 1
221673, 221674, 1
221673, 221672, 2
221669, 221670, 1
221669, 221668, 2
