219435, 219438, 2
219435, 219436, 2
219435, 219440, 2
219435, 219423, 2
219435, 219426, 2
219435, 219431, 2
219435, 219439, 2
219435, 219434, 2
219435, 219433, 2
219435, 219443, 2
219435, 219441, 2
219435, 219428, 2
219435, 219432, 2
219435, 219437, 2
219435, 219442, 2
219422, 219424, 1
219422, 219427, 2
219422, 219420, 2
219422, 219423, 2
219422, 219419, 2
219422, 219421, 2
219437, 219435, 2
219437, 219434, 2
219437, 219438, 2
219437, 219433, 2
219437, 219436, 2
219437, 219440, 2
219430, 219428, 2
219430, 219423, 2
219430, 219429, 2
219430, 219431, 1
219421, 219422, 2
219421, 219420, 2
219421, 219423, 2
219421, 219419, 2
219421, 219427, 2
219436, 219435, 6
219436, 219434, 2
219436, 219437, 3
219436, 219423, 2
219436, 219438, 1
219436, 219439, 2
219425, 219428, 1
219425, 219424, 2
219425, 219423, 2
219425, 219427, 3
219425, 219426, 0
219427, 219422, 2
219427, 219421, 2
219427, 219428, 2
219427, 219425, 2
219427, 219423, 2
219427, 219426, 2
219419, 219422, 2
219419, 219418, 2
219419, 219423, 2
219419, 219421, 2
219419, 219420, 1
219434, 219435, 2
219434, 219437, 2
219434, 219433, 2
219434, 219436, 1
219434, 219432, 2
219443, 219435, 2
219443, 219439, 2
219443, 219441, 2
219443, 219444, 3
219443, 219442, 2
219441, 219435, 2
219441, 219438, 2
219441, 219443, 2
219441, 219440, 2
219441, 219439, 2
219441, 219444, 2
219441, 219442, 1
219428, 219435, 2
219428, 219430, 2
219428, 219429, 1
219428, 219425, 2
219428, 219423, 2
219428, 219427, 2
219428, 219426, 2
219444, 219440, 2
219444, 219441, 2
219444, 219443, 2
219444, 219442, 2
219420, 219422, 1
219420, 219424, 2
219420, 219423, 2
219420, 219419, 2
219420, 219421, 3
219424, 219422, 2
219424, 219425, 1
219424, 219423, 6
219424, 219420, 2
219424, 219426, 2
219418, 219419, 1
219423, 219435, 2
219423, 219422, 2
219423, 219438, 2
219423, 219430, 2
219423, 219421, 2
219423, 219424, 2
219423, 219436, 2
219423, 219425, 2
219423, 219427, 2
219423, 219431, 2
219423, 219426, 2
219423, 219429, 2
219423, 219419, 2
219423, 219428, 2
219423, 219439, 2
219423, 219420, 2
219426, 219435, 2
219426, 219424, 2
219426, 219428, 2
219426, 219425, 2
219426, 219423, 2
219426, 219427, 2
219431, 219435, 2
219431, 219433, 2
219431, 219430, 2
219431, 219429, 2
219431, 219432, 1
219431, 219423, 2
219439, 219435, 2
219439, 219438, 2
219439, 219436, 2
219439, 219443, 2
219439, 219441, 2
219439, 219440, 2
219439, 219423, 2
219433, 219434, 2
219433, 219435, 2
219433, 219437, 2
219433, 219432, 2
219433, 219431, 2
219429, 219428, 2
219429, 219423, 2
219429, 219430, 1
219429, 219431, 2
219440, 219435, 2
219440, 219437, 2
219440, 219441, 2
219440, 219438, 2
219440, 219444, 2
219440, 219439, 2
219432, 219435, 2
219432, 219434, 1
219432, 219433, 3
219432, 219431, 2
219442, 219435, 2
219442, 219444, 2
219442, 219443, 1
219442, 219441, 2
219438, 219435, 2
219438, 219437, 2
219438, 219436, 2
219438, 219441, 1
219438, 219440, 3
219438, 219423, 2
219438, 219439, 0
