163088, 163089, 3
163088, 163087, 2
163088, 163092, 2
163088, 163086, 2
163088, 163091, 1
163088, 163090, 2
163096, 163097, 2
163096, 163098, 2
163096, 163095, 2
163087, 163088, 2
163087, 163086, 2
163094, 163097, 2
163094, 163093, 2
163094, 163092, 2
163094, 163095, 1
163085, 163086, 1
163085, 163084, 2
163098, 163096, 2
163098, 163100, 2
163098, 163095, 2
163098, 163101, 2
163098, 163097, 2
163098, 163099, 2
163086, 163085, 2
163086, 163088, 1
163086, 163089, 2
163086, 163087, 0
163086, 163090, 2
163083, 163084, 1
163093, 163097, 1
163093, 163094, 3
163093, 163092, 2
163093, 163095, 2
163100, 163101, 3
163100, 163097, 2
163100, 163098, 2
163100, 163102, 1
163100, 163099, 2
163092, 163088, 2
163092, 163093, 1
163092, 163097, 2
163092, 163094, 2
163092, 163091, 2
163092, 163090, 2
163095, 163096, 2
163095, 163097, 2
163095, 163094, 2
163095, 163098, 2
163095, 163090, 2
163095, 163093, 2
163102, 163101, 2
163102, 163097, 2
163102, 163100, 2
163097, 163102, 2
163097, 163099, 8
163097, 163096, 2
163097, 163100, 1
163097, 163092, 2
163097, 163095, 2
163097, 163101, 2
163097, 163094, 2
163097, 163098, 3
163097, 163093, 2
163101, 163102, 2
163101, 163097, 2
163101, 163098, 2
163101, 163100, 2
163101, 163099, 2
163091, 163088, 2
163091, 163089, 2
163091, 163090, 2
163091, 163092, 1
163084, 163085, 1
163084, 163083, 2
163090, 163088, 2
163090, 163089, 2
163090, 163092, 2
163090, 163095, 2
163090, 163086, 2
163090, 163091, 2
163089, 163086, 2
163089, 163091, 2
163089, 163088, 2
163089, 163090, 1
163099, 163101, 2
163099, 163097, 2
163099, 163098, 2
163099, 163100, 2
