222299, 222300, 1
222299, 222298, 2
222296, 222298, 2
222296, 222295, 2
222296, 222297, 2
222301, 222300, 2
222301, 222302, 1
222300, 222301, 1
222300, 222298, 2
222300, 222299, 2
222300, 222302, 2
222298, 222300, 2
222298, 222299, 1
222298, 222296, 2
222298, 222297, 2
222302, 222300, 2
222302, 222301, 2
222295, 222296, 6
222295, 222297, 1
222297, 222298, 1
222297, 222295, 2
222297, 222296, 2
