340237, 340238, 1
340237, 340236, 2
340241, 340240, 2
340241, 340239, 2
340241, 340242, 2
340241, 340238, 2
340239, 340241, 2
340239, 340240, 1
340239, 340238, 2
340239, 340242, 2
340236, 340237, 1
340236, 340238, 2
340240, 340241, 1
340240, 340239, 2
340240, 340242, 2
340240, 340238, 2
340238, 340237, 2
340238, 340241, 2
340238, 340239, 8
340238, 340236, 2
340238, 340240, 2
340238, 340242, 1
340242, 340241, 2
340242, 340240, 2
340242, 340239, 2
340242, 340238, 2
