133432, 133429, 2
133432, 133434, 2
133432, 133431, 2
133432, 133427, 2
133432, 133433, 1
133432, 133428, 2
133432, 133424, 2
133432, 133418, 2
133432, 133426, 2
133432, 133430, 2
133431, 133429, 2
133431, 133432, 2
133431, 133434, 2
133431, 133435, 2
133431, 133439, 2
133431, 133446, 2
133431, 133426, 2
133431, 133463, 2
133431, 133457, 2
133431, 133428, 2
133431, 133440, 2
133431, 133451, 2
133431, 133427, 2
133435, 133434, 2
133435, 133431, 2
133435, 133436, 2
133435, 133433, 2
133453, 133455, 2
133453, 133452, 2
133453, 133457, 2
133453, 133456, 2
133453, 133449, 2
133453, 133451, 2
133453, 133454, 2
133433, 133432, 2
133433, 133434, 3
133433, 133437, 1
133433, 133436, 2
133433, 133440, 2
133433, 133439, 2
133433, 133435, 2
133433, 133438, 2
133433, 133430, 2
133442, 133438, 2
133442, 133441, 2
133442, 133446, 2
133442, 133440, 2
133442, 133445, 2
133442, 133443, 2
133444, 133445, 3
133444, 133438, 2
133444, 133443, 2
133444, 133447, 2
133444, 133448, 1
133444, 133446, 2
133444, 133449, 2
133444, 133430, 2
133473, 133472, 2
133473, 133474, 1
133473, 133430, 2
133473, 133475, 2
133476, 133477, 1
133476, 133474, 2
133476, 133475, 2
133466, 133464, 2
133466, 133465, 2
133466, 133469, 2
133466, 133461, 2
133466, 133462, 2
133466, 133467, 1
133466, 133475, 2
133466, 133463, 2
133450, 133449, 2
133450, 133451, 1
133450, 133447, 2
133450, 133454, 2
133422, 133425, 1
133422, 133430, 2
133422, 133419, 2
133422, 133426, 2
133422, 133418, 2
133422, 133420, 2
133422, 133427, 2
133455, 133460, 1
133455, 133457, 2
133455, 133453, 2
133455, 133459, 2
133455, 133461, 2
133455, 133456, 3
133455, 133475, 2
133455, 133449, 2
133455, 133430, 2
133455, 133454, 2
133425, 133422, 2
133425, 133418, 2
133425, 133426, 1
133448, 133444, 2
133448, 133449, 1
133448, 133447, 2
133448, 133445, 2
133456, 133455, 2
133456, 133449, 2
133456, 133453, 2
133456, 133457, 1
133456, 133460, 2
133467, 133469, 2
133467, 133468, 1
133467, 133466, 2
133427, 133429, 2
133427, 133432, 2
133427, 133431, 2
133427, 133418, 2
133427, 133428, 1
133427, 133430, 2
133427, 133422, 2
133427, 133421, 2
133427, 133419, 2
133427, 133426, 2
133427, 133424, 2
133427, 133420, 2
133429, 133432, 2
133429, 133431, 1
133429, 133426, 2
133429, 133424, 2
133429, 133418, 2
133429, 133428, 2
133429, 133427, 2
133434, 133432, 2
133434, 133431, 2
133434, 133436, 1
133434, 133433, 2
133434, 133437, 2
133434, 133435, 8
133434, 133438, 2
133452, 133453, 2
133452, 133451, 2
133469, 133464, 2
133469, 133465, 2
133469, 133471, 2
133469, 133468, 2
133469, 133466, 2
133469, 133467, 2
133469, 133470, 1
133469, 133463, 2
133475, 133477, 2
133475, 133481, 2
133475, 133438, 2
133475, 133478, 2
133475, 133468, 2
133475, 133461, 2
133475, 133480, 2
133475, 133476, 2
133475, 133472, 2
133475, 133430, 2
133475, 133455, 2
133475, 133466, 2
133475, 133473, 2
133475, 133479, 2
133475, 133449, 2
133475, 133474, 2
133418, 133429, 2
133418, 133432, 2
133418, 133423, 2
133418, 133430, 2
133418, 133422, 2
133418, 133425, 2
133418, 133421, 6
133418, 133419, 4
133418, 133426, 2
133418, 133424, 2
133418, 133420, 2
133418, 133427, 1
133480, 133479, 2
133480, 133482, 1
133480, 133481, 0
133480, 133475, 2
133472, 133471, 2
133472, 133473, 1
133472, 133430, 2
133472, 133475, 2
133482, 133481, 2
133482, 133480, 2
133458, 133457, 2
133458, 133459, 2
133457, 133455, 2
133457, 133431, 2
133457, 133453, 2
133457, 133459, 1
133457, 133456, 2
133457, 133458, 8
133457, 133449, 2
133457, 133460, 2
133436, 133439, 2
133436, 133434, 2
133436, 133437, 2
133436, 133438, 2
133436, 133433, 2
133436, 133440, 2
133436, 133435, 2
133479, 133477, 2
133479, 133480, 1
133479, 133481, 2
133479, 133478, 2
133479, 133475, 2
133420, 133422, 1
133420, 133418, 2
133420, 133419, 2
133420, 133427, 2
133463, 133464, 8
133463, 133465, 1
133463, 133431, 2
133463, 133459, 2
133463, 133466, 2
133463, 133461, 2
133463, 133469, 2
133463, 133462, 2
133439, 133431, 2
133439, 133438, 2
133439, 133443, 2
133439, 133433, 2
133439, 133440, 1
133439, 133436, 2
133423, 133424, 1
133423, 133418, 2
133423, 133421, 2
133419, 133422, 2
133419, 133418, 2
133419, 133420, 1
133419, 133427, 2
133459, 133455, 2
133459, 133458, 2
133459, 133457, 2
133459, 133461, 2
133459, 133462, 2
133459, 133460, 2
133459, 133463, 2
133461, 133455, 2
133461, 133465, 2
133461, 133466, 1
133461, 133459, 2
133461, 133475, 2
133461, 133462, 3
133461, 133460, 2
133461, 133463, 2
133461, 133430, 2
133445, 133442, 2
133445, 133440, 2
133445, 133443, 2
133445, 133447, 1
133445, 133448, 2
133445, 133444, 2
133445, 133449, 2
133445, 133446, 8
133445, 133441, 2
133477, 133481, 2
133477, 133478, 1
133477, 133475, 2
133477, 133479, 2
133477, 133476, 2
133477, 133474, 2
133430, 133432, 2
133430, 133471, 2
133430, 133438, 2
133430, 133468, 2
133430, 133433, 2
133430, 133475, 2
133430, 133444, 2
133430, 133418, 2
133430, 133461, 2
133430, 133472, 2
133430, 133422, 2
133430, 133455, 2
133430, 133437, 2
133430, 133473, 2
133430, 133428, 2
133430, 133424, 2
133430, 133449, 2
133430, 133427, 2
133430, 133426, 2
133465, 133464, 2
133465, 133469, 2
133465, 133463, 2
133465, 133466, 2
133465, 133461, 2
133441, 133442, 2
133441, 133445, 2
133441, 133440, 2
133443, 133442, 2
133443, 133440, 2
133443, 133439, 2
133443, 133444, 1
133443, 133438, 2
133443, 133445, 2
133428, 133429, 4
133428, 133432, 1
133428, 133431, 2
133428, 133430, 6
133428, 133426, 2
133428, 133424, 2
133428, 133427, 2
133438, 133442, 2
133438, 133434, 2
133438, 133437, 2
133438, 133440, 2
133438, 133443, 1
133438, 133433, 2
133438, 133439, 3
133438, 133444, 2
133438, 133436, 2
133438, 133475, 2
133438, 133430, 2
133449, 133453, 2
133449, 133475, 2
133449, 133444, 2
133449, 133445, 2
133449, 133447, 2
133449, 133430, 2
133449, 133450, 3
133449, 133455, 2
133449, 133457, 2
133449, 133448, 2
133449, 133456, 2
133449, 133451, 2
133449, 133454, 1
133481, 133482, 2
133481, 133478, 2
133481, 133475, 2
133481, 133479, 2
133481, 133480, 2
133481, 133477, 2
133440, 133442, 1
133440, 133431, 2
133440, 133438, 2
133440, 133441, 8
133440, 133433, 2
133440, 133439, 2
133440, 133446, 2
133440, 133436, 2
133440, 133445, 2
133440, 133443, 2
133478, 133479, 1
133478, 133477, 2
133478, 133481, 2
133478, 133475, 2
133468, 133470, 2
133468, 133469, 3
133468, 133475, 2
133468, 133467, 2
133468, 133471, 1
133468, 133430, 2
133446, 133442, 2
133446, 133431, 2
133446, 133440, 2
133446, 133447, 2
133446, 133444, 2
133446, 133445, 2
133460, 133456, 2
133460, 133455, 2
133460, 133457, 2
133460, 133459, 2
133460, 133461, 1
133474, 133477, 2
133474, 133473, 2
133474, 133476, 1
133474, 133475, 0
133464, 133465, 2
133464, 133466, 2
133464, 133463, 2
133464, 133469, 2
133462, 133459, 2
133462, 133463, 1
133462, 133466, 2
133462, 133461, 2
133470, 133471, 2
133470, 133468, 2
133470, 133469, 2
133437, 133436, 2
133437, 133434, 2
133437, 133438, 1
133437, 133430, 2
133437, 133433, 2
133421, 133424, 2
133421, 133418, 2
133421, 133423, 1
133421, 133427, 2
133447, 133446, 2
133447, 133445, 2
133447, 133448, 2
133447, 133444, 2
133447, 133449, 2
133447, 133451, 2
133447, 133450, 2
133426, 133422, 2
133426, 133432, 2
133426, 133425, 2
133426, 133430, 2
133426, 133428, 2
133426, 133431, 2
133426, 133418, 2
133426, 133429, 2
133426, 133427, 2
133424, 133429, 2
133424, 133432, 2
133424, 133421, 2
133424, 133430, 2
133424, 133428, 2
133424, 133418, 2
133424, 133423, 2
133424, 133427, 2
133471, 133468, 2
133471, 133470, 2
133471, 133430, 2
133471, 133469, 2
133471, 133472, 1
133451, 133431, 2
133451, 133453, 1
133451, 133452, 8
133451, 133454, 2
133451, 133449, 2
133451, 133447, 2
133451, 133450, 2
133454, 133450, 2
133454, 133455, 1
133454, 133449, 2
133454, 133453, 2
133454, 133451, 2
