184688, 184689, 1
184688, 184687, 2
184689, 184690, 1
184689, 184688, 2
184689, 184687, 2
184684, 184685, 1
184684, 184683, 2
184690, 184689, 2
184682, 184680, 2
184682, 184683, 1
184682, 184681, 2
184685, 184686, 1
184685, 184684, 2
184686, 184685, 2
184686, 184687, 1
184681, 184682, 1
184681, 184680, 2
184683, 184682, 2
184683, 184684, 1
184680, 184682, 2
184680, 184681, 1
184687, 184686, 2
184687, 184689, 2
184687, 184688, 1
