217195, 217193, 2
217195, 217196, 2
217195, 217194, 2
217200, 217202, 1
217200, 217201, 8
217200, 217199, 2
217206, 217205, 2
217205, 217204, 2
217205, 217206, 1
217204, 217203, 2
217204, 217205, 1
217203, 217204, 1
217203, 217202, 2
217203, 217201, 2
217202, 217200, 2
217202, 217201, 2
217202, 217203, 1
217197, 217196, 2
217197, 217198, 1
217197, 217199, 2
217201, 217200, 2
217201, 217202, 2
217201, 217203, 2
217194, 217195, 8
217194, 217193, 2
217194, 217196, 1
217199, 217200, 1
217199, 217197, 2
217199, 217198, 2
217193, 217195, 2
217193, 217196, 2
217193, 217194, 1
217196, 217195, 2
217196, 217193, 2
217196, 217197, 1
217196, 217194, 2
217198, 217197, 2
217198, 217199, 1
