169581, 169577, 2
169581, 169580, 2
169581, 169578, 2
169581, 169579, 2
169581, 169582, 1
169589, 169593, 2
169589, 169572, 2
169589, 169588, 2
169589, 169583, 2
169589, 169584, 2
169589, 169587, 2
169589, 169591, 1
169589, 169592, 2
169580, 169581, 0
169580, 169577, 2
169580, 169578, 2
169580, 169579, 2
169580, 169590, 2
169580, 169587, 2
169580, 169586, 2
169580, 169584, 2
169580, 169585, 2
169580, 169582, 2
169593, 169589, 2
169593, 169594, 1
169593, 169588, 2
169593, 169590, 2
169593, 169587, 2
169593, 169591, 2
169593, 169592, 2
169591, 169589, 2
169591, 169594, 2
169591, 169593, 2
169591, 169588, 2
169591, 169587, 2
169591, 169592, 2
169564, 169560, 2
169564, 169563, 2
169564, 169561, 2
169564, 169562, 2
169564, 169565, 1
169564, 169559, 2
169564, 169566, 2
169567, 169554, 2
169567, 169556, 2
169567, 169573, 2
169567, 169568, 1
169567, 169566, 2
169557, 169555, 2
169557, 169554, 2
169557, 169562, 2
169557, 169556, 2
169557, 169552, 2
169557, 169559, 2
169557, 169558, 0
169557, 169550, 2
169557, 169551, 2
169557, 169549, 2
169578, 169581, 2
169578, 169577, 2
169578, 169580, 2
169578, 169579, 2
169578, 169590, 2
169578, 169572, 2
169578, 169582, 2
169590, 169580, 2
169590, 169595, 2
169590, 169579, 2
169590, 169584, 2
169590, 169578, 2
169590, 169594, 2
169590, 169592, 2
169590, 169582, 2
169590, 169593, 2
169590, 169588, 2
169590, 169587, 2
169590, 169586, 2
169583, 169589, 2
169583, 169587, 2
169583, 169584, 1
169583, 169582, 2
169583, 169572, 2
169599, 169600, 3
169599, 169596, 2
169599, 169597, 2
169599, 169598, 2
169599, 169601, 1
169599, 169594, 2
169575, 169574, 2
169575, 169556, 2
169575, 169579, 2
169575, 169576, 1
169575, 169562, 2
169565, 169560, 2
169565, 169563, 2
169565, 169561, 2
169565, 169562, 2
169565, 169564, 2
169565, 169559, 2
169565, 169566, 1
169570, 169569, 2
169570, 169555, 2
169570, 169573, 2
169570, 169572, 2
169570, 169556, 2
169570, 169568, 2
169570, 169554, 2
169570, 169571, 2
169579, 169581, 2
169579, 169577, 2
169579, 169580, 2
169579, 169578, 2
169579, 169590, 2
169579, 169584, 2
169579, 169556, 2
169579, 169554, 2
169579, 169575, 2
169579, 169576, 2
169562, 169565, 2
169562, 169573, 2
169562, 169560, 2
169562, 169548, 2
169562, 169550, 2
169562, 169566, 2
169562, 169557, 2
169562, 169554, 2
169562, 169564, 2
169562, 169556, 2
169562, 169559, 2
169562, 169558, 2
169562, 169575, 2
169562, 169549, 2
169562, 169555, 2
169552, 169553, 2
169552, 169561, 2
169552, 169548, 4
169552, 169550, 2
169552, 169549, 2
169552, 169557, 1
169552, 169556, 2
169552, 169555, 2
169552, 169554, 2
169552, 169559, 2
169552, 169558, 2
169552, 169551, 2
169585, 169580, 2
169585, 169586, 1
169585, 169584, 2
169550, 169557, 2
169550, 169562, 2
169550, 169548, 2
169550, 169552, 2
169550, 169559, 2
169550, 169558, 2
169550, 169549, 2
169550, 169551, 1
169597, 169599, 1
169597, 169596, 2
169597, 169598, 8
169571, 169569, 2
169571, 169570, 2
169571, 169573, 2
169571, 169568, 2
169571, 169556, 2
169571, 169572, 1
169574, 169556, 2
169574, 169573, 2
169574, 169575, 1
169572, 169569, 2
169572, 169589, 2
169572, 169570, 2
169572, 169573, 2
169572, 169583, 2
169572, 169556, 2
169572, 169587, 2
169572, 169578, 2
169572, 169571, 2
169572, 169582, 2
169569, 169572, 2
169569, 169570, 8
169569, 169568, 2
169569, 169571, 1
169601, 169599, 2
169601, 169594, 2
169601, 169600, 2
169584, 169589, 2
169584, 169580, 2
169584, 169585, 1
169584, 169579, 2
169584, 169590, 2
169584, 169583, 2
169584, 169587, 2
169584, 169586, 2
169588, 169595, 2
169588, 169589, 6
169588, 169594, 2
169588, 169593, 2
169588, 169590, 4
169588, 169587, 2
169588, 169591, 2
169588, 169592, 1
169595, 169594, 2
169595, 169596, 1
169595, 169590, 2
169595, 169588, 2
169553, 169554, 2
169553, 169552, 2
169553, 169551, 2
169553, 169549, 2
169600, 169599, 2
169600, 169598, 2
169600, 169601, 2
169596, 169599, 2
169596, 169594, 2
169596, 169595, 2
169596, 169597, 1
169596, 169598, 2
169582, 169581, 2
169582, 169577, 2
169582, 169580, 2
169582, 169578, 2
169582, 169572, 2
169582, 169561, 2
169582, 169590, 2
169582, 169583, 1
169556, 169560, 2
169556, 169570, 2
169556, 169573, 2
169556, 169579, 2
169556, 169562, 2
169556, 169552, 2
169556, 169567, 2
169556, 169566, 2
169556, 169557, 2
169556, 169574, 2
169556, 169572, 2
169556, 169555, 2
169556, 169568, 2
169556, 169559, 2
169556, 169558, 2
169556, 169575, 2
169556, 169571, 2
169555, 169557, 2
169555, 169560, 2
169555, 169570, 2
169555, 169573, 2
169555, 169562, 2
169555, 169556, 1
169555, 169552, 2
169555, 169559, 2
169555, 169554, 2
169563, 169560, 2
169563, 169561, 2
169563, 169565, 2
169563, 169564, 2
169563, 169559, 2
169563, 169566, 2
169587, 169589, 2
169587, 169580, 2
169587, 169593, 2
169587, 169584, 2
169587, 169594, 2
169587, 169592, 2
169587, 169572, 2
169587, 169588, 1
169587, 169590, 2
169587, 169583, 2
169587, 169586, 2
169587, 169591, 2
169551, 169557, 2
169551, 169553, 3
169551, 169548, 2
169551, 169554, 1
169551, 169552, 2
169551, 169559, 2
169551, 169558, 2
169551, 169550, 2
169551, 169549, 2
169560, 169556, 2
169560, 169565, 2
169560, 169563, 2
169560, 169561, 6
169560, 169562, 4
169560, 169555, 2
169560, 169564, 1
169560, 169559, 2
169560, 169554, 2
169560, 169566, 2
169594, 169595, 2
169594, 169593, 2
169594, 169588, 2
169594, 169590, 2
169594, 169601, 2
169594, 169599, 2
169594, 169587, 2
169594, 169591, 2
169594, 169596, 2
169594, 169592, 2
169573, 169570, 2
169573, 169568, 2
169573, 169562, 2
169573, 169548, 2
169573, 169567, 2
169573, 169566, 2
169573, 169574, 1
169573, 169556, 2
169573, 169572, 2
169573, 169554, 2
169573, 169571, 2
169573, 169555, 2
169573, 169549, 2
169568, 169569, 1
169568, 169556, 2
169568, 169570, 2
169568, 169573, 2
169568, 169554, 2
169568, 169567, 2
169568, 169571, 2
169561, 169565, 2
169561, 169563, 1
169561, 169552, 2
169561, 169564, 2
169561, 169559, 2
169561, 169582, 2
169561, 169560, 2
169548, 169573, 2
169548, 169562, 2
169548, 169552, 2
169548, 169550, 2
169548, 169551, 2
169548, 169549, 1
169592, 169589, 2
169592, 169594, 2
169592, 169593, 1
169592, 169588, 2
169592, 169590, 2
169592, 169587, 2
169592, 169591, 2
169566, 169565, 2
169566, 169573, 2
169566, 169563, 2
169566, 169562, 2
169566, 169560, 2
169566, 169556, 2
169566, 169564, 2
169566, 169559, 2
169566, 169554, 2
169566, 169567, 1
169577, 169581, 2
169577, 169580, 1
169577, 169578, 0
169577, 169579, 3
169577, 169576, 2
169577, 169582, 2
169586, 169580, 2
169586, 169585, 2
169586, 169584, 2
169586, 169587, 1
169586, 169590, 2
169554, 169560, 2
169554, 169570, 2
169554, 169573, 2
169554, 169579, 2
169554, 169562, 2
169554, 169552, 2
169554, 169551, 2
169554, 169567, 2
169554, 169566, 2
169554, 169557, 2
169554, 169555, 1
169554, 169553, 2
169554, 169559, 2
169554, 169568, 2
169554, 169549, 2
169598, 169599, 2
169598, 169596, 2
169598, 169597, 2
169598, 169600, 2
169559, 169565, 2
169559, 169563, 2
169559, 169561, 2
169559, 169562, 2
169559, 169560, 1
169559, 169552, 2
169559, 169550, 2
169559, 169566, 2
169559, 169557, 2
169559, 169556, 2
169559, 169564, 2
169559, 169555, 2
169559, 169554, 2
169559, 169558, 2
169559, 169551, 2
169558, 169557, 2
169558, 169562, 2
169558, 169556, 2
169558, 169552, 2
169558, 169559, 1
169558, 169550, 2
169558, 169551, 2
169558, 169549, 2
169576, 169577, 1
169576, 169575, 2
169576, 169579, 2
169549, 169557, 2
169549, 169573, 2
169549, 169553, 2
169549, 169562, 2
169549, 169548, 2
169549, 169554, 2
169549, 169552, 2
169549, 169558, 2
169549, 169550, 1
169549, 169551, 2
