119719, 119723, 2
119719, 119721, 2
119719, 119718, 2
119719, 119715, 2
119719, 119720, 1
119712, 119713, 2
119712, 119711, 2
119712, 119716, 2
119723, 119722, 2
119723, 119719, 2
119723, 119721, 2
119723, 119720, 2
119713, 119711, 2
119713, 119712, 2
119713, 119717, 2
119713, 119715, 2
119713, 119714, 1
119721, 119719, 2
119721, 119715, 2
119721, 119720, 2
119721, 119722, 1
119721, 119723, 2
119721, 119718, 2
119718, 119719, 1
119718, 119715, 2
119718, 119714, 2
119718, 119721, 2
119718, 119717, 2
119718, 119716, 2
119716, 119712, 2
119716, 119718, 2
119716, 119717, 2
119716, 119715, 2
119716, 119714, 2
119717, 119713, 2
119717, 119715, 2
119717, 119718, 1
119717, 119716, 2
119717, 119714, 2
119722, 119721, 2
119722, 119720, 2
119722, 119723, 2
119711, 119713, 1
119711, 119712, 3
119711, 119710, 2
119711, 119715, 2
119715, 119719, 2
119715, 119711, 2
119715, 119714, 2
119715, 119713, 2
119715, 119721, 2
119715, 119718, 2
119715, 119716, 2
119715, 119717, 2
119714, 119713, 2
119714, 119715, 0
119714, 119718, 2
119714, 119716, 8
119714, 119717, 1
119710, 119711, 1
119720, 119719, 2
119720, 119722, 2
119720, 119721, 0
119720, 119723, 1
