20862, 20859, 2
20862, 20858, 2
20862, 20861, 2
20862, 20860, 2
20859, 20861, 2
20859, 20858, 2
20859, 20862, 2
20859, 20860, 1
20858, 20862, 2
20858, 20859, 1
20858, 20861, 2
20858, 20860, 2
20861, 20858, 2
20861, 20859, 2
20861, 20862, 2
20861, 20860, 2
20860, 20858, 2
20860, 20859, 2
20860, 20862, 3
20860, 20861, 0
