215891, 215893, 1
215891, 215890, 2
215891, 215888, 2
215891, 215894, 2
215891, 215892, 8
215887, 215886, 2
215887, 215889, 2
215887, 215888, 1
215887, 215885, 2
215889, 215887, 2
215889, 215890, 2
215889, 215888, 2
215894, 215891, 2
215894, 215893, 2
215894, 215892, 2
215885, 215887, 1
215885, 215886, 8
215893, 215891, 2
215893, 215894, 3
215893, 215892, 2
215886, 215887, 2
215886, 215885, 2
215890, 215891, 1
215890, 215889, 2
215890, 215888, 2
215888, 215891, 2
215888, 215887, 2
215888, 215890, 1
215888, 215889, 8
215892, 215891, 2
215892, 215893, 2
215892, 215894, 2
