118579, 118581, 2
118579, 118580, 1
118579, 118582, 2
118583, 118584, 1
118583, 118581, 2
118583, 118582, 2
118581, 118579, 2
118581, 118583, 1
118581, 118580, 2
118581, 118582, 3
118582, 118579, 2
118582, 118583, 2
118582, 118581, 2
118582, 118586, 2
118582, 118584, 2
118582, 118580, 2
118582, 118585, 2
118587, 118586, 2
118587, 118588, 2
118584, 118583, 2
118584, 118586, 2
118584, 118588, 2
118584, 118582, 2
118584, 118585, 3
118586, 118584, 2
118586, 118585, 2
118586, 118588, 1
118586, 118582, 2
118586, 118587, 8
118588, 118584, 2
118588, 118586, 2
118588, 118587, 2
118580, 118579, 2
118580, 118581, 1
118580, 118582, 2
118585, 118584, 2
118585, 118582, 2
118585, 118586, 1
