72432, 72431, 2
72432, 72428, 2
72432, 72434, 2
72432, 72430, 2
72432, 72433, 2
72431, 72432, 2
72431, 72433, 1
72431, 72434, 2
72431, 72430, 2
72431, 72429, 2
72430, 72432, 3
72430, 72431, 0
72430, 72433, 2
72430, 72428, 2
72430, 72434, 2
72430, 72429, 2
72433, 72432, 2
72433, 72431, 2
72433, 72434, 1
72433, 72430, 2
72433, 72429, 2
72427, 72428, 1
72427, 72429, 2
72428, 72432, 2
72428, 72427, 2
72428, 72430, 1
72428, 72429, 2
72434, 72432, 2
72434, 72431, 2
72434, 72429, 2
72434, 72430, 2
72434, 72433, 2
72429, 72431, 2
72429, 72430, 2
72429, 72433, 2
72429, 72427, 4
72429, 72428, 2
72429, 72434, 2
