251286, 251288, 8
251286, 251287, 3
251286, 251289, 1
251286, 251285, 2
251288, 251286, 2
251288, 251287, 2
251288, 251289, 2
251288, 251290, 2
251288, 251291, 2
251289, 251286, 2
251289, 251288, 2
251289, 251287, 2
251289, 251290, 3
251289, 251291, 1
251291, 251288, 2
251291, 251292, 1
251291, 251293, 2
251291, 251289, 2
251291, 251290, 2
251285, 251286, 1
251285, 251287, 2
251292, 251293, 1
251292, 251291, 2
251287, 251286, 2
251287, 251288, 2
251287, 251289, 2
251287, 251285, 2
251290, 251288, 2
251290, 251289, 2
251290, 251291, 2
251293, 251292, 2
251293, 251291, 2
