219289, 219290, 8
219289, 219285, 2
219289, 219284, 2
219289, 219288, 2
219289, 219291, 1
219271, 219273, 1
219271, 219270, 2
219271, 219272, 8
219268, 219267, 2
219268, 219269, 1
219273, 219271, 2
219273, 219272, 2
219273, 219274, 1
219277, 219279, 2
219277, 219276, 2
219277, 219275, 2
219277, 219278, 1
219274, 219279, 2
219274, 219273, 2
219274, 219276, 1
219274, 219275, 8
219274, 219284, 2
219287, 219286, 2
219287, 219285, 2
219287, 219288, 1
219287, 219284, 2
219290, 219289, 2
219290, 219291, 2
219288, 219289, 1
219288, 219285, 2
219288, 219287, 2
219288, 219284, 2
219284, 219289, 2
219284, 219276, 2
219284, 219279, 2
219284, 219282, 2
219284, 219281, 2
219284, 219278, 2
219284, 219274, 2
219284, 219280, 2
219284, 219287, 2
219284, 219283, 2
219284, 219286, 2
219284, 219285, 2
219284, 219288, 2
219284, 219291, 2
219275, 219280, 2
219275, 219276, 2
219275, 219277, 2
219275, 219274, 2
219291, 219289, 2
219291, 219290, 2
219291, 219279, 2
219291, 219284, 2
219272, 219273, 2
219272, 219270, 2
219272, 219271, 2
219279, 219274, 2
219279, 219280, 2
219279, 219276, 2
219279, 219283, 2
219279, 219270, 2
219279, 219281, 2
219279, 219278, 2
219279, 219282, 2
219279, 219291, 2
219279, 219277, 2
219279, 219284, 2
219267, 219268, 1
219267, 219269, 2
219281, 219279, 2
219281, 219280, 2
219281, 219282, 1
219281, 219284, 2
219278, 219279, 6
219278, 219280, 1
219278, 219276, 2
219278, 219277, 2
219278, 219284, 2
219269, 219268, 2
219269, 219270, 1
219269, 219267, 2
219280, 219279, 2
219280, 219281, 1
219280, 219278, 2
219280, 219275, 2
219280, 219285, 2
219280, 219284, 2
219276, 219284, 2
219276, 219279, 2
219276, 219278, 2
219276, 219275, 2
219276, 219277, 1
219276, 219274, 2
219283, 219279, 2
219283, 219286, 1
219283, 219285, 8
219283, 219282, 2
219283, 219284, 6
219286, 219285, 2
219286, 219287, 1
219286, 219283, 2
219286, 219284, 2
219285, 219289, 2
219285, 219280, 2
219285, 219283, 2
219285, 219286, 2
219285, 219288, 2
219285, 219282, 2
219285, 219287, 2
219285, 219284, 2
219282, 219279, 2
219282, 219281, 2
219282, 219283, 1
219282, 219285, 2
219282, 219284, 2
219270, 219279, 2
219270, 219269, 2
219270, 219271, 1
219270, 219272, 2
