222237, 222236, 2
222237, 222238, 1
222231, 222232, 1
222231, 222233, 2
222234, 222233, 2
222234, 222235, 1
222236, 222237, 1
222236, 222235, 2
222232, 222233, 1
222232, 222231, 2
222233, 222232, 2
222233, 222231, 2
222233, 222234, 1
222235, 222236, 1
222235, 222234, 2
222238, 222237, 2
