71230, 71226, 2
71230, 71231, 0
71230, 71228, 2
71230, 71229, 2
71227, 71226, 2
71227, 71228, 2
71227, 71229, 2
71231, 71230, 2
71229, 71226, 2
71229, 71230, 1
71229, 71227, 2
71229, 71228, 2
71226, 71230, 2
71226, 71227, 6
71226, 71228, 0
71226, 71229, 1
71228, 71226, 2
71228, 71230, 2
71228, 71227, 2
71228, 71229, 2
