120607, 120604, 2
120607, 120608, 1
120607, 120596, 2
120602, 120604, 1
120602, 120596, 2
120602, 120600, 2
120603, 120605, 3
120603, 120599, 2
120603, 120606, 1
120603, 120601, 2
120603, 120596, 2
120595, 120594, 2
120595, 120596, 1
120595, 120605, 2
120595, 120599, 2
120595, 120608, 2
120595, 120597, 2
120595, 120600, 2
120604, 120608, 2
120604, 120607, 1
120604, 120602, 2
120604, 120596, 2
120609, 120606, 2
120609, 120610, 1
120609, 120596, 2
120598, 120597, 2
120598, 120599, 1
120598, 120596, 2
120599, 120594, 2
120599, 120603, 1
120599, 120596, 2
120599, 120595, 2
120599, 120605, 2
120599, 120597, 2
120599, 120598, 2
120599, 120601, 0
120594, 120595, 1
120594, 120596, 2
120594, 120597, 2
120594, 120599, 2
120594, 120600, 2
120606, 120603, 2
120606, 120610, 2
120606, 120596, 2
120606, 120605, 2
120606, 120609, 1
120606, 120601, 2
120610, 120605, 2
120610, 120606, 2
120610, 120609, 2
120610, 120596, 2
120596, 120607, 2
120596, 120602, 2
120596, 120594, 2
120596, 120595, 2
120596, 120604, 2
120596, 120609, 2
120596, 120598, 2
120596, 120599, 2
120596, 120603, 2
120596, 120606, 2
120596, 120610, 2
120596, 120605, 2
120596, 120601, 2
120596, 120608, 2
120596, 120597, 6
120596, 120600, 4
120605, 120603, 2
120605, 120606, 2
120605, 120610, 2
120605, 120596, 2
120605, 120595, 2
120605, 120599, 2
120601, 120603, 2
120601, 120596, 2
120601, 120606, 2
120601, 120599, 2
120608, 120595, 2
120608, 120604, 2
120608, 120607, 2
120608, 120596, 2
120597, 120594, 2
120597, 120596, 2
120597, 120599, 2
120597, 120598, 1
120597, 120595, 2
120600, 120595, 2
120600, 120594, 2
120600, 120602, 1
120600, 120596, 2
