62494, 62496, 1
62494, 62495, 3
62494, 62493, 2
62500, 62498, 2
62500, 62499, 2
62491, 62490, 2
62491, 62495, 2
62491, 62492, 2
62499, 62500, 1
62499, 62498, 2
62498, 62500, 2
62498, 62497, 2
62498, 62499, 1
62489, 62490, 1
62497, 62496, 2
62497, 62498, 1
62493, 62494, 1
62493, 62496, 2
62493, 62495, 2
62493, 62492, 2
62490, 62489, 2
62490, 62491, 3
62490, 62492, 1
62495, 62494, 2
62495, 62496, 2
62495, 62491, 2
62495, 62492, 2
62495, 62493, 2
62496, 62494, 2
62496, 62497, 1
62496, 62495, 2
62496, 62493, 2
62492, 62490, 2
62492, 62491, 2
62492, 62495, 2
62492, 62493, 1
