171953, 171949, 2
171953, 171950, 2
171953, 171951, 2
171953, 171952, 2
171953, 171954, 2
171953, 171956, 2
171949, 171950, 1
171949, 171953, 2
171952, 171951, 2
171952, 171953, 8
171952, 171954, 1
171951, 171950, 2
171951, 171953, 2
171951, 171952, 1
171950, 171951, 1
171950, 171953, 2
171950, 171949, 2
171954, 171952, 2
171954, 171953, 2
171954, 171955, 1
171954, 171956, 2
171956, 171953, 2
171956, 171955, 2
171956, 171954, 2
171955, 171954, 2
171955, 171956, 1
