64026, 64022, 2
64026, 64025, 2
64026, 64029, 2
64026, 64023, 2
64026, 64021, 2
64026, 64028, 0
64026, 64030, 1
64026, 64027, 3
64026, 64024, 5
64027, 64030, 2
64027, 64026, 2
64027, 64028, 2
64027, 64032, 2
64027, 64029, 0
64030, 64026, 2
64030, 64031, 1
64030, 64033, 2
64030, 64028, 2
64030, 64032, 2
64030, 64027, 2
64030, 64029, 2
64021, 64019, 2
64021, 64022, 1
64021, 64026, 2
64021, 64020, 2
64021, 64023, 2
64021, 64025, 2
64033, 64032, 2
64033, 64034, 3
64033, 64031, 2
64033, 64030, 2
64032, 64033, 2
64032, 64030, 2
64032, 64027, 2
64032, 64031, 2
64025, 64022, 2
64025, 64026, 2
64025, 64021, 2
64025, 64023, 2
64025, 64024, 2
64024, 64022, 2
64024, 64026, 2
64024, 64023, 2
64024, 64025, 0
64019, 64021, 1
64019, 64020, 0
64022, 64026, 1
64022, 64021, 2
64022, 64023, 8
64022, 64025, 2
64022, 64024, 2
64020, 64019, 2
64020, 64021, 2
64031, 64033, 1
64031, 64030, 2
64031, 64032, 3
64023, 64022, 2
64023, 64026, 2
64023, 64021, 2
64023, 64025, 2
64023, 64024, 2
64034, 64033, 2
64028, 64026, 2
64028, 64030, 2
64028, 64027, 2
64028, 64029, 2
64029, 64026, 2
64029, 64028, 2
64029, 64030, 2
64029, 64027, 2
