216233, 216232, 2
216233, 216230, 2
216233, 216234, 3
216233, 216236, 2
216233, 216235, 1
216233, 216231, 2
216232, 216233, 2
216232, 216230, 2
216232, 216234, 2
216232, 216229, 2
216232, 216228, 2
216232, 216231, 2
216230, 216233, 2
216230, 216232, 2
216230, 216229, 2
216230, 216236, 2
216230, 216234, 2
216230, 216235, 2
216230, 216228, 2
216230, 216231, 2
216230, 216238, 2
216229, 216232, 2
216229, 216228, 2
216229, 216231, 2
216229, 216230, 2
216236, 216233, 2
216236, 216230, 2
216236, 216234, 2
216236, 216238, 2
216236, 216235, 2
216236, 216237, 1
216234, 216233, 2
216234, 216232, 2
216234, 216230, 2
216234, 216236, 2
216234, 216235, 2
216234, 216237, 2
216234, 216238, 2
216235, 216233, 2
216235, 216236, 1
216235, 216230, 2
216235, 216234, 2
216228, 216231, 1
216228, 216230, 2
216228, 216229, 8
216228, 216232, 2
216231, 216233, 1
216231, 216232, 3
216231, 216230, 6
216231, 216229, 2
216231, 216228, 2
216238, 216236, 2
216238, 216230, 2
216238, 216234, 2
216238, 216237, 2
216237, 216236, 2
216237, 216234, 2
216237, 216238, 1
