73006, 73008, 2
73006, 73007, 1
73006, 73005, 2
73006, 73002, 2
73006, 73003, 2
73006, 73001, 2
73006, 73004, 2
73007, 73006, 2
73007, 73008, 2
73007, 73005, 2
73007, 73003, 2
73007, 73002, 2
73005, 73006, 0
73005, 73007, 2
73005, 73002, 2
73005, 73003, 2
73005, 73001, 2
73005, 73008, 1
73005, 73004, 2
73002, 73006, 2
73002, 73007, 2
73002, 73005, 1
73002, 73003, 0
73002, 73001, 2
73002, 73004, 8
73003, 73006, 2
73003, 73007, 2
73003, 73005, 2
73003, 73002, 2
73003, 73001, 2
73003, 73004, 2
73001, 73006, 2
73001, 73003, 2
73001, 73005, 2
73001, 73002, 1
73001, 73004, 2
73008, 73006, 2
73008, 73007, 2
73008, 73005, 2
73008, 73004, 2
73004, 73006, 2
73004, 73008, 2
73004, 73005, 2
73004, 73002, 2
73004, 73003, 2
73004, 73001, 2
