161397, 161399, 1
161397, 161398, 8
161402, 161403, 1
161402, 161400, 2
161402, 161401, 2
161398, 161397, 2
161398, 161399, 2
161399, 161397, 2
161399, 161400, 1
161399, 161398, 2
161399, 161401, 2
161400, 161403, 2
161400, 161399, 2
161400, 161402, 1
161400, 161401, 8
161404, 161403, 2
161404, 161405, 1
161408, 161407, 2
161407, 161408, 1
161407, 161406, 2
161407, 161405, 2
161403, 161405, 2
161403, 161402, 2
161403, 161404, 1
161403, 161400, 2
161403, 161401, 2
161401, 161403, 2
161401, 161399, 2
161401, 161402, 2
161401, 161400, 2
161406, 161405, 2
161406, 161407, 1
161405, 161403, 2
161405, 161404, 2
161405, 161406, 1
161405, 161407, 2
