167987, 168019, 2
167987, 168003, 2
167987, 167989, 2
167987, 167988, 1
167987, 167991, 2
167987, 167994, 2
167987, 167992, 2
167987, 167985, 2
167987, 167986, 2
167997, 167998, 1
167997, 167993, 2
167997, 167991, 2
167997, 167994, 2
167997, 167995, 2
167997, 167996, 2
167997, 167992, 2
168024, 168025, 1
168024, 168023, 2
168004, 168003, 2
168004, 167988, 2
168004, 168005, 1
168019, 168017, 2
168019, 168009, 2
168019, 168008, 2
168019, 167988, 2
168019, 168016, 2
168019, 168013, 2
168019, 168022, 2
168019, 168021, 2
168019, 168011, 2
168019, 168023, 2
168019, 167987, 2
167992, 167998, 2
167992, 167993, 6
167992, 167987, 2
167992, 167988, 2
167992, 167991, 2
167992, 167994, 4
167992, 167995, 2
167992, 167997, 2
167992, 167996, 1
167996, 167998, 2
167996, 167993, 2
167996, 167997, 1
167996, 167994, 2
167996, 167995, 2
167996, 167991, 2
167996, 167992, 2
167983, 167984, 1
167983, 168003, 2
167983, 167989, 2
167983, 167994, 2
167983, 167990, 2
167983, 167985, 2
167983, 167986, 2
168020, 168023, 2
168020, 168016, 2
168020, 168018, 2
168020, 168021, 2
168020, 168022, 2
168020, 168017, 2
167991, 167998, 2
167991, 167987, 2
167991, 167988, 2
167991, 167997, 2
167991, 167994, 2
167991, 167990, 2
167991, 167992, 1
167991, 167993, 2
167991, 167985, 2
167991, 167995, 2
167991, 167986, 2
167991, 167996, 2
167991, 167989, 2
167994, 167998, 2
167994, 167996, 2
167994, 168003, 2
167994, 167987, 2
167994, 167988, 2
167994, 167991, 2
167994, 167990, 2
167994, 167997, 2
167994, 167992, 2
167994, 167985, 2
167994, 167989, 2
167994, 167983, 2
167994, 168005, 2
167994, 167986, 2
168023, 168020, 2
168023, 168016, 2
168023, 168019, 2
168023, 168021, 2
168023, 168022, 2
168023, 168017, 2
168023, 168024, 1
167993, 167986, 2
167993, 167991, 2
167993, 167995, 1
167993, 167997, 2
167993, 167996, 2
167993, 167992, 2
168015, 168014, 2
168015, 168013, 2
168015, 168009, 2
168015, 168016, 1
168012, 168018, 2
168012, 168013, 1
168012, 168011, 2
168012, 168016, 2
168026, 168025, 2
168026, 168027, 1
168022, 168018, 2
168022, 168023, 1
168022, 168020, 2
168022, 168016, 2
168022, 168019, 2
168022, 168021, 2
168022, 168017, 2
167985, 167984, 2
167985, 168003, 2
167985, 167987, 1
167985, 167991, 2
167985, 167994, 2
167985, 167989, 2
167985, 167983, 2
167985, 167986, 2
167986, 167989, 1
167986, 167984, 2
167986, 167993, 2
167986, 167987, 2
167986, 167988, 2
167986, 167991, 2
167986, 167994, 2
167986, 167990, 2
167986, 167985, 2
167986, 167983, 4
168007, 168009, 1
168007, 168008, 0
168007, 168006, 2
168007, 168010, 2
168007, 168011, 2
167999, 167998, 2
167999, 168003, 2
167999, 167988, 2
167999, 168000, 1
168013, 168019, 2
168013, 168014, 1
168013, 168015, 2
168013, 168016, 2
168013, 168018, 2
168013, 168012, 2
168013, 168009, 2
168014, 168009, 2
168014, 168013, 2
168014, 168015, 1
168027, 168026, 2
168001, 168002, 1
168001, 168000, 2
167984, 167986, 2
167984, 167985, 1
167984, 167983, 2
168016, 168009, 2
168016, 168020, 2
168016, 168018, 2
168016, 168022, 2
168016, 168013, 2
168016, 168023, 2
168016, 168015, 2
168016, 168019, 2
168016, 168012, 2
168016, 168002, 2
168016, 168021, 2
168016, 168017, 1
168003, 167998, 2
168003, 167987, 2
168003, 168005, 2
168003, 168004, 1
168003, 167988, 2
168003, 167994, 2
168003, 167999, 2
168003, 168002, 2
168003, 167983, 2
168003, 167985, 2
168003, 168000, 2
167995, 167998, 2
167995, 167993, 2
167995, 167991, 2
167995, 167997, 2
167995, 167996, 2
167995, 167992, 2
168021, 168018, 2
168021, 168023, 2
168021, 168020, 2
168021, 168016, 2
168021, 168019, 2
168021, 168022, 1
168021, 168017, 2
168011, 168009, 2
168011, 168008, 2
168011, 168007, 2
168011, 168019, 2
168011, 168012, 1
168011, 168002, 2
168011, 168010, 2
168005, 167994, 2
168005, 167988, 2
168005, 168003, 2
168005, 168006, 1
168005, 168004, 2
167989, 167987, 2
167989, 167988, 2
167989, 167991, 2
167989, 167994, 2
167989, 167990, 0
167989, 167986, 2
167989, 167985, 2
167989, 167983, 2
167998, 168003, 2
167998, 167988, 2
167998, 167991, 2
167998, 167994, 2
167998, 167999, 1
167998, 167995, 2
167998, 167997, 2
167998, 167996, 2
167998, 167992, 2
168009, 168014, 2
168009, 168008, 2
168009, 168007, 2
168009, 167988, 2
168009, 168019, 2
168009, 168016, 2
168009, 168013, 2
168009, 168011, 2
168009, 168010, 0
168009, 168015, 2
168008, 168019, 2
168008, 168009, 2
168008, 168007, 2
168008, 168010, 2
168008, 168011, 2
167988, 167998, 2
167988, 167986, 2
167988, 168009, 2
167988, 168003, 2
167988, 167987, 2
167988, 167991, 2
167988, 167994, 2
167988, 167999, 2
167988, 167992, 2
167988, 168004, 2
167988, 167990, 2
167988, 168019, 2
167988, 168002, 2
167988, 168000, 2
167988, 168005, 2
167988, 167989, 2
168018, 168021, 2
168018, 168020, 1
168018, 168016, 2
168018, 168012, 2
168018, 168002, 2
168018, 168013, 2
168018, 168017, 2
168018, 168022, 2
167990, 167989, 2
167990, 167988, 2
167990, 167991, 1
167990, 167994, 2
167990, 167983, 2
167990, 167986, 2
168006, 168007, 1
168006, 168005, 2
168000, 167999, 2
168000, 168003, 2
168000, 167988, 2
168000, 168001, 1
168010, 168009, 2
168010, 168008, 2
168010, 168011, 1
168010, 168007, 2
168002, 168001, 2
168002, 168003, 2
168002, 167988, 2
168002, 168016, 2
168002, 168018, 2
168002, 168011, 2
168025, 168026, 1
168025, 168024, 2
168017, 168018, 6
168017, 168020, 2
168017, 168016, 2
168017, 168019, 4
168017, 168022, 2
168017, 168021, 1
168017, 168023, 2
