66530, 66532, 2
66530, 66528, 2
66530, 66529, 2
66530, 66531, 1
66530, 66525, 2
66535, 66538, 2
66535, 66536, 3
66535, 66537, 1
66535, 66534, 2
66542, 66540, 2
66542, 66541, 2
66542, 66544, 1
66542, 66543, 3
66531, 66530, 2
66531, 66532, 3
66531, 66533, 1
66531, 66534, 2
66548, 66549, 1
66548, 66547, 2
66541, 66542, 1
66541, 66540, 2
66545, 66546, 3
66545, 66544, 2
66545, 66543, 2
66545, 66547, 1
66543, 66546, 2
66543, 66545, 2
66543, 66542, 2
66543, 66540, 2
66543, 66544, 2
66525, 66530, 2
66525, 66528, 2
66525, 66527, 1
66525, 66526, 3
66532, 66530, 2
66532, 66531, 2
66532, 66533, 2
66532, 66534, 2
66534, 66535, 1
66534, 66532, 2
66534, 66531, 2
66534, 66533, 2
66534, 66536, 2
66549, 66548, 2
66549, 66547, 2
66538, 66535, 2
66538, 66539, 1
66538, 66536, 2
66538, 66537, 2
66544, 66542, 2
66544, 66545, 1
66544, 66543, 2
66546, 66545, 2
66546, 66547, 2
66546, 66543, 2
66539, 66538, 2
66539, 66536, 2
66539, 66540, 1
66537, 66535, 2
66537, 66538, 1
66537, 66536, 2
66528, 66530, 1
66528, 66527, 2
66528, 66525, 2
66528, 66529, 3
66528, 66526, 2
66529, 66530, 2
66529, 66528, 2
66536, 66535, 2
66536, 66538, 2
66536, 66539, 2
66536, 66537, 2
66536, 66534, 2
66527, 66528, 1
66527, 66525, 2
66527, 66526, 2
66526, 66528, 2
66526, 66527, 2
66526, 66525, 2
66547, 66549, 2
66547, 66546, 2
66547, 66545, 2
66547, 66548, 1
66540, 66542, 2
66540, 66541, 1
66540, 66539, 2
66540, 66543, 2
66533, 66532, 2
66533, 66531, 2
66533, 66534, 1
