300574, 300576, 2
300574, 300572, 2
300574, 300575, 1
300574, 300571, 2
300574, 300573, 2
300573, 300572, 2
300573, 300575, 2
300573, 300571, 2
300573, 300574, 2
300576, 300572, 2
300576, 300575, 2
300576, 300571, 2
300576, 300574, 2
300572, 300576, 2
300572, 300575, 2
300572, 300571, 2
300572, 300574, 2
300572, 300573, 2
300575, 300576, 3
300575, 300572, 2
300575, 300571, 2
300575, 300574, 2
300575, 300573, 2
300571, 300572, 3
300571, 300575, 2
300571, 300576, 2
300571, 300574, 1
300571, 300573, 0
