296151, 296152, 1
296151, 296149, 2
296151, 296154, 2
296151, 296150, 2
296162, 296164, 1
296162, 296160, 2
296162, 296159, 2
296162, 296161, 2
296162, 296163, 3
296149, 296151, 0
296149, 296154, 1
296149, 296150, 3
296154, 296151, 2
296154, 296153, 2
296154, 296156, 2
296154, 296155, 1
296154, 296149, 2
296154, 296150, 2
296161, 296160, 2
296161, 296162, 2
296155, 296157, 0
296155, 296160, 1
296155, 296154, 2
296155, 296156, 3
296159, 296164, 2
296159, 296160, 2
296159, 296162, 2
296159, 296158, 2
296159, 296156, 2
296153, 296157, 2
296153, 296152, 2
296153, 296154, 2
296153, 296150, 2
296164, 296159, 2
296164, 296162, 2
296164, 296163, 2
296158, 296157, 2
296158, 296159, 1
296158, 296156, 2
296156, 296158, 2
296156, 296159, 2
296156, 296157, 2
296156, 296160, 2
296156, 296155, 2
296156, 296154, 2
296160, 296162, 1
296160, 296161, 8
296160, 296156, 2
296160, 296155, 2
296160, 296157, 2
296160, 296159, 2
296157, 296160, 2
296157, 296153, 2
296157, 296158, 1
296157, 296156, 2
296157, 296155, 2
296163, 296164, 2
296163, 296162, 2
296152, 296151, 2
296152, 296153, 1
296152, 296150, 2
296150, 296151, 2
296150, 296152, 2
296150, 296149, 2
296150, 296153, 2
296150, 296154, 2
