163883, 163895, 1
163883, 163892, 2
163883, 163885, 6
163883, 163886, 2
163883, 163880, 2
163883, 163887, 2
163883, 163888, 2
163883, 163882, 2
163883, 163877, 2
163883, 163893, 2
163883, 163889, 2
163883, 163890, 2
163883, 163891, 2
163883, 163894, 2
163883, 163884, 4
163876, 163874, 2
163876, 163875, 2
163876, 163877, 2
163878, 163877, 2
163878, 163885, 2
163878, 163882, 1
163878, 163879, 3
163878, 163881, 2
163880, 163883, 2
163880, 163879, 2
163880, 163884, 2
163880, 163881, 6
163880, 163877, 2
163880, 163882, 2
163874, 163875, 1
163874, 163873, 2
163874, 163872, 2
163874, 163876, 2
163888, 163883, 2
163888, 163886, 2
163888, 163889, 2
163888, 163877, 2
163888, 163891, 2
163888, 163894, 2
163888, 163884, 2
163882, 163895, 2
163882, 163883, 1
163882, 163885, 2
163882, 163878, 2
163882, 163880, 2
163882, 163877, 2
163882, 163893, 2
163882, 163884, 2
163882, 163889, 2
163882, 163890, 2
163882, 163881, 2
163882, 163879, 2
163887, 163890, 2
163887, 163883, 2
163887, 163885, 2
163890, 163895, 2
163890, 163883, 2
163890, 163885, 2
163890, 163887, 2
163890, 163882, 2
163890, 163893, 3
163885, 163895, 2
163885, 163883, 2
163885, 163878, 2
163885, 163887, 0
163885, 163890, 1
163885, 163881, 2
163885, 163877, 2
163885, 163882, 2
163891, 163895, 2
163891, 163883, 2
163891, 163892, 6
163891, 163889, 2
163891, 163888, 2
163891, 163894, 3
163879, 163878, 2
163879, 163880, 1
163879, 163882, 2
163879, 163877, 2
163879, 163881, 2
163895, 163883, 2
163895, 163892, 2
163895, 163885, 2
163895, 163897, 2
163895, 163882, 2
163895, 163877, 2
163895, 163893, 2
163895, 163889, 2
163895, 163890, 2
163895, 163896, 1
163895, 163891, 2
163895, 163894, 2
163895, 163884, 2
163894, 163895, 2
163894, 163883, 2
163894, 163892, 2
163894, 163888, 2
163894, 163889, 2
163894, 163891, 2
163894, 163897, 2
163892, 163895, 2
163892, 163883, 2
163892, 163891, 2
163892, 163894, 2
163892, 163889, 2
163872, 163873, 0
163872, 163874, 2
163872, 163875, 2
163872, 163877, 1
163886, 163883, 2
163886, 163888, 3
163886, 163884, 2
163886, 163889, 1
163875, 163874, 2
163875, 163876, 6
163875, 163877, 2
163875, 163872, 2
163873, 163874, 1
163873, 163877, 2
163873, 163872, 2
163877, 163895, 2
163877, 163883, 2
163877, 163872, 2
163877, 163876, 2
163877, 163878, 1
163877, 163873, 2
163877, 163888, 2
163877, 163882, 2
163877, 163880, 2
163877, 163884, 2
163877, 163885, 2
163877, 163875, 2
163877, 163881, 2
163877, 163879, 2
163893, 163890, 2
163893, 163883, 2
163893, 163895, 2
163893, 163882, 2
163889, 163895, 2
163889, 163883, 2
163889, 163892, 2
163889, 163886, 2
163889, 163891, 1
163889, 163888, 2
163889, 163882, 2
163889, 163884, 2
163889, 163894, 2
163896, 163895, 2
163896, 163897, 1
163897, 163895, 2
163897, 163896, 2
163897, 163894, 2
163881, 163879, 2
163881, 163885, 2
163881, 163878, 2
163881, 163880, 2
163881, 163884, 2
163881, 163882, 2
163881, 163877, 2
163884, 163895, 2
163884, 163883, 2
163884, 163886, 1
163884, 163889, 2
163884, 163880, 2
163884, 163888, 2
163884, 163882, 2
163884, 163877, 2
163884, 163881, 2
