132255, 132254, 2
132255, 132257, 1
132255, 132256, 3
132254, 132257, 2
132254, 132256, 2
132254, 132255, 1
132300, 132296, 2
132300, 132305, 2
132300, 132301, 1
132300, 132302, 2
132300, 132299, 2
132273, 132277, 2
132273, 132292, 2
132273, 132294, 2
132273, 132279, 2
132273, 132271, 2
132273, 132289, 2
132273, 132274, 2
132273, 132286, 2
132273, 132275, 2
132273, 132302, 2
132273, 132272, 2
132273, 132276, 2
132273, 132306, 2
132273, 132288, 2
132273, 132278, 2
132273, 132285, 2
132287, 132288, 1
132287, 132290, 2
132287, 132286, 2
132292, 132273, 2
132292, 132293, 1
132292, 132295, 2
132292, 132272, 2
132292, 132290, 2
132292, 132289, 2
132292, 132291, 2
132274, 132271, 2
132274, 132275, 1
132274, 132273, 2
132274, 132272, 2
132263, 132267, 2
132263, 132268, 2
132263, 132264, 1
132263, 132261, 2
132263, 132258, 2
132263, 132269, 2
132263, 132257, 2
132263, 132260, 2
132263, 132262, 2
132263, 132259, 2
132275, 132277, 2
132275, 132282, 2
132275, 132274, 2
132275, 132276, 1
132275, 132273, 2
132275, 132278, 2
132275, 132272, 2
132259, 132263, 2
132259, 132262, 2
132259, 132261, 2
132259, 132257, 2
132259, 132260, 2
132259, 132258, 2
132265, 132269, 2
132265, 132266, 1
132265, 132268, 2
132265, 132264, 2
132265, 132267, 2
132269, 132263, 2
132269, 132271, 2
132269, 132268, 2
132269, 132265, 2
132269, 132267, 2
132269, 132266, 2
132269, 132270, 1
132281, 132282, 1
132281, 132279, 2
132281, 132280, 2
132281, 132271, 2
132278, 132277, 2
132278, 132279, 1
132278, 132272, 2
132278, 132275, 2
132278, 132276, 2
132278, 132273, 2
132278, 132271, 2
132307, 132306, 2
132307, 132308, 1
132262, 132263, 2
132262, 132257, 2
132262, 132259, 2
132262, 132258, 2
132262, 132260, 2
132305, 132306, 2
132305, 132301, 2
132305, 132302, 2
132305, 132300, 2
132305, 132304, 2
132305, 132303, 2
132297, 132296, 2
132297, 132294, 2
132297, 132295, 2
132297, 132298, 1
132271, 132277, 2
132271, 132282, 2
132271, 132290, 2
132271, 132273, 2
132271, 132274, 1
132271, 132281, 2
132271, 132267, 2
132271, 132268, 2
132271, 132272, 3
132271, 132269, 2
132271, 132270, 2
132271, 132278, 2
132257, 132263, 2
132257, 132262, 2
132257, 132256, 2
132257, 132261, 2
132257, 132255, 2
132257, 132254, 2
132257, 132259, 0
132257, 132260, 1
132257, 132258, 3
132289, 132292, 2
132289, 132272, 2
132289, 132291, 1
132289, 132290, 0
132289, 132273, 2
132289, 132288, 2
132284, 132290, 2
132284, 132280, 2
132284, 132286, 2
132284, 132285, 2
132284, 132283, 2
132282, 132275, 2
132282, 132285, 2
132282, 132271, 2
132282, 132290, 2
132282, 132280, 2
132282, 132281, 2
132282, 132283, 1
132298, 132296, 2
132298, 132295, 2
132298, 132302, 2
132298, 132297, 2
132298, 132299, 1
132272, 132292, 2
132272, 132273, 3
132272, 132294, 2
132272, 132279, 2
132272, 132271, 2
132272, 132289, 2
132272, 132274, 2
132272, 132275, 2
132272, 132302, 2
132272, 132278, 2
132272, 132276, 2
132272, 132306, 2
132272, 132288, 2
132272, 132286, 2
132272, 132285, 2
132299, 132296, 2
132299, 132300, 1
132299, 132298, 2
132299, 132302, 2
132302, 132296, 2
132302, 132295, 2
132302, 132298, 2
132302, 132272, 2
132302, 132299, 2
132302, 132300, 2
132302, 132294, 2
132302, 132301, 2
132302, 132305, 2
132302, 132303, 1
132302, 132273, 2
132288, 132289, 1
132288, 132290, 2
132288, 132273, 2
132288, 132287, 2
132288, 132272, 2
132258, 132263, 2
132258, 132262, 2
132258, 132261, 2
132258, 132259, 2
132258, 132260, 2
132258, 132257, 2
132285, 132284, 2
132285, 132279, 2
132285, 132280, 2
132285, 132272, 2
132285, 132282, 2
132285, 132286, 1
132285, 132273, 2
132285, 132283, 2
132277, 132276, 2
132277, 132275, 2
132277, 132273, 2
132277, 132278, 1
132277, 132271, 2
132293, 132292, 2
132293, 132295, 2
132293, 132294, 1
132293, 132290, 2
132264, 132263, 2
132264, 132268, 2
132264, 132265, 1
132294, 132296, 1
132294, 132293, 2
132294, 132295, 0
132294, 132302, 2
132294, 132297, 2
132294, 132290, 2
132294, 132273, 2
132294, 132272, 2
132291, 132292, 1
132291, 132289, 2
132291, 132290, 2
132270, 132269, 2
132270, 132271, 1
132270, 132268, 2
132301, 132296, 2
132301, 132302, 2
132301, 132306, 2
132301, 132300, 2
132301, 132304, 2
132301, 132305, 2
132301, 132303, 2
132279, 132280, 1
132279, 132285, 2
132279, 132283, 2
132279, 132273, 2
132279, 132281, 2
132279, 132278, 2
132279, 132272, 2
132268, 132263, 2
132268, 132271, 2
132268, 132264, 2
132268, 132265, 2
132268, 132267, 2
132268, 132266, 2
132268, 132269, 2
132268, 132270, 2
132256, 132254, 2
132256, 132257, 2
132256, 132255, 2
132306, 132307, 1
132306, 132296, 2
132306, 132273, 2
132306, 132272, 2
132306, 132304, 2
132306, 132305, 2
132306, 132303, 2
132306, 132301, 2
132276, 132277, 1
132276, 132275, 2
132276, 132273, 2
132276, 132272, 2
132276, 132278, 2
132260, 132263, 1
132260, 132262, 6
132260, 132261, 4
132260, 132259, 2
132260, 132258, 2
132260, 132257, 2
132303, 132306, 2
132303, 132304, 1
132303, 132301, 2
132303, 132302, 2
132303, 132305, 2
132261, 132263, 2
132261, 132257, 2
132261, 132260, 2
132261, 132259, 2
132261, 132258, 2
132266, 132269, 1
132266, 132267, 3
132266, 132268, 0
132266, 132265, 2
132290, 132291, 2
132290, 132289, 2
132290, 132294, 2
132290, 132271, 2
132290, 132280, 2
132290, 132287, 2
132290, 132292, 2
132290, 132284, 2
132290, 132282, 2
132290, 132295, 2
132290, 132293, 2
132290, 132286, 2
132290, 132288, 2
132290, 132283, 2
132280, 132284, 2
132280, 132279, 2
132280, 132286, 2
132280, 132285, 1
132280, 132282, 2
132280, 132290, 2
132280, 132281, 0
132280, 132283, 2
132296, 132302, 1
132296, 132295, 2
132296, 132294, 2
132296, 132297, 0
132296, 132299, 2
132296, 132300, 2
132296, 132298, 2
132296, 132301, 2
132296, 132306, 2
132295, 132296, 2
132295, 132293, 2
132295, 132302, 2
132295, 132297, 2
132295, 132298, 2
132295, 132290, 2
132295, 132292, 2
132295, 132294, 2
132286, 132284, 2
132286, 132280, 2
132286, 132272, 2
132286, 132290, 2
132286, 132273, 2
132286, 132287, 1
132286, 132285, 2
132267, 132263, 2
132267, 132271, 2
132267, 132268, 2
132267, 132265, 2
132267, 132269, 2
132267, 132266, 2
132308, 132307, 2
132304, 132303, 2
132304, 132301, 2
132304, 132305, 0
132304, 132306, 1
132283, 132284, 1
132283, 132279, 2
132283, 132285, 2
132283, 132282, 2
132283, 132290, 2
132283, 132280, 2
