62748, 62749, 1
62748, 62750, 2
62748, 62747, 2
62748, 62746, 2
62748, 62751, 2
62745, 62743, 2
62745, 62742, 2
62745, 62747, 2
62745, 62746, 1
62745, 62744, 2
62750, 62749, 2
62750, 62748, 2
62750, 62751, 2
62746, 62748, 2
62746, 62745, 2
62746, 62747, 1
62749, 62748, 2
62749, 62750, 0
62749, 62751, 1
62743, 62745, 1
62743, 62742, 2
62743, 62744, 0
62751, 62749, 2
62751, 62750, 2
62751, 62748, 2
62742, 62743, 1
62742, 62745, 2
62742, 62741, 2
62742, 62744, 2
62747, 62748, 1
62747, 62745, 2
62747, 62746, 2
62741, 62742, 1
62744, 62743, 2
62744, 62745, 2
62744, 62742, 2
