219395, 219397, 2
219395, 219396, 1
219395, 219394, 2
219395, 219392, 2
219395, 219400, 2
219395, 219393, 2
219395, 219399, 2
219405, 219407, 2
219405, 219402, 2
219405, 219409, 2
219405, 219404, 2
219405, 219406, 1
219405, 219403, 2
219410, 219409, 2
219410, 219408, 2
219410, 219411, 1
219409, 219404, 2
219409, 219411, 2
219409, 219408, 2
219409, 219410, 2
219409, 219405, 2
219406, 219407, 1
219406, 219405, 2
219411, 219408, 2
219411, 219409, 2
219411, 219413, 2
219411, 219410, 2
219411, 219412, 1
219407, 219406, 2
219407, 219408, 1
219407, 219405, 2
219413, 219414, 1
219413, 219417, 2
219413, 219415, 2
219413, 219412, 2
219413, 219411, 2
219397, 219395, 2
219397, 219396, 2
219397, 219394, 2
219397, 219400, 2
219397, 219398, 1
219397, 219399, 2
219397, 219393, 2
219417, 219416, 2
219417, 219413, 2
219398, 219397, 2
219398, 219400, 3
219398, 219401, 1
219398, 219399, 6
219398, 219402, 2
219416, 219417, 3
219416, 219415, 2
219412, 219413, 1
219412, 219411, 2
219408, 219409, 3
219408, 219407, 2
219408, 219411, 2
219408, 219410, 1
219404, 219409, 2
219404, 219403, 2
219404, 219405, 2
219401, 219400, 2
219401, 219398, 2
219401, 219402, 1
219401, 219399, 2
219399, 219395, 2
219399, 219396, 2
219399, 219398, 2
219399, 219397, 2
219399, 219400, 2
219399, 219393, 2
219399, 219401, 2
219399, 219402, 2
219399, 219392, 2
219414, 219415, 1
219414, 219413, 2
219396, 219397, 1
219396, 219395, 2
219396, 219393, 2
219396, 219399, 2
219394, 219397, 2
219394, 219395, 2
219394, 219393, 2
219394, 219392, 2
219394, 219400, 2
219392, 219395, 1
219392, 219393, 6
219392, 219399, 2
219392, 219394, 3
219400, 219395, 2
219400, 219394, 2
219400, 219397, 2
219400, 219402, 2
219400, 219398, 2
219400, 219401, 2
219400, 219399, 2
219393, 219395, 2
219393, 219396, 2
219393, 219394, 2
219393, 219397, 2
219393, 219402, 2
219393, 219399, 2
219393, 219392, 2
219415, 219414, 2
219415, 219416, 1
219415, 219413, 2
219402, 219400, 2
219402, 219393, 2
219402, 219401, 2
219402, 219399, 2
219402, 219398, 2
219402, 219403, 1
219402, 219405, 2
219403, 219405, 1
219403, 219402, 2
219403, 219404, 3
