21774, 21775, 2
21774, 21772, 2
21774, 21773, 2
21770, 21771, 1
21770, 21772, 2
21773, 21775, 2
21773, 21772, 2
21773, 21774, 2
21775, 21777, 1
21775, 21774, 2
21775, 21772, 2
21775, 21773, 2
21775, 21776, 8
21777, 21775, 2
21777, 21776, 2
21771, 21772, 1
21771, 21770, 2
21772, 21775, 1
21772, 21771, 2
21772, 21770, 2
21772, 21773, 3
21772, 21774, 8
21776, 21777, 2
21776, 21775, 2
