222514, 222515, 1
222514, 222513, 2
222514, 222511, 2
222515, 222514, 2
222515, 222516, 1
222515, 222510, 2
222515, 222511, 2
222510, 222516, 2
222510, 222515, 2
222510, 222513, 2
222510, 222511, 3
222510, 222512, 1
222518, 222516, 2
222518, 222517, 2
222511, 222514, 2
222511, 222513, 2
222511, 222510, 2
222511, 222515, 2
222511, 222512, 2
222516, 222515, 2
222516, 222510, 2
222516, 222517, 1
222516, 222518, 2
222513, 222514, 1
222513, 222510, 2
222513, 222511, 2
222513, 222512, 2
222517, 222516, 2
222517, 222518, 1
222512, 222513, 1
222512, 222510, 2
222512, 222511, 2
