252687, 252683, 2
252687, 252686, 2
252687, 252685, 2
252687, 252689, 2
252687, 252688, 2
252687, 252684, 2
252686, 252687, 1
252686, 252685, 2
252685, 252687, 2
252685, 252686, 1
252685, 252684, 2
252675, 252676, 3
252675, 252677, 1
252689, 252687, 2
252689, 252688, 2
252689, 252680, 2
252679, 252682, 2
252679, 252678, 2
252679, 252676, 2
252679, 252680, 2
252679, 252677, 2
252679, 252681, 2
252679, 252684, 2
252684, 252687, 2
252684, 252682, 2
252684, 252683, 2
252684, 252680, 2
252684, 252685, 1
252684, 252679, 2
252684, 252681, 2
252682, 252683, 1
252682, 252678, 2
252682, 252680, 2
252682, 252679, 2
252682, 252681, 2
252682, 252684, 2
252683, 252687, 2
252683, 252682, 2
252683, 252688, 1
252683, 252680, 2
252683, 252681, 2
252683, 252684, 3
252678, 252682, 2
252678, 252679, 3
252678, 252677, 2
252678, 252680, 1
252678, 252676, 2
252676, 252675, 2
252676, 252678, 2
252676, 252677, 2
252676, 252679, 2
252680, 252682, 1
252680, 252683, 2
252680, 252678, 2
252680, 252689, 2
252680, 252679, 2
252680, 252681, 8
252680, 252684, 2
252688, 252687, 2
252688, 252683, 2
252688, 252689, 1
252677, 252675, 2
252677, 252678, 1
252677, 252676, 2
252677, 252679, 2
252681, 252682, 2
252681, 252683, 2
252681, 252679, 2
252681, 252680, 2
252681, 252684, 2
