16442, 16436, 2
16442, 16440, 2
16442, 16441, 2
16442, 16439, 2
16442, 16443, 2
16444, 16445, 1
16444, 16443, 2
16437, 16438, 2
16437, 16439, 2
16437, 16436, 2
16435, 16434, 2
16435, 16436, 1
16441, 16442, 1
16441, 16440, 2
16441, 16439, 2
16441, 16443, 2
16439, 16442, 2
16439, 16440, 3
16439, 16437, 2
16439, 16438, 2
16439, 16443, 1
16439, 16441, 0
16439, 16436, 2
16434, 16435, 1
16440, 16442, 2
16440, 16441, 2
16440, 16439, 2
16440, 16443, 2
16438, 16437, 2
16438, 16439, 1
16438, 16436, 2
16443, 16442, 2
16443, 16444, 1
16443, 16441, 2
16443, 16440, 2
16443, 16439, 2
16445, 16444, 2
16436, 16442, 2
16436, 16438, 1
16436, 16437, 3
16436, 16439, 2
16436, 16435, 2
