297123, 297129, 2
297123, 297124, 6
297123, 297120, 2
297123, 297121, 2
297123, 297125, 1
297123, 297122, 2
297128, 297130, 1
297128, 297125, 2
297128, 297131, 2
297128, 297127, 2
297128, 297129, 2
297124, 297123, 2
297124, 297129, 2
297124, 297125, 2
297124, 297120, 2
297124, 297121, 2
297124, 297127, 2
297124, 297126, 2
297124, 297118, 2
297124, 297134, 2
297124, 297119, 2
297124, 297122, 2
297132, 297130, 2
297132, 297134, 1
297132, 297129, 2
297132, 297133, 6
297132, 297131, 2
297120, 297123, 2
297120, 297129, 2
297120, 297124, 2
297120, 297122, 2
297120, 297121, 2
297120, 297127, 2
297120, 297118, 2
297120, 297119, 2
297131, 297128, 2
297131, 297130, 2
297131, 297133, 2
297131, 297132, 2
297131, 297129, 2
297117, 297115, 2
297117, 297116, 2
297117, 297118, 1
297126, 297124, 2
297126, 297127, 1
297126, 297125, 2
297118, 297115, 2
297118, 297129, 2
297118, 297124, 2
297118, 297116, 2
297118, 297120, 2
297118, 297117, 2
297118, 297119, 1
297125, 297123, 2
297125, 297129, 2
297125, 297124, 2
297125, 297128, 2
297125, 297121, 2
297125, 297126, 1
297125, 297127, 2
297125, 297122, 2
297119, 297124, 2
297119, 297116, 2
297119, 297120, 2
297119, 297121, 1
297119, 297118, 2
297119, 297122, 2
297115, 297117, 1
297115, 297116, 3
297115, 297118, 2
297129, 297123, 2
297129, 297124, 2
297129, 297132, 2
297129, 297120, 2
297129, 297130, 2
297129, 297118, 2
297129, 297125, 2
297129, 297133, 2
297129, 297128, 2
297129, 297131, 2
297129, 297134, 2
297129, 297127, 2
297116, 297115, 2
297116, 297117, 2
297116, 297118, 2
297116, 297119, 2
297133, 297130, 2
297133, 297134, 2
297133, 297129, 2
297133, 297132, 2
297133, 297131, 2
297121, 297123, 1
297121, 297125, 2
297121, 297122, 8
297121, 297120, 6
297121, 297124, 2
297121, 297119, 2
297130, 297128, 2
297130, 297129, 6
297130, 297132, 1
297130, 297131, 8
297130, 297134, 2
297130, 297133, 2
297134, 297129, 2
297134, 297124, 2
297134, 297133, 2
297134, 297132, 2
297134, 297130, 2
297127, 297128, 1
297127, 297129, 2
297127, 297124, 2
297127, 297120, 2
297127, 297126, 2
297127, 297125, 2
297122, 297123, 2
297122, 297125, 2
297122, 297121, 2
297122, 297120, 2
297122, 297124, 2
297122, 297119, 2
