171834, 171835, 2
171834, 171837, 2
171834, 171836, 2
171834, 171833, 2
171838, 171839, 1
171838, 171837, 6
171838, 171836, 2
171836, 171834, 2
171836, 171838, 1
171836, 171835, 2
171836, 171837, 2
171832, 171833, 1
171839, 171837, 2
171839, 171838, 2
171839, 171840, 0
171840, 171839, 2
171840, 171837, 2
171837, 171834, 2
171837, 171836, 2
171837, 171839, 2
171837, 171838, 2
171837, 171835, 2
171837, 171840, 2
171835, 171834, 2
171835, 171837, 2
171835, 171836, 1
171835, 171833, 2
171833, 171834, 0
171833, 171835, 1
171833, 171832, 2
