334410, 334409, 2
334410, 334411, 1
334410, 334412, 2
334416, 334415, 2
334416, 334414, 2
334416, 334417, 1
334411, 334410, 2
334411, 334413, 1
334411, 334412, 8
334421, 334422, 1
334421, 334420, 2
334421, 334419, 2
334415, 334416, 1
334415, 334414, 2
334420, 334421, 1
334420, 334419, 2
334417, 334416, 2
334417, 334418, 1
334418, 334417, 2
334418, 334419, 1
334409, 334410, 1
334419, 334422, 2
334419, 334421, 2
334419, 334420, 0
334419, 334418, 2
334422, 334421, 2
334422, 334419, 2
334413, 334411, 2
334413, 334414, 1
334413, 334412, 2
334414, 334416, 2
334414, 334413, 2
334414, 334415, 1
334414, 334412, 2
334412, 334410, 2
334412, 334411, 2
334412, 334414, 2
334412, 334413, 2
