335512, 335511, 2
335512, 335513, 1
335520, 335519, 2
335520, 335521, 1
335517, 335519, 2
335517, 335516, 2
335517, 335518, 1
335524, 335522, 2
335524, 335525, 1
335524, 335527, 2
335524, 335521, 2
335524, 335526, 2
335524, 335523, 2
335524, 335528, 2
335518, 335519, 1
335518, 335517, 2
335518, 335516, 2
335525, 335526, 1
335525, 335524, 2
335523, 335522, 2
335523, 335521, 2
335523, 335524, 2
335513, 335512, 2
335513, 335514, 1
335522, 335521, 2
335522, 335523, 0
335522, 335524, 1
335514, 335516, 2
335514, 335513, 2
335514, 335515, 1
335527, 335526, 2
335527, 335524, 2
335527, 335528, 2
335519, 335520, 1
335519, 335517, 2
335519, 335518, 2
335521, 335522, 1
335521, 335520, 2
335521, 335523, 2
335521, 335524, 2
335526, 335528, 1
335526, 335525, 2
335526, 335524, 2
335526, 335527, 0
335528, 335526, 2
335528, 335524, 2
335528, 335527, 2
335516, 335514, 2
335516, 335517, 1
335516, 335515, 2
335516, 335518, 2
335515, 335514, 2
335515, 335516, 1
335511, 335512, 1
