16047, 16048, 3
16047, 16050, 2
16047, 16049, 1
16055, 16056, 1
16055, 16054, 2
16050, 16047, 2
16050, 16049, 2
16050, 16051, 0
16050, 16048, 2
16050, 16053, 1
16050, 16052, 2
16049, 16047, 2
16049, 16048, 2
16049, 16050, 1
16056, 16055, 2
16056, 16057, 1
16057, 16056, 2
16048, 16047, 2
16048, 16050, 2
16048, 16049, 2
16048, 16053, 2
16051, 16050, 2
16051, 16053, 2
16051, 16052, 1
16054, 16055, 1
16054, 16053, 2
16053, 16048, 2
16053, 16050, 2
16053, 16054, 1
16053, 16052, 2
16053, 16051, 2
16052, 16050, 2
16052, 16053, 2
16052, 16051, 2
