21702, 21699, 2
21702, 21701, 2
21702, 21703, 2
21698, 21699, 3
21698, 21700, 1
21703, 21702, 2
21703, 21701, 2
21703, 21704, 1
21699, 21702, 2
21699, 21698, 2
21699, 21701, 2
21699, 21700, 2
21705, 21704, 2
21701, 21702, 3
21701, 21699, 2
21701, 21703, 1
21701, 21700, 2
21700, 21699, 2
21700, 21698, 2
21700, 21701, 1
21704, 21705, 0
21704, 21703, 2
