21907, 21906, 2
21907, 21908, 2
21907, 21909, 2
21907, 21910, 2
21906, 21907, 3
21906, 21908, 0
21906, 21909, 1
21906, 21910, 2
21909, 21907, 2
21909, 21906, 2
21909, 21908, 2
21909, 21910, 1
21908, 21907, 2
21908, 21906, 2
21908, 21909, 2
21908, 21912, 2
21908, 21911, 2
21908, 21910, 2
21911, 21908, 2
21911, 21912, 1
21911, 21910, 2
21912, 21908, 2
21912, 21911, 2
21912, 21910, 2
21910, 21907, 2
21910, 21906, 2
21910, 21909, 2
21910, 21908, 2
21910, 21911, 0
21910, 21912, 2
