73128, 73130, 1
73128, 73127, 2
73128, 73129, 8
73128, 73131, 2
73129, 73127, 2
73129, 73128, 2
73129, 73130, 2
73129, 73131, 2
73131, 73128, 2
73131, 73129, 2
73131, 73132, 1
73131, 73133, 2
73131, 73134, 2
73131, 73130, 2
73132, 73133, 1
73132, 73131, 2
73133, 73134, 3
73133, 73131, 2
73133, 73132, 2
73127, 73130, 2
73127, 73128, 1
73127, 73129, 2
73130, 73127, 2
73130, 73128, 2
73130, 73129, 2
73130, 73131, 1
73134, 73133, 2
73134, 73131, 2
