71373, 71372, 2
71373, 71371, 2
71373, 71374, 3
71373, 71370, 2
71372, 71373, 1
71372, 71371, 2
71372, 71374, 2
71372, 71370, 2
71371, 71373, 2
71371, 71372, 2
71371, 71374, 2
71371, 71370, 2
71374, 71373, 2
71374, 71372, 2
71374, 71371, 2
71370, 71373, 2
71370, 71372, 1
71370, 71371, 3
