62000, 61999, 2
62000, 62001, 8
62000, 62002, 1
61996, 61997, 0
61996, 61998, 1
62003, 62004, 1
62003, 62002, 2
62003, 62001, 2
62002, 62000, 2
62002, 62003, 1
62002, 62001, 2
61999, 62000, 1
61999, 62001, 2
61999, 61998, 2
62004, 62003, 2
62004, 62001, 2
61997, 61996, 2
61997, 61998, 2
62001, 62000, 2
62001, 61999, 2
62001, 62002, 2
62001, 62003, 2
62001, 62004, 2
62001, 61998, 2
61998, 61996, 2
61998, 61997, 2
61998, 62001, 2
61998, 61999, 1
