259079, 259078, 2
259079, 259081, 2
259079, 259080, 1
259082, 259081, 2
259082, 259083, 1
259080, 259079, 2
259080, 259081, 1
259078, 259079, 1
259078, 259077, 2
259077, 259078, 1
259081, 259079, 2
259081, 259082, 1
259081, 259083, 2
259081, 259080, 2
259083, 259082, 2
259083, 259081, 2
