218283, 218282, 2
218283, 218281, 2
218283, 218284, 2
218278, 218277, 2
218278, 218279, 1
218275, 218276, 1
218286, 218284, 2
218286, 218285, 2
218286, 218287, 1
218292, 218290, 2
218292, 218291, 2
218292, 218293, 2
218293, 218290, 2
218293, 218291, 2
218293, 218292, 2
218289, 218290, 1
218289, 218288, 2
218281, 218283, 2
218281, 218280, 2
218281, 218282, 1
218281, 218279, 2
218284, 218283, 2
218284, 218282, 2
218284, 218286, 1
218284, 218285, 8
218284, 218287, 2
218287, 218288, 1
218287, 218284, 2
218287, 218285, 2
218287, 218286, 2
218280, 218281, 1
218280, 218279, 2
218282, 218283, 8
218282, 218281, 2
218282, 218284, 1
218288, 218289, 1
218288, 218287, 2
218276, 218275, 2
218276, 218277, 1
218290, 218293, 2
218290, 218289, 2
218290, 218291, 1
218290, 218292, 2
218291, 218290, 2
218291, 218293, 1
218291, 218292, 3
218277, 218276, 2
218277, 218278, 1
218277, 218279, 2
218285, 218287, 2
218285, 218284, 2
218285, 218286, 2
218279, 218280, 1
218279, 218278, 2
218279, 218281, 2
218279, 218277, 2
