222690, 222693, 1
222690, 222691, 3
222690, 222692, 8
222694, 222693, 2
222694, 222695, 2
222694, 222698, 2
222695, 222694, 2
222695, 222696, 1
222695, 222693, 2
222691, 222690, 2
222691, 222693, 2
222691, 222692, 2
222692, 222690, 2
222692, 222693, 2
222692, 222691, 2
222698, 222694, 2
222698, 222697, 2
222697, 222698, 3
222697, 222696, 2
222696, 222697, 1
222696, 222695, 2
222696, 222693, 2
222693, 222690, 2
222693, 222694, 3
222693, 222695, 1
222693, 222691, 2
222693, 222692, 2
222693, 222696, 2
