171599, 171600, 3
171599, 171601, 1
171599, 171602, 2
171604, 171602, 2
171604, 171603, 2
171604, 171605, 1
171601, 171599, 2
171601, 171602, 1
171601, 171600, 2
171601, 171603, 2
171605, 171604, 2
171605, 171603, 2
171605, 171602, 2
171600, 171599, 2
171600, 171602, 2
171600, 171601, 2
171600, 171603, 2
171602, 171599, 2
171602, 171604, 2
171602, 171601, 2
171602, 171605, 2
171602, 171600, 2
171602, 171603, 3
171603, 171604, 1
171603, 171601, 2
171603, 171600, 2
171603, 171602, 2
171603, 171605, 2
