160666, 160665, 2
160666, 160667, 2
160666, 160664, 2
160669, 160668, 2
160660, 160661, 1
160662, 160661, 2
160662, 160663, 1
160664, 160666, 2
160664, 160663, 2
160664, 160665, 1
160661, 160660, 2
160661, 160662, 1
160665, 160666, 6
160665, 160667, 1
160665, 160664, 2
160663, 160662, 2
160663, 160664, 1
160668, 160669, 1
160668, 160667, 2
160667, 160666, 2
160667, 160665, 2
160667, 160668, 1
