70276, 70278, 1
70276, 70277, 0
70276, 70279, 2
70277, 70276, 2
70277, 70278, 2
70277, 70279, 2
70278, 70276, 2
70278, 70277, 2
70278, 70279, 1
70279, 70276, 2
70279, 70277, 2
70279, 70278, 2
70279, 70280, 0
70280, 70279, 2
