334710, 334709, 2
334710, 334707, 2
334700, 334697, 2
334700, 334701, 2
334700, 334699, 2
334706, 334705, 2
334706, 334707, 1
334706, 334708, 2
334708, 334709, 2
334708, 334707, 2
334708, 334706, 2
334698, 334697, 2
334698, 334699, 1
334702, 334705, 2
334702, 334701, 2
334702, 334699, 2
334702, 334704, 2
334702, 334703, 1
334696, 334697, 1
334697, 334698, 1
334697, 334699, 2
334697, 334700, 2
334697, 334696, 2
334705, 334706, 1
334705, 334702, 2
334705, 334704, 2
334705, 334703, 2
334703, 334705, 2
334703, 334702, 2
334703, 334704, 1
334709, 334710, 1
334709, 334707, 2
334709, 334708, 2
334707, 334706, 2
334707, 334708, 8
334707, 334709, 1
334707, 334710, 2
334701, 334699, 2
334701, 334700, 2
334701, 334702, 1
334699, 334697, 2
334699, 334701, 1
334699, 334698, 2
334699, 334700, 8
334699, 334702, 2
334704, 334705, 1
334704, 334702, 2
334704, 334703, 2
