120558, 120557, 2
120553, 120552, 2
120553, 120554, 8
120553, 120556, 2
120553, 120551, 2
120553, 120549, 2
120553, 120555, 1
120548, 120549, 2
120548, 120546, 2
120548, 120547, 2
120550, 120549, 2
120550, 120546, 2
120550, 120547, 2
120550, 120551, 1
120544, 120545, 1
120544, 120543, 2
120546, 120545, 2
120546, 120548, 2
120546, 120550, 1
120546, 120549, 2
120546, 120547, 3
120546, 120551, 2
120547, 120549, 1
120547, 120545, 2
120547, 120546, 2
120547, 120548, 8
120547, 120550, 2
120551, 120552, 3
120551, 120553, 2
120551, 120556, 1
120551, 120550, 2
120551, 120549, 2
120551, 120546, 2
120551, 120555, 2
120552, 120549, 2
120552, 120553, 1
120552, 120556, 2
120552, 120551, 2
120545, 120544, 2
120545, 120546, 1
120545, 120543, 2
120545, 120547, 2
120557, 120558, 1
120557, 120556, 2
120554, 120553, 2
120554, 120555, 2
120556, 120552, 2
120556, 120553, 2
120556, 120557, 1
120556, 120551, 2
120556, 120555, 2
120549, 120552, 2
120549, 120546, 2
120549, 120553, 2
120549, 120548, 2
120549, 120550, 2
120549, 120547, 2
120549, 120551, 2
120543, 120544, 1
120543, 120545, 2
120555, 120553, 2
120555, 120554, 2
120555, 120556, 2
120555, 120551, 2
