217396, 217394, 2
217396, 217398, 2
217396, 217397, 2
217396, 217395, 2
217399, 217402, 2
217399, 217400, 2
217399, 217397, 2
217399, 217398, 2
217397, 217396, 2
217397, 217399, 8
217397, 217398, 3
217397, 217395, 2
217397, 217394, 2
217397, 217401, 2
217397, 217400, 1
217395, 217396, 2
217395, 217394, 2
217395, 217398, 2
217395, 217397, 2
217395, 217393, 2
217394, 217396, 8
217394, 217393, 2
217394, 217397, 1
217394, 217395, 3
217392, 217390, 2
217392, 217391, 2
217392, 217393, 1
217391, 217390, 2
217391, 217393, 2
217391, 217389, 2
217391, 217392, 1
217389, 217390, 3
217389, 217391, 1
217398, 217396, 2
217398, 217399, 2
217398, 217395, 2
217398, 217400, 2
217398, 217397, 2
217393, 217394, 1
217393, 217391, 2
217393, 217395, 2
217393, 217392, 2
217402, 217399, 2
217402, 217400, 2
217402, 217401, 2
217390, 217391, 2
217390, 217389, 2
217390, 217392, 2
217401, 217402, 2
217401, 217397, 2
217401, 217400, 2
217400, 217399, 2
217400, 217402, 1
217400, 217401, 0
217400, 217398, 2
217400, 217397, 2
