217480, 217482, 2
217480, 217481, 2
217480, 217479, 2
217480, 217478, 2
217483, 217484, 2
217483, 217482, 2
217483, 217481, 2
217483, 217485, 2
217478, 217480, 8
217478, 217481, 1
217478, 217477, 2
217478, 217479, 3
217485, 217483, 2
217485, 217486, 2
217485, 217482, 2
217485, 217484, 2
217474, 217473, 2
217474, 217476, 2
217474, 217475, 2
217476, 217474, 2
217476, 217477, 1
217476, 217475, 2
217484, 217483, 2
217484, 217482, 2
217484, 217481, 2
217484, 217485, 3
217484, 217486, 1
217473, 217474, 3
217473, 217475, 1
217481, 217480, 2
217481, 217483, 8
217481, 217484, 1
217481, 217478, 2
217481, 217482, 3
217481, 217479, 2
217477, 217475, 2
217477, 217476, 2
217477, 217478, 1
217477, 217479, 2
217479, 217480, 2
217479, 217482, 2
217479, 217481, 2
217479, 217477, 2
217479, 217478, 2
217482, 217480, 2
217482, 217483, 2
217482, 217481, 2
217482, 217484, 2
217482, 217479, 2
217482, 217485, 2
217475, 217477, 2
217475, 217474, 2
217475, 217476, 1
217475, 217473, 2
217486, 217484, 2
217486, 217485, 2
