170969, 170970, 1
170969, 170967, 2
170969, 170968, 2
170970, 170969, 2
170970, 170971, 1
170967, 170969, 1
170967, 170968, 3
170971, 170970, 2
170971, 170972, 1
170971, 170973, 2
170972, 170971, 2
170972, 170973, 1
170973, 170972, 2
170973, 170971, 2
170968, 170969, 2
170968, 170967, 2
