301129, 301128, 2
301129, 301127, 2
301126, 301128, 2
301126, 301125, 2
301126, 301124, 2
301126, 301127, 1
301127, 301128, 6
301127, 301129, 1
301127, 301126, 2
301128, 301129, 2
301128, 301124, 2
301128, 301127, 2
301128, 301126, 2
301125, 301124, 2
301125, 301126, 2
301124, 301128, 2
301124, 301125, 3
301124, 301126, 1
