128746, 128745, 2
128746, 128743, 2
128746, 128754, 2
128746, 128747, 2
128746, 128742, 2
128742, 128746, 2
128742, 128743, 1
128742, 128745, 2
128742, 128744, 2
128755, 128756, 1
128755, 128753, 2
128755, 128754, 2
128755, 128757, 2
128755, 128752, 2
128744, 128751, 2
128744, 128745, 2
128744, 128747, 2
128744, 128749, 2
128744, 128743, 2
128744, 128742, 2
128744, 128752, 2
128747, 128746, 2
128747, 128748, 1
128747, 128745, 2
128747, 128744, 2
128747, 128752, 2
128783, 128780, 2
128783, 128784, 0
128783, 128781, 2
128783, 128782, 2
128753, 128751, 2
128753, 128755, 1
128753, 128752, 2
128753, 128754, 3
128777, 128779, 2
128777, 128778, 1
128777, 128776, 2
128777, 128774, 2
128781, 128779, 2
128781, 128780, 2
128781, 128782, 1
128781, 128783, 2
128781, 128778, 2
128781, 128784, 2
128772, 128770, 2
128772, 128773, 1
128772, 128771, 2
128772, 128775, 2
128765, 128766, 1
128765, 128764, 2
128751, 128744, 2
128751, 128749, 2
128751, 128753, 1
128751, 128750, 2
128751, 128752, 0
128751, 128754, 2
128760, 128759, 2
128760, 128761, 1
128760, 128776, 2
128761, 128762, 1
128761, 128760, 2
128749, 128751, 2
128749, 128744, 2
128749, 128748, 2
128749, 128750, 1
128749, 128752, 2
128749, 128754, 2
128745, 128746, 3
128745, 128744, 2
128745, 128747, 1
128745, 128743, 2
128745, 128752, 2
128745, 128742, 2
128776, 128779, 2
128776, 128770, 2
128776, 128760, 2
128776, 128775, 2
128776, 128774, 2
128776, 128758, 2
128776, 128777, 1
128776, 128752, 2
128776, 128768, 2
128780, 128779, 2
128780, 128783, 2
128780, 128782, 2
128780, 128781, 1
128780, 128784, 2
128759, 128758, 2
128759, 128760, 1
128763, 128762, 2
128763, 128764, 1
128763, 128752, 2
128766, 128752, 2
128766, 128767, 1
128766, 128765, 2
128762, 128761, 2
128762, 128763, 1
128779, 128780, 1
128779, 128782, 2
128779, 128778, 2
128779, 128776, 2
128779, 128775, 2
128779, 128777, 2
128779, 128781, 2
128779, 128774, 2
128782, 128779, 2
128782, 128783, 1
128782, 128778, 2
128782, 128781, 2
128782, 128780, 2
128750, 128751, 1
128750, 128749, 2
128771, 128770, 2
128771, 128772, 1
128767, 128766, 2
128767, 128768, 1
128758, 128759, 1
128758, 128776, 2
128758, 128752, 2
128758, 128757, 2
128769, 128770, 2
128769, 128768, 2
128775, 128779, 2
128775, 128770, 2
128775, 128776, 1
128775, 128774, 2
128775, 128773, 2
128775, 128772, 2
128775, 128752, 2
128743, 128746, 2
128743, 128745, 1
128743, 128742, 2
128743, 128744, 0
128768, 128770, 1
128768, 128769, 8
128768, 128776, 2
128768, 128752, 2
128768, 128767, 2
128754, 128751, 2
128754, 128746, 2
128754, 128753, 2
128754, 128755, 2
128754, 128749, 2
128770, 128776, 2
128770, 128775, 2
128770, 128771, 1
128770, 128769, 2
128770, 128752, 2
128770, 128768, 2
128770, 128772, 2
128756, 128755, 2
128756, 128757, 1
128784, 128783, 2
128784, 128781, 2
128784, 128780, 2
128764, 128763, 2
128764, 128765, 1
128757, 128758, 1
128757, 128755, 2
128757, 128752, 2
128757, 128756, 2
128774, 128779, 1
128774, 128778, 2
128774, 128776, 2
128774, 128775, 0
128774, 128777, 2
128774, 128773, 2
128748, 128749, 1
128748, 128747, 2
128778, 128779, 2
128778, 128782, 2
128778, 128777, 2
128778, 128781, 2
128778, 128774, 2
128773, 128774, 1
128773, 128772, 2
128773, 128775, 2
128752, 128770, 2
128752, 128755, 2
128752, 128776, 2
128752, 128744, 2
128752, 128747, 2
128752, 128775, 2
128752, 128753, 2
128752, 128768, 2
128752, 128751, 2
128752, 128758, 2
128752, 128749, 2
128752, 128757, 2
128752, 128745, 2
128752, 128763, 2
128752, 128766, 2
