16367, 16368, 2
16367, 16366, 2
16365, 16362, 2
16365, 16364, 2
16365, 16363, 2
16365, 16366, 1
16362, 16365, 2
16362, 16363, 1
16362, 16364, 2
16362, 16361, 2
16362, 16360, 2
16362, 16359, 2
16364, 16365, 1
16364, 16363, 2
16364, 16362, 2
16361, 16362, 1
16361, 16360, 2
16361, 16359, 2
16361, 16363, 2
16368, 16367, 2
16368, 16369, 1
16368, 16366, 2
16360, 16362, 2
16360, 16359, 2
16360, 16363, 2
16360, 16361, 2
16359, 16362, 2
16359, 16360, 3
16359, 16361, 1
16363, 16365, 2
16363, 16362, 2
16363, 16364, 1
16363, 16361, 2
16363, 16360, 2
16369, 16368, 2
16366, 16367, 8
16366, 16365, 2
16366, 16368, 1
