163666, 163655, 2
163666, 163651, 2
163666, 163667, 2
163666, 163663, 2
163666, 163653, 2
163666, 163664, 2
163666, 163665, 2
163666, 163668, 3
163666, 163669, 2
163650, 163652, 1
163650, 163649, 2
163650, 163654, 2
163650, 163651, 2
163650, 163653, 2
163656, 163655, 2
163656, 163659, 2
163656, 163663, 2
163656, 163652, 2
163656, 163658, 1
163656, 163653, 2
163656, 163651, 2
163656, 163657, 3
163656, 163654, 2
163654, 163656, 2
163654, 163650, 2
163654, 163658, 2
163654, 163653, 2
163654, 163652, 2
163654, 163649, 2
163654, 163663, 2
163654, 163651, 2
163654, 163657, 2
163654, 163655, 2
163664, 163666, 2
163664, 163663, 2
163664, 163653, 2
163664, 163665, 1
163664, 163655, 2
163664, 163669, 2
163664, 163662, 2
163668, 163666, 2
163668, 163671, 2
163668, 163667, 2
163668, 163653, 2
163668, 163665, 2
163668, 163651, 2
163668, 163663, 2
163668, 163655, 2
163668, 163670, 2
163668, 163669, 2
163657, 163656, 2
163657, 163659, 2
163657, 163663, 2
163657, 163653, 2
163657, 163651, 2
163657, 163658, 2
163657, 163654, 2
163657, 163655, 2
163657, 163660, 2
163657, 163652, 2
163657, 163661, 2
163657, 163662, 2
163670, 163671, 1
163670, 163668, 2
163670, 163669, 2
163655, 163666, 2
163655, 163659, 2
163655, 163663, 2
163655, 163656, 2
163655, 163654, 2
163655, 163664, 2
163655, 163653, 2
163655, 163668, 2
163655, 163657, 2
163655, 163660, 2
163655, 163652, 2
163655, 163671, 2
163655, 163661, 2
163655, 163662, 2
163660, 163655, 2
163660, 163659, 2
163660, 163662, 2
163660, 163663, 3
163660, 163653, 2
163660, 163651, 2
163660, 163661, 1
163660, 163657, 2
163653, 163666, 2
163653, 163659, 2
163653, 163650, 2
163653, 163656, 2
163653, 163668, 2
163653, 163664, 2
163653, 163663, 2
163653, 163651, 2
163653, 163657, 2
163653, 163655, 3
163653, 163660, 2
163653, 163658, 2
163653, 163654, 2
163653, 163661, 2
163653, 163662, 2
163649, 163652, 2
163649, 163650, 1
163649, 163651, 2
163649, 163654, 2
163659, 163656, 2
163659, 163660, 1
163659, 163653, 2
163659, 163655, 2
163659, 163652, 2
163659, 163658, 2
163659, 163663, 2
163659, 163657, 2
163671, 163655, 2
163671, 163668, 2
163671, 163670, 2
163663, 163666, 2
163663, 163659, 2
163663, 163656, 2
163663, 163651, 2
163663, 163664, 2
163663, 163653, 2
163663, 163668, 2
163663, 163657, 2
163663, 163655, 2
163663, 163660, 2
163663, 163654, 2
163663, 163661, 2
163663, 163669, 2
163663, 163662, 2
163658, 163656, 2
163658, 163659, 1
163658, 163653, 2
163658, 163652, 2
163658, 163654, 2
163658, 163657, 2
163651, 163666, 2
163651, 163663, 2
163651, 163650, 2
163651, 163656, 2
163651, 163668, 2
163651, 163653, 3
163651, 163654, 0
163651, 163657, 2
163651, 163660, 2
163651, 163652, 2
163651, 163649, 2
163651, 163661, 2
163651, 163662, 2
163667, 163666, 2
163667, 163665, 2
163667, 163668, 2
163667, 163669, 2
163652, 163656, 1
163652, 163659, 2
163652, 163650, 2
163652, 163658, 2
163652, 163651, 4
163652, 163649, 2
163652, 163654, 2
163652, 163655, 2
163652, 163657, 2
163665, 163666, 3
163665, 163664, 2
163665, 163668, 2
163665, 163667, 0
163665, 163669, 1
163661, 163655, 2
163661, 163660, 2
163661, 163663, 2
163661, 163653, 2
163661, 163651, 2
163661, 163657, 2
163661, 163662, 1
163669, 163666, 2
163669, 163667, 2
163669, 163663, 2
163669, 163664, 2
163669, 163665, 2
163669, 163668, 2
163669, 163670, 1
163662, 163655, 2
163662, 163660, 2
163662, 163663, 2
163662, 163664, 1
163662, 163653, 2
163662, 163651, 2
163662, 163657, 2
163662, 163661, 2
