170800, 170799, 2
170800, 170801, 2
170799, 170800, 3
170799, 170801, 1
170801, 170800, 2
170801, 170799, 2
170801, 170802, 1
170804, 170805, 1
170804, 170803, 2
170803, 170805, 2
170803, 170802, 2
170803, 170804, 1
170805, 170803, 2
170805, 170804, 2
170802, 170801, 2
170802, 170803, 1
