301560, 301557, 2
301560, 301559, 2
301560, 301558, 2
301560, 301555, 2
301556, 301553, 2
301556, 301559, 2
301556, 301555, 2
301556, 301558, 2
301556, 301554, 2
301554, 301553, 2
301554, 301557, 2
301554, 301555, 1
301554, 301556, 2
301553, 301554, 1
301553, 301557, 2
301553, 301556, 2
301557, 301560, 2
301557, 301553, 2
301557, 301554, 2
301557, 301555, 2
301557, 301558, 2
301557, 301559, 2
301555, 301556, 6
301555, 301554, 2
301555, 301557, 3
301555, 301559, 2
301555, 301558, 1
301555, 301560, 2
301558, 301559, 1
301558, 301555, 2
301558, 301557, 2
301558, 301560, 2
301558, 301556, 2
301559, 301560, 3
301559, 301557, 2
301559, 301555, 2
301559, 301558, 2
301559, 301556, 2
