297140, 297143, 2
297140, 297138, 2
297140, 297142, 2
297140, 297141, 2
297140, 297137, 2
297140, 297139, 2
297144, 297143, 2
297144, 297145, 3
297144, 297150, 2
297144, 297146, 1
297137, 297140, 2
297137, 297138, 2
297137, 297135, 2
297137, 297136, 2
297137, 297139, 2
297152, 297143, 2
297152, 297153, 2
297152, 297151, 2
297152, 297150, 2
297152, 297135, 2
297152, 297141, 2
297152, 297149, 2
297152, 297146, 2
297150, 297147, 2
297150, 297144, 2
297150, 297153, 2
297150, 297149, 2
297150, 297152, 1
297150, 297143, 2
297150, 297151, 2
297150, 297146, 2
297148, 297147, 2
297148, 297151, 2
297148, 297149, 2
297148, 297146, 2
297136, 297137, 3
297136, 297135, 2
297136, 297141, 2
297136, 297138, 8
297136, 297139, 1
297135, 297137, 2
297135, 297152, 2
297135, 297136, 1
297135, 297139, 2
297141, 297140, 2
297141, 297143, 2
297141, 297142, 1
297141, 297152, 2
297141, 297136, 2
297141, 297139, 2
297138, 297140, 2
297138, 297137, 2
297138, 297136, 2
297138, 297139, 2
297149, 297147, 2
297149, 297150, 0
297149, 297148, 2
297149, 297153, 1
297149, 297152, 2
297149, 297151, 3
297149, 297146, 2
297146, 297147, 3
297146, 297144, 2
297146, 297150, 2
297146, 297148, 8
297146, 297145, 2
297146, 297152, 2
297146, 297143, 2
297146, 297149, 1
297143, 297144, 1
297143, 297140, 2
297143, 297142, 2
297143, 297150, 2
297143, 297145, 2
297143, 297152, 2
297143, 297141, 2
297143, 297146, 2
297142, 297143, 1
297142, 297140, 2
297142, 297141, 2
297151, 297147, 2
297151, 297153, 2
297151, 297148, 2
297151, 297150, 2
297151, 297152, 2
297151, 297149, 2
297145, 297144, 2
297145, 297143, 2
297145, 297147, 2
297145, 297146, 2
297147, 297150, 2
297147, 297149, 2
297147, 297148, 2
297147, 297145, 2
297147, 297151, 2
297147, 297146, 2
297139, 297140, 3
297139, 297137, 2
297139, 297136, 2
297139, 297135, 2
297139, 297141, 1
297139, 297138, 2
297153, 297152, 2
297153, 297150, 2
297153, 297151, 2
297153, 297149, 2
