170143, 170145, 2
170143, 170144, 1
170143, 170142, 2
170145, 170143, 2
170145, 170146, 8
170145, 170147, 1
170145, 170142, 2
170145, 170144, 2
170146, 170145, 2
170146, 170147, 2
170146, 170144, 2
170144, 170143, 2
170144, 170146, 2
170144, 170147, 2
170144, 170142, 2
170144, 170145, 3
170147, 170145, 2
170147, 170146, 2
170147, 170144, 2
170142, 170145, 2
170142, 170143, 1
170142, 170144, 2
