61685, 61684, 2
61685, 61682, 2
61680, 61678, 2
61680, 61681, 1
61680, 61682, 2
61680, 61679, 2
61678, 61680, 2
61678, 61676, 2
61678, 61682, 2
61678, 61677, 2
61678, 61679, 1
61683, 61684, 1
61683, 61681, 2
61683, 61682, 2
61677, 61676, 2
61677, 61678, 1
61684, 61685, 1
61684, 61683, 2
61684, 61682, 2
61676, 61678, 2
61676, 61682, 2
61676, 61677, 1
61681, 61680, 2
61681, 61683, 1
61681, 61682, 6
61681, 61679, 2
61682, 61685, 2
61682, 61680, 2
61682, 61678, 2
61682, 61683, 2
61682, 61681, 2
61682, 61676, 2
61682, 61684, 2
61682, 61679, 2
61679, 61680, 1
61679, 61678, 2
61679, 61681, 2
61679, 61682, 2
