300311, 300310, 2
300311, 300309, 2
300311, 300312, 1
300309, 300311, 1
300309, 300310, 8
300309, 300308, 2
300308, 300307, 2
300308, 300310, 2
300308, 300309, 1
300307, 300308, 1
300310, 300311, 2
300310, 300309, 2
300310, 300308, 2
300312, 300311, 2
