127811, 127816, 2
127811, 127809, 2
127811, 127813, 2
127811, 127810, 2
127811, 127808, 2
127811, 127814, 2
127811, 127812, 2
127811, 127815, 2
127811, 127807, 2
127811, 127800, 2
127787, 127786, 2
127787, 127785, 2
127787, 127799, 2
127787, 127783, 2
127787, 127784, 2
127787, 127792, 2
127787, 127779, 2
127787, 127789, 1
127787, 127791, 2
127781, 127778, 2
127781, 127786, 2
127781, 127785, 2
127781, 127780, 2
127781, 127779, 2
127781, 127783, 1
127781, 127784, 2
127784, 127787, 2
127784, 127781, 2
127784, 127786, 1
127784, 127785, 3
127784, 127788, 2
127784, 127779, 2
127784, 127783, 2
127784, 127782, 2
127803, 127805, 2
127803, 127804, 2
127803, 127808, 2
127803, 127806, 2
127803, 127802, 2
127803, 127800, 2
127803, 127807, 2
127793, 127799, 2
127793, 127786, 2
127793, 127795, 1
127793, 127797, 2
127793, 127792, 2
127793, 127796, 2
127793, 127791, 2
127796, 127810, 2
127796, 127786, 2
127796, 127806, 2
127796, 127799, 2
127796, 127793, 2
127796, 127792, 2
127796, 127800, 2
127796, 127813, 2
127796, 127805, 2
127796, 127795, 2
127796, 127797, 2
127796, 127814, 2
127796, 127798, 2
127813, 127811, 2
127813, 127810, 2
127813, 127814, 1
127813, 127796, 2
127813, 127812, 2
127813, 127815, 2
127789, 127787, 2
127789, 127786, 2
127789, 127785, 2
127789, 127792, 2
127789, 127779, 2
127789, 127791, 1
127805, 127804, 2
127805, 127799, 2
127805, 127806, 1
127805, 127803, 2
127805, 127802, 2
127805, 127796, 2
127805, 127807, 2
127804, 127805, 3
127804, 127802, 2
127804, 127808, 2
127804, 127807, 1
127804, 127803, 6
127782, 127790, 2
127782, 127778, 2
127782, 127786, 2
127782, 127784, 2
127782, 127788, 2
127782, 127779, 2
127782, 127792, 2
127782, 127798, 2
127817, 127816, 2
127817, 127815, 2
127795, 127786, 2
127795, 127797, 2
127795, 127799, 2
127795, 127793, 2
127795, 127792, 2
127795, 127796, 1
127797, 127798, 6
127797, 127795, 2
127797, 127799, 4
127797, 127793, 2
127797, 127792, 2
127797, 127794, 2
127797, 127796, 2
127797, 127800, 2
127797, 127801, 1
127814, 127811, 2
127814, 127796, 2
127814, 127815, 2
127814, 127813, 2
127814, 127812, 2
127788, 127790, 3
127788, 127779, 2
127788, 127786, 2
127788, 127784, 2
127788, 127792, 2
127788, 127794, 2
127788, 127800, 2
127788, 127782, 2
127794, 127790, 2
127794, 127786, 2
127794, 127798, 2
127794, 127797, 2
127794, 127807, 2
127794, 127788, 2
127794, 127779, 2
127794, 127800, 2
127794, 127792, 2
127794, 127808, 2
127812, 127816, 2
127812, 127811, 6
127812, 127810, 2
127812, 127814, 2
127812, 127815, 1
127812, 127813, 3
127807, 127811, 2
127807, 127804, 2
127807, 127809, 1
127807, 127808, 0
127807, 127806, 2
127807, 127803, 2
127807, 127805, 2
127807, 127794, 2
127807, 127802, 2
127807, 127800, 2
127807, 127798, 2
127801, 127799, 2
127801, 127798, 2
127801, 127797, 2
127801, 127792, 2
127801, 127802, 1
127801, 127800, 2
127816, 127811, 2
127816, 127815, 2
127816, 127810, 2
127816, 127817, 2
127816, 127800, 2
127816, 127808, 2
127816, 127812, 2
127785, 127787, 2
127785, 127781, 2
127785, 127786, 2
127785, 127784, 2
127785, 127783, 2
127785, 127780, 2
127785, 127779, 2
127785, 127789, 2
127785, 127791, 2
127786, 127787, 4
127786, 127781, 2
127786, 127784, 2
127786, 127793, 2
127786, 127792, 1
127786, 127779, 2
127786, 127796, 2
127786, 127783, 2
127786, 127789, 2
127786, 127790, 2
127786, 127782, 2
127786, 127795, 2
127786, 127780, 2
127786, 127788, 6
127786, 127794, 2
127786, 127800, 2
127786, 127785, 2
127786, 127791, 2
127799, 127805, 2
127799, 127787, 2
127799, 127791, 2
127799, 127806, 2
127799, 127797, 2
127799, 127802, 2
127799, 127793, 2
127799, 127792, 2
127799, 127795, 2
127799, 127796, 2
127799, 127801, 2
127809, 127806, 2
127809, 127811, 2
127809, 127810, 1
127809, 127808, 2
127809, 127807, 2
127792, 127787, 2
127792, 127786, 2
127792, 127799, 2
127792, 127802, 2
127792, 127793, 4
127792, 127796, 2
127792, 127783, 2
127792, 127789, 2
127792, 127790, 2
127792, 127782, 2
127792, 127801, 2
127792, 127798, 2
127792, 127797, 1
127792, 127788, 2
127792, 127794, 6
127792, 127791, 2
127792, 127800, 2
127792, 127795, 2
127779, 127787, 2
127779, 127781, 2
127779, 127786, 2
127779, 127784, 1
127779, 127789, 2
127779, 127783, 2
127779, 127790, 2
127779, 127778, 2
127779, 127782, 6
127779, 127780, 4
127779, 127788, 2
127779, 127794, 2
127779, 127791, 2
127779, 127785, 2
127802, 127808, 2
127802, 127805, 2
127802, 127804, 1
127802, 127798, 2
127802, 127799, 2
127802, 127803, 2
127802, 127792, 2
127802, 127800, 2
127802, 127807, 2
127802, 127801, 2
127783, 127787, 2
127783, 127781, 2
127783, 127786, 2
127783, 127780, 2
127783, 127792, 2
127783, 127779, 2
127783, 127778, 2
127783, 127785, 2
127783, 127784, 2
127808, 127816, 2
127808, 127811, 2
127808, 127810, 2
127808, 127803, 2
127808, 127802, 2
127808, 127800, 2
127808, 127809, 2
127808, 127804, 2
127808, 127798, 2
127808, 127794, 2
127808, 127815, 2
127808, 127807, 2
127815, 127816, 0
127815, 127811, 2
127815, 127817, 1
127815, 127814, 2
127815, 127812, 2
127815, 127813, 2
127815, 127808, 2
127790, 127779, 2
127790, 127786, 2
127790, 127798, 2
127790, 127788, 2
127790, 127794, 2
127790, 127792, 2
127790, 127782, 2
127778, 127779, 1
127778, 127781, 2
127778, 127782, 2
127778, 127780, 2
127778, 127783, 2
127780, 127781, 1
127780, 127786, 2
127780, 127785, 2
127780, 127779, 2
127780, 127778, 2
127780, 127783, 2
127806, 127805, 2
127806, 127809, 2
127806, 127799, 2
127806, 127803, 2
127806, 127796, 2
127806, 127807, 2
127810, 127816, 2
127810, 127811, 2
127810, 127808, 2
127810, 127809, 2
127810, 127796, 2
127810, 127812, 1
127810, 127813, 2
127791, 127787, 2
127791, 127786, 2
127791, 127785, 2
127791, 127799, 2
127791, 127793, 2
127791, 127792, 2
127791, 127779, 2
127791, 127789, 2
127800, 127816, 2
127800, 127811, 2
127800, 127786, 2
127800, 127808, 2
127800, 127803, 2
127800, 127796, 2
127800, 127792, 2
127800, 127802, 2
127800, 127798, 2
127800, 127797, 2
127800, 127788, 2
127800, 127794, 2
127800, 127807, 2
127800, 127801, 2
127798, 127790, 2
127798, 127782, 2
127798, 127808, 2
127798, 127797, 2
127798, 127802, 2
127798, 127792, 2
127798, 127794, 2
127798, 127796, 2
127798, 127800, 0
127798, 127807, 2
127798, 127801, 2
