171886, 171887, 3
171886, 171888, 1
171890, 171889, 2
171890, 171891, 2
171890, 171888, 2
171893, 171891, 2
171893, 171892, 2
171887, 171886, 2
171887, 171888, 2
171889, 171891, 1
171889, 171890, 3
171889, 171888, 2
171891, 171889, 2
171891, 171890, 2
171891, 171893, 2
171891, 171892, 1
171892, 171891, 2
171892, 171893, 1
171888, 171889, 1
171888, 171886, 2
171888, 171890, 2
171888, 171887, 2
