18848, 18849, 3
18848, 18846, 2
18848, 18847, 2
18849, 18850, 2
18849, 18848, 2
18849, 18846, 2
18844, 18842, 2
18844, 18843, 2
18844, 18845, 2
18844, 18846, 2
18843, 18844, 3
18843, 18842, 2
18843, 18846, 2
18843, 18840, 2
18845, 18844, 2
18845, 18846, 1
18860, 18859, 2
18858, 18859, 1
18858, 18856, 2
18858, 18857, 2
18853, 18854, 3
18853, 18852, 2
18853, 18856, 2
18853, 18851, 2
18847, 18850, 2
18847, 18848, 3
18847, 18846, 2
18847, 18851, 2
18857, 18858, 2
18857, 18856, 2
18850, 18849, 2
18850, 18846, 2
18850, 18847, 2
18850, 18851, 1
18854, 18851, 2
18854, 18855, 2
18854, 18856, 2
18854, 18853, 2
18855, 18854, 2
18855, 18852, 2
18855, 18856, 1
18842, 18844, 2
18842, 18843, 2
18842, 18839, 2
18842, 18841, 2
18851, 18850, 2
18851, 18854, 2
18851, 18852, 0
18851, 18847, 2
18851, 18853, 2
18841, 18842, 3
18841, 18840, 2
18841, 18839, 2
18846, 18850, 1
18846, 18848, 2
18846, 18849, 2
18846, 18840, 2
18846, 18844, 2
18846, 18843, 2
18846, 18845, 2
18846, 18847, 0
18856, 18854, 2
18856, 18855, 2
18856, 18853, 2
18856, 18858, 1
18856, 18852, 2
18856, 18857, 3
18859, 18858, 2
18859, 18860, 3
18840, 18843, 2
18840, 18839, 2
18840, 18841, 3
18840, 18846, 2
18839, 18842, 2
18839, 18840, 0
18839, 18841, 2
18852, 18851, 2
18852, 18855, 2
18852, 18856, 2
18852, 18853, 3
