66481, 66482, 1
66481, 66480, 2
66482, 66483, 1
66482, 66481, 2
66482, 66485, 2
66483, 66482, 2
66483, 66484, 1
66483, 66485, 2
66489, 66488, 2
66489, 66497, 2
66489, 66491, 2
66489, 66485, 2
66489, 66490, 2
66489, 66492, 2
66490, 66491, 1
66490, 66488, 2
66490, 66489, 2
66490, 66492, 2
66484, 66486, 1
66484, 66483, 2
66484, 66485, 6
66487, 66486, 2
66487, 66488, 1
66488, 66487, 2
66488, 66485, 2
66488, 66491, 2
66488, 66489, 0
66488, 66490, 1
66488, 66492, 2
66496, 66495, 2
66496, 66497, 6
66491, 66488, 2
66491, 66490, 2
66491, 66489, 2
66491, 66492, 1
66493, 66494, 1
66493, 66492, 2
66480, 66478, 2
66480, 66481, 1
66480, 66485, 2
66480, 66479, 2
66475, 66485, 2
66475, 66474, 2
66475, 66476, 1
66479, 66480, 1
66479, 66478, 2
66486, 66484, 2
66486, 66487, 1
66486, 66485, 2
66495, 66496, 1
66495, 66494, 2
66495, 66497, 2
66485, 66484, 2
66485, 66486, 2
66485, 66475, 2
66485, 66488, 2
66485, 66480, 2
66485, 66482, 2
66485, 66483, 2
66485, 66489, 2
66485, 66476, 2
66485, 66478, 2
66474, 66475, 1
66494, 66495, 1
66494, 66493, 2
66494, 66497, 2
66497, 66496, 2
66497, 66489, 2
66497, 66492, 2
66497, 66494, 2
66497, 66495, 2
66478, 66480, 2
66478, 66477, 2
66478, 66485, 2
66478, 66479, 1
66477, 66478, 1
66477, 66476, 2
66476, 66475, 2
66476, 66485, 2
66476, 66477, 1
66492, 66488, 2
66492, 66493, 1
66492, 66497, 2
66492, 66491, 2
66492, 66489, 2
66492, 66490, 2
