338555, 338557, 2
338555, 338554, 2
338555, 338556, 2
338554, 338555, 3
338554, 338556, 1
338554, 338557, 2
338556, 338555, 2
338556, 338554, 2
338556, 338557, 1
338557, 338555, 2
338557, 338554, 2
338557, 338556, 2
