124997, 124996, 2
124997, 124994, 2
124997, 124998, 2
124997, 125000, 2
124997, 124999, 2
124997, 124995, 2
125006, 125005, 2
125006, 125007, 3
125006, 125003, 2
125006, 125000, 2
125006, 125004, 2
125006, 124986, 2
125006, 125008, 1
124985, 124984, 2
124985, 124987, 1
124985, 124982, 2
124985, 124990, 2
124985, 124983, 2
124985, 124986, 0
125001, 125002, 1
125001, 125000, 2
125001, 124999, 2
125001, 125004, 2
125001, 125003, 2
125004, 125002, 2
125004, 125005, 2
125004, 125007, 2
125004, 125003, 2
125004, 125006, 2
125004, 125000, 2
125004, 125001, 2
124995, 124991, 2
124995, 124993, 2
124995, 124996, 1
124995, 124994, 2
124995, 124997, 2
124992, 124989, 2
124992, 124990, 2
124992, 124993, 2
124992, 124991, 2
125000, 125001, 2
125000, 125004, 2
125000, 124997, 2
125000, 125002, 2
125000, 125006, 2
125000, 125003, 2
125000, 124999, 2
124981, 124979, 2
124981, 124982, 1
124981, 124980, 2
124999, 125001, 1
124999, 124996, 2
124999, 124994, 2
124999, 124998, 2
124999, 125000, 3
124999, 124997, 2
124999, 124986, 2
124986, 124989, 2
124986, 124996, 2
124986, 124993, 2
124986, 124988, 2
124986, 124987, 2
124986, 125006, 2
124986, 124982, 2
124986, 124999, 2
124986, 124983, 2
124986, 124985, 2
124993, 124996, 2
124993, 124994, 2
124993, 124991, 2
124993, 124995, 1
124993, 124992, 2
124993, 124990, 2
124993, 124986, 2
124993, 124989, 2
124989, 124988, 2
124989, 124994, 1
124989, 124991, 2
124989, 124992, 8
124989, 124987, 2
124989, 124990, 3
124989, 124993, 2
124989, 124986, 2
124984, 124982, 2
124984, 124990, 2
124984, 124983, 2
124984, 124985, 2
125007, 125006, 2
125007, 125004, 2
125007, 125008, 2
124991, 124995, 2
124991, 124994, 2
124991, 124992, 2
124991, 124990, 2
124991, 124993, 2
124991, 124989, 2
124987, 124985, 2
124987, 124990, 2
124987, 124986, 2
124987, 124988, 1
124987, 124989, 2
124983, 124984, 3
124983, 124982, 2
124983, 124986, 2
124983, 124985, 1
124980, 124979, 2
124980, 124981, 1
125002, 125001, 2
125002, 125004, 2
125002, 125003, 1
125002, 125000, 2
125005, 125006, 1
125005, 125004, 2
125005, 125003, 2
124979, 124982, 2
124979, 124981, 2
124979, 124980, 1
124988, 124987, 2
124988, 124986, 2
124988, 124990, 2
124988, 124989, 1
124994, 124996, 2
124994, 124997, 2
124994, 124995, 2
124994, 124991, 2
124994, 124999, 2
124994, 124993, 1
124994, 124989, 2
125003, 125001, 2
125003, 125002, 2
125003, 125004, 3
125003, 125006, 2
125003, 125000, 2
125003, 125005, 1
124998, 124999, 2
124998, 124996, 2
124998, 124997, 2
124982, 124984, 2
124982, 124979, 2
124982, 124981, 2
124982, 124986, 2
124982, 124983, 1
124982, 124985, 2
124990, 124984, 2
124990, 124988, 2
124990, 124991, 1
124990, 124985, 2
124990, 124992, 2
124990, 124987, 2
124990, 124993, 2
124990, 124989, 2
125008, 125006, 2
125008, 125007, 2
124996, 124995, 2
124996, 124994, 2
124996, 124997, 3
124996, 124998, 8
124996, 124999, 1
124996, 124986, 2
124996, 124993, 2
