168191, 168188, 2
168191, 168190, 2
168191, 168192, 2
168169, 168170, 1
168169, 168168, 2
168169, 168171, 2
168207, 168206, 2
168207, 168208, 1
168207, 168205, 2
168207, 168209, 2
168207, 168210, 2
168172, 168170, 2
168172, 168173, 1
168172, 168176, 2
168172, 168168, 2
168172, 168178, 2
168172, 168171, 2
168172, 168174, 2
168209, 168206, 2
168209, 168211, 2
168209, 168207, 2
168209, 168205, 2
168209, 168208, 2
168209, 168210, 2
168198, 168200, 2
168198, 168196, 2
168198, 168197, 2
168198, 168194, 2
168198, 168195, 2
168198, 168199, 1
168173, 168176, 2
168173, 168177, 2
168173, 168178, 1
168173, 168172, 2
168173, 168175, 8
168173, 168174, 3
168180, 168181, 1
168180, 168179, 2
168180, 168178, 2
168180, 168183, 2
168180, 168182, 2
168180, 168184, 2
168177, 168173, 2
168177, 168176, 2
168177, 168179, 2
168177, 168178, 2
168177, 168175, 2
168177, 168174, 2
168203, 168204, 1
168203, 168201, 2
168203, 168202, 2
168203, 168200, 2
168203, 168205, 2
168188, 168186, 2
168188, 168191, 2
168188, 168189, 3
168188, 168185, 2
168188, 168190, 2
168188, 168183, 2
168188, 168187, 2
168188, 168192, 1
168188, 168184, 2
168202, 168204, 2
168202, 168201, 2
168202, 168200, 2
168202, 168205, 2
168202, 168203, 1
168194, 168200, 2
168194, 168196, 2
168194, 168193, 2
168194, 168198, 2
168194, 168195, 1
168194, 168192, 2
168210, 168212, 2
168210, 168206, 2
168210, 168214, 1
168210, 168211, 3
168210, 168207, 2
168210, 168205, 2
168210, 168208, 2
168210, 168213, 2
168210, 168209, 2
168204, 168206, 2
168204, 168200, 2
168204, 168201, 2
168204, 168203, 2
168204, 168202, 2
168204, 168205, 2
168189, 168188, 2
168189, 168185, 2
168189, 168190, 1
168189, 168187, 2
168189, 168192, 2
168189, 168184, 2
168205, 168204, 2
168205, 168206, 3
168205, 168200, 2
168205, 168201, 2
168205, 168203, 2
168205, 168210, 1
168205, 168207, 8
168205, 168202, 2
168205, 168214, 2
168205, 168208, 2
168205, 168209, 2
168170, 168168, 2
168170, 168172, 2
168170, 168171, 2
168170, 168169, 2
168181, 168180, 2
168181, 168179, 2
168181, 168182, 1
168181, 168178, 2
168181, 168183, 2
168200, 168204, 2
168200, 168199, 2
168200, 168201, 3
168200, 168203, 2
168200, 168195, 2
168200, 168196, 2
168200, 168197, 2
168200, 168194, 2
168200, 168205, 1
168200, 168202, 8
168200, 168198, 2
168179, 168181, 2
168179, 168180, 2
168179, 168177, 2
168179, 168178, 2
168179, 168183, 2
168179, 168182, 2
168179, 168175, 2
168196, 168199, 2
168196, 168200, 2
168196, 168197, 2
168196, 168194, 2
168196, 168195, 2
168196, 168198, 2
168190, 168188, 2
168190, 168191, 1
168190, 168189, 2
168190, 168192, 2
168171, 168170, 2
168171, 168168, 2
168171, 168172, 1
168171, 168169, 2
168199, 168200, 2
168199, 168201, 2
168199, 168196, 2
168199, 168197, 2
168199, 168195, 2
168199, 168198, 2
168168, 168170, 2
168168, 168172, 2
168168, 168171, 1
168168, 168169, 3
168211, 168212, 1
168211, 168214, 2
168211, 168210, 2
168211, 168209, 2
168175, 168176, 1
168175, 168173, 2
168175, 168177, 2
168175, 168178, 2
168175, 168179, 2
168175, 168174, 2
168185, 168186, 1
168185, 168189, 2
168185, 168188, 2
168185, 168184, 2
168185, 168187, 2
168185, 168183, 2
168195, 168200, 1
168195, 168196, 3
168195, 168197, 8
168195, 168194, 2
168195, 168198, 2
168195, 168199, 2
168184, 168186, 2
168184, 168180, 2
168184, 168189, 2
168184, 168188, 2
168184, 168187, 2
168184, 168185, 2
168184, 168182, 2
168184, 168183, 2
168206, 168204, 2
168206, 168207, 2
168206, 168208, 2
168206, 168205, 2
168206, 168209, 2
168206, 168210, 2
168193, 168194, 1
168193, 168192, 2
168174, 168173, 2
168174, 168177, 2
168174, 168178, 2
168174, 168172, 2
168174, 168175, 2
168174, 168176, 2
168182, 168181, 2
168182, 168180, 2
168182, 168179, 2
168182, 168178, 2
168182, 168184, 2
168182, 168183, 2
168186, 168188, 2
168186, 168187, 1
168186, 168183, 2
168186, 168185, 2
168186, 168184, 2
168201, 168204, 2
168201, 168200, 2
168201, 168203, 2
168201, 168202, 2
168201, 168205, 2
168201, 168197, 2
168201, 168199, 2
168213, 168210, 2
168213, 168214, 2
168213, 168212, 2
168197, 168200, 2
168197, 168201, 2
168197, 168196, 2
168197, 168198, 1
168197, 168195, 2
168197, 168199, 2
168192, 168191, 2
168192, 168189, 2
168192, 168188, 2
168192, 168193, 1
168192, 168190, 2
168192, 168194, 2
168192, 168183, 2
168212, 168211, 2
168212, 168213, 1
168212, 168210, 2
168212, 168214, 2
168176, 168173, 2
168176, 168177, 1
168176, 168178, 2
168176, 168172, 2
168176, 168175, 2
168176, 168174, 2
168214, 168211, 2
168214, 168213, 2
168214, 168205, 2
168214, 168210, 2
168214, 168212, 2
168178, 168173, 2
168178, 168181, 2
168178, 168180, 8
168178, 168177, 2
168178, 168183, 1
168178, 168176, 2
168178, 168179, 3
168178, 168175, 2
168178, 168172, 2
168178, 168182, 2
168178, 168174, 2
168183, 168181, 2
168183, 168180, 2
168183, 168179, 2
168183, 168186, 2
168183, 168178, 2
168183, 168188, 1
168183, 168187, 2
168183, 168192, 2
168183, 168185, 8
168183, 168182, 2
168183, 168184, 3
168187, 168186, 2
168187, 168189, 2
168187, 168188, 2
168187, 168184, 2
168187, 168185, 2
168187, 168183, 2
168208, 168207, 2
168208, 168206, 2
168208, 168205, 2
168208, 168209, 1
168208, 168210, 2
