118768, 118769, 1
118768, 118767, 2
118768, 118766, 2
118768, 118770, 2
118762, 118770, 2
118762, 118761, 2
118762, 118763, 1
118762, 118764, 2
118767, 118768, 2
118767, 118763, 2
118767, 118766, 2
118767, 118764, 2
118763, 118765, 1
118763, 118762, 2
118763, 118767, 2
118763, 118766, 2
118763, 118770, 2
118763, 118764, 3
118760, 118761, 1
118760, 118764, 2
118770, 118768, 2
118770, 118762, 2
118770, 118763, 2
118770, 118766, 2
118770, 118769, 2
118770, 118771, 2
118764, 118765, 2
118764, 118762, 2
118764, 118761, 2
118764, 118763, 2
118764, 118760, 2
118764, 118767, 2
118764, 118766, 2
118765, 118763, 2
118765, 118764, 2
118765, 118766, 1
118761, 118762, 1
118761, 118760, 2
118761, 118764, 2
118769, 118768, 2
118769, 118770, 0
118769, 118771, 1
118771, 118770, 2
118771, 118769, 2
118766, 118768, 1
118766, 118765, 2
118766, 118767, 3
118766, 118763, 2
118766, 118770, 2
118766, 118764, 2
