335823, 335825, 2
335823, 335824, 1
335823, 335822, 2
335823, 335826, 2
335827, 335825, 2
335827, 335826, 2
335827, 335829, 2
335827, 335828, 1
335836, 335835, 2
335836, 335838, 1
335836, 335839, 2
335836, 335837, 8
335828, 335830, 1
335828, 335827, 2
335828, 335829, 0
335837, 335838, 2
335837, 335836, 2
335835, 335834, 2
335835, 335836, 1
335822, 335823, 1
335822, 335824, 2
335822, 335821, 2
335822, 335825, 2
335829, 335827, 2
335829, 335830, 2
335829, 335828, 2
335834, 335835, 1
335834, 335833, 2
335834, 335832, 2
335832, 335834, 1
335832, 335833, 3
335832, 335831, 2
335824, 335823, 2
335824, 335825, 1
335824, 335822, 2
335821, 335822, 1
335838, 335836, 2
335838, 335839, 1
335838, 335837, 2
335825, 335823, 2
335825, 335824, 2
335825, 335827, 1
335825, 335822, 2
335825, 335826, 3
335826, 335823, 2
335826, 335825, 2
335826, 335827, 2
335833, 335834, 2
335833, 335832, 2
335830, 335829, 2
335830, 335831, 1
335830, 335828, 2
335839, 335838, 2
335839, 335836, 2
335831, 335830, 2
335831, 335832, 1
