295085, 295086, 1
295085, 295084, 2
295085, 295083, 2
295088, 295086, 2
295088, 295087, 2
295088, 295089, 1
295088, 295090, 2
295086, 295085, 2
295086, 295087, 3
295086, 295084, 2
295086, 295088, 1
295082, 295083, 1
295082, 295081, 2
295080, 295079, 2
295080, 295081, 2
295084, 295085, 1
295084, 295083, 2
295084, 295086, 2
295081, 295083, 2
295081, 295080, 2
295081, 295082, 1
295081, 295079, 2
295083, 295085, 2
295083, 295087, 2
295083, 295084, 1
295083, 295082, 2
295083, 295081, 2
295090, 295088, 2
295090, 295089, 2
295087, 295083, 2
295087, 295088, 2
295087, 295086, 2
295089, 295090, 1
295089, 295088, 2
295079, 295080, 3
295079, 295081, 1
