70390, 70389, 2
70386, 70387, 0
70386, 70389, 2
70386, 70388, 1
70387, 70386, 2
70387, 70389, 2
70387, 70388, 2
70389, 70390, 0
70389, 70386, 2
70389, 70388, 2
70389, 70387, 2
70388, 70386, 2
70388, 70389, 1
70388, 70387, 2
