217417, 217418, 2
217417, 217419, 2
217418, 217417, 2
217418, 217423, 2
217418, 217419, 1
217418, 217425, 2
217428, 217423, 2
217428, 217425, 2
217428, 217427, 2
217428, 217426, 2
217428, 217429, 2
217428, 217430, 2
217425, 217423, 2
217425, 217418, 2
217425, 217428, 2
217425, 217422, 2
217425, 217426, 1
217425, 217420, 2
217425, 217427, 2
217425, 217424, 2
217420, 217421, 8
217420, 217422, 1
217420, 217425, 2
217420, 217423, 2
217420, 217427, 2
217420, 217419, 2
217429, 217426, 2
217429, 217428, 2
217429, 217430, 1
217421, 217420, 2
217421, 217423, 2
217421, 217422, 2
217426, 217428, 0
217426, 217425, 2
217426, 217427, 6
217426, 217423, 2
217426, 217429, 1
217426, 217430, 2
217426, 217424, 2
217422, 217421, 2
217422, 217423, 6
217422, 217425, 1
217422, 217420, 2
217422, 217427, 2
217422, 217424, 3
217423, 217421, 2
217423, 217418, 2
217423, 217428, 2
217423, 217422, 2
217423, 217425, 2
217423, 217420, 2
217423, 217427, 2
217423, 217424, 2
217423, 217419, 2
217423, 217426, 2
217427, 217426, 2
217427, 217428, 2
217427, 217422, 2
217427, 217425, 2
217427, 217420, 2
217427, 217423, 2
217430, 217429, 2
217430, 217426, 2
217430, 217428, 2
217419, 217420, 1
217419, 217417, 2
217419, 217423, 2
217419, 217418, 2
217424, 217426, 2
217424, 217423, 2
217424, 217422, 2
217424, 217425, 2
