252185, 252184, 2
252185, 252182, 2
252185, 252183, 2
252177, 252179, 1
252177, 252176, 2
252177, 252178, 3
252177, 252175, 2
252179, 252180, 8
252179, 252177, 2
252179, 252178, 2
252179, 252181, 1
252179, 252183, 2
252179, 252182, 2
252183, 252179, 2
252183, 252184, 1
252183, 252180, 2
252183, 252185, 2
252183, 252182, 2
252178, 252179, 2
252178, 252180, 2
252178, 252181, 2
252178, 252175, 2
252178, 252177, 2
252180, 252179, 2
252180, 252182, 2
252180, 252181, 2
252180, 252178, 2
252180, 252183, 2
252184, 252185, 1
252184, 252182, 2
252184, 252183, 2
252174, 252176, 1
252174, 252175, 3
252176, 252174, 2
252176, 252175, 2
252176, 252177, 1
252181, 252179, 2
252181, 252180, 2
252181, 252178, 2
252181, 252182, 1
252182, 252180, 2
252182, 252184, 2
252182, 252185, 2
252182, 252183, 3
252182, 252179, 2
252182, 252181, 2
252175, 252178, 2
252175, 252174, 2
252175, 252176, 2
252175, 252177, 2
