221105, 221103, 2
221105, 221104, 2
221105, 221102, 2
221101, 221103, 1
221101, 221102, 3
221104, 221105, 3
221104, 221103, 2
221104, 221102, 2
221102, 221105, 2
221102, 221101, 2
221102, 221104, 2
221102, 221103, 2
221103, 221105, 2
221103, 221101, 2
221103, 221104, 1
221103, 221102, 2
