216741, 216742, 1
216741, 216740, 2
216732, 216733, 1
216738, 216737, 2
216738, 216739, 1
216742, 216741, 2
216742, 216740, 2
216733, 216732, 2
216733, 216734, 1
216734, 216735, 1
216734, 216733, 2
216736, 216737, 1
216736, 216735, 2
216740, 216741, 1
216740, 216742, 2
216740, 216739, 2
216737, 216736, 2
216737, 216738, 1
216735, 216734, 2
216735, 216736, 1
216739, 216738, 2
216739, 216740, 1
