257792, 257794, 2
257792, 257795, 2
257792, 257791, 2
257792, 257793, 2
257794, 257792, 2
257794, 257795, 1
257794, 257793, 2
257795, 257792, 2
257795, 257794, 2
257795, 257791, 2
257791, 257792, 3
257791, 257795, 2
257791, 257793, 0
257793, 257792, 2
257793, 257794, 1
257793, 257791, 2
