72544, 72545, 0
72544, 72542, 2
72544, 72543, 2
72539, 72541, 2
72539, 72540, 1
72540, 72541, 1
72540, 72539, 2
72543, 72544, 1
72543, 72541, 2
72543, 72542, 2
72541, 72539, 2
72541, 72540, 2
72541, 72543, 1
72541, 72542, 0
72545, 72544, 2
72542, 72544, 2
72542, 72541, 2
72542, 72543, 2
