120072, 120069, 2
120072, 120068, 2
120072, 120071, 2
120072, 120070, 2
120072, 120073, 1
120074, 120075, 1
120074, 120073, 2
120071, 120068, 2
120071, 120078, 2
120071, 120072, 2
120071, 120070, 2
120071, 120073, 2
120082, 120077, 2
120082, 120081, 2
120069, 120068, 2
120069, 120078, 2
120069, 120072, 2
120069, 120070, 1
120079, 120078, 2
120079, 120080, 1
120079, 120077, 2
120075, 120078, 2
120075, 120076, 1
120075, 120074, 2
120073, 120068, 2
120073, 120078, 2
120073, 120072, 2
120073, 120074, 1
120073, 120071, 2
120068, 120069, 0
120068, 120072, 1
120068, 120070, 2
120068, 120071, 2
120068, 120073, 2
120080, 120079, 2
120080, 120077, 2
120080, 120081, 1
120077, 120080, 2
120077, 120076, 2
120077, 120081, 2
120077, 120078, 0
120077, 120079, 2
120077, 120082, 2
120081, 120080, 2
120081, 120077, 2
120081, 120082, 1
120078, 120071, 2
120078, 120077, 2
120078, 120069, 2
120078, 120070, 2
120078, 120079, 1
120078, 120075, 2
120078, 120073, 2
120076, 120075, 2
120076, 120077, 1
120070, 120068, 2
120070, 120069, 2
120070, 120072, 2
120070, 120071, 1
120070, 120078, 2
