130248, 130245, 2
130248, 130249, 2
130248, 130239, 2
130248, 130240, 2
130248, 130257, 2
130248, 130243, 2
130248, 130252, 2
130252, 130250, 2
130252, 130248, 2
130252, 130249, 2
130252, 130247, 2
130252, 130257, 2
130252, 130253, 1
130252, 130251, 2
130233, 130226, 2
130233, 130225, 2
130233, 130232, 2
130233, 130234, 2
130217, 130213, 2
130217, 130218, 3
130217, 130214, 2
130217, 130220, 1
130217, 130219, 0
130217, 130216, 2
130239, 130238, 2
130239, 130248, 2
130239, 130245, 2
130239, 130234, 2
130239, 130242, 2
130239, 130244, 2
130239, 130243, 2
130239, 130246, 2
130239, 130237, 2
130239, 130249, 1
130239, 130247, 2
130239, 130240, 4
130239, 130241, 6
130242, 130234, 2
130242, 130239, 2
130242, 130240, 2
130242, 130237, 2
130242, 130243, 1
130226, 130227, 6
130226, 130228, 4
130226, 130232, 2
130226, 130233, 2
130226, 130231, 2
130226, 130234, 1
130226, 130230, 2
130226, 130229, 2
130226, 130225, 2
130214, 130213, 2
130214, 130217, 2
130214, 130215, 1
130214, 130212, 2
130214, 130216, 2
130259, 130258, 2
130237, 130238, 0
130237, 130235, 2
130237, 130234, 2
130237, 130239, 1
130237, 130242, 2
130237, 130244, 2
130237, 130241, 2
130237, 130243, 2
130237, 130249, 2
130237, 130247, 2
130237, 130236, 2
130237, 130240, 2
130254, 130255, 1
130254, 130253, 2
130227, 130226, 2
130227, 130230, 1
130227, 130225, 2
130235, 130238, 2
130235, 130244, 2
130235, 130234, 2
130235, 130247, 2
130235, 130236, 2
130235, 130241, 2
130235, 130257, 2
130235, 130237, 2
130241, 130238, 2
130241, 130237, 2
130241, 130234, 2
130241, 130239, 2
130241, 130235, 2
130241, 130244, 1
130243, 130248, 2
130243, 130245, 1
130243, 130249, 2
130243, 130242, 2
130243, 130239, 2
130243, 130240, 2
130243, 130237, 2
130218, 130220, 2
130218, 130217, 2
130218, 130219, 2
130224, 130220, 2
130224, 130222, 2
130224, 130225, 2
130224, 130221, 2
130231, 130226, 2
130231, 130229, 2
130231, 130228, 2
130231, 130234, 2
130255, 130256, 1
130255, 130257, 2
130255, 130254, 2
130255, 130240, 2
130255, 130247, 2
130255, 130253, 2
130257, 130256, 2
130257, 130250, 2
130257, 130248, 2
130257, 130252, 2
130257, 130258, 1
130257, 130255, 2
130257, 130247, 2
130257, 130235, 2
130257, 130240, 2
130257, 130251, 2
130257, 130253, 2
130225, 130227, 2
130225, 130223, 2
130225, 130221, 2
130225, 130233, 2
130225, 130234, 2
130225, 130230, 2
130225, 130229, 2
130225, 130222, 2
130225, 130226, 1
130225, 130228, 2
130225, 130224, 2
130225, 130220, 2
130256, 130255, 2
130256, 130257, 1
130256, 130240, 2
130256, 130247, 2
130213, 130217, 2
130213, 130215, 2
130213, 130214, 1
130213, 130212, 2
130213, 130216, 2
130223, 130220, 2
130223, 130225, 2
130223, 130221, 2
130232, 130226, 2
130232, 130230, 2
130232, 130233, 1
130258, 130257, 2
130258, 130259, 1
130229, 130231, 1
130229, 130226, 2
130229, 130228, 2
130229, 130225, 2
130229, 130234, 2
130240, 130256, 2
130240, 130238, 2
130240, 130248, 2
130240, 130245, 2
130240, 130234, 2
130240, 130239, 2
130240, 130242, 0
130240, 130237, 2
130240, 130243, 2
130240, 130255, 2
130240, 130236, 2
130240, 130257, 2
130240, 130253, 2
130244, 130246, 1
130244, 130249, 2
130244, 130239, 2
130244, 130235, 2
130244, 130241, 2
130244, 130237, 2
130228, 130231, 2
130228, 130226, 2
130228, 130229, 0
130228, 130225, 2
130228, 130234, 2
130220, 130218, 2
130220, 130223, 2
130220, 130221, 1
130220, 130224, 2
130220, 130217, 2
130220, 130225, 2
130220, 130219, 2
130220, 130222, 2
130247, 130250, 2
130247, 130256, 2
130247, 130246, 2
130247, 130252, 2
130247, 130249, 2
130247, 130255, 2
130247, 130239, 2
130247, 130235, 2
130247, 130253, 2
130247, 130257, 2
130247, 130237, 2
130236, 130234, 2
130236, 130235, 2
130236, 130240, 2
130236, 130237, 1
130216, 130213, 2
130216, 130217, 1
130216, 130215, 2
130216, 130214, 2
130250, 130249, 2
130250, 130247, 2
130250, 130257, 2
130250, 130251, 1
130250, 130252, 2
130238, 130249, 2
130238, 130234, 2
130238, 130239, 2
130238, 130235, 2
130238, 130241, 2
130238, 130240, 2
130238, 130237, 2
130222, 130220, 2
130222, 130225, 2
130222, 130221, 2
130222, 130224, 1
130221, 130220, 2
130221, 130223, 6
130221, 130225, 1
130221, 130222, 4
130221, 130224, 2
130245, 130248, 1
130245, 130240, 2
130245, 130239, 2
130245, 130243, 2
130234, 130238, 2
130234, 130235, 0
130234, 130233, 2
130234, 130242, 2
130234, 130239, 2
130234, 130229, 2
130234, 130240, 2
130234, 130237, 2
130234, 130241, 2
130234, 130226, 2
130234, 130228, 2
130234, 130231, 2
130234, 130236, 1
130234, 130225, 2
130234, 130230, 2
130230, 130227, 2
130230, 130226, 2
130230, 130225, 2
130230, 130232, 1
130230, 130234, 2
130212, 130213, 1
130212, 130215, 2
130212, 130214, 2
130246, 130247, 1
130246, 130239, 2
130246, 130244, 2
130249, 130250, 1
130249, 130238, 2
130249, 130248, 2
130249, 130252, 2
130249, 130237, 2
130249, 130239, 2
130249, 130247, 2
130249, 130244, 2
130249, 130243, 2
130215, 130213, 2
130215, 130214, 2
130215, 130212, 2
130215, 130216, 1
130219, 130220, 2
130219, 130217, 2
130219, 130218, 2
130251, 130250, 2
130251, 130257, 2
130251, 130252, 1
130253, 130252, 2
130253, 130255, 2
130253, 130247, 2
130253, 130254, 1
130253, 130240, 2
130253, 130257, 2
