72825, 72824, 2
72820, 72821, 2
72820, 72822, 2
72820, 72819, 2
72821, 72820, 2
72821, 72822, 1
72821, 72819, 2
72824, 72825, 1
72824, 72823, 2
72822, 72821, 2
72822, 72820, 2
72822, 72819, 2
72822, 72823, 1
72823, 72822, 2
72823, 72824, 1
72819, 72821, 1
72819, 72820, 0
72819, 72822, 2
