197537, 197538, 1
197537, 197536, 2
197539, 197538, 2
197539, 197540, 1
197539, 197541, 2
197535, 197536, 1
197541, 197539, 2
197541, 197542, 2
197541, 197540, 2
197542, 197540, 2
197542, 197541, 2
197538, 197537, 2
197538, 197539, 1
197540, 197539, 2
197540, 197542, 1
197540, 197541, 3
197536, 197537, 1
197536, 197535, 2
