16676, 16675, 2
16676, 16677, 2
16668, 16669, 1
16677, 16676, 2
16677, 16679, 2
16677, 16678, 1
16677, 16675, 2
16673, 16672, 2
16673, 16674, 2
16673, 16670, 2
16679, 16678, 2
16679, 16677, 2
16675, 16676, 3
16675, 16677, 1
16675, 16674, 2
16671, 16669, 2
16671, 16672, 1
16671, 16670, 2
16672, 16673, 3
16672, 16671, 2
16672, 16669, 2
16672, 16674, 1
16672, 16670, 2
16678, 16679, 1
16678, 16677, 2
16669, 16668, 2
16669, 16671, 2
16669, 16672, 2
16669, 16670, 1
16674, 16673, 2
16674, 16672, 2
16674, 16675, 1
16670, 16673, 2
16670, 16671, 1
16670, 16672, 2
16670, 16669, 2
