71590, 71591, 1
71590, 71589, 2
71595, 71594, 2
71595, 71592, 2
71589, 71590, 1
71589, 71591, 2
71594, 71595, 0
71594, 71592, 2
71594, 71593, 2
71592, 71595, 2
71592, 71594, 2
71592, 71591, 2
71592, 71593, 2
71591, 71590, 2
71591, 71589, 2
71591, 71592, 0
71591, 71593, 1
71593, 71594, 1
71593, 71592, 2
71593, 71591, 2
