300908, 300910, 1
300908, 300907, 2
300908, 300909, 2
300909, 300908, 2
300909, 300913, 2
300909, 300911, 2
300909, 300907, 2
300909, 300910, 2
300909, 300912, 2
300913, 300911, 2
300913, 300910, 2
300913, 300909, 2
300913, 300912, 6
300911, 300913, 1
300911, 300910, 2
300911, 300909, 2
300911, 300912, 2
300907, 300908, 1
300907, 300909, 2
300910, 300911, 1
300910, 300908, 2
300910, 300912, 2
300910, 300909, 6
300910, 300913, 2
300912, 300911, 2
300912, 300910, 2
300912, 300909, 2
300912, 300913, 2
