253256, 253255, 2
253256, 253259, 2
253256, 253257, 1
253256, 253258, 2
253250, 253253, 2
253250, 253249, 2
253250, 253252, 2
253250, 253251, 1
253254, 253255, 1
253254, 253253, 2
253259, 253256, 2
253259, 253260, 1
253259, 253257, 2
253259, 253258, 2
253253, 253254, 1
253253, 253251, 2
253253, 253252, 2
253253, 253250, 2
253263, 253262, 2
253263, 253261, 2
253263, 253264, 1
253263, 253265, 2
253252, 253251, 2
253252, 253249, 2
253252, 253253, 1
253252, 253250, 2
253261, 253262, 1
253261, 253260, 2
253261, 253263, 2
253260, 253261, 1
253260, 253259, 2
253264, 253263, 2
253264, 253265, 1
253265, 253263, 2
253265, 253264, 2
253258, 253259, 1
253258, 253256, 2
253258, 253255, 2
253258, 253257, 2
253262, 253261, 2
253262, 253263, 1
253255, 253254, 2
253255, 253256, 1
253255, 253257, 2
253255, 253258, 2
253249, 253251, 2
253249, 253252, 2
253249, 253250, 1
253257, 253255, 2
253257, 253256, 2
253257, 253259, 2
253257, 253258, 1
253251, 253253, 2
253251, 253249, 2
253251, 253252, 1
253251, 253250, 2
