127003, 127004, 1
127003, 127002, 2
127003, 127001, 2
127003, 127005, 2
127002, 127003, 1
127002, 127001, 2
127002, 127005, 2
126979, 127006, 2
126979, 126983, 2
126979, 126978, 2
126979, 126999, 2
126979, 127001, 2
126979, 126980, 2
126979, 126981, 2
126979, 127004, 2
126979, 126985, 2
126979, 126989, 2
126979, 126976, 2
126979, 127000, 2
126979, 126984, 2
126979, 126988, 2
126979, 126982, 2
126979, 126991, 2
127001, 127003, 2
127001, 127002, 1
127001, 126979, 2
127001, 127000, 2
127001, 126999, 2
127001, 126993, 2
127001, 126978, 2
127001, 127005, 2
127001, 126998, 2
126999, 126997, 2
126999, 126995, 2
126999, 126992, 2
126999, 126979, 2
126999, 127000, 1
126999, 127001, 2
126999, 126993, 2
126999, 126991, 2
126999, 126978, 2
126999, 126996, 2
126999, 126998, 2
126995, 126992, 2
126995, 126994, 2
126995, 126999, 2
126995, 126991, 2
126995, 126996, 1
126995, 126993, 2
126990, 126992, 2
126990, 126989, 2
126990, 126991, 1
126976, 126973, 2
126976, 126992, 2
126976, 126987, 2
126976, 126979, 2
126976, 126984, 2
126976, 126975, 2
126976, 126974, 2
126976, 126978, 2
126976, 126980, 1
126976, 126977, 3
126980, 126981, 1
126980, 126977, 2
126980, 126978, 2
126980, 126976, 2
126980, 126979, 2
126998, 126997, 2
126998, 127000, 2
126998, 126999, 2
126998, 127001, 2
126998, 127005, 2
126998, 126993, 2
126973, 126975, 2
126973, 126976, 2
126973, 126974, 1
127009, 127006, 2
127009, 127008, 2
127009, 127007, 2
127009, 127005, 2
126982, 126983, 1
126982, 126984, 2
126982, 126981, 2
126982, 126978, 2
126982, 126979, 2
126987, 126985, 2
126987, 126989, 2
126987, 126976, 2
126987, 126984, 2
126987, 126986, 2
126987, 126992, 2
126987, 126988, 2
127004, 127006, 1
127004, 127003, 2
127004, 126978, 2
127004, 127005, 0
127004, 126979, 2
126984, 126985, 1
126984, 126976, 2
126984, 126987, 2
126984, 126979, 2
126984, 126981, 2
126984, 126978, 2
126984, 126982, 2
126984, 126983, 2
126991, 126992, 0
126991, 126979, 2
126991, 126994, 2
126991, 126978, 2
126991, 126999, 2
126991, 126995, 2
126991, 126990, 2
126991, 126993, 1
127006, 127009, 2
127006, 126979, 2
127006, 127004, 2
127006, 127007, 1
127006, 126978, 2
127006, 127005, 2
127008, 127009, 0
127008, 127007, 2
127008, 127005, 2
127000, 126999, 2
127000, 126998, 2
127000, 127001, 1
127000, 126979, 2
126975, 126973, 2
126975, 126976, 2
126975, 126974, 2
126993, 126998, 2
126993, 126997, 2
126993, 126992, 2
126993, 126994, 0
126993, 126999, 1
126993, 126995, 2
126993, 127001, 2
126993, 126996, 2
126993, 126991, 2
126993, 127005, 2
126978, 127006, 2
126978, 126979, 3
126978, 126999, 2
126978, 127001, 2
126978, 126976, 2
126978, 126980, 2
126978, 126981, 2
126978, 126985, 2
126978, 126989, 2
126978, 126988, 2
126978, 127004, 2
126978, 126984, 2
126978, 126977, 2
126978, 126982, 2
126978, 126991, 2
127005, 127006, 2
127005, 126997, 2
127005, 127003, 2
127005, 127002, 2
127005, 126993, 2
127005, 127004, 2
127005, 127007, 2
127005, 126998, 2
127005, 127001, 2
127005, 127009, 2
127005, 127008, 2
126988, 126985, 2
126988, 126989, 1
126988, 126987, 2
126988, 126979, 2
126988, 126986, 2
126988, 126978, 2
126981, 126984, 2
126981, 126978, 2
126981, 126982, 1
126981, 126980, 2
126981, 126979, 2
126997, 126993, 2
126997, 126999, 2
126997, 126996, 2
126997, 127005, 2
126997, 126998, 1
126985, 126987, 2
126985, 126979, 2
126985, 126984, 2
126985, 126986, 1
126985, 126978, 2
126985, 126988, 2
126992, 126989, 2
126992, 126987, 2
126992, 126994, 2
126992, 126993, 2
126992, 126999, 2
126992, 126995, 2
126992, 126990, 2
126992, 126976, 2
126992, 126991, 2
126974, 126973, 2
126974, 126976, 1
126974, 126975, 3
126994, 126993, 2
126994, 126995, 1
126994, 126992, 2
126994, 126991, 2
126989, 126992, 2
126989, 126987, 2
126989, 126979, 2
126989, 126978, 2
126989, 126986, 2
126989, 126990, 1
126989, 126988, 2
126986, 126985, 2
126986, 126989, 2
126986, 126987, 0
126986, 126988, 1
126983, 126984, 1
126983, 126982, 2
126983, 126979, 2
127007, 127006, 2
127007, 127008, 1
127007, 127009, 2
127007, 127005, 2
126996, 126997, 1
126996, 126999, 2
126996, 126995, 2
126996, 126993, 2
126977, 126978, 1
126977, 126980, 2
126977, 126976, 2
