16108, 16107, 2
16108, 16110, 2
16108, 16109, 2
16108, 16111, 2
16108, 16112, 2
16108, 16113, 2
16110, 16111, 1
16110, 16107, 2
16110, 16108, 2
16110, 16109, 2
16115, 16114, 2
16115, 16116, 1
16115, 16113, 2
16112, 16111, 2
16112, 16108, 2
16112, 16113, 1
16117, 16116, 2
16117, 16118, 1
16114, 16115, 1
16114, 16113, 2
16113, 16112, 2
16113, 16107, 2
16113, 16115, 2
16113, 16108, 2
16113, 16114, 1
16107, 16113, 2
16107, 16110, 2
16107, 16108, 0
16107, 16109, 1
16116, 16117, 1
16116, 16115, 2
16109, 16107, 2
16109, 16110, 1
16109, 16108, 2
16111, 16112, 1
16111, 16110, 2
16111, 16108, 2
16118, 16117, 2
