62102, 62101, 2
62102, 62098, 2
62097, 62095, 2
62097, 62099, 1
62097, 62098, 8
62097, 62096, 2
62100, 62099, 2
62100, 62101, 1
62100, 62098, 2
62098, 62102, 2
62098, 62097, 2
62098, 62100, 2
62098, 62099, 2
62098, 62101, 2
62095, 62097, 2
62095, 62096, 1
62095, 62094, 2
62093, 62094, 1
62099, 62097, 2
62099, 62100, 1
62099, 62098, 2
62099, 62101, 2
62101, 62102, 3
62101, 62100, 2
62101, 62098, 2
62101, 62099, 2
62096, 62095, 2
62096, 62097, 1
62094, 62093, 2
62094, 62095, 1
