118341, 118342, 2
118341, 118334, 2
118341, 118337, 2
118341, 118340, 2
118341, 118335, 2
118341, 118339, 2
118336, 118337, 1
118336, 118335, 2
118338, 118337, 2
118338, 118340, 2
118338, 118339, 1
118337, 118341, 2
118337, 118336, 2
118337, 118340, 2
118337, 118338, 1
118342, 118341, 2
118342, 118340, 2
118342, 118339, 2
118340, 118341, 2
118340, 118342, 2
118340, 118338, 2
118340, 118337, 2
118340, 118335, 2
118340, 118339, 2
118334, 118341, 2
118334, 118335, 1
118335, 118341, 2
118335, 118336, 1
118335, 118340, 2
118335, 118334, 2
118339, 118341, 0
118339, 118342, 1
118339, 118340, 3
118339, 118338, 2
