222317, 222316, 2
222317, 222318, 6
222318, 222317, 2
222318, 222315, 2
222318, 222316, 2
222318, 222314, 2
222315, 222314, 2
222315, 222316, 1
222315, 222318, 2
222312, 222311, 2
222312, 222313, 1
222314, 222315, 1
222314, 222318, 2
222314, 222313, 2
222316, 222317, 1
222316, 222315, 2
222316, 222318, 2
222313, 222312, 2
222313, 222314, 1
222311, 222312, 1
