124384, 124383, 2
124384, 124380, 2
124384, 124404, 2
124384, 124378, 2
124384, 124387, 2
124384, 124385, 2
124384, 124386, 2
124384, 124389, 2
124400, 124398, 2
124400, 124401, 1
124400, 124399, 2
124400, 124404, 2
124400, 124389, 2
124390, 124394, 2
124390, 124398, 2
124390, 124396, 2
124390, 124397, 2
124390, 124403, 2
124390, 124386, 2
124390, 124393, 2
124390, 124392, 2
124390, 124383, 2
124390, 124402, 2
124390, 124399, 2
124390, 124388, 2
124390, 124379, 2
124390, 124387, 2
124390, 124391, 2
124395, 124394, 2
124395, 124396, 1
124395, 124397, 2
124395, 124393, 2
124401, 124400, 2
124401, 124402, 1
124404, 124384, 2
124404, 124400, 2
124404, 124402, 2
124404, 124386, 2
124404, 124398, 2
124404, 124396, 2
124404, 124403, 2
124404, 124393, 2
124404, 124391, 2
124404, 124389, 2
124387, 124384, 2
124387, 124392, 2
124387, 124390, 2
124387, 124379, 2
124387, 124385, 2
124387, 124386, 2
124387, 124388, 1
124387, 124394, 2
124387, 124382, 2
124387, 124377, 2
124387, 124383, 2
124387, 124380, 2
124387, 124397, 2
124387, 124393, 2
124387, 124391, 2
124392, 124390, 2
124392, 124393, 1
124392, 124387, 2
124392, 124388, 2
124392, 124391, 2
124392, 124389, 2
124382, 124381, 2
124382, 124387, 2
124382, 124383, 1
124383, 124384, 0
124383, 124382, 2
124383, 124385, 1
124383, 124390, 2
124383, 124387, 2
124383, 124389, 2
124383, 124386, 2
124383, 124388, 2
124380, 124384, 2
124380, 124381, 1
124380, 124379, 2
124380, 124387, 2
124380, 124378, 2
124389, 124384, 2
124389, 124400, 2
124389, 124378, 2
124389, 124398, 2
124389, 124396, 2
124389, 124403, 2
124389, 124385, 2
124389, 124386, 2
124389, 124392, 2
124389, 124377, 2
124389, 124383, 2
124389, 124402, 2
124389, 124404, 2
124389, 124393, 2
124389, 124391, 2
124381, 124382, 1
124381, 124380, 2
124378, 124384, 2
124378, 124377, 2
124378, 124380, 1
124378, 124379, 3
124378, 124389, 2
124398, 124400, 1
124398, 124399, 3
124398, 124390, 2
124398, 124396, 2
124398, 124397, 2
124398, 124389, 2
124398, 124404, 2
124396, 124394, 2
124396, 124390, 2
124396, 124398, 1
124396, 124397, 3
124396, 124395, 2
124396, 124393, 2
124396, 124404, 2
124396, 124389, 2
124379, 124390, 2
124379, 124387, 2
124379, 124380, 2
124379, 124377, 2
124379, 124378, 2
124403, 124402, 2
124403, 124404, 0
124403, 124390, 2
124403, 124389, 2
124385, 124384, 2
124385, 124387, 2
124385, 124383, 2
124385, 124389, 2
124385, 124386, 1
124386, 124384, 2
124386, 124394, 2
124386, 124383, 2
124386, 124391, 1
124386, 124390, 2
124386, 124387, 4
124386, 124388, 2
124386, 124385, 2
124386, 124404, 2
124386, 124389, 6
124388, 124392, 2
124388, 124394, 2
124388, 124383, 2
124388, 124386, 2
124388, 124390, 1
124388, 124387, 2
124388, 124391, 2
124394, 124397, 2
124394, 124390, 2
124394, 124396, 2
124394, 124387, 2
124394, 124395, 2
124394, 124388, 2
124394, 124386, 2
124394, 124393, 2
124377, 124387, 2
124377, 124379, 2
124377, 124378, 1
124377, 124389, 2
124402, 124403, 1
124402, 124401, 2
124402, 124404, 2
124402, 124390, 2
124402, 124389, 2
124399, 124398, 2
124399, 124400, 2
124399, 124397, 2
124399, 124390, 2
124393, 124392, 2
124393, 124394, 3
124393, 124390, 2
124393, 124396, 2
124393, 124397, 2
124393, 124395, 1
124393, 124387, 2
124393, 124404, 2
124393, 124389, 2
124397, 124394, 2
124397, 124399, 2
124397, 124390, 2
124397, 124398, 2
124397, 124396, 2
124397, 124387, 2
124397, 124395, 2
124397, 124393, 2
124391, 124392, 1
124391, 124386, 2
124391, 124390, 2
124391, 124387, 2
124391, 124388, 2
124391, 124404, 2
124391, 124389, 2
