133348, 133337, 2
133348, 133351, 2
133348, 133349, 2
133348, 133339, 2
133348, 133340, 2
133348, 133350, 2
133348, 133346, 2
133336, 133333, 2
133336, 133340, 2
133336, 133337, 2
133336, 133339, 2
133336, 133331, 2
133336, 133332, 2
133336, 133335, 2
133336, 133338, 1
133336, 133334, 2
133321, 133326, 2
133321, 133325, 2
133321, 133320, 2
133321, 133323, 1
133321, 133318, 2
133321, 133328, 2
133321, 133319, 2
133307, 133308, 2
133307, 133313, 2
133307, 133306, 2
133307, 133311, 2
133307, 133309, 1
133296, 133298, 2
133296, 133304, 2
133296, 133297, 1
133296, 133294, 2
133296, 133295, 2
133316, 133317, 1
133316, 133304, 2
133316, 133297, 2
133316, 133310, 2
133316, 133318, 2
133316, 133314, 2
133316, 133315, 2
133316, 133306, 2
133338, 133333, 2
133338, 133336, 2
133338, 133335, 2
133338, 133342, 2
133338, 133337, 2
133338, 133339, 2
133338, 133331, 2
133338, 133332, 2
133338, 133340, 2
133338, 133334, 2
133338, 133341, 2
133317, 133318, 2
133317, 133314, 2
133317, 133315, 2
133317, 133316, 2
133325, 133326, 2
133325, 133327, 2
133325, 133328, 2
133325, 133321, 2
133325, 133323, 2
133325, 133319, 2
133329, 133347, 2
133329, 133344, 2
133329, 133331, 2
133329, 133332, 2
133329, 133339, 2
133329, 133328, 2
133329, 133330, 2
133329, 133335, 2
133329, 133341, 2
133329, 133334, 2
133344, 133347, 2
133344, 133337, 2
133344, 133329, 2
133344, 133339, 2
133344, 133345, 1
133344, 133341, 2
133344, 133349, 2
133314, 133304, 2
133314, 133310, 2
133314, 133316, 0
133314, 133306, 2
133314, 133308, 2
133314, 133317, 2
133314, 133297, 2
133314, 133295, 2
133314, 133311, 2
133314, 133318, 1
133314, 133315, 3
133314, 133312, 2
133314, 133313, 2
133315, 133318, 2
133315, 133317, 2
133315, 133314, 2
133315, 133316, 2
133315, 133295, 2
133324, 133322, 2
133324, 133328, 2
133324, 133319, 2
133324, 133318, 2
133350, 133348, 2
133350, 133352, 1
133350, 133347, 2
133350, 133337, 2
133350, 133351, 3
133350, 133349, 2
133350, 133339, 2
133332, 133333, 2
133332, 133328, 2
133332, 133329, 2
133332, 133338, 2
133332, 133336, 2
133332, 133331, 2
133332, 133334, 1
133345, 133339, 2
133345, 133347, 1
133345, 133344, 2
133319, 133326, 2
133319, 133322, 4
133319, 133327, 2
133319, 133325, 2
133319, 133321, 2
133319, 133320, 6
133319, 133323, 2
133319, 133318, 2
133319, 133328, 1
133319, 133324, 2
133301, 133304, 2
133301, 133302, 1
133301, 133300, 2
133301, 133297, 2
133303, 133308, 2
133303, 133304, 0
133303, 133297, 2
133303, 133295, 2
133303, 133305, 1
133303, 133302, 2
133322, 133318, 2
133322, 133328, 2
133322, 133324, 0
133322, 133319, 2
133346, 133348, 1
133346, 133339, 2
133346, 133340, 2
133346, 133343, 2
133320, 133318, 2
133320, 133328, 2
133320, 133321, 1
133320, 133319, 2
133330, 133333, 2
133330, 133328, 2
133330, 133342, 2
133330, 133329, 2
133330, 133331, 1
133330, 133341, 2
133313, 133308, 2
133313, 133309, 2
133313, 133295, 2
133313, 133310, 2
133313, 133311, 2
133313, 133314, 2
133313, 133307, 2
133313, 133312, 2
133313, 133306, 2
133353, 133352, 2
133353, 133347, 2
133302, 133303, 1
133302, 133304, 2
133302, 133297, 2
133302, 133300, 2
133302, 133295, 2
133302, 133301, 2
133294, 133308, 2
133294, 133298, 1
133294, 133304, 2
133294, 133297, 2
133294, 133295, 3
133294, 133296, 0
133326, 133323, 2
133326, 133327, 1
133326, 133325, 2
133326, 133321, 2
133326, 133319, 2
133328, 133321, 2
133328, 133332, 2
133328, 133323, 2
133328, 133331, 2
133328, 133342, 2
133328, 133341, 2
133328, 133319, 2
133328, 133334, 2
133328, 133333, 2
133328, 133322, 2
133328, 133327, 2
133328, 133325, 2
133328, 133320, 2
133328, 133330, 1
133328, 133329, 0
133328, 133318, 2
133328, 133324, 2
133328, 133339, 2
133309, 133308, 4
133309, 133304, 2
133309, 133311, 2
133309, 133295, 2
133309, 133313, 2
133309, 133310, 1
133309, 133307, 2
133309, 133306, 2
133337, 133348, 2
133337, 133336, 2
133337, 133344, 2
133337, 133335, 2
133337, 133343, 2
133337, 133349, 2
133337, 133338, 2
133337, 133340, 2
133337, 133341, 2
133337, 133333, 2
133337, 133347, 2
133337, 133342, 2
133337, 133339, 1
133337, 133350, 2
133305, 133303, 2
133305, 133308, 2
133305, 133304, 2
133305, 133306, 1
133340, 133348, 2
133340, 133333, 2
133340, 133336, 2
133340, 133343, 2
133340, 133342, 0
133340, 133351, 2
133340, 133339, 2
133340, 133338, 2
133340, 133337, 2
133340, 133346, 2
133341, 133330, 2
133341, 133328, 2
133341, 133344, 1
133341, 133329, 2
133341, 133339, 2
133341, 133338, 2
133341, 133337, 2
133341, 133335, 2
133341, 133331, 2
133341, 133334, 2
133308, 133314, 2
133308, 133309, 2
133308, 133305, 2
133308, 133307, 2
133308, 133299, 2
133308, 133306, 2
133308, 133303, 2
133308, 133298, 2
133308, 133300, 2
133308, 133295, 2
133308, 133313, 2
133308, 133310, 2
133308, 133311, 1
133308, 133312, 2
133308, 133294, 2
133297, 133304, 2
133297, 133296, 2
133297, 133299, 2
133297, 133302, 2
133297, 133303, 2
133297, 133298, 2
133297, 133316, 2
133297, 133300, 2
133297, 133295, 2
133297, 133314, 2
133297, 133301, 2
133297, 133294, 2
133300, 133308, 2
133300, 133304, 2
133300, 133297, 2
133300, 133295, 2
133300, 133301, 1
133300, 133299, 2
133300, 133302, 2
133295, 133303, 2
133295, 133309, 2
133295, 133310, 2
133295, 133296, 2
133295, 133299, 2
133295, 133312, 2
133295, 133308, 2
133295, 133298, 2
133295, 133297, 2
133295, 133300, 2
133295, 133318, 2
133295, 133313, 2
133295, 133314, 2
133295, 133315, 2
133295, 133302, 2
133295, 133294, 2
133311, 133308, 2
133311, 133309, 2
133311, 133310, 2
133311, 133313, 1
133311, 133314, 2
133311, 133307, 2
133311, 133312, 2
133311, 133306, 2
133312, 133308, 2
133312, 133295, 2
133312, 133311, 2
133312, 133310, 2
133312, 133314, 1
133312, 133313, 2
133339, 133348, 2
133339, 133336, 2
133339, 133344, 2
133339, 133335, 2
133339, 133343, 2
133339, 133337, 2
133339, 133351, 2
133339, 133349, 1
133339, 133338, 2
133339, 133345, 2
133339, 133340, 4
133339, 133341, 6
133339, 133346, 2
133339, 133333, 2
133339, 133347, 2
133339, 133342, 2
133339, 133329, 2
133339, 133328, 2
133339, 133350, 2
133333, 133328, 2
133333, 133336, 1
133333, 133331, 2
133333, 133330, 2
133333, 133335, 2
133333, 133338, 2
133333, 133332, 2
133333, 133340, 2
133333, 133334, 2
133333, 133337, 2
133333, 133339, 2
133304, 133309, 2
133304, 133310, 2
133304, 133296, 2
133304, 133316, 2
133304, 133302, 2
133304, 133303, 2
133304, 133298, 2
133304, 133297, 2
133304, 133300, 2
133304, 133305, 2
133304, 133301, 2
133304, 133314, 2
133304, 133306, 2
133304, 133294, 2
133343, 133337, 2
133343, 133349, 2
133343, 133342, 2
133343, 133340, 2
133343, 133339, 2
133343, 133346, 1
133352, 133351, 2
133352, 133347, 2
133352, 133353, 1
133352, 133350, 2
133323, 133326, 1
133323, 133325, 8
133323, 133328, 2
133323, 133321, 2
133323, 133319, 2
133310, 133308, 2
133310, 133304, 2
133310, 133309, 2
133310, 133295, 2
133310, 133311, 2
133310, 133314, 2
133310, 133313, 2
133310, 133316, 2
133310, 133312, 1
133331, 133333, 2
133331, 133328, 2
133331, 133342, 2
133331, 133332, 1
133331, 133329, 2
133331, 133338, 2
133331, 133330, 2
133331, 133336, 2
133331, 133334, 2
133331, 133341, 2
133335, 133333, 2
133335, 133336, 2
133335, 133349, 2
133335, 133329, 2
133335, 133338, 2
133335, 133342, 2
133335, 133339, 2
133335, 133334, 2
133335, 133337, 1
133335, 133341, 2
133327, 133326, 2
133327, 133328, 2
133327, 133325, 2
133327, 133319, 2
133299, 133308, 2
133299, 133298, 2
133299, 133297, 2
133299, 133300, 1
133299, 133295, 2
133334, 133333, 4
133334, 133328, 2
133334, 133331, 2
133334, 133332, 2
133334, 133329, 2
133334, 133338, 2
133334, 133342, 2
133334, 133336, 2
133334, 133335, 1
133334, 133341, 2
133351, 133348, 2
133351, 133352, 2
133351, 133339, 2
133351, 133349, 2
133351, 133340, 2
133351, 133350, 2
133298, 133308, 2
133298, 133304, 2
133298, 133297, 2
133298, 133295, 2
133298, 133296, 2
133298, 133299, 1
133298, 133294, 2
133347, 133352, 2
133347, 133349, 2
133347, 133344, 2
133347, 133345, 2
133347, 133329, 2
133347, 133337, 2
133347, 133353, 2
133347, 133350, 2
133347, 133339, 2
133342, 133340, 2
133342, 133338, 2
133342, 133328, 2
133342, 133343, 1
133342, 133337, 2
133342, 133349, 2
133342, 133331, 2
133342, 133330, 2
133342, 133335, 2
133342, 133334, 2
133342, 133339, 2
133349, 133348, 2
133349, 133347, 2
133349, 133344, 2
133349, 133343, 2
133349, 133342, 2
133349, 133351, 2
133349, 133339, 2
133349, 133337, 2
133349, 133335, 2
133349, 133350, 1
133318, 133322, 2
133318, 133317, 2
133318, 133328, 2
133318, 133321, 2
133318, 133319, 1
133318, 133320, 2
133318, 133295, 2
133318, 133314, 2
133318, 133315, 2
133318, 133324, 2
133318, 133316, 2
133306, 133308, 2
133306, 133304, 2
133306, 133309, 2
133306, 133311, 2
133306, 133305, 2
133306, 133314, 2
133306, 133307, 1
133306, 133313, 2
133306, 133316, 2
