164110, 164116, 2
164110, 164112, 2
164110, 164118, 2
164110, 164126, 2
164110, 164134, 2
164110, 164117, 2
164110, 164120, 2
164110, 164119, 2
164110, 164115, 2
164110, 164122, 2
164110, 164123, 2
164110, 164124, 2
164110, 164132, 2
164110, 164133, 2
164110, 164114, 2
164110, 164125, 2
164110, 164111, 2
164112, 164116, 2
164112, 164113, 0
164112, 164115, 2
164112, 164118, 2
164112, 164117, 2
164112, 164124, 2
164112, 164120, 2
164112, 164110, 2
164112, 164134, 2
164112, 164114, 2
164112, 164111, 2
164126, 164124, 2
164126, 164120, 2
164126, 164110, 2
164126, 164127, 1
164126, 164125, 2
164135, 164133, 2
164135, 164134, 2
164135, 164136, 1
164115, 164116, 1
164115, 164113, 2
164115, 164110, 2
164115, 164112, 2
164115, 164114, 2
164115, 164117, 2
164122, 164120, 2
164122, 164119, 2
164122, 164110, 2
164122, 164118, 2
164122, 164123, 1
164122, 164124, 2
164122, 164121, 2
164136, 164135, 2
164136, 164131, 2
164131, 164127, 2
164131, 164130, 2
164131, 164136, 2
164131, 164132, 2
164131, 164128, 2
164131, 164129, 2
164128, 164127, 2
164128, 164130, 2
164128, 164124, 2
164128, 164131, 2
164128, 164132, 2
164128, 164129, 3
164132, 164133, 1
164132, 164110, 2
164132, 164127, 2
164132, 164130, 2
164132, 164124, 2
164132, 164131, 2
164132, 164134, 2
164132, 164128, 2
164132, 164129, 2
164111, 164120, 2
164111, 164113, 2
164111, 164110, 4
164111, 164112, 1
164111, 164124, 2
164111, 164134, 2
164113, 164114, 1
164113, 164115, 2
164113, 164116, 2
164113, 164112, 2
164113, 164111, 2
164127, 164130, 1
164127, 164126, 2
164127, 164124, 2
164127, 164132, 2
164127, 164128, 3
164127, 164131, 2
164127, 164129, 2
164118, 164120, 2
164118, 164119, 3
164118, 164110, 2
164118, 164112, 2
164118, 164122, 2
164118, 164124, 2
164118, 164121, 1
164118, 164117, 2
164114, 164113, 2
164114, 164115, 1
164114, 164116, 2
164114, 164112, 2
164114, 164110, 2
164114, 164117, 2
164134, 164135, 2
164134, 164110, 2
164134, 164112, 2
164134, 164124, 2
164134, 164132, 2
164134, 164133, 2
164134, 164111, 2
164121, 164124, 2
164121, 164120, 2
164121, 164118, 2
164121, 164122, 1
164121, 164119, 2
164117, 164115, 2
164117, 164116, 2
164117, 164112, 2
164117, 164118, 1
164117, 164110, 2
164117, 164114, 2
164120, 164110, 2
164120, 164112, 2
164120, 164118, 2
164120, 164126, 2
164120, 164121, 2
164120, 164119, 2
164120, 164122, 2
164120, 164123, 2
164120, 164124, 2
164120, 164111, 2
164120, 164125, 2
164120, 164129, 2
164119, 164120, 3
164119, 164110, 2
164119, 164118, 2
164119, 164122, 2
164119, 164124, 2
164119, 164121, 2
164116, 164113, 2
164116, 164115, 2
164116, 164110, 2
164116, 164112, 2
164116, 164114, 2
164116, 164117, 1
164123, 164124, 4
164123, 164120, 2
164123, 164110, 2
164123, 164125, 1
164123, 164122, 2
164124, 164110, 2
164124, 164112, 2
164124, 164118, 2
164124, 164126, 2
164124, 164134, 2
164124, 164121, 2
164124, 164120, 2
164124, 164119, 2
164124, 164122, 2
164124, 164123, 2
164124, 164127, 2
164124, 164132, 2
164124, 164111, 2
164124, 164128, 2
164124, 164125, 2
164124, 164129, 2
164133, 164135, 1
164133, 164132, 2
164133, 164110, 2
164133, 164134, 3
164129, 164120, 2
164129, 164127, 2
164129, 164130, 2
164129, 164124, 2
164129, 164132, 2
164129, 164128, 2
164129, 164131, 2
164125, 164124, 2
164125, 164120, 2
164125, 164110, 2
164125, 164126, 1
164125, 164123, 2
164130, 164127, 2
164130, 164131, 1
164130, 164128, 2
164130, 164132, 2
164130, 164129, 2
