254679, 254678, 2
254679, 254677, 2
254679, 254680, 1
254679, 254681, 2
254679, 254682, 2
254661, 254663, 2
254661, 254662, 1
254674, 254675, 1
254674, 254673, 2
254674, 254672, 2
254681, 254679, 2
254681, 254680, 2
254681, 254682, 1
254666, 254667, 2
254666, 254665, 2
254666, 254668, 2
254668, 254670, 2
254668, 254667, 2
254668, 254666, 2
254668, 254669, 1
254664, 254663, 2
254664, 254665, 1
254667, 254666, 2
254667, 254668, 1
254667, 254665, 2
254663, 254661, 2
254663, 254662, 2
254663, 254664, 1
254672, 254671, 2
254672, 254675, 2
254672, 254670, 2
254672, 254673, 1
254672, 254674, 2
254677, 254679, 2
254677, 254676, 2
254677, 254678, 2
254676, 254675, 2
254676, 254677, 0
254676, 254678, 1
254676, 254673, 2
254670, 254671, 1
254670, 254669, 2
254670, 254668, 2
254670, 254672, 2
254671, 254670, 2
254671, 254672, 1
254680, 254679, 2
254680, 254681, 1
254669, 254670, 1
254669, 254668, 2
254662, 254661, 2
254662, 254663, 1
254665, 254667, 1
254665, 254666, 0
254665, 254664, 2
254675, 254676, 1
254675, 254673, 2
254675, 254672, 2
254675, 254674, 2
254682, 254679, 2
254682, 254681, 2
254678, 254679, 1
254678, 254677, 2
254678, 254676, 2
254673, 254675, 2
254673, 254676, 2
254673, 254672, 2
254673, 254674, 1
