15572, 15573, 2
15572, 15571, 2
15572, 15574, 2
15572, 15570, 2
15575, 15573, 2
15575, 15576, 1
15575, 15574, 2
15568, 15569, 2
15568, 15570, 2
15569, 15571, 1
15569, 15568, 6
15569, 15570, 0
15574, 15572, 2
15574, 15576, 2
15574, 15575, 2
15574, 15573, 2
15574, 15571, 2
15574, 15570, 2
15573, 15572, 6
15573, 15575, 1
15573, 15576, 2
15573, 15574, 0
15573, 15570, 2
15573, 15571, 2
15576, 15575, 2
15576, 15573, 2
15576, 15574, 2
15570, 15572, 2
15570, 15568, 2
15570, 15569, 2
15570, 15574, 2
15570, 15573, 2
15570, 15571, 2
15571, 15572, 2
15571, 15573, 1
15571, 15570, 2
15571, 15569, 2
15571, 15574, 2
