64008, 64006, 2
64008, 64010, 0
64008, 64009, 3
64008, 64012, 2
64008, 64011, 1
64008, 64007, 2
64008, 64005, 2
64003, 64004, 2
64003, 64005, 2
64003, 64002, 2
64010, 64012, 2
64010, 64008, 2
64010, 64011, 2
64010, 64009, 2
64009, 64012, 2
64009, 64008, 2
64009, 64010, 2
64009, 64011, 2
64012, 64008, 2
64012, 64010, 2
64012, 64009, 2
64012, 64014, 1
64012, 64011, 2
64012, 64015, 2
64012, 64016, 2
64012, 64013, 0
64007, 64008, 1
64007, 64005, 2
64007, 64006, 2
64015, 64012, 2
64015, 64016, 3
64015, 64017, 0
64015, 64013, 2
64015, 64014, 2
64005, 64006, 0
64005, 64003, 2
64005, 64002, 2
64005, 64008, 2
64005, 64007, 1
64005, 64004, 2
64014, 64012, 2
64014, 64017, 2
64014, 64013, 2
64014, 64015, 1
64006, 64008, 2
64006, 64007, 2
64006, 64005, 2
64004, 64003, 2
64004, 64005, 1
64004, 64002, 2
64002, 64003, 3
64002, 64005, 2
64002, 64004, 1
64016, 64012, 2
64016, 64017, 2
64016, 64015, 2
64011, 64012, 1
64011, 64008, 2
64011, 64010, 2
64011, 64009, 2
64017, 64014, 2
64017, 64016, 2
64017, 64013, 2
64017, 64015, 2
64013, 64012, 2
64013, 64014, 2
64013, 64017, 2
64013, 64015, 2
