62438, 62439, 1
62438, 62436, 2
62438, 62437, 2
62440, 62439, 2
62440, 62436, 2
62436, 62434, 2
62436, 62438, 2
62436, 62440, 2
62436, 62439, 2
62436, 62431, 2
62436, 62437, 2
62436, 62432, 2
62436, 62433, 2
62436, 62429, 2
62436, 62435, 2
62434, 62433, 2
62434, 62431, 2
62434, 62437, 2
62434, 62432, 2
62434, 62436, 2
62434, 62435, 1
62432, 62431, 2
62432, 62433, 0
62432, 62436, 2
62432, 62434, 1
62433, 62434, 2
62433, 62436, 2
62433, 62432, 2
62430, 62431, 1
62430, 62429, 2
62439, 62440, 0
62439, 62436, 2
62439, 62438, 2
62437, 62436, 2
62437, 62435, 2
62437, 62434, 2
62437, 62438, 1
62431, 62434, 2
62431, 62430, 2
62431, 62436, 2
62431, 62429, 2
62431, 62432, 1
62429, 62436, 2
62429, 62430, 1
62429, 62431, 2
62435, 62434, 2
62435, 62437, 1
62435, 62436, 6
