197099, 197097, 2
197099, 197098, 2
197099, 197100, 3
197099, 197101, 1
197102, 197100, 2
197102, 197101, 2
197100, 197102, 2
197100, 197099, 2
197100, 197101, 2
197098, 197097, 2
197098, 197099, 2
197097, 197098, 3
197097, 197099, 1
197101, 197099, 2
197101, 197100, 2
197101, 197102, 1
