186801, 186806, 2
186801, 186803, 8
186801, 186804, 1
186801, 186800, 2
186801, 186802, 3
186803, 186801, 2
186803, 186804, 2
186803, 186802, 2
186804, 186801, 2
186804, 186806, 1
186804, 186803, 2
186804, 186805, 3
186804, 186802, 2
186802, 186801, 2
186802, 186803, 2
186802, 186804, 2
186802, 186800, 2
186806, 186801, 2
186806, 186804, 2
186806, 186805, 2
186800, 186801, 1
186800, 186802, 2
186805, 186806, 2
186805, 186804, 2
