62831, 62829, 2
62831, 62830, 2
62831, 62832, 1
62829, 62831, 2
62829, 62828, 2
62829, 62830, 1
62833, 62834, 1
62833, 62838, 2
62833, 62832, 2
62832, 62831, 2
62832, 62833, 1
62838, 62839, 2
62838, 62837, 2
62838, 62833, 2
62836, 62837, 1
62836, 62835, 2
62828, 62829, 1
62839, 62840, 3
62839, 62838, 2
62839, 62837, 2
62834, 62835, 1
62834, 62833, 2
62837, 62839, 1
62837, 62836, 2
62837, 62838, 3
62830, 62831, 1
62830, 62829, 2
62840, 62839, 2
62835, 62834, 2
62835, 62836, 1
