197172, 197170, 2
197172, 197169, 2
197172, 197171, 2
197172, 197173, 1
197170, 197172, 1
197170, 197169, 2
197170, 197171, 3
197174, 197173, 2
197169, 197172, 2
197169, 197170, 1
197169, 197171, 2
197171, 197172, 2
197171, 197170, 2
197171, 197169, 2
197173, 197172, 2
197173, 197174, 1
