21353, 21355, 2
21353, 21356, 2
21353, 21358, 2
21353, 21354, 1
21358, 21353, 2
21358, 21356, 2
21358, 21354, 2
21358, 21355, 2
21358, 21357, 2
21357, 21355, 2
21357, 21356, 2
21357, 21358, 2
21357, 21354, 2
21355, 21357, 2
21355, 21353, 2
21355, 21356, 2
21355, 21358, 2
21355, 21354, 2
21356, 21353, 2
21356, 21354, 2
21356, 21358, 0
21356, 21355, 6
21356, 21357, 3
21354, 21353, 2
21354, 21356, 1
21354, 21358, 2
21354, 21355, 2
21354, 21357, 2
