163509, 163511, 2
163509, 163508, 2
163509, 163510, 1
163530, 163528, 2
163530, 163529, 2
163516, 163517, 1
163516, 163524, 2
163516, 163523, 2
163516, 163515, 2
163516, 163512, 2
163516, 163511, 2
163516, 163518, 2
163516, 163519, 2
163516, 163528, 2
163516, 163513, 2
163516, 163514, 2
163511, 163517, 2
163511, 163509, 2
163511, 163508, 2
163511, 163515, 2
163511, 163516, 2
163511, 163518, 2
163511, 163510, 2
163511, 163512, 1
163511, 163528, 2
163511, 163521, 2
163511, 163519, 2
163511, 163513, 2
163511, 163514, 2
163526, 163517, 2
163526, 163528, 2
163526, 163523, 2
163526, 163527, 2
163526, 163525, 2
163518, 163517, 2
163518, 163528, 2
163518, 163523, 2
163518, 163521, 2
163518, 163520, 1
163518, 163515, 2
163518, 163512, 2
163518, 163516, 2
163518, 163511, 2
163518, 163513, 2
163518, 163514, 2
163528, 163517, 2
163528, 163530, 2
163528, 163516, 2
163528, 163525, 2
163528, 163511, 2
163528, 163526, 2
163528, 163518, 2
163528, 163527, 2
163528, 163529, 1
163528, 163524, 2
163528, 163523, 2
163528, 163519, 2
163512, 163516, 1
163512, 163515, 2
163512, 163519, 2
163512, 163511, 2
163512, 163518, 2
163512, 163513, 3
163524, 163517, 2
163524, 163528, 2
163524, 163522, 2
163524, 163516, 2
163524, 163519, 2
163523, 163517, 2
163523, 163528, 2
163523, 163521, 2
163523, 163516, 2
163523, 163525, 1
163523, 163526, 2
163523, 163518, 2
163523, 163527, 2
163523, 163520, 2
163521, 163517, 2
163521, 163523, 2
163521, 163520, 2
163521, 163525, 2
163521, 163511, 2
163521, 163518, 2
163521, 163527, 2
163520, 163517, 2
163520, 163523, 1
163520, 163521, 3
163520, 163518, 2
163519, 163512, 2
163519, 163524, 1
163519, 163522, 0
163519, 163515, 2
163519, 163516, 2
163519, 163517, 2
163519, 163511, 2
163519, 163528, 2
163513, 163512, 2
163513, 163516, 2
163513, 163515, 2
163513, 163511, 2
163513, 163518, 2
163513, 163514, 1
163517, 163525, 2
163517, 163516, 2
163517, 163511, 2
163517, 163526, 2
163517, 163518, 4
163517, 163527, 2
163517, 163524, 2
163517, 163528, 1
163517, 163523, 2
163517, 163521, 2
163517, 163520, 2
163517, 163519, 6
163517, 163522, 2
163517, 163514, 2
163508, 163511, 2
163508, 163509, 1
163508, 163510, 2
163525, 163517, 2
163525, 163528, 2
163525, 163523, 2
163525, 163521, 2
163525, 163526, 6
163525, 163527, 3
163515, 163512, 2
163515, 163516, 2
163515, 163519, 2
163515, 163511, 2
163515, 163518, 2
163515, 163513, 2
163515, 163514, 2
163527, 163517, 2
163527, 163528, 2
163527, 163523, 2
163527, 163521, 2
163527, 163525, 2
163527, 163526, 2
163510, 163511, 1
163510, 163509, 2
163510, 163508, 2
163529, 163528, 2
163529, 163530, 1
163522, 163517, 2
163522, 163524, 2
163522, 163519, 2
163514, 163517, 2
163514, 163516, 2
163514, 163515, 6
163514, 163511, 2
163514, 163518, 2
163514, 163513, 2
