66473, 66470, 2
66473, 66471, 2
66473, 66469, 2
66473, 66472, 2
66464, 66466, 2
66464, 66465, 1
66464, 66463, 2
66464, 66462, 2
66458, 66454, 2
66458, 66462, 2
66458, 66456, 2
66458, 66455, 2
66458, 66457, 2
66458, 66459, 1
66466, 66464, 2
66466, 66462, 2
66466, 66465, 2
66466, 66467, 1
66465, 66464, 2
66465, 66462, 2
66465, 66466, 1
66451, 66450, 2
66451, 66452, 1
66454, 66455, 0
66454, 66458, 1
66454, 66452, 2
66454, 66456, 2
66454, 66457, 2
66454, 66453, 2
66456, 66454, 2
66456, 66458, 2
66456, 66457, 1
66456, 66455, 2
66469, 66473, 1
66469, 66470, 0
66469, 66471, 2
66469, 66468, 2
66469, 66462, 2
66469, 66472, 2
66462, 66464, 2
66462, 66458, 2
66462, 66460, 2
66462, 66466, 2
66462, 66465, 2
66462, 66459, 2
66462, 66457, 2
66462, 66467, 2
66462, 66461, 2
66462, 66463, 2
66462, 66469, 2
66462, 66472, 2
66461, 66463, 1
66461, 66460, 2
66461, 66459, 2
66461, 66462, 6
66463, 66464, 1
66463, 66461, 2
66463, 66462, 2
66457, 66454, 2
66457, 66458, 2
66457, 66455, 2
66457, 66456, 2
66457, 66462, 2
66453, 66454, 1
66453, 66455, 2
66453, 66452, 2
66460, 66461, 2
66460, 66459, 2
66460, 66462, 2
66452, 66451, 2
66452, 66454, 2
66452, 66453, 1
66452, 66455, 2
66468, 66469, 1
66468, 66467, 2
66449, 66450, 1
66459, 66461, 1
66459, 66458, 2
66459, 66460, 8
66459, 66462, 2
66467, 66468, 1
66467, 66462, 2
66467, 66466, 2
66470, 66473, 2
66470, 66472, 2
66470, 66469, 2
66470, 66471, 1
66450, 66451, 1
66450, 66449, 2
66471, 66473, 2
66471, 66470, 2
66471, 66469, 2
66471, 66472, 1
66455, 66454, 2
66455, 66458, 2
66455, 66452, 2
66455, 66456, 1
66455, 66457, 2
66455, 66453, 2
66472, 66473, 2
66472, 66470, 2
66472, 66471, 2
66472, 66469, 2
66472, 66462, 2
