122208, 122211, 2
122208, 122214, 2
122208, 122210, 2
122208, 122212, 2
122208, 122213, 2
122208, 122216, 2
122208, 122207, 2
122208, 122206, 2
122208, 122209, 2
122211, 122208, 2
122211, 122214, 2
122211, 122218, 2
122211, 122210, 2
122211, 122221, 2
122211, 122219, 2
122211, 122213, 3
122211, 122215, 2
122211, 122207, 2
122211, 122206, 2
122211, 122209, 2
122205, 122206, 1
122205, 122204, 2
122205, 122203, 2
122218, 122216, 2
122218, 122211, 2
122218, 122222, 1
122218, 122212, 2
122218, 122221, 2
122218, 122217, 2
122218, 122220, 4
122218, 122215, 2
122218, 122219, 6
122203, 122204, 3
122203, 122205, 1
122203, 122206, 2
122203, 122202, 2
122214, 122208, 2
122214, 122216, 2
122214, 122210, 2
122214, 122212, 2
122214, 122213, 2
122214, 122215, 1
122214, 122207, 2
122214, 122206, 2
122214, 122211, 2
122214, 122209, 2
122212, 122208, 2
122212, 122214, 2
122212, 122206, 2
122212, 122216, 2
122212, 122222, 2
122212, 122218, 2
122212, 122210, 2
122212, 122215, 2
122212, 122207, 2
122212, 122220, 2
122212, 122217, 2
122212, 122209, 2
122213, 122208, 2
122213, 122211, 2
122213, 122210, 2
122213, 122214, 2
122213, 122219, 2
122213, 122215, 2
122213, 122207, 2
122213, 122206, 2
122213, 122209, 2
122215, 122211, 2
122215, 122214, 2
122215, 122222, 2
122215, 122218, 2
122215, 122221, 2
122215, 122212, 2
122215, 122213, 2
122215, 122216, 3
122215, 122220, 2
122215, 122217, 1
122215, 122219, 2
122220, 122216, 2
122220, 122222, 2
122220, 122218, 2
122220, 122212, 2
122220, 122215, 2
122220, 122207, 2
122220, 122206, 2
122220, 122217, 2
122220, 122209, 2
122219, 122211, 2
122219, 122216, 2
122219, 122222, 2
122219, 122210, 2
122219, 122218, 2
122219, 122221, 3
122219, 122213, 2
122219, 122215, 2
122219, 122217, 2
122222, 122216, 2
122222, 122209, 2
122222, 122218, 2
122222, 122212, 2
122222, 122221, 2
122222, 122215, 2
122222, 122207, 2
122222, 122220, 2
122222, 122217, 2
122222, 122219, 2
122210, 122208, 2
122210, 122211, 6
122210, 122209, 2
122210, 122214, 1
122210, 122212, 4
122210, 122213, 2
122210, 122207, 2
122210, 122206, 2
122210, 122219, 2
122202, 122206, 2
122202, 122203, 1
122216, 122208, 2
122216, 122214, 2
122216, 122218, 2
122216, 122212, 2
122216, 122217, 2
122216, 122219, 2
122216, 122222, 2
122216, 122221, 2
122216, 122207, 2
122216, 122220, 2
122216, 122215, 2
122216, 122209, 2
122221, 122211, 2
122221, 122216, 2
122221, 122222, 2
122221, 122218, 2
122221, 122215, 2
122221, 122217, 2
122221, 122219, 2
122204, 122206, 2
122204, 122205, 2
122204, 122203, 2
122207, 122208, 3
122207, 122211, 2
122207, 122222, 2
122207, 122210, 2
122207, 122214, 2
122207, 122212, 2
122207, 122213, 2
122207, 122216, 2
122207, 122206, 2
122207, 122220, 2
122207, 122209, 1
122206, 122208, 2
122206, 122211, 2
122206, 122205, 2
122206, 122203, 2
122206, 122214, 2
122206, 122212, 2
122206, 122213, 2
122206, 122202, 2
122206, 122210, 2
122206, 122204, 2
122206, 122207, 1
122206, 122220, 2
122206, 122209, 2
122217, 122216, 2
122217, 122218, 1
122217, 122212, 2
122217, 122221, 2
122217, 122215, 2
122217, 122222, 2
122217, 122220, 2
122217, 122219, 2
122209, 122208, 2
122209, 122211, 2
122209, 122222, 2
122209, 122210, 1
122209, 122214, 2
122209, 122212, 2
122209, 122213, 2
122209, 122216, 2
122209, 122207, 2
122209, 122206, 2
122209, 122220, 2
