62249, 62251, 2
62249, 62250, 1
62249, 62248, 2
62249, 62247, 2
62257, 62253, 2
62257, 62256, 2
62257, 62254, 2
62257, 62255, 2
62252, 62251, 2
62252, 62253, 1
62250, 62249, 2
62250, 62251, 1
62254, 62257, 2
62254, 62255, 2
62254, 62253, 2
62256, 62257, 2
62256, 62253, 2
62256, 62255, 2
62251, 62249, 2
62251, 62250, 2
62251, 62252, 1
62255, 62257, 1
62255, 62253, 2
62255, 62254, 2
62255, 62256, 6
62253, 62257, 2
62253, 62256, 2
62253, 62254, 8
62253, 62255, 1
62253, 62252, 2
62248, 62249, 2
62248, 62247, 2
62247, 62249, 1
62247, 62248, 3
