120117, 120118, 1
120117, 120116, 2
120118, 120117, 2
120118, 120119, 1
120130, 120131, 0
120130, 120127, 2
120130, 120129, 2
120130, 120128, 2
120128, 120127, 2
120128, 120129, 1
120128, 120130, 2
120125, 120122, 2
120125, 120126, 1
120125, 120124, 2
120127, 120130, 2
120127, 120129, 2
120127, 120126, 2
120127, 120128, 1
120129, 120131, 2
120129, 120127, 2
120129, 120130, 3
120129, 120128, 2
120126, 120125, 2
120126, 120127, 1
120131, 120129, 2
120131, 120130, 2
120116, 120117, 1
120122, 120125, 2
120122, 120123, 2
120122, 120119, 2
120122, 120121, 2
120121, 120120, 2
120121, 120123, 1
120121, 120122, 8
120121, 120119, 2
120123, 120122, 2
120123, 120121, 2
120123, 120124, 1
120120, 120119, 2
120120, 120121, 1
120119, 120118, 2
120119, 120120, 1
120119, 120122, 2
120119, 120121, 2
120124, 120125, 1
120124, 120123, 2
