257898, 257896, 2
257898, 257899, 1
257898, 257897, 2
257900, 257899, 2
257900, 257897, 2
257896, 257898, 1
257896, 257899, 2
257896, 257897, 6
257899, 257898, 2
257899, 257900, 0
257899, 257896, 2
257899, 257897, 2
257897, 257898, 2
257897, 257900, 2
257897, 257896, 2
257897, 257899, 2
