168940, 168942, 2
168940, 168954, 2
168940, 168941, 1
168940, 168943, 2
168940, 168935, 2
168940, 168955, 2
168940, 168947, 2
168940, 168946, 2
168940, 168939, 2
168940, 168936, 2
168940, 168937, 2
168966, 168964, 2
168966, 168967, 0
168966, 168968, 1
168966, 168960, 2
168966, 168965, 2
168971, 168957, 2
168971, 168972, 1
168971, 168970, 2
168971, 168955, 2
168925, 168924, 2
168925, 168933, 2
168925, 168930, 2
168925, 168926, 1
168949, 168948, 2
168949, 168951, 1
168949, 168955, 2
168949, 168945, 2
168949, 168947, 2
168949, 168944, 2
168949, 168953, 2
168938, 168954, 2
168938, 168929, 2
168938, 168946, 2
168938, 168933, 2
168938, 168935, 2
168938, 168927, 2
168938, 168943, 2
168938, 168955, 2
168938, 168931, 2
168938, 168939, 1
168938, 168947, 2
168938, 168936, 2
168938, 168937, 4
168938, 168928, 2
168943, 168942, 2
168943, 168948, 2
168943, 168940, 2
168943, 168941, 2
168943, 168946, 2
168943, 168944, 2
168943, 168935, 2
168943, 168938, 2
168943, 168939, 2
168943, 168955, 2
168943, 168952, 2
168943, 168931, 2
168943, 168936, 2
168935, 168942, 2
168935, 168948, 2
168935, 168940, 2
168935, 168936, 0
168935, 168934, 2
168935, 168946, 2
168935, 168938, 2
168935, 168943, 2
168935, 168955, 2
168935, 168952, 2
168935, 168931, 2
168935, 168929, 2
168935, 168928, 2
168963, 168964, 1
168963, 168960, 2
168963, 168965, 2
168963, 168962, 2
168947, 168948, 2
168947, 168954, 2
168947, 168940, 2
168947, 168941, 2
168947, 168958, 2
168947, 168945, 2
168947, 168944, 2
168947, 168933, 2
168947, 168951, 2
168947, 168949, 1
168947, 168938, 2
168947, 168953, 2
168947, 168937, 2
168947, 168946, 2
168972, 168971, 2
168930, 168927, 2
168930, 168925, 2
168930, 168926, 2
168930, 168931, 1
168930, 168929, 2
168930, 168924, 2
168930, 168928, 2
168928, 168927, 2
168928, 168938, 2
168928, 168935, 2
168928, 168934, 2
168928, 168931, 2
168928, 168929, 1
168928, 168933, 2
168928, 168930, 2
168948, 168951, 2
168948, 168958, 2
168948, 168952, 2
168948, 168933, 2
168948, 168949, 2
168948, 168943, 2
168948, 168947, 4
168948, 168950, 2
168948, 168959, 2
168948, 168957, 2
168948, 168954, 2
168948, 168945, 2
168948, 168953, 1
168948, 168960, 2
168948, 168944, 2
168948, 168935, 2
168948, 168946, 6
168948, 168955, 2
168948, 168962, 2
168948, 168936, 2
168948, 168937, 2
168948, 168956, 2
168954, 168948, 2
168954, 168940, 2
168954, 168951, 2
168954, 168958, 2
168954, 168944, 2
168954, 168933, 2
168954, 168938, 2
168954, 168952, 2
168954, 168947, 2
168954, 168950, 2
168954, 168953, 2
168954, 168937, 2
168954, 168956, 1
168945, 168948, 1
168945, 168949, 2
168945, 168951, 2
168945, 168952, 2
168945, 168946, 2
168945, 168947, 2
168945, 168950, 2
168945, 168944, 2
168959, 168948, 2
168959, 168955, 2
168959, 168961, 1
168959, 168962, 2
168959, 168960, 2
168959, 168958, 2
168959, 168953, 2
168959, 168965, 2
168967, 168964, 2
168967, 168969, 2
168967, 168955, 2
168967, 168968, 2
168967, 168960, 2
168967, 168966, 2
168967, 168965, 2
168961, 168960, 2
168961, 168958, 2
168961, 168959, 2
168961, 168957, 2
168961, 168962, 1
168962, 168948, 2
168962, 168964, 2
168962, 168963, 1
168962, 168955, 2
168962, 168958, 2
168962, 168960, 2
168962, 168965, 2
168962, 168959, 2
168962, 168961, 2
168952, 168948, 2
168952, 168954, 2
168952, 168951, 2
168952, 168945, 2
168952, 168944, 2
168952, 168935, 2
168952, 168946, 2
168952, 168943, 2
168952, 168955, 2
168952, 168950, 2
168952, 168936, 2
168952, 168953, 2
168937, 168942, 2
168937, 168954, 2
168937, 168940, 2
168937, 168941, 2
168937, 168948, 2
168937, 168944, 2
168937, 168933, 2
168937, 168938, 2
168937, 168939, 2
168937, 168947, 2
168937, 168929, 2
168937, 168936, 2
168942, 168940, 2
168942, 168941, 2
168942, 168943, 6
168942, 168937, 2
168942, 168955, 2
168942, 168946, 2
168942, 168931, 2
168942, 168944, 1
168942, 168935, 2
168942, 168936, 2
168932, 168934, 1
168932, 168931, 2
168932, 168929, 2
168941, 168942, 1
168941, 168940, 2
168941, 168943, 2
168941, 168947, 2
168941, 168944, 2
168941, 168937, 2
168955, 168948, 2
168955, 168964, 2
168955, 168940, 2
168955, 168958, 2
168955, 168946, 2
168955, 168953, 2
168955, 168944, 2
168955, 168971, 2
168955, 168935, 2
168955, 168942, 2
168955, 168949, 2
168955, 168967, 2
168955, 168938, 2
168955, 168943, 2
168955, 168962, 2
168955, 168939, 2
168955, 168952, 2
168955, 168936, 2
168955, 168959, 2
168958, 168948, 2
168958, 168954, 2
168958, 168955, 2
168958, 168964, 2
168958, 168946, 2
168958, 168953, 2
168958, 168960, 3
168958, 168962, 2
168958, 168961, 2
168958, 168947, 2
168958, 168968, 2
168958, 168950, 2
168958, 168965, 1
168958, 168959, 0
168958, 168957, 2
168958, 168956, 2
168934, 168932, 2
168934, 168931, 2
168934, 168929, 2
168934, 168935, 2
168934, 168928, 2
168926, 168927, 1
168926, 168925, 2
168926, 168930, 2
168926, 168933, 2
168933, 168948, 2
168933, 168954, 2
168933, 168927, 2
168933, 168938, 2
168933, 168925, 2
168933, 168926, 2
168933, 168947, 2
168933, 168929, 2
168933, 168951, 2
168933, 168937, 2
168933, 168928, 2
168939, 168940, 1
168939, 168938, 2
168939, 168943, 2
168939, 168955, 2
168939, 168946, 2
168939, 168936, 2
168939, 168937, 2
168970, 168968, 2
168970, 168960, 2
168970, 168969, 2
168970, 168971, 1
168970, 168957, 2
168968, 168967, 2
168968, 168969, 1
168968, 168970, 2
168968, 168958, 2
168968, 168960, 2
168968, 168966, 2
168968, 168957, 2
168950, 168948, 2
168950, 168954, 2
168950, 168958, 2
168950, 168945, 2
168950, 168952, 1
168950, 168944, 2
168950, 168953, 2
168950, 168946, 2
168953, 168948, 2
168953, 168954, 4
168953, 168951, 2
168953, 168958, 1
168953, 168946, 2
168953, 168960, 2
168953, 168949, 2
168953, 168955, 6
168953, 168952, 2
168953, 168947, 2
168953, 168950, 2
168953, 168959, 2
168953, 168957, 2
168953, 168956, 2
168957, 168948, 2
168957, 168970, 2
168957, 168961, 2
168957, 168958, 2
168957, 168968, 2
168957, 168960, 2
168957, 168965, 2
168957, 168953, 2
168957, 168971, 2
168957, 168956, 2
168965, 168964, 2
168965, 168967, 2
168965, 168962, 2
168965, 168963, 2
168965, 168958, 2
168965, 168960, 2
168965, 168966, 1
168965, 168959, 2
168965, 168957, 2
168964, 168967, 2
168964, 168958, 2
168964, 168963, 2
168964, 168955, 2
168964, 168962, 2
168964, 168960, 2
168964, 168966, 2
168964, 168965, 2
168936, 168942, 2
168936, 168948, 2
168936, 168940, 2
168936, 168946, 2
168936, 168944, 2
168936, 168935, 2
168936, 168938, 2
168936, 168943, 2
168936, 168955, 2
168936, 168952, 2
168936, 168939, 2
168936, 168929, 2
168936, 168937, 2
168936, 168931, 2
168923, 168924, 1
168960, 168948, 2
168960, 168964, 2
168960, 168961, 2
168960, 168958, 2
168960, 168953, 2
168960, 168966, 2
168960, 168967, 2
168960, 168970, 2
168960, 168963, 2
168960, 168962, 2
168960, 168968, 2
168960, 168959, 2
168960, 168957, 2
168960, 168965, 2
168944, 168942, 2
168944, 168954, 2
168944, 168941, 2
168944, 168948, 2
168944, 168945, 1
168944, 168949, 2
168944, 168951, 2
168944, 168943, 2
168944, 168955, 2
168944, 168952, 2
168944, 168947, 2
168944, 168950, 2
168944, 168936, 2
168944, 168937, 2
168944, 168946, 2
168951, 168948, 2
168951, 168949, 2
168951, 168944, 2
168951, 168954, 2
168951, 168945, 2
168951, 168947, 2
168951, 168952, 2
168951, 168953, 2
168951, 168933, 2
168951, 168956, 2
168946, 168942, 2
168946, 168948, 2
168946, 168940, 2
168946, 168958, 2
168946, 168945, 2
168946, 168944, 2
168946, 168935, 2
168946, 168938, 2
168946, 168943, 2
168946, 168955, 2
168946, 168952, 2
168946, 168939, 2
168946, 168947, 2
168946, 168950, 1
168946, 168936, 2
168946, 168953, 2
168946, 168931, 2
168927, 168938, 2
168927, 168926, 2
168927, 168929, 2
168927, 168933, 2
168927, 168930, 2
168927, 168928, 1
168969, 168968, 2
168969, 168967, 2
168969, 168970, 1
168931, 168932, 4
168931, 168942, 2
168931, 168938, 2
168931, 168943, 2
168931, 168936, 2
168931, 168946, 2
168931, 168934, 2
168931, 168929, 2
168931, 168935, 1
168931, 168930, 2
168931, 168928, 2
168929, 168932, 2
168929, 168927, 2
168929, 168938, 1
168929, 168935, 2
168929, 168937, 2
168929, 168934, 2
168929, 168931, 2
168929, 168936, 2
168929, 168933, 4
168929, 168930, 6
168929, 168928, 2
168924, 168923, 2
168924, 168925, 1
168924, 168930, 2
168956, 168948, 2
168956, 168954, 2
168956, 168951, 2
168956, 168958, 2
168956, 168953, 2
168956, 168957, 1
