72167, 72166, 2
72167, 72168, 1
72166, 72167, 1
72166, 72165, 2
72166, 72168, 2
72165, 72164, 2
72165, 72166, 1
72165, 72163, 2
72163, 72164, 3
72163, 72165, 1
72164, 72165, 2
72164, 72163, 2
72168, 72167, 2
72168, 72166, 2
