131874, 131876, 1
131874, 131872, 2
131874, 131873, 2
131874, 131875, 3
131913, 131909, 2
131913, 131917, 2
131913, 131921, 2
131913, 131915, 2
131913, 131908, 2
131913, 131889, 2
131913, 131922, 2
131913, 131898, 2
131913, 131885, 2
131913, 131919, 2
131913, 131883, 2
131913, 131911, 2
131913, 131884, 2
131913, 131907, 2
131913, 131887, 2
131913, 131918, 2
131913, 131900, 2
131913, 131912, 2
131910, 131911, 2
131910, 131904, 2
131910, 131914, 2
131910, 131915, 2
131910, 131908, 2
131910, 131907, 2
131910, 131909, 2
131910, 131912, 2
131910, 131906, 2
131910, 131905, 2
131882, 131880, 2
131882, 131883, 2
131882, 131879, 2
131889, 131884, 2
131889, 131913, 2
131889, 131888, 2
131889, 131892, 2
131889, 131890, 0
131889, 131885, 2
131889, 131891, 1
131889, 131897, 2
131922, 131919, 2
131922, 131911, 2
131922, 131884, 2
131922, 131921, 2
131922, 131915, 2
131922, 131923, 1
131922, 131914, 2
131922, 131918, 2
131922, 131920, 2
131922, 131913, 2
131922, 131885, 2
131901, 131904, 2
131901, 131907, 2
131901, 131903, 2
131901, 131902, 2
131901, 131896, 2
131901, 131900, 2
131901, 131898, 2
131901, 131895, 2
131905, 131904, 2
131905, 131907, 2
131905, 131910, 2
131905, 131906, 1
131905, 131902, 2
131920, 131919, 2
131920, 131922, 2
131920, 131921, 1
131916, 131919, 2
131916, 131911, 2
131916, 131917, 1
131916, 131914, 2
131916, 131915, 2
131887, 131884, 2
131887, 131913, 2
131887, 131890, 2
131887, 131886, 2
131887, 131885, 2
131887, 131888, 1
131904, 131905, 1
131904, 131907, 2
131904, 131910, 2
131904, 131903, 2
131904, 131902, 2
131904, 131901, 2
131907, 131905, 2
131907, 131913, 2
131907, 131910, 2
131907, 131902, 2
131907, 131908, 1
131907, 131901, 2
131907, 131885, 2
131907, 131906, 2
131907, 131884, 2
131907, 131903, 2
131907, 131904, 2
131907, 131900, 2
131888, 131887, 2
131888, 131890, 2
131888, 131889, 1
131888, 131885, 2
131876, 131872, 2
131876, 131874, 2
131876, 131878, 0
131876, 131873, 2
131876, 131877, 3
131876, 131879, 1
131876, 131875, 2
131918, 131919, 2
131918, 131917, 2
131918, 131913, 2
131918, 131915, 2
131918, 131922, 2
131900, 131884, 2
131900, 131907, 2
131900, 131903, 2
131900, 131902, 1
131900, 131896, 2
131900, 131913, 2
131900, 131901, 0
131900, 131885, 2
131900, 131899, 2
131895, 131897, 2
131895, 131896, 1
131895, 131901, 2
131895, 131894, 2
131895, 131891, 2
131895, 131885, 2
131893, 131892, 2
131893, 131890, 2
131893, 131894, 1
131893, 131891, 2
131893, 131897, 2
131908, 131907, 2
131908, 131909, 1
131908, 131913, 2
131908, 131910, 2
131908, 131906, 2
131871, 131872, 1
131871, 131873, 2
131885, 131913, 2
131885, 131895, 2
131885, 131900, 2
131885, 131889, 2
131885, 131922, 2
131885, 131898, 2
131885, 131891, 2
131885, 131919, 2
131885, 131883, 2
131885, 131911, 2
131885, 131884, 2
131885, 131897, 2
131885, 131888, 2
131885, 131887, 2
131885, 131896, 2
131885, 131907, 2
131885, 131886, 2
131885, 131915, 2
131891, 131893, 2
131891, 131895, 2
131891, 131885, 2
131891, 131890, 2
131891, 131892, 0
131891, 131897, 1
131891, 131896, 2
131891, 131894, 2
131891, 131889, 2
131891, 131898, 2
131912, 131914, 6
131912, 131911, 2
131912, 131913, 4
131912, 131910, 2
131912, 131915, 1
131884, 131913, 2
131884, 131900, 2
131884, 131889, 2
131884, 131922, 2
131884, 131885, 3
131884, 131898, 2
131884, 131919, 2
131884, 131883, 2
131884, 131907, 2
131884, 131887, 2
131884, 131897, 2
131884, 131886, 2
131897, 131884, 2
131897, 131893, 2
131897, 131895, 2
131897, 131890, 2
131897, 131896, 2
131897, 131889, 2
131897, 131894, 2
131897, 131885, 2
131897, 131891, 2
131897, 131898, 1
131903, 131901, 2
131903, 131904, 1
131903, 131907, 2
131903, 131900, 2
131903, 131902, 2
131890, 131883, 2
131890, 131887, 2
131890, 131897, 2
131890, 131888, 2
131890, 131892, 2
131890, 131893, 2
131890, 131889, 2
131890, 131898, 2
131890, 131891, 2
131909, 131911, 1
131909, 131914, 2
131909, 131910, 0
131909, 131908, 2
131909, 131913, 2
131909, 131906, 2
131886, 131887, 1
131886, 131883, 2
131886, 131884, 2
131886, 131885, 2
131877, 131878, 2
131877, 131879, 2
131877, 131876, 2
131872, 131874, 1
131872, 131876, 2
131872, 131871, 2
131872, 131873, 3
131872, 131875, 2
131921, 131919, 2
131921, 131922, 1
131921, 131913, 2
131921, 131920, 2
131915, 131916, 0
131915, 131919, 1
131915, 131911, 2
131915, 131922, 2
131915, 131913, 2
131915, 131910, 2
131915, 131914, 2
131915, 131918, 2
131915, 131912, 2
131915, 131917, 2
131915, 131885, 2
131892, 131890, 2
131892, 131889, 2
131892, 131893, 1
131892, 131891, 2
131899, 131896, 2
131899, 131900, 1
131899, 131898, 2
131917, 131916, 2
131917, 131919, 2
131917, 131918, 1
131917, 131913, 2
131917, 131915, 2
131898, 131899, 1
131898, 131884, 2
131898, 131913, 2
131898, 131896, 2
131898, 131890, 2
131898, 131901, 2
131898, 131885, 2
131898, 131891, 2
131898, 131897, 2
131881, 131880, 2
131881, 131883, 2
131881, 131879, 2
131883, 131881, 2
131883, 131884, 3
131883, 131913, 2
131883, 131882, 2
131883, 131880, 2
131883, 131890, 2
131883, 131886, 1
131883, 131885, 2
131883, 131879, 2
131896, 131897, 2
131896, 131895, 2
131896, 131891, 2
131896, 131901, 2
131896, 131900, 2
131896, 131898, 2
131896, 131899, 2
131896, 131885, 2
131875, 131874, 2
131875, 131872, 2
131875, 131873, 2
131875, 131876, 2
131919, 131916, 2
131919, 131917, 2
131919, 131913, 2
131919, 131915, 2
131919, 131918, 2
131919, 131914, 2
131919, 131922, 2
131919, 131921, 2
131919, 131885, 2
131919, 131884, 2
131919, 131920, 1
131878, 131877, 2
131878, 131879, 2
131878, 131876, 2
131902, 131905, 2
131902, 131904, 2
131902, 131907, 1
131902, 131903, 0
131902, 131901, 2
131902, 131900, 2
131902, 131906, 2
131923, 131924, 1
131923, 131922, 2
131894, 131897, 2
131894, 131893, 2
131894, 131895, 1
131894, 131891, 2
131906, 131905, 2
131906, 131914, 2
131906, 131907, 2
131906, 131910, 2
131906, 131902, 2
131906, 131908, 2
131906, 131909, 2
131911, 131916, 2
131911, 131912, 1
131911, 131922, 2
131911, 131913, 2
131911, 131910, 2
131911, 131914, 2
131911, 131909, 2
131911, 131885, 2
131911, 131915, 2
131873, 131876, 2
131873, 131872, 2
131873, 131874, 2
131873, 131871, 2
131873, 131875, 2
131914, 131916, 2
131914, 131919, 2
131914, 131912, 2
131914, 131922, 2
131914, 131910, 2
131914, 131909, 2
131914, 131911, 2
131914, 131906, 2
131914, 131915, 2
131924, 131923, 2
131880, 131881, 4
131880, 131883, 1
131880, 131879, 2
131880, 131882, 6
131879, 131881, 2
131879, 131880, 1
131879, 131878, 2
131879, 131882, 2
131879, 131883, 2
131879, 131877, 2
131879, 131876, 2
