73216, 73215, 2
73216, 73212, 2
73216, 73213, 2
73215, 73216, 1
73215, 73213, 2
73215, 73214, 2
73212, 73216, 2
73212, 73214, 0
73212, 73210, 2
73212, 73209, 2
73212, 73211, 2
73212, 73213, 3
73214, 73210, 2
73214, 73215, 1
73214, 73212, 2
73214, 73213, 2
73210, 73212, 2
73210, 73209, 2
73210, 73208, 2
73210, 73214, 2
73210, 73211, 2
73209, 73212, 2
73209, 73210, 2
73209, 73211, 2
73209, 73213, 2
73209, 73208, 2
73211, 73210, 2
73211, 73209, 2
73211, 73212, 1
73211, 73208, 2
73213, 73216, 2
73213, 73215, 2
73213, 73212, 2
73213, 73209, 2
73213, 73214, 2
73213, 73208, 2
73208, 73210, 0
73208, 73209, 3
73208, 73211, 1
73208, 73213, 2
