300399, 300400, 2
300399, 300398, 2
300399, 300401, 2
300397, 300400, 2
300397, 300398, 1
300397, 300401, 2
300400, 300399, 2
300400, 300402, 1
300400, 300398, 2
300400, 300401, 6
300400, 300397, 2
300398, 300399, 8
300398, 300397, 2
300398, 300400, 1
300398, 300401, 2
300402, 300400, 2
300402, 300401, 2
300401, 300399, 2
300401, 300402, 2
300401, 300400, 2
300401, 300398, 2
300401, 300397, 2
