161596, 161598, 1
161596, 161597, 3
161596, 161606, 2
161600, 161601, 1
161600, 161605, 2
161600, 161608, 2
161600, 161599, 2
161600, 161603, 2
161600, 161606, 2
161600, 161602, 2
161607, 161605, 2
161607, 161608, 3
161607, 161604, 2
161607, 161603, 2
161607, 161606, 2
161607, 161602, 2
161597, 161598, 2
161597, 161596, 2
161597, 161605, 2
161597, 161608, 2
161603, 161601, 2
161603, 161600, 2
161603, 161605, 2
161603, 161608, 2
161603, 161607, 2
161603, 161602, 2
161603, 161606, 2
161603, 161604, 2
161606, 161601, 2
161606, 161600, 2
161606, 161599, 2
161606, 161596, 2
161606, 161607, 2
161606, 161604, 2
161606, 161603, 2
161606, 161602, 2
161606, 161598, 2
161601, 161600, 2
161601, 161605, 2
161601, 161603, 2
161601, 161602, 1
161601, 161606, 2
161605, 161601, 2
161605, 161600, 2
161605, 161608, 2
161605, 161598, 2
161605, 161607, 2
161605, 161597, 2
161605, 161603, 2
161605, 161602, 2
161605, 161604, 2
161608, 161600, 2
161608, 161605, 2
161608, 161607, 2
161608, 161597, 2
161608, 161603, 2
161608, 161602, 2
161608, 161604, 2
161599, 161598, 2
161599, 161600, 1
161599, 161606, 2
161598, 161596, 2
161598, 161605, 2
161598, 161599, 1
161598, 161606, 2
161598, 161597, 2
161602, 161601, 2
161602, 161600, 2
161602, 161605, 2
161602, 161608, 2
161602, 161607, 2
161602, 161603, 8
161602, 161606, 2
161602, 161604, 1
161604, 161605, 4
161604, 161608, 2
161604, 161607, 1
161604, 161603, 2
161604, 161606, 6
161604, 161602, 2
