219609, 219607, 2
219609, 219608, 2
219584, 219585, 6
219584, 219586, 3
219584, 219587, 1
219584, 219588, 2
219584, 219583, 2
219585, 219586, 2
219585, 219587, 2
219585, 219588, 2
219585, 219584, 2
219585, 219583, 2
219582, 219583, 1
219605, 219604, 2
219605, 219606, 1
219606, 219607, 1
219606, 219605, 2
219602, 219603, 1
219602, 219604, 2
219602, 219601, 2
219607, 219609, 2
219607, 219606, 2
219607, 219608, 1
219592, 219591, 2
219592, 219593, 1
219590, 219589, 2
219590, 219591, 1
219590, 219588, 2
219591, 219592, 1
219591, 219590, 2
219591, 219593, 2
219586, 219585, 2
219586, 219587, 2
219586, 219584, 2
219586, 219583, 2
219593, 219592, 2
219593, 219591, 2
219593, 219594, 1
219601, 219599, 2
219601, 219600, 2
219601, 219602, 1
219603, 219604, 1
219603, 219602, 2
219604, 219603, 2
219604, 219605, 1
219604, 219602, 2
219588, 219585, 2
219588, 219587, 2
219588, 219590, 2
219588, 219589, 1
219588, 219584, 2
219583, 219585, 2
219583, 219582, 2
219583, 219587, 2
219583, 219586, 2
219583, 219584, 1
219594, 219595, 1
219594, 219596, 2
219594, 219597, 2
219594, 219593, 2
219594, 219598, 2
219600, 219601, 1
219600, 219599, 2
219589, 219590, 1
219589, 219588, 2
219608, 219607, 2
219608, 219609, 1
219599, 219595, 2
219599, 219596, 2
219599, 219601, 2
219599, 219600, 1
219599, 219598, 2
219595, 219598, 1
219595, 219596, 6
219595, 219597, 3
219595, 219594, 2
219595, 219599, 2
219596, 219595, 2
219596, 219598, 2
219596, 219597, 2
219596, 219594, 2
219596, 219599, 2
219597, 219595, 2
219597, 219596, 2
219597, 219594, 2
219597, 219598, 2
219587, 219585, 2
219587, 219583, 2
219587, 219588, 1
219587, 219584, 2
219587, 219586, 2
219598, 219595, 2
219598, 219596, 2
219598, 219597, 2
219598, 219594, 2
219598, 219599, 1
