121687, 121690, 2
121687, 121679, 2
121687, 121682, 2
121687, 121677, 2
121687, 121688, 2
121687, 121678, 2
121687, 121681, 2
121687, 121689, 2
121687, 121691, 2
121687, 121692, 2
121687, 121693, 2
121687, 121685, 2
121687, 121683, 2
121674, 121675, 1
121674, 121680, 2
121675, 121676, 1
121675, 121674, 2
121675, 121684, 2
121675, 121677, 2
121675, 121680, 2
121679, 121687, 2
121679, 121690, 2
121679, 121677, 2
121679, 121682, 2
121679, 121689, 2
121679, 121685, 2
121679, 121678, 2
121679, 121681, 2
121679, 121684, 4
121679, 121688, 2
121679, 121692, 2
121679, 121693, 2
121679, 121691, 2
121679, 121680, 6
121679, 121686, 2
121679, 121683, 2
121686, 121684, 2
121686, 121677, 2
121686, 121679, 2
121686, 121678, 2
121680, 121681, 1
121680, 121674, 2
121680, 121675, 2
121680, 121679, 2
121680, 121677, 2
121680, 121678, 2
121682, 121687, 2
121682, 121681, 2
121682, 121679, 2
121682, 121683, 1
121684, 121675, 2
121684, 121677, 2
121684, 121686, 0
121684, 121679, 2
121684, 121678, 2
121685, 121687, 3
121685, 121689, 2
121685, 121691, 2
121685, 121679, 2
121685, 121692, 2
121685, 121693, 1
121685, 121678, 2
121685, 121690, 2
121685, 121688, 0
121685, 121683, 2
121678, 121687, 2
121678, 121681, 2
121678, 121684, 2
121678, 121677, 2
121678, 121679, 1
121678, 121693, 2
121678, 121683, 2
121678, 121685, 2
121678, 121686, 2
121678, 121680, 2
121681, 121687, 2
121681, 121679, 2
121681, 121693, 2
121681, 121678, 2
121681, 121682, 1
121681, 121680, 2
121689, 121687, 2
121689, 121690, 1
121689, 121688, 2
121689, 121679, 2
121689, 121693, 2
121689, 121685, 2
121691, 121687, 2
121691, 121690, 2
121691, 121679, 2
121691, 121692, 1
121691, 121693, 2
121691, 121685, 2
121688, 121687, 2
121688, 121689, 1
121688, 121679, 2
121688, 121693, 2
121688, 121685, 2
121688, 121683, 2
121692, 121687, 2
121692, 121693, 2
121692, 121679, 2
121692, 121691, 2
121692, 121685, 2
121693, 121687, 2
121693, 121681, 2
121693, 121690, 2
121693, 121691, 2
121693, 121679, 2
121693, 121692, 2
121693, 121688, 2
121693, 121689, 2
121693, 121685, 2
121693, 121678, 2
121676, 121675, 2
121676, 121677, 1
121690, 121687, 2
121690, 121689, 2
121690, 121691, 1
121690, 121679, 2
121690, 121693, 2
121690, 121685, 2
121677, 121687, 2
121677, 121684, 2
121677, 121675, 2
121677, 121679, 2
121677, 121676, 2
121677, 121680, 2
121677, 121686, 2
121677, 121678, 1
121683, 121687, 2
121683, 121685, 1
121683, 121679, 2
121683, 121682, 2
121683, 121688, 2
121683, 121678, 2
