295941, 295939, 2
295941, 295936, 2
295941, 295938, 2
295941, 295940, 2
295941, 295937, 2
295932, 295930, 2
295932, 295935, 2
295932, 295933, 1
295932, 295934, 2
295932, 295931, 2
295935, 295932, 2
295935, 295937, 2
295935, 295934, 2
295935, 295931, 2
295935, 295936, 2
295935, 295930, 2
295935, 295933, 2
295934, 295932, 2
295934, 295933, 2
295934, 295935, 2
295934, 295931, 2
295934, 295936, 2
295934, 295938, 2
295933, 295932, 2
295933, 295935, 2
295933, 295934, 1
295933, 295931, 2
295936, 295941, 1
295936, 295934, 2
295936, 295937, 3
295936, 295935, 2
295936, 295931, 2
295936, 295938, 0
295936, 295930, 2
295929, 295931, 2
295929, 295927, 2
295929, 295928, 2
295929, 295930, 1
295938, 295939, 1
295938, 295941, 2
295938, 295937, 2
295938, 295934, 2
295938, 295936, 2
295938, 295940, 2
295928, 295929, 2
295928, 295927, 2
295939, 295941, 2
295939, 295938, 2
295939, 295940, 1
295939, 295937, 2
295937, 295939, 2
295937, 295941, 2
295937, 295935, 2
295937, 295931, 2
295937, 295936, 2
295937, 295938, 2
295937, 295940, 2
295930, 295929, 2
295930, 295936, 1
295930, 295932, 0
295930, 295935, 8
295930, 295931, 3
295931, 295932, 2
295931, 295937, 2
295931, 295934, 2
295931, 295935, 2
295931, 295933, 2
295931, 295936, 2
295931, 295929, 2
295931, 295930, 2
295940, 295939, 2
295940, 295941, 2
295940, 295938, 2
295940, 295937, 2
295927, 295929, 1
295927, 295928, 3
