336888, 336890, 1
336888, 336889, 3
336913, 336912, 2
336913, 336910, 2
336889, 336888, 2
336889, 336890, 2
336909, 336910, 2
336909, 336908, 2
336904, 336906, 1
336904, 336903, 2
336904, 336905, 3
336907, 336906, 2
336907, 336908, 1
336898, 336897, 2
336898, 336896, 2
336898, 336900, 1
336898, 336899, 3
336901, 336900, 2
336901, 336902, 1
336901, 336903, 2
336891, 336890, 2
336891, 336892, 2
336897, 336896, 2
336897, 336898, 2
336906, 336907, 1
336906, 336904, 2
336906, 336905, 2
336892, 336891, 2
336892, 336890, 2
336892, 336893, 1
336895, 336894, 2
336895, 336896, 1
336910, 336913, 2
336910, 336908, 2
336910, 336911, 0
336910, 336909, 2
336890, 336888, 2
336890, 336892, 1
336890, 336889, 2
336890, 336891, 3
336908, 336907, 2
336908, 336910, 1
336908, 336911, 2
336908, 336909, 3
336912, 336913, 1
336912, 336911, 2
336896, 336897, 3
336896, 336898, 1
336896, 336895, 2
336900, 336898, 2
336900, 336901, 1
336900, 336899, 2
336911, 336912, 1
336911, 336910, 2
336911, 336908, 2
336894, 336895, 1
336894, 336893, 2
336903, 336901, 2
336903, 336904, 1
336903, 336902, 2
336893, 336894, 1
336893, 336892, 2
336899, 336898, 2
336899, 336900, 2
336902, 336901, 2
336902, 336903, 1
336905, 336906, 2
336905, 336904, 2
