134783, 134782, 2
134777, 134779, 2
134777, 134778, 1
134777, 134780, 2
134782, 134783, 1
134782, 134781, 2
134780, 134779, 2
134780, 134777, 2
134780, 134781, 2
134780, 134778, 2
134779, 134778, 2
134779, 134777, 2
134779, 134781, 1
134779, 134780, 3
134781, 134779, 2
134781, 134782, 1
134781, 134780, 2
134778, 134779, 1
134778, 134777, 2
134778, 134780, 2
