340678, 340677, 2
340678, 340679, 3
340678, 340680, 1
340678, 340681, 2
340677, 340678, 1
340677, 340675, 2
340677, 340679, 2
340677, 340676, 2
340681, 340678, 2
340681, 340680, 2
340675, 340677, 2
340675, 340676, 1
340679, 340678, 2
340679, 340677, 2
340679, 340680, 2
340680, 340678, 2
340680, 340679, 2
340680, 340681, 0
340676, 340677, 1
340676, 340675, 2
