161138, 161139, 1
161141, 161142, 2
161141, 161140, 2
161142, 161144, 2
161142, 161141, 2
161142, 161145, 2
161142, 161140, 2
161142, 161143, 1
161144, 161145, 1
161144, 161142, 2
161144, 161143, 2
161139, 161138, 2
161139, 161140, 1
161147, 161148, 2
161147, 161146, 2
161146, 161145, 2
161146, 161148, 1
161146, 161147, 3
161145, 161144, 2
161145, 161142, 2
161145, 161146, 1
161148, 161146, 2
161148, 161147, 2
161140, 161141, 3
161140, 161142, 1
161140, 161139, 2
161143, 161144, 1
161143, 161142, 2
