294589, 294590, 1
294589, 294598, 2
294589, 294592, 2
294589, 294591, 2
294590, 294589, 2
294590, 294591, 2
294590, 294592, 1
294598, 294589, 2
294598, 294597, 2
294598, 294596, 2
294598, 294594, 2
294598, 294591, 2
294598, 294599, 2
294598, 294593, 2
294592, 294589, 2
294592, 294590, 2
294592, 294593, 1
294592, 294591, 6
294596, 294597, 1
294596, 294594, 2
294596, 294598, 2
294596, 294595, 2
294596, 294591, 2
294591, 294589, 2
294591, 294590, 2
294591, 294598, 2
294591, 294592, 2
294591, 294596, 2
294591, 294594, 2
294591, 294599, 2
294591, 294593, 2
294594, 294591, 2
294594, 294598, 2
294594, 294593, 2
294594, 294595, 8
294594, 294596, 1
294599, 294591, 2
294599, 294598, 6
294599, 294597, 2
294593, 294594, 1
294593, 294598, 2
294593, 294592, 2
294593, 294595, 2
294593, 294591, 2
294595, 294594, 2
294595, 294593, 2
294595, 294596, 2
294595, 294597, 2
294597, 294598, 2
294597, 294599, 1
294597, 294595, 2
294597, 294596, 2
