128631, 128637, 2
128631, 128643, 2
128631, 128634, 2
128631, 128632, 2
128631, 128628, 2
128631, 128629, 2
128631, 128648, 2
128631, 128636, 2
128631, 128652, 2
128638, 128639, 2
128638, 128643, 2
128638, 128636, 2
128638, 128637, 2
128638, 128635, 2
128616, 128618, 2
128616, 128614, 2
128616, 128615, 2
128616, 128617, 2
128616, 128619, 2
128616, 128623, 2
128635, 128637, 2
128635, 128633, 2
128635, 128638, 2
128635, 128639, 1
128635, 128634, 2
128635, 128636, 3
128635, 128640, 2
128644, 128643, 2
128644, 128640, 2
128644, 128642, 2
128644, 128645, 1
128646, 128647, 3
128646, 128645, 2
128646, 128649, 2
128646, 128651, 2
128646, 128648, 2
128646, 128650, 1
128646, 128652, 2
128626, 128624, 2
128626, 128628, 2
128626, 128625, 2
128626, 128629, 2
128626, 128630, 2
128626, 128623, 2
128643, 128637, 2
128643, 128647, 2
128643, 128642, 2
128643, 128638, 2
128643, 128645, 2
128643, 128622, 2
128643, 128631, 2
128643, 128623, 2
128643, 128644, 2
128643, 128648, 2
128643, 128652, 2
128647, 128643, 2
128647, 128645, 2
128647, 128651, 2
128647, 128649, 1
128647, 128646, 2
128647, 128650, 2
128647, 128648, 8
128654, 128653, 2
128654, 128655, 0
128654, 128652, 2
128649, 128647, 2
128649, 128652, 2
128649, 128648, 2
128649, 128650, 2
128649, 128646, 2
128632, 128624, 2
128632, 128634, 1
128632, 128628, 2
128632, 128627, 2
128632, 128633, 0
128632, 128631, 2
128632, 128625, 2
128632, 128630, 2
128632, 128629, 2
128632, 128623, 2
128653, 128654, 1
128653, 128655, 2
128653, 128652, 2
128639, 128637, 2
128639, 128633, 2
128639, 128638, 2
128639, 128640, 0
128639, 128635, 2
128639, 128636, 2
128639, 128641, 1
128622, 128637, 2
128622, 128643, 2
128622, 128652, 2
128622, 128614, 2
128622, 128618, 2
128622, 128615, 2
128622, 128619, 2
128622, 128620, 2
128622, 128648, 2
128622, 128623, 2
128629, 128624, 2
128629, 128626, 2
128629, 128632, 2
128629, 128628, 2
128629, 128625, 2
128629, 128631, 1
128629, 128627, 2
128621, 128618, 2
128621, 128614, 2
128621, 128651, 2
128621, 128617, 2
128621, 128652, 2
128621, 128630, 2
128621, 128623, 2
128636, 128637, 8
128636, 128631, 2
128636, 128638, 1
128636, 128639, 2
128636, 128634, 2
128636, 128640, 2
128636, 128635, 2
128641, 128639, 2
128641, 128640, 2
128641, 128642, 1
128637, 128643, 2
128637, 128631, 2
128637, 128638, 2
128637, 128639, 2
128637, 128622, 2
128637, 128636, 2
128637, 128635, 2
128618, 128622, 2
128618, 128621, 6
128618, 128623, 1
128618, 128615, 2
128618, 128617, 2
128618, 128616, 2
128618, 128619, 4
128618, 128614, 2
128618, 128620, 2
128624, 128626, 2
128624, 128632, 2
128624, 128628, 2
128624, 128625, 1
128624, 128633, 2
128624, 128629, 2
128624, 128627, 2
128624, 128630, 2
128624, 128623, 2
128652, 128631, 2
128652, 128651, 2
128652, 128646, 2
128652, 128650, 2
128652, 128654, 2
128652, 128643, 2
128652, 128649, 2
128652, 128622, 2
128652, 128653, 1
128652, 128640, 2
128652, 128621, 2
128652, 128648, 2
128652, 128655, 2
128614, 128618, 2
128614, 128621, 2
128614, 128615, 3
128614, 128622, 2
128614, 128617, 1
128614, 128616, 2
128614, 128613, 2
128614, 128620, 2
128614, 128619, 2
128628, 128624, 2
128628, 128633, 2
128628, 128632, 1
128628, 128625, 2
128628, 128631, 2
128628, 128629, 4
128628, 128627, 2
128628, 128630, 6
128628, 128626, 2
128628, 128623, 2
128627, 128624, 2
128627, 128632, 2
128627, 128628, 2
128627, 128625, 2
128627, 128629, 2
128627, 128630, 2
128627, 128623, 2
128651, 128647, 2
128651, 128645, 2
128651, 128646, 2
128651, 128621, 2
128651, 128640, 2
128651, 128630, 2
128651, 128650, 2
128651, 128652, 2
128633, 128624, 2
128633, 128634, 2
128633, 128632, 2
128633, 128628, 2
128633, 128635, 2
128633, 128639, 2
128633, 128640, 2
128633, 128625, 2
128633, 128630, 2
128620, 128618, 2
128620, 128623, 2
128620, 128614, 2
128620, 128622, 1
128620, 128619, 2
128630, 128651, 2
128630, 128624, 2
128630, 128621, 2
128630, 128632, 2
128630, 128628, 2
128630, 128627, 2
128630, 128633, 2
128630, 128640, 2
128630, 128625, 2
128630, 128634, 2
128630, 128626, 2
128650, 128647, 2
128650, 128649, 2
128650, 128646, 2
128650, 128651, 0
128650, 128640, 2
128650, 128648, 2
128650, 128652, 1
128648, 128643, 2
128648, 128647, 2
128648, 128649, 2
128648, 128622, 2
128648, 128631, 2
128648, 128623, 2
128648, 128646, 2
128648, 128650, 2
128648, 128652, 2
128617, 128618, 1
128617, 128621, 2
128617, 128615, 2
128617, 128619, 2
128617, 128614, 2
128617, 128616, 2
128613, 128614, 1
128634, 128631, 2
128634, 128632, 2
128634, 128635, 1
128634, 128633, 2
128634, 128640, 2
128634, 128630, 2
128634, 128636, 2
128655, 128653, 2
128655, 128654, 2
128655, 128652, 2
128619, 128618, 2
128619, 128614, 2
128619, 128615, 2
128619, 128622, 2
128619, 128617, 2
128619, 128616, 2
128619, 128620, 1
128619, 128623, 2
128615, 128618, 2
128615, 128614, 2
128615, 128619, 2
128615, 128617, 2
128615, 128616, 3
128615, 128622, 2
128615, 128623, 2
128640, 128642, 2
128640, 128651, 2
128640, 128644, 2
128640, 128630, 2
128640, 128650, 2
128640, 128633, 2
128640, 128635, 2
128640, 128639, 2
128640, 128634, 2
128640, 128636, 2
128640, 128645, 2
128640, 128641, 2
128640, 128652, 2
128642, 128643, 3
128642, 128640, 2
128642, 128645, 2
128642, 128644, 1
128642, 128641, 2
128645, 128643, 2
128645, 128647, 2
128645, 128642, 2
128645, 128651, 2
128645, 128640, 2
128645, 128644, 2
128645, 128646, 1
128625, 128624, 2
128625, 128633, 2
128625, 128632, 2
128625, 128628, 1
128625, 128627, 6
128625, 128626, 4
128625, 128629, 2
128625, 128630, 2
128625, 128623, 2
128623, 128618, 2
128623, 128624, 1
128623, 128621, 2
128623, 128628, 2
128623, 128627, 2
128623, 128616, 2
128623, 128625, 2
128623, 128620, 2
128623, 128615, 2
128623, 128643, 2
128623, 128626, 2
128623, 128632, 2
128623, 128619, 2
128623, 128622, 2
128623, 128648, 2
