196405, 196406, 1
196405, 196404, 2
196389, 196390, 3
196389, 196391, 1
196406, 196405, 2
196392, 196393, 1
196392, 196390, 2
196392, 196391, 2
196397, 196399, 2
196397, 196398, 1
196397, 196396, 2
196398, 196399, 1
196398, 196397, 2
196393, 196392, 2
196393, 196394, 1
196393, 196395, 2
196401, 196400, 2
196401, 196399, 2
196401, 196402, 1
196402, 196403, 1
196402, 196401, 2
196394, 196393, 2
196394, 196396, 2
196394, 196395, 1
196390, 196392, 2
196390, 196389, 2
196390, 196391, 2
196395, 196393, 2
196395, 196394, 2
196395, 196396, 1
196400, 196401, 1
196400, 196399, 2
196403, 196402, 2
196403, 196404, 1
196396, 196397, 1
196396, 196394, 2
196396, 196395, 2
196399, 196400, 1
196399, 196401, 2
196399, 196397, 2
196399, 196398, 2
196391, 196389, 2
196391, 196392, 1
196391, 196390, 2
196404, 196403, 2
196404, 196405, 1
