20532, 20531, 2
20528, 20531, 1
20528, 20529, 3
20528, 20530, 8
20531, 20532, 3
20531, 20528, 2
20531, 20530, 2
20531, 20529, 2
20529, 20528, 2
20529, 20531, 2
20529, 20530, 2
20530, 20528, 2
20530, 20531, 2
20530, 20529, 2
