221620, 221621, 2
221620, 221619, 2
221620, 221622, 2
221620, 221623, 2
221622, 221620, 2
221622, 221624, 2
221622, 221623, 2
221622, 221619, 2
221622, 221625, 2
221622, 221621, 2
221624, 221623, 2
221624, 221621, 2
221624, 221622, 2
221624, 221625, 1
221623, 221621, 2
221623, 221620, 2
221623, 221622, 2
221623, 221624, 2
221623, 221625, 2
221619, 221621, 1
221619, 221620, 8
221619, 221622, 2
221625, 221623, 2
221625, 221622, 2
221625, 221624, 2
221621, 221623, 8
221621, 221620, 2
221621, 221622, 6
221621, 221624, 1
221621, 221619, 2
