122442, 122449, 2
122442, 122445, 6
122442, 122446, 2
122442, 122443, 4
122442, 122441, 2
122442, 122448, 2
122442, 122440, 2
122442, 122451, 2
122442, 122450, 2
122442, 122447, 1
122442, 122444, 2
122454, 122449, 2
122454, 122446, 2
122454, 122453, 2
122454, 122455, 1
122454, 122452, 2
122454, 122447, 2
122454, 122456, 2
122454, 122451, 2
122454, 122448, 2
122445, 122442, 2
122445, 122440, 2
122445, 122441, 2
122445, 122450, 2
122445, 122453, 2
122445, 122437, 2
122445, 122447, 2
122445, 122456, 2
122445, 122438, 2
122445, 122436, 2
122443, 122442, 2
122443, 122446, 2
122443, 122441, 2
122443, 122438, 2
122443, 122440, 2
122443, 122444, 1
122443, 122447, 2
122443, 122437, 2
122443, 122439, 2
122441, 122442, 1
122441, 122444, 2
122441, 122445, 2
122441, 122440, 2
122441, 122443, 2
122438, 122437, 2
122438, 122445, 2
122438, 122443, 2
122438, 122450, 2
122438, 122439, 1
122449, 122442, 2
122449, 122454, 2
122449, 122452, 2
122449, 122448, 2
122449, 122451, 1
122449, 122447, 2
122453, 122454, 3
122453, 122448, 2
122453, 122445, 2
122453, 122452, 2
122453, 122450, 2
122453, 122455, 2
122453, 122451, 2
122453, 122456, 1
122439, 122440, 1
122439, 122443, 2
122439, 122438, 2
122436, 122437, 1
122436, 122445, 2
122448, 122442, 2
122448, 122454, 2
122448, 122446, 2
122448, 122453, 2
122448, 122449, 1
122448, 122452, 2
122448, 122447, 2
122448, 122456, 2
122448, 122451, 2
122446, 122442, 2
122446, 122454, 2
122446, 122440, 2
122446, 122443, 2
122446, 122448, 2
122446, 122444, 2
122446, 122447, 2
122444, 122442, 2
122444, 122446, 1
122444, 122443, 2
122444, 122441, 2
122444, 122440, 2
122444, 122447, 2
122450, 122442, 2
122450, 122445, 2
122450, 122452, 2
122450, 122453, 2
122450, 122440, 2
122450, 122447, 2
122450, 122456, 2
122450, 122438, 2
122437, 122445, 2
122437, 122436, 2
122437, 122443, 2
122437, 122438, 1
122455, 122454, 2
122455, 122451, 2
122455, 122456, 2
122455, 122453, 2
122452, 122454, 2
122452, 122448, 2
122452, 122450, 2
122452, 122453, 1
122452, 122449, 2
122452, 122447, 2
122452, 122451, 2
122447, 122442, 2
122447, 122454, 2
122447, 122445, 2
122447, 122446, 2
122447, 122443, 2
122447, 122450, 6
122447, 122449, 2
122447, 122452, 1
122447, 122444, 2
122447, 122451, 2
122447, 122448, 4
122456, 122454, 2
122456, 122455, 2
122456, 122445, 2
122456, 122450, 2
122456, 122453, 2
122456, 122448, 2
122456, 122451, 2
122451, 122454, 2
122451, 122442, 2
122451, 122452, 2
122451, 122453, 2
122451, 122455, 2
122451, 122447, 2
122451, 122456, 2
122451, 122449, 2
122451, 122448, 2
122440, 122442, 2
122440, 122445, 2
122440, 122446, 2
122440, 122443, 2
122440, 122441, 1
122440, 122444, 2
122440, 122450, 2
122440, 122439, 2
