161065, 161070, 2
161065, 161066, 1
161065, 161069, 2
161065, 161067, 2
161065, 161068, 2
161065, 161064, 2
161061, 161062, 1
161070, 161065, 2
161070, 161066, 2
161070, 161069, 2
161066, 161065, 2
161066, 161070, 2
161066, 161069, 2
161066, 161067, 4
161066, 161068, 6
161066, 161064, 2
161069, 161065, 2
161069, 161070, 1
161069, 161066, 2
161069, 161067, 2
161067, 161065, 2
161067, 161062, 2
161067, 161066, 2
161067, 161069, 1
161067, 161064, 2
161062, 161061, 2
161062, 161063, 1
161062, 161067, 2
161062, 161068, 2
161068, 161065, 2
161068, 161062, 2
161068, 161063, 2
161068, 161066, 2
161068, 161064, 2
161063, 161062, 2
161063, 161068, 2
161063, 161064, 1
161064, 161065, 1
161064, 161068, 2
161064, 161063, 2
161064, 161066, 2
161064, 161067, 2
