258980, 258979, 2
258980, 258982, 8
258980, 258981, 3
258980, 258983, 1
258982, 258980, 2
258982, 258984, 2
258982, 258985, 2
258982, 258981, 2
258982, 258983, 2
258979, 258980, 1
258979, 258981, 2
258983, 258980, 2
258983, 258982, 2
258983, 258985, 1
258983, 258981, 2
258983, 258984, 3
258985, 258983, 2
258985, 258982, 2
258985, 258984, 2
258981, 258980, 2
258981, 258982, 2
258981, 258979, 2
258981, 258983, 2
258984, 258985, 2
258984, 258982, 2
258984, 258983, 2
