22518, 22516, 2
22518, 22517, 2
22518, 22519, 2
22518, 22520, 2
22516, 22518, 2
22516, 22514, 2
22516, 22517, 1
22516, 22515, 2
22514, 22516, 1
22514, 22515, 3
22521, 22522, 1
22521, 22520, 2
22520, 22518, 2
22520, 22522, 2
22520, 22521, 1
22520, 22519, 2
22522, 22521, 2
22522, 22520, 2
22515, 22516, 2
22515, 22514, 2
22517, 22518, 8
22517, 22516, 2
22517, 22519, 1
22519, 22518, 2
22519, 22517, 2
22519, 22520, 1
