133997, 133996, 2
133997, 133998, 1
133998, 133997, 2
133998, 133996, 2
133998, 133999, 1
134001, 134000, 2
133996, 133997, 0
133996, 133998, 2
133996, 134000, 2
133996, 133999, 2
134000, 133996, 2
134000, 134001, 1
134000, 133999, 2
133999, 133998, 2
133999, 134000, 1
133999, 133996, 2
