217466, 217465, 2
217466, 217467, 1
217471, 217468, 2
217471, 217472, 2
217471, 217470, 2
217464, 217465, 1
217464, 217463, 2
217467, 217469, 2
217467, 217466, 2
217467, 217468, 1
217462, 217459, 2
217462, 217461, 2
217462, 217460, 2
217462, 217463, 1
217459, 217462, 2
217459, 217460, 1
217459, 217461, 2
217469, 217467, 2
217469, 217468, 2
217469, 217472, 2
217469, 217470, 1
217460, 217462, 1
217460, 217461, 3
217460, 217459, 2
217461, 217462, 2
217461, 217460, 2
217461, 217459, 2
217468, 217471, 2
217468, 217469, 3
217468, 217467, 2
217468, 217472, 1
217468, 217470, 2
217465, 217466, 1
217465, 217464, 2
217470, 217471, 1
217470, 217469, 2
217470, 217468, 2
217470, 217472, 2
217472, 217471, 2
217472, 217469, 2
217472, 217468, 2
217472, 217470, 2
217463, 217462, 2
217463, 217464, 1
