185228, 185226, 2
185228, 185227, 2
185228, 185229, 2
185221, 185220, 2
185221, 185226, 2
185221, 185222, 8
185221, 185223, 1
185224, 185225, 1
185224, 185226, 2
185224, 185223, 2
185217, 185219, 1
185217, 185218, 8
185226, 185228, 2
185226, 185225, 2
185226, 185223, 2
185226, 185221, 2
185226, 185224, 2
185226, 185229, 2
185226, 185222, 2
185226, 185227, 1
185222, 185225, 2
185222, 185220, 2
185222, 185226, 2
185222, 185223, 2
185222, 185221, 2
185219, 185220, 1
185219, 185217, 2
185219, 185218, 2
185227, 185228, 8
185227, 185226, 2
185227, 185230, 2
185227, 185229, 1
185225, 185224, 2
185225, 185226, 1
185225, 185222, 2
185225, 185223, 2
185230, 185227, 2
185230, 185229, 2
185223, 185224, 1
185223, 185225, 2
185223, 185226, 2
185223, 185222, 2
185223, 185221, 2
185220, 185222, 2
185220, 185219, 2
185220, 185221, 1
185218, 185217, 2
185218, 185219, 2
185229, 185228, 2
185229, 185226, 2
185229, 185227, 2
185229, 185230, 1
