259602, 259603, 3
259602, 259604, 1
259605, 259606, 3
259605, 259607, 1
259605, 259604, 2
259606, 259605, 2
259606, 259604, 2
259606, 259607, 2
259610, 259609, 2
259604, 259603, 2
259604, 259605, 1
259604, 259606, 2
259604, 259602, 2
259609, 259610, 0
259609, 259608, 2
259603, 259604, 2
259603, 259602, 2
259607, 259605, 2
259607, 259606, 2
259607, 259608, 1
259608, 259609, 1
259608, 259607, 2
