64546, 64543, 2
64546, 64548, 2
64546, 64547, 1
64546, 64544, 2
64546, 64545, 2
64548, 64549, 1
64548, 64546, 2
64548, 64547, 2
64545, 64542, 2
64545, 64541, 2
64545, 64546, 2
64545, 64544, 2
64557, 64555, 2
64557, 64556, 2
64557, 64554, 2
64557, 64553, 2
64542, 64541, 2
64542, 64545, 2
64542, 64544, 1
64542, 64543, 8
64543, 64542, 2
64543, 64541, 2
64543, 64546, 2
64543, 64544, 2
64540, 64541, 1
64553, 64557, 2
64553, 64554, 2
64553, 64552, 2
64541, 64542, 1
64541, 64543, 2
64541, 64540, 2
64541, 64544, 2
64541, 64545, 2
64556, 64555, 2
64556, 64557, 2
64556, 64554, 2
64556, 64552, 2
64544, 64542, 2
64544, 64543, 2
64544, 64546, 1
64544, 64545, 0
64544, 64541, 2
64552, 64555, 2
64552, 64551, 2
64552, 64554, 1
64552, 64556, 2
64552, 64553, 8
64555, 64557, 2
64555, 64556, 2
64555, 64554, 2
64555, 64552, 2
64549, 64548, 2
64549, 64550, 1
64551, 64550, 2
64551, 64552, 1
64554, 64555, 6
64554, 64557, 1
64554, 64556, 0
64554, 64552, 2
64554, 64553, 2
64550, 64549, 2
64550, 64551, 1
64547, 64546, 2
64547, 64548, 1
