195862, 195860, 2
195862, 195861, 2
195862, 195863, 2
195864, 195865, 1
195864, 195863, 2
195865, 195864, 2
195865, 195863, 2
195859, 195860, 2
195859, 195857, 2
195859, 195863, 2
195859, 195858, 2
195859, 195856, 2
195856, 195857, 1
195856, 195859, 2
195860, 195861, 0
195860, 195862, 2
195860, 195858, 2
195860, 195859, 2
195860, 195863, 1
195858, 195860, 1
195858, 195857, 2
195858, 195859, 8
195857, 195858, 1
195857, 195859, 2
195857, 195856, 2
195861, 195860, 2
195861, 195862, 1
195861, 195863, 2
195863, 195862, 2
195863, 195864, 1
195863, 195865, 2
195863, 195859, 2
195863, 195860, 2
195863, 195861, 2
