217960, 217962, 2
217960, 217961, 1
217960, 217959, 2
217962, 217960, 2
217962, 217964, 2
217962, 217961, 2
217962, 217963, 1
217970, 217971, 2
217970, 217969, 2
217969, 217971, 1
217969, 217970, 8
217969, 217967, 2
217969, 217968, 2
217967, 217965, 2
217967, 217968, 1
217967, 217966, 2
217967, 217964, 2
217967, 217969, 2
217961, 217960, 2
217961, 217962, 1
217971, 217970, 2
217971, 217972, 3
217971, 217973, 1
217971, 217969, 2
217976, 217975, 2
217975, 217976, 1
217975, 217973, 2
217975, 217974, 2
217966, 217965, 2
217966, 217967, 2
217965, 217966, 3
217965, 217967, 1
217965, 217964, 2
217973, 217971, 2
217973, 217975, 2
217973, 217972, 2
217973, 217974, 1
217964, 217962, 2
217964, 217965, 1
217964, 217967, 2
217964, 217963, 2
217974, 217975, 1
217974, 217973, 2
217968, 217967, 2
217968, 217969, 1
217963, 217962, 2
217963, 217964, 1
217972, 217971, 2
217972, 217973, 2
217959, 217960, 1
