222351, 222352, 1
222352, 222351, 2
222352, 222353, 1
222352, 222356, 2
222352, 222354, 2
222353, 222355, 8
222353, 222352, 2
222353, 222356, 1
222353, 222354, 3
222357, 222355, 2
222357, 222354, 2
222357, 222356, 2
222357, 222358, 2
222355, 222353, 2
222355, 222356, 2
222355, 222357, 2
222355, 222354, 2
222358, 222356, 2
222358, 222357, 2
222356, 222355, 2
222356, 222352, 2
222356, 222353, 2
222356, 222357, 3
222356, 222358, 1
222356, 222354, 2
222354, 222355, 2
222354, 222352, 2
222354, 222353, 2
222354, 222356, 2
222354, 222357, 2
