122957, 122956, 2
122957, 122958, 1
122968, 122971, 2
122968, 122967, 2
122968, 122969, 2
122968, 122960, 2
122968, 122970, 1
122968, 122972, 2
122955, 122956, 2
122955, 122962, 2
122955, 122954, 2
122960, 122958, 2
122960, 122975, 2
122960, 122967, 2
122960, 122961, 2
122960, 122968, 2
122960, 122974, 2
122960, 122962, 2
122960, 122972, 2
122960, 122956, 2
122960, 122965, 2
122960, 122954, 2
122960, 122963, 2
122960, 122959, 2
122960, 122969, 2
122970, 122968, 2
122970, 122971, 3
122970, 122969, 6
122970, 122972, 1
122966, 122965, 2
122966, 122967, 1
122974, 122973, 2
122974, 122975, 1
122974, 122960, 2
122974, 122969, 2
122971, 122968, 2
122971, 122972, 2
122971, 122970, 2
122971, 122969, 2
122963, 122960, 2
122963, 122962, 2
122963, 122964, 1
122963, 122969, 2
122963, 122961, 2
122959, 122962, 2
122959, 122958, 2
122959, 122960, 2
122959, 122961, 1
122972, 122973, 1
122972, 122971, 2
122972, 122969, 2
122972, 122968, 2
122972, 122960, 2
122972, 122970, 2
122973, 122972, 2
122973, 122974, 1
122958, 122969, 2
122958, 122959, 1
122958, 122961, 2
122958, 122960, 2
122958, 122957, 2
122958, 122962, 2
122975, 122960, 2
122975, 122969, 2
122975, 122974, 2
122967, 122968, 1
122967, 122966, 2
122967, 122960, 2
122967, 122969, 2
122961, 122958, 2
122961, 122963, 1
122961, 122959, 2
122961, 122960, 6
122961, 122962, 3
122961, 122969, 2
122954, 122960, 2
122954, 122956, 1
122954, 122955, 3
122962, 122958, 2
122962, 122963, 2
122962, 122959, 2
122962, 122961, 2
122962, 122955, 2
122962, 122960, 2
122956, 122960, 2
122956, 122954, 2
122956, 122955, 2
122956, 122969, 2
122956, 122957, 1
122965, 122966, 1
122965, 122964, 2
122965, 122960, 2
122965, 122969, 2
122964, 122965, 1
122964, 122963, 2
122969, 122958, 2
122969, 122975, 2
122969, 122967, 2
122969, 122971, 2
122969, 122974, 2
122969, 122968, 2
122969, 122961, 2
122969, 122960, 2
122969, 122970, 2
122969, 122956, 2
122969, 122965, 2
122969, 122963, 2
122969, 122972, 2
