17207, 17200, 2
17207, 17208, 1
17207, 17206, 2
17214, 17213, 2
17210, 17211, 1
17210, 17209, 2
17204, 17202, 2
17204, 17203, 2
17204, 17201, 2
17204, 17200, 2
17204, 17205, 1
17209, 17210, 1
17209, 17208, 2
17202, 17201, 2
17202, 17203, 2
17202, 17204, 2
17202, 17205, 2
17201, 17202, 3
17201, 17203, 2
17201, 17204, 2
17201, 17200, 2
17206, 17207, 1
17206, 17205, 2
17208, 17207, 2
17208, 17209, 1
17200, 17201, 3
17200, 17203, 1
17200, 17207, 2
17200, 17204, 2
17212, 17213, 1
17212, 17211, 2
17211, 17210, 2
17211, 17213, 2
17211, 17212, 1
17203, 17202, 2
17203, 17201, 2
17203, 17200, 2
17203, 17204, 1
17213, 17211, 2
17213, 17214, 1
17213, 17212, 2
17205, 17202, 2
17205, 17204, 2
17205, 17206, 1
