21173, 21176, 2
21173, 21174, 1
21175, 21176, 2
21175, 21177, 2
21175, 21174, 2
21176, 21173, 2
21176, 21175, 2
21176, 21177, 1
21176, 21174, 2
21177, 21175, 2
21177, 21176, 2
21177, 21174, 2
21174, 21173, 2
21174, 21175, 0
21174, 21177, 2
21174, 21176, 1
