162363, 162364, 1
162363, 162369, 2
162363, 162361, 2
162363, 162365, 2
162363, 162371, 2
162363, 162366, 2
162363, 162367, 2
162363, 162372, 2
162363, 162368, 2
162363, 162362, 2
162372, 162363, 2
162372, 162359, 2
162372, 162361, 2
162372, 162365, 2
162372, 162374, 2
162372, 162371, 2
162372, 162373, 1
162372, 162364, 2
162372, 162362, 2
162366, 162363, 2
162366, 162367, 1
162366, 162364, 2
162366, 162365, 2
162366, 162362, 2
162360, 162359, 2
162360, 162361, 1
162360, 162362, 2
162373, 162372, 2
162373, 162364, 2
162373, 162374, 1
162368, 162363, 2
162368, 162361, 2
162368, 162365, 2
162368, 162369, 1
162368, 162367, 2
162368, 162364, 2
162359, 162372, 2
162359, 162360, 1
162359, 162365, 2
162359, 162362, 2
162359, 162361, 2
162375, 162374, 2
162361, 162359, 2
162361, 162363, 1
162361, 162360, 2
162361, 162365, 2
162361, 162371, 2
162361, 162369, 2
162361, 162367, 2
162361, 162372, 2
162361, 162368, 2
162361, 162362, 2
162365, 162363, 2
162365, 162364, 2
162365, 162366, 0
162365, 162359, 2
162365, 162361, 2
162365, 162374, 2
162365, 162371, 2
162365, 162369, 2
162365, 162367, 2
162365, 162372, 1
162365, 162368, 2
162365, 162362, 2
162374, 162373, 2
162374, 162375, 1
162374, 162372, 2
162374, 162365, 2
162374, 162364, 2
162371, 162363, 2
162371, 162364, 2
162371, 162365, 2
162371, 162361, 2
162371, 162372, 2
162371, 162370, 2
162369, 162363, 2
162369, 162361, 2
162369, 162365, 2
162369, 162364, 2
162369, 162368, 2
162369, 162370, 1
162367, 162363, 2
162367, 162361, 2
162367, 162365, 2
162367, 162366, 2
162367, 162364, 2
162367, 162368, 1
162367, 162362, 2
162364, 162366, 2
162364, 162371, 2
162364, 162363, 2
162364, 162370, 2
162364, 162365, 2
162364, 162374, 2
162364, 162373, 2
162364, 162369, 2
162364, 162367, 2
162364, 162372, 2
162364, 162368, 2
162364, 162362, 2
162370, 162369, 2
162370, 162364, 2
162370, 162371, 1
162362, 162359, 4
162362, 162363, 2
162362, 162364, 2
162362, 162361, 2
162362, 162365, 1
162362, 162360, 2
162362, 162366, 2
162362, 162367, 2
162362, 162372, 2
