253901, 253898, 2
253901, 253902, 2
253901, 253900, 2
253901, 253899, 2
253911, 253912, 1
253911, 253910, 2
253905, 253904, 2
253905, 253902, 2
253905, 253906, 1
253905, 253903, 2
253898, 253901, 2
253898, 253902, 1
253898, 253900, 0
253898, 253899, 3
253898, 253897, 2
253908, 253910, 2
253908, 253907, 2
253908, 253909, 2
253897, 253896, 2
253897, 253898, 1
253897, 253899, 2
253897, 253895, 2
253906, 253905, 2
253906, 253907, 1
253907, 253910, 2
253907, 253906, 2
253907, 253908, 3
253899, 253901, 0
253899, 253902, 2
253899, 253900, 2
253899, 253898, 2
253899, 253897, 2
253904, 253905, 2
253904, 253903, 2
253902, 253901, 2
253902, 253905, 2
253902, 253900, 2
253902, 253898, 2
253902, 253899, 2
253902, 253903, 1
253910, 253908, 2
253910, 253911, 1
253910, 253912, 2
253910, 253909, 2
253910, 253907, 2
253895, 253896, 0
253895, 253897, 1
253896, 253895, 2
253896, 253897, 2
253903, 253904, 0
253903, 253902, 2
253903, 253905, 1
253912, 253911, 2
253912, 253910, 2
253900, 253901, 2
253900, 253902, 2
253900, 253898, 2
253900, 253899, 2
253909, 253910, 1
253909, 253908, 2
