215929, 215931, 2
215929, 215928, 2
215929, 215930, 2
215926, 215925, 2
215926, 215927, 1
215925, 215926, 1
215930, 215931, 1
215930, 215929, 2
215930, 215928, 2
215931, 215929, 2
215931, 215932, 1
215931, 215930, 2
215932, 215931, 2
215932, 215933, 1
215934, 215933, 2
215933, 215932, 2
215933, 215934, 1
215928, 215929, 8
215928, 215927, 2
215928, 215930, 1
215927, 215926, 2
215927, 215928, 1
