294099, 294100, 2
294099, 294097, 2
294099, 294098, 2
294096, 294094, 2
294096, 294097, 2
294096, 294095, 2
294096, 294093, 2
294096, 294100, 2
294098, 294100, 1
294098, 294097, 2
294098, 294099, 3
294091, 294092, 3
294091, 294095, 2
294091, 294093, 1
294092, 294094, 2
294092, 294093, 2
294092, 294091, 2
294100, 294096, 2
294100, 294097, 2
294100, 294098, 2
294100, 294099, 2
294094, 294096, 2
294094, 294097, 1
294094, 294095, 0
294094, 294093, 2
294094, 294092, 2
294097, 294099, 2
294097, 294100, 2
294097, 294098, 1
294097, 294096, 2
294097, 294094, 2
294097, 294095, 2
294095, 294096, 1
294095, 294097, 2
294095, 294093, 2
294095, 294091, 2
294095, 294094, 2
294093, 294096, 2
294093, 294094, 1
294093, 294095, 2
294093, 294091, 2
294093, 294092, 2
