222584, 222582, 2
222584, 222583, 2
222584, 222586, 2
222584, 222588, 2
222584, 222585, 2
222587, 222588, 2
222587, 222582, 2
222587, 222589, 2
222587, 222585, 2
222587, 222586, 2
222587, 222590, 2
222587, 222583, 2
222588, 222584, 2
222588, 222587, 2
222588, 222589, 2
222588, 222585, 2
222588, 222590, 2
222588, 222586, 2
222583, 222584, 2
222583, 222587, 2
222583, 222585, 2
222583, 222589, 2
222583, 222582, 2
222583, 222590, 2
222583, 222586, 2
222589, 222590, 1
222589, 222586, 2
222589, 222587, 2
222589, 222588, 2
222589, 222583, 2
222582, 222584, 3
222582, 222585, 1
222582, 222587, 2
222582, 222583, 6
222585, 222584, 2
222585, 222587, 2
222585, 222588, 2
222585, 222583, 2
222585, 222582, 2
222585, 222586, 1
222590, 222589, 2
222590, 222586, 2
222590, 222587, 2
222590, 222588, 2
222590, 222583, 2
222586, 222584, 2
222586, 222587, 6
222586, 222588, 3
222586, 222583, 2
222586, 222589, 1
222586, 222585, 2
222586, 222590, 2
