259001, 259002, 1
259001, 259000, 2
259001, 259003, 2
259002, 259001, 2
259002, 259000, 2
259002, 259003, 2
259000, 259001, 0
259000, 259002, 2
259000, 259003, 1
259003, 259001, 2
259003, 259005, 2
259003, 259002, 2
259003, 259000, 2
259003, 259004, 1
259006, 259005, 2
259006, 259004, 2
259004, 259006, 1
259004, 259005, 3
259004, 259003, 2
259005, 259006, 2
259005, 259004, 2
259005, 259003, 2
