301178, 301173, 2
301178, 301179, 2
301178, 301176, 2
301178, 301177, 2
301179, 301178, 2
301179, 301175, 2
301179, 301177, 2
301176, 301178, 2
301176, 301174, 2
301176, 301173, 2
301176, 301175, 2
301176, 301177, 1
301177, 301178, 6
301177, 301179, 1
301177, 301176, 2
301174, 301173, 2
301174, 301176, 2
301174, 301175, 3
301173, 301178, 2
301173, 301176, 1
301173, 301174, 3
301175, 301179, 2
301175, 301176, 2
301175, 301174, 2
