66780, 66777, 2
66780, 66778, 2
66780, 66779, 2
66780, 66781, 1
66780, 66776, 2
66781, 66780, 2
66781, 66782, 1
66785, 66786, 2
66785, 66784, 2
66785, 66783, 2
66785, 66788, 2
66770, 66772, 2
66770, 66773, 2
66770, 66768, 2
66770, 66767, 2
66770, 66769, 2
66770, 66771, 2
66770, 66774, 2
66770, 66764, 2
66787, 66788, 2
66787, 66784, 2
66787, 66783, 2
66787, 66786, 2
66783, 66786, 2
66783, 66782, 2
66783, 66784, 1
66783, 66787, 2
66783, 66785, 2
66775, 66772, 2
66775, 66777, 2
66775, 66773, 2
66775, 66779, 2
66775, 66778, 2
66775, 66771, 2
66775, 66774, 2
66775, 66776, 1
66772, 66773, 1
66772, 66769, 2
66772, 66774, 2
66772, 66771, 2
66772, 66770, 2
66772, 66775, 2
66788, 66786, 2
66788, 66787, 2
66788, 66784, 2
66788, 66785, 2
66768, 66771, 2
66768, 66769, 1
66768, 66767, 2
66768, 66770, 2
66767, 66771, 2
66767, 66770, 2
66767, 66768, 1
66767, 66769, 2
66767, 66766, 2
66769, 66772, 1
66769, 66770, 3
66769, 66771, 0
66769, 66768, 2
66769, 66767, 2
66764, 66770, 2
66764, 66765, 2
66764, 66763, 2
66763, 66765, 1
66763, 66764, 3
66779, 66780, 2
66779, 66775, 2
66779, 66776, 2
66779, 66778, 2
66773, 66772, 2
66773, 66770, 2
66773, 66771, 2
66773, 66775, 1
66773, 66774, 3
66782, 66783, 1
66782, 66781, 2
66765, 66766, 1
66765, 66763, 2
66765, 66764, 2
66771, 66772, 2
66771, 66773, 2
66771, 66768, 2
66771, 66767, 2
66771, 66769, 2
66771, 66770, 2
66771, 66775, 2
66778, 66777, 2
66778, 66780, 1
66778, 66779, 6
66778, 66775, 2
66778, 66776, 2
66786, 66784, 2
66786, 66788, 1
66786, 66787, 6
66786, 66783, 2
66786, 66785, 2
66776, 66777, 8
66776, 66778, 1
66776, 66779, 2
66776, 66775, 2
66776, 66780, 2
66777, 66778, 2
66777, 66774, 2
66777, 66775, 2
66777, 66776, 2
66777, 66780, 2
66784, 66786, 1
66784, 66787, 2
66784, 66783, 2
66784, 66788, 2
66784, 66785, 8
66766, 66767, 1
66766, 66765, 2
66774, 66772, 2
66774, 66770, 2
66774, 66773, 2
66774, 66777, 2
66774, 66775, 2
