161495, 161496, 1
161495, 161494, 2
161496, 161497, 1
161496, 161495, 2
161496, 161498, 2
161499, 161497, 2
161499, 161498, 2
161499, 161500, 2
161502, 161503, 1
161502, 161501, 2
161494, 161495, 1
161494, 161493, 2
161503, 161502, 2
161501, 161500, 2
161501, 161502, 1
161497, 161496, 2
161497, 161499, 2
161497, 161500, 1
161497, 161498, 3
161498, 161496, 2
161498, 161497, 2
161498, 161499, 1
161498, 161500, 2
161500, 161501, 1
161500, 161497, 2
161500, 161499, 2
161500, 161498, 2
161493, 161494, 1
