21352, 21349, 2
21352, 21350, 2
21352, 21351, 2
21348, 21349, 1
21348, 21347, 2
21351, 21349, 2
21351, 21350, 2
21351, 21352, 1
21349, 21348, 2
21349, 21352, 2
21349, 21350, 8
21349, 21351, 1
21347, 21348, 1
21350, 21349, 2
21350, 21352, 2
21350, 21351, 2
