295562, 295563, 2
295562, 295564, 2
295562, 295561, 2
295562, 295567, 2
295562, 295570, 2
295562, 295565, 2
295571, 295568, 2
295571, 295572, 1
295571, 295569, 2
295571, 295570, 2
295573, 295572, 2
295573, 295570, 2
295569, 295568, 2
295569, 295571, 2
295569, 295567, 2
295569, 295570, 1
295565, 295566, 1
295565, 295568, 2
295565, 295562, 2
295565, 295564, 2
295567, 295566, 2
295567, 295568, 3
295567, 295562, 2
295567, 295569, 1
295563, 295562, 2
295563, 295564, 1
295563, 295561, 2
295566, 295568, 2
295566, 295565, 2
295566, 295567, 1
295568, 295571, 2
295568, 295566, 2
295568, 295569, 2
295568, 295567, 2
295568, 295570, 2
295568, 295565, 2
295572, 295571, 2
295572, 295570, 2
295572, 295573, 1
295564, 295563, 2
295564, 295562, 2
295564, 295565, 1
295570, 295562, 2
295570, 295571, 3
295570, 295573, 2
295570, 295568, 2
295570, 295569, 2
295570, 295572, 2
295561, 295563, 1
295561, 295562, 6
