339732, 339731, 2
339732, 339730, 2
339728, 339729, 1
339728, 339727, 2
339731, 339730, 2
339731, 339732, 2
339727, 339728, 1
339729, 339730, 1
339729, 339728, 2
339730, 339731, 0
339730, 339729, 2
339730, 339732, 1
