169283, 169286, 2
169283, 169288, 2
169283, 169292, 2
169283, 169281, 2
169283, 169287, 1
169283, 169314, 2
169283, 169289, 2
169283, 169282, 2
169283, 169297, 2
169283, 169284, 4
169301, 169302, 1
169301, 169288, 2
169301, 169300, 2
169301, 169314, 2
169301, 169287, 2
169301, 169285, 2
169301, 169299, 2
169328, 169314, 2
169328, 169330, 1
169328, 169315, 2
169328, 169317, 2
169328, 169329, 3
169328, 169327, 2
169328, 169318, 2
169302, 169288, 2
169302, 169304, 1
169302, 169301, 2
169302, 169303, 3
169302, 169285, 2
169302, 169287, 2
169302, 169314, 2
169288, 169289, 2
169288, 169283, 2
169288, 169300, 2
169288, 169311, 2
169288, 169304, 2
169288, 169297, 2
169288, 169287, 2
169288, 169308, 2
169288, 169302, 2
169288, 169294, 2
169288, 169310, 2
169288, 169307, 2
169288, 169290, 2
169288, 169318, 2
169288, 169292, 2
169288, 169281, 2
169288, 169316, 2
169288, 169314, 2
169288, 169306, 2
169288, 169299, 2
169288, 169301, 2
169295, 169294, 2
169295, 169297, 0
169295, 169298, 1
169295, 169299, 2
169295, 169296, 3
169305, 169304, 2
169305, 169306, 1
169289, 169285, 2
169289, 169290, 1
169289, 169283, 2
169289, 169314, 2
169289, 169287, 2
169289, 169315, 2
169289, 169281, 2
169289, 169288, 2
169327, 169324, 2
169327, 169314, 2
169327, 169315, 2
169327, 169317, 2
169327, 169328, 1
169327, 169326, 2
169327, 169318, 2
169297, 169283, 2
169297, 169288, 2
169297, 169314, 2
169297, 169287, 2
169297, 169295, 2
169297, 169294, 2
169297, 169298, 2
169297, 169299, 2
169297, 169296, 2
169311, 169288, 2
169311, 169310, 2
169311, 169315, 2
169311, 169287, 2
169311, 169314, 2
169311, 169316, 2
169311, 169313, 2
169311, 169312, 1
169304, 169302, 2
169304, 169288, 2
169304, 169315, 2
169304, 169307, 2
169304, 169303, 2
169304, 169306, 2
169304, 169305, 1
169304, 169314, 2
169304, 169287, 2
169323, 169324, 2
169323, 169315, 2
169323, 169322, 2
169323, 169317, 2
169312, 169314, 2
169312, 169315, 2
169312, 169317, 2
169312, 169311, 2
169312, 169316, 2
169312, 169313, 1
169314, 169283, 2
169314, 169301, 2
169314, 169328, 2
169314, 169316, 2
169314, 169308, 2
169314, 169302, 2
169314, 169320, 2
169314, 169310, 2
169314, 169331, 2
169314, 169299, 2
169314, 169289, 2
169314, 169327, 2
169314, 169326, 2
169314, 169297, 2
169314, 169300, 2
169314, 169322, 2
169314, 169311, 2
169314, 169307, 2
169314, 169288, 2
169314, 169294, 2
169314, 169321, 2
169314, 169306, 2
169314, 169312, 2
169314, 169324, 2
169314, 169287, 2
169314, 169330, 2
169314, 169290, 2
169314, 169317, 2
169314, 169292, 2
169314, 169304, 2
169314, 169332, 2
169314, 169313, 2
169314, 169318, 2
169292, 169288, 2
169292, 169290, 2
169292, 169283, 2
169292, 169293, 3
169292, 169287, 2
169292, 169294, 1
169292, 169291, 2
169292, 169314, 2
169293, 169294, 2
169293, 169315, 2
169293, 169292, 2
169293, 169296, 2
169325, 169324, 2
169325, 169326, 1
169291, 169290, 2
169291, 169292, 1
169313, 169314, 6
169313, 169315, 4
169313, 169317, 2
169313, 169311, 2
169313, 169316, 1
169313, 169312, 2
169313, 169318, 2
169299, 169314, 2
169299, 169300, 1
169299, 169315, 2
169299, 169301, 2
169299, 169288, 2
169299, 169287, 2
169299, 169295, 2
169299, 169298, 2
169299, 169297, 2
169299, 169296, 2
169296, 169285, 2
169296, 169315, 2
169296, 169317, 2
169296, 169293, 2
169296, 169294, 2
169296, 169295, 2
169296, 169298, 2
169296, 169299, 2
169296, 169297, 2
169286, 169287, 2
169286, 169283, 2
169286, 169284, 2
169286, 169281, 2
169298, 169295, 2
169298, 169296, 2
169298, 169299, 1
169298, 169297, 2
169303, 169302, 2
169303, 169285, 2
169303, 169315, 2
169303, 169304, 2
169319, 169316, 2
169319, 169320, 1
169319, 169321, 2
169319, 169317, 2
169319, 169318, 2
169308, 169288, 2
169308, 169310, 1
169308, 169307, 2
169308, 169314, 2
169308, 169287, 2
169308, 169309, 3
169320, 169319, 2
169320, 169314, 2
169320, 169321, 1
169320, 169317, 2
169320, 169318, 2
169310, 169288, 2
169310, 169315, 2
169310, 169311, 1
169310, 169314, 2
169310, 169309, 2
169310, 169308, 2
169330, 169314, 2
169330, 169331, 1
169330, 169318, 2
169330, 169329, 2
169330, 169328, 2
169332, 169314, 2
169332, 169331, 2
169332, 169333, 1
169332, 169318, 2
169309, 169285, 2
169309, 169310, 2
169309, 169308, 2
169309, 169315, 2
169322, 169324, 1
169322, 169323, 3
169322, 169315, 2
169322, 169317, 2
169322, 169314, 2
169322, 169321, 2
169322, 169318, 2
169331, 169314, 2
169331, 169330, 2
169331, 169318, 2
169331, 169332, 1
169326, 169324, 2
169326, 169314, 2
169326, 169317, 2
169326, 169325, 2
169326, 169327, 1
169326, 169318, 2
169300, 169287, 2
169300, 169288, 2
169300, 169299, 2
169300, 169301, 1
169300, 169314, 2
169315, 169303, 2
169315, 169328, 2
169315, 169316, 2
169315, 169318, 2
169315, 169285, 2
169315, 169310, 2
169315, 169309, 2
169315, 169289, 2
169315, 169327, 2
169315, 169304, 2
169315, 169322, 2
169315, 169307, 2
169315, 169329, 2
169315, 169321, 2
169315, 169312, 2
169315, 169323, 2
169315, 169311, 2
169315, 169317, 2
169315, 169293, 2
169315, 169313, 2
169315, 169299, 2
169315, 169296, 2
169307, 169288, 2
169307, 169315, 2
169307, 169304, 2
169307, 169314, 2
169307, 169287, 2
169307, 169306, 2
169307, 169308, 1
169329, 169330, 2
169329, 169315, 2
169329, 169317, 2
169329, 169328, 2
169285, 169302, 2
169285, 169315, 2
169285, 169317, 2
169285, 169303, 2
169285, 169281, 2
169285, 169309, 2
169285, 169289, 2
169285, 169301, 2
169285, 169296, 2
169287, 169286, 2
169287, 169283, 2
169287, 169300, 2
169287, 169301, 2
169287, 169304, 2
169287, 169297, 2
169287, 169294, 2
169287, 169306, 2
169287, 169302, 2
169287, 169314, 2
169287, 169308, 2
169287, 169307, 2
169287, 169311, 2
169287, 169318, 2
169287, 169292, 2
169287, 169281, 2
169287, 169316, 2
169287, 169289, 2
169287, 169288, 0
169287, 169299, 2
169282, 169283, 1
169282, 169281, 2
169306, 169288, 2
169306, 169307, 1
169306, 169304, 2
169306, 169314, 2
169306, 169305, 2
169306, 169287, 2
169324, 169323, 2
169324, 169322, 2
169324, 169314, 2
169324, 169325, 1
169324, 169327, 2
169324, 169326, 2
169324, 169318, 2
169294, 169288, 2
169294, 169292, 2
169294, 169314, 2
169294, 169287, 2
169294, 169295, 1
169294, 169293, 2
169294, 169297, 2
169294, 169296, 2
169290, 169314, 2
169290, 169289, 2
169290, 169291, 1
169290, 169292, 2
169290, 169288, 2
169317, 169315, 2
169317, 169329, 2
169317, 169323, 2
169317, 169316, 2
169317, 169313, 2
169317, 169328, 2
169317, 169319, 2
169317, 169312, 2
169317, 169285, 2
169317, 169320, 2
169317, 169322, 2
169317, 169327, 2
169317, 169326, 2
169317, 169321, 2
169317, 169314, 2
169317, 169296, 2
169281, 169286, 2
169281, 169283, 2
169281, 169288, 2
169281, 169287, 2
169281, 169289, 1
169281, 169285, 4
169281, 169282, 6
169281, 169284, 2
169316, 169288, 2
169316, 169315, 2
169316, 169317, 4
169316, 169311, 2
169316, 169314, 2
169316, 169287, 2
169316, 169313, 2
169316, 169312, 2
169316, 169318, 6
169316, 169319, 1
169321, 169314, 2
169321, 169315, 2
169321, 169317, 2
169321, 169320, 2
169321, 169319, 2
169321, 169322, 1
169321, 169318, 2
169333, 169332, 2
169318, 169331, 2
169318, 169315, 2
169318, 169287, 2
169318, 169320, 2
169318, 169316, 2
169318, 169313, 2
169318, 169328, 2
169318, 169319, 2
169318, 169324, 2
169318, 169314, 2
169318, 169330, 2
169318, 169332, 2
169318, 169322, 2
169318, 169327, 2
169318, 169326, 2
169318, 169321, 2
169318, 169288, 2
169284, 169286, 1
169284, 169283, 2
169284, 169281, 2
