221216, 221219, 1
221216, 221218, 8
221216, 221217, 0
221219, 221216, 2
221219, 221217, 2
221219, 221220, 0
221219, 221218, 2
221218, 221216, 2
221218, 221219, 2
221218, 221217, 2
221220, 221219, 2
221217, 221216, 2
221217, 221219, 2
221217, 221218, 2
