71101, 71103, 2
71101, 71102, 3
71101, 71100, 2
71105, 71103, 2
71105, 71104, 2
71100, 71101, 3
71100, 71103, 1
71100, 71102, 2
71103, 71101, 2
71103, 71102, 2
71103, 71105, 2
71103, 71104, 1
71103, 71100, 2
71102, 71101, 2
71102, 71103, 2
71102, 71100, 2
71104, 71103, 2
71104, 71105, 1
