186896, 186898, 2
186896, 186897, 2
186896, 186895, 2
186896, 186894, 2
186896, 186893, 2
186893, 186896, 2
186893, 186898, 2
186893, 186895, 1
186893, 186892, 2
186893, 186894, 8
186892, 186893, 1
186892, 186894, 2
186892, 186895, 2
186892, 186891, 2
186895, 186896, 8
186895, 186893, 2
186895, 186897, 1
186895, 186898, 2
186895, 186892, 2
186895, 186894, 2
186891, 186892, 1
186898, 186896, 2
186898, 186893, 2
186898, 186897, 2
186898, 186895, 2
186897, 186896, 2
186897, 186898, 1
186897, 186895, 2
186894, 186896, 2
186894, 186893, 2
186894, 186892, 2
186894, 186895, 2
