72143, 72142, 2
72143, 72144, 2
72142, 72143, 3
72142, 72144, 1
72144, 72143, 2
72144, 72142, 2
72144, 72145, 1
72147, 72145, 2
72147, 72146, 2
72146, 72145, 2
72146, 72147, 1
72145, 72144, 2
72145, 72147, 2
72145, 72146, 1
