22318, 22317, 2
22318, 22320, 2
22318, 22316, 2
22318, 22319, 1
22321, 22322, 3
22321, 22320, 2
22321, 22323, 1
22320, 22318, 2
22320, 22321, 1
22320, 22322, 2
22320, 22317, 2
22320, 22316, 2
22320, 22319, 2
22322, 22321, 2
22322, 22320, 2
22322, 22323, 2
22317, 22318, 2
22317, 22320, 2
22317, 22316, 2
22317, 22319, 2
22316, 22318, 1
22316, 22317, 0
22316, 22320, 2
22316, 22319, 2
22323, 22322, 2
22323, 22321, 2
22319, 22318, 2
22319, 22317, 2
22319, 22320, 1
22319, 22316, 2
