64449, 64452, 2
64449, 64451, 2
64449, 64446, 2
64449, 64447, 2
64449, 64448, 2
64449, 64450, 1
64454, 64452, 2
64454, 64456, 1
64454, 64455, 0
64454, 64453, 2
64460, 64462, 2
64460, 64459, 2
64460, 64463, 2
64460, 64461, 0
64456, 64452, 2
64456, 64458, 2
64456, 64459, 2
64456, 64454, 2
64456, 64455, 2
64456, 64457, 1
64445, 64446, 1
64462, 64463, 1
64462, 64460, 2
64462, 64461, 2
64448, 64446, 2
64448, 64449, 2
64448, 64447, 2
64463, 64462, 2
64463, 64460, 2
64463, 64461, 2
64453, 64452, 2
64453, 64454, 1
64453, 64455, 2
64452, 64449, 2
64452, 64453, 1
64452, 64454, 2
64452, 64451, 2
64452, 64456, 2
64452, 64455, 2
64452, 64450, 2
64455, 64452, 2
64455, 64456, 2
64455, 64454, 2
64455, 64453, 2
64447, 64446, 2
64447, 64449, 1
64447, 64448, 0
64458, 64456, 2
64458, 64459, 2
64458, 64457, 2
64446, 64445, 2
64446, 64449, 2
64446, 64448, 2
64446, 64447, 1
64459, 64458, 2
64459, 64457, 2
64459, 64460, 1
64459, 64456, 2
64451, 64452, 1
64451, 64449, 2
64451, 64450, 2
64450, 64452, 2
64450, 64449, 2
64450, 64451, 1
64457, 64456, 2
64457, 64459, 1
64457, 64458, 0
64461, 64462, 1
64461, 64463, 2
64461, 64460, 2
