300601, 300604, 2
300601, 300602, 3
300601, 300603, 1
300604, 300601, 2
300604, 300603, 2
300604, 300605, 2
300602, 300601, 2
300602, 300605, 2
300602, 300603, 2
300605, 300604, 6
300605, 300602, 2
300605, 300603, 2
300603, 300601, 2
300603, 300604, 2
300603, 300602, 2
300603, 300605, 1
