21039, 21040, 0
21039, 21037, 2
21039, 21038, 2
21037, 21039, 2
21037, 21035, 2
21037, 21040, 2
21037, 21038, 1
21037, 21036, 2
21040, 21039, 2
21040, 21037, 2
21035, 21037, 2
21035, 21036, 1
21038, 21039, 1
21038, 21037, 2
21036, 21037, 1
21036, 21035, 2
