219013, 219012, 2
218993, 218995, 2
218993, 218992, 2
218993, 218994, 1
218993, 218996, 2
218998, 218999, 1
218998, 219000, 2
218998, 218997, 2
218998, 218996, 2
218998, 219001, 2
219002, 219003, 3
219002, 219005, 1
219002, 219004, 8
219002, 219001, 2
219003, 219002, 2
219003, 219001, 2
219003, 219005, 2
219003, 219004, 2
218997, 218996, 2
218997, 218998, 1
219009, 219011, 2
219009, 219010, 1
219009, 219007, 2
219009, 219008, 2
219009, 219006, 2
219009, 219012, 2
219000, 218999, 2
219000, 219005, 2
219000, 218998, 2
219000, 219001, 2
219005, 219004, 2
219005, 219002, 2
219005, 219003, 2
219005, 219000, 2
219005, 219006, 1
219005, 219001, 2
219008, 219007, 2
219008, 219009, 2
219008, 219006, 2
219008, 219012, 2
219001, 219002, 1
219001, 218998, 2
219001, 219003, 2
219001, 219005, 2
219001, 218999, 2
219001, 219000, 2
219007, 219008, 6
219007, 219009, 1
219007, 219006, 2
218994, 218995, 3
218994, 218993, 2
218994, 218996, 1
219006, 219005, 2
219006, 219008, 2
219006, 219007, 1
219006, 219009, 2
218995, 218993, 2
218995, 218994, 2
218995, 218996, 2
218996, 218995, 2
218996, 218994, 2
218996, 218997, 1
218996, 218993, 2
218996, 218998, 2
218999, 219000, 6
218999, 218998, 2
218999, 219001, 1
219010, 219009, 2
219010, 219011, 3
219010, 219012, 1
219012, 219013, 1
219012, 219010, 2
219012, 219008, 2
219012, 219011, 2
219012, 219009, 2
219004, 219003, 2
219004, 219005, 2
219004, 219002, 2
218992, 218993, 1
219011, 219010, 2
219011, 219012, 2
219011, 219009, 2
