216197, 216196, 2
216197, 216198, 1
216197, 216195, 2
216196, 216197, 2
216196, 216195, 2
216204, 216199, 2
216204, 216205, 1
216204, 216202, 2
216204, 216203, 2
216198, 216197, 2
216198, 216199, 1
216198, 216195, 2
216198, 216202, 2
216198, 216200, 2
216202, 216199, 2
216202, 216198, 2
216202, 216203, 3
216202, 216204, 1
216202, 216201, 2
216202, 216200, 2
216203, 216204, 2
216203, 216200, 2
216203, 216201, 2
216203, 216202, 2
216199, 216204, 2
216199, 216198, 2
216199, 216200, 3
216199, 216202, 1
216199, 216201, 8
216205, 216204, 2
216201, 216199, 2
216201, 216200, 2
216201, 216202, 2
216201, 216203, 2
216200, 216199, 2
216200, 216198, 2
216200, 216201, 2
216200, 216202, 2
216200, 216203, 2
216195, 216197, 1
216195, 216196, 3
216195, 216198, 2
