294796, 294795, 2
294796, 294797, 1
294798, 294802, 2
294798, 294797, 2
294798, 294800, 2
294798, 294799, 1
294797, 294796, 2
294797, 294798, 1
294797, 294802, 2
294797, 294795, 2
294797, 294799, 2
294799, 294798, 2
294799, 294797, 2
294799, 294800, 1
294794, 294795, 2
294794, 294793, 2
294795, 294796, 1
294795, 294797, 2
294795, 294793, 2
294795, 294794, 2
294802, 294797, 2
294802, 294793, 2
294802, 294800, 2
294802, 294798, 2
294802, 294803, 2
294802, 294801, 2
294800, 294798, 2
294800, 294802, 2
294800, 294803, 2
294800, 294801, 1
294800, 294799, 2
294803, 294802, 2
294803, 294800, 2
294803, 294801, 2
294801, 294802, 0
294801, 294803, 1
294801, 294800, 2
294793, 294795, 1
294793, 294802, 2
294793, 294794, 3
