134960, 134966, 1
134960, 134959, 2
134960, 134967, 2
134960, 134962, 0
134960, 134963, 2
134960, 134961, 3
134960, 134965, 2
134966, 134960, 2
134966, 134964, 2
134966, 134959, 2
134966, 134963, 2
134966, 134962, 2
134966, 134967, 0
134966, 134961, 2
134966, 134965, 2
134965, 134963, 2
134965, 134962, 2
134965, 134960, 2
134965, 134966, 2
134965, 134964, 2
134959, 134967, 2
134959, 134962, 2
134959, 134960, 1
134959, 134966, 2
134963, 134960, 2
134963, 134966, 2
134963, 134967, 2
134963, 134962, 2
134963, 134964, 8
134963, 134961, 2
134963, 134965, 1
134962, 134960, 2
134962, 134966, 2
134962, 134959, 2
134962, 134963, 2
134962, 134965, 2
134962, 134967, 2
134962, 134961, 2
134962, 134964, 2
134967, 134959, 2
134967, 134963, 2
134967, 134962, 2
134967, 134960, 2
134967, 134966, 2
134961, 134963, 1
134961, 134962, 2
134961, 134960, 2
134961, 134966, 2
134964, 134963, 2
134964, 134962, 2
134964, 134966, 2
134964, 134965, 2
