129834, 129837, 2
129834, 129832, 2
129834, 129831, 2
129834, 129838, 2
129834, 129839, 2
129834, 129836, 2
129834, 129830, 2
129834, 129833, 2
129842, 129845, 2
129842, 129851, 2
129842, 129844, 2
129842, 129847, 2
129842, 129849, 2
129842, 129841, 2
129842, 129850, 2
129851, 129852, 2
129851, 129844, 2
129851, 129842, 2
129851, 129847, 2
129851, 129850, 2
129851, 129854, 2
129851, 129839, 2
129851, 129841, 2
129851, 129853, 2
129867, 129868, 1
129867, 129866, 2
129867, 129865, 2
129844, 129842, 6
129844, 129843, 2
129844, 129851, 2
129844, 129845, 3
129844, 129850, 2
129844, 129849, 2
129844, 129841, 2
129866, 129875, 2
129866, 129859, 2
129866, 129862, 2
129866, 129865, 2
129866, 129868, 2
129866, 129873, 2
129866, 129854, 2
129866, 129867, 2
129866, 129874, 2
129866, 129869, 2
129866, 129857, 2
129835, 129830, 2
129835, 129839, 2
129835, 129831, 2
129831, 129834, 2
129831, 129837, 2
129831, 129832, 6
129831, 129835, 4
129831, 129838, 2
129831, 129839, 1
129831, 129836, 2
129831, 129833, 2
129831, 129830, 2
129838, 129834, 2
129838, 129837, 2
129838, 129832, 2
129838, 129831, 2
129838, 129839, 2
129838, 129836, 2
129861, 129858, 2
129861, 129856, 2
129861, 129865, 2
129845, 129842, 2
129845, 129843, 2
129845, 129850, 2
129845, 129847, 1
129845, 129844, 2
129845, 129841, 2
129862, 129864, 1
129862, 129863, 8
129862, 129856, 2
129862, 129860, 2
129862, 129858, 2
129862, 129865, 2
129862, 129866, 2
129862, 129857, 2
129849, 129842, 2
129849, 129843, 2
129849, 129848, 2
129849, 129844, 2
129849, 129847, 2
129849, 129850, 2
129841, 129842, 2
129841, 129843, 1
129841, 129846, 2
129841, 129848, 2
129841, 129851, 2
129841, 129845, 2
129841, 129847, 2
129841, 129844, 2
129841, 129850, 2
129841, 129839, 2
129841, 129840, 2
129872, 129875, 2
129872, 129873, 2
129872, 129869, 2
129872, 129871, 2
129836, 129834, 2
129836, 129837, 8
129836, 129831, 2
129836, 129838, 1
129836, 129839, 2
129836, 129830, 2
129836, 129833, 2
129833, 129834, 2
129833, 129832, 2
129833, 129830, 2
129833, 129836, 1
129833, 129831, 2
129863, 129864, 2
129863, 129858, 2
129863, 129856, 2
129863, 129862, 2
129863, 129865, 2
129843, 129845, 2
129843, 129846, 4
129843, 129848, 2
129843, 129849, 2
129843, 129847, 2
129843, 129844, 6
129843, 129841, 2
129843, 129850, 1
129871, 129870, 2
129871, 129872, 1
129871, 129868, 2
129871, 129873, 2
129871, 129865, 2
129871, 129869, 2
129850, 129852, 1
129850, 129845, 2
129850, 129851, 0
129850, 129842, 2
129850, 129849, 2
129850, 129841, 2
129850, 129843, 2
129850, 129846, 2
129850, 129848, 2
129850, 129847, 2
129850, 129844, 2
129850, 129854, 2
129850, 129853, 2
129869, 129875, 2
129869, 129870, 2
129869, 129872, 2
129869, 129868, 2
129869, 129873, 2
129869, 129866, 2
129869, 129874, 2
129869, 129871, 2
129853, 129852, 2
129853, 129854, 1
129853, 129851, 2
129853, 129850, 2
129864, 129863, 2
129864, 129859, 2
129864, 129862, 2
129864, 129865, 2
129864, 129858, 2
129864, 129857, 2
129852, 129850, 2
129852, 129854, 2
129852, 129851, 2
129852, 129853, 1
129837, 129834, 2
129837, 129830, 2
129837, 129831, 2
129837, 129838, 2
129837, 129839, 2
129837, 129836, 2
129857, 129864, 2
129857, 129859, 2
129857, 129862, 2
129857, 129865, 2
129857, 129854, 2
129857, 129860, 2
129857, 129866, 2
129857, 129856, 2
129858, 129864, 2
129858, 129863, 2
129858, 129859, 6
129858, 129862, 2
129858, 129865, 1
129858, 129861, 4
129858, 129860, 2
129858, 129856, 2
129856, 129863, 2
129856, 129859, 2
129856, 129860, 2
129856, 129862, 2
129856, 129858, 1
129856, 129861, 2
129856, 129854, 2
129856, 129865, 2
129856, 129855, 2
129856, 129857, 2
129870, 129868, 2
129870, 129873, 1
129870, 129875, 2
129870, 129869, 6
129870, 129871, 3
129846, 129850, 2
129846, 129841, 2
129846, 129843, 2
129848, 129847, 2
129848, 129849, 2
129848, 129841, 2
129848, 129843, 2
129848, 129850, 2
129865, 129864, 2
129865, 129859, 2
129865, 129862, 2
129865, 129867, 1
129865, 129875, 2
129865, 129866, 0
129865, 129857, 2
129865, 129863, 2
129865, 129856, 2
129865, 129860, 2
129865, 129861, 2
129865, 129868, 2
129865, 129858, 2
129865, 129871, 2
129847, 129842, 2
129847, 129843, 2
129847, 129848, 8
129847, 129851, 2
129847, 129845, 2
129847, 129850, 2
129847, 129849, 1
129847, 129841, 2
129873, 129870, 2
129873, 129872, 2
129873, 129875, 1
129873, 129866, 2
129873, 129874, 0
129873, 129869, 2
129873, 129871, 2
129855, 129856, 1
129855, 129854, 2
129859, 129864, 2
129859, 129858, 2
129859, 129856, 2
129859, 129860, 3
129859, 129865, 2
129859, 129866, 2
129859, 129857, 6
129860, 129858, 2
129860, 129856, 2
129860, 129862, 1
129860, 129865, 2
129860, 129859, 2
129860, 129857, 2
129868, 129870, 1
129868, 129865, 2
129868, 129867, 2
129868, 129866, 2
129868, 129869, 2
129868, 129871, 2
129875, 129870, 2
129875, 129865, 2
129875, 129873, 2
129875, 129872, 2
129875, 129866, 2
129875, 129874, 2
129875, 129869, 2
129830, 129834, 2
129830, 129837, 2
129830, 129832, 2
129830, 129835, 2
129830, 129831, 1
129830, 129839, 2
129830, 129836, 2
129830, 129833, 2
129832, 129834, 0
129832, 129830, 2
129832, 129831, 2
129832, 129838, 2
129832, 129839, 2
129832, 129833, 3
129854, 129852, 2
129854, 129856, 2
129854, 129851, 2
129854, 129850, 2
129854, 129857, 2
129854, 129866, 2
129854, 129855, 1
129854, 129853, 2
129839, 129834, 2
129839, 129837, 2
129839, 129832, 2
129839, 129835, 2
129839, 129851, 2
129839, 129838, 2
129839, 129841, 2
129839, 129831, 2
129839, 129836, 2
129839, 129830, 2
129839, 129840, 1
129874, 129875, 2
129874, 129873, 2
129874, 129866, 2
129874, 129869, 2
129840, 129841, 1
129840, 129839, 2
