67842, 67841, 2
67842, 67843, 2
67842, 67840, 2
67842, 67839, 2
67831, 67829, 2
67831, 67830, 2
67831, 67828, 2
67831, 67827, 2
67831, 67832, 2
67824, 67825, 2
67824, 67826, 2
67824, 67823, 2
67827, 67829, 2
67827, 67826, 2
67827, 67831, 2
67827, 67828, 1
67827, 67830, 2
67848, 67847, 2
67848, 67849, 2
67839, 67838, 2
67839, 67841, 1
67839, 67843, 2
67839, 67840, 8
67839, 67842, 2
67834, 67836, 1
67834, 67832, 2
67834, 67835, 0
67834, 67833, 2
67849, 67847, 2
67849, 67850, 0
67849, 67848, 2
67849, 67851, 1
67825, 67826, 2
67825, 67823, 2
67825, 67824, 2
67830, 67829, 2
67830, 67831, 6
67830, 67832, 1
67830, 67827, 2
67830, 67828, 2
67847, 67846, 2
67847, 67845, 2
67847, 67848, 8
67847, 67849, 1
67833, 67834, 2
67833, 67832, 2
67826, 67825, 2
67826, 67823, 2
67826, 67824, 2
67826, 67827, 1
67840, 67842, 2
67840, 67841, 2
67840, 67838, 2
67840, 67839, 2
67837, 67836, 2
67837, 67838, 1
67838, 67840, 2
67838, 67841, 2
67838, 67836, 2
67838, 67837, 2
67838, 67839, 1
67845, 67846, 3
67845, 67847, 1
67845, 67843, 2
67845, 67844, 2
67841, 67842, 3
67841, 67843, 1
67841, 67840, 2
67841, 67838, 2
67841, 67839, 2
67835, 67834, 2
67835, 67836, 2
67851, 67850, 2
67851, 67849, 2
67846, 67847, 2
67846, 67845, 2
67828, 67829, 8
67828, 67830, 1
67828, 67831, 2
67828, 67832, 2
67828, 67827, 2
67844, 67843, 2
67844, 67845, 2
67823, 67825, 3
67823, 67826, 1
67823, 67824, 6
67843, 67842, 2
67843, 67841, 2
67843, 67844, 3
67843, 67845, 1
67843, 67839, 2
67836, 67838, 2
67836, 67837, 1
67836, 67835, 2
67836, 67834, 2
67829, 67830, 2
67829, 67831, 2
67829, 67828, 2
67829, 67827, 2
67829, 67832, 2
67850, 67851, 2
67850, 67849, 2
67832, 67830, 2
67832, 67834, 1
67832, 67833, 8
67832, 67829, 2
67832, 67828, 2
67832, 67831, 2
