221615, 221614, 2
221615, 221616, 8
221615, 221617, 1
221615, 221618, 2
221613, 221614, 2
221613, 221612, 2
221614, 221615, 1
221614, 221613, 2
221614, 221616, 2
221614, 221612, 2
221614, 221617, 2
221618, 221615, 2
221618, 221617, 2
221616, 221615, 2
221616, 221614, 2
221616, 221617, 2
221612, 221613, 8
221612, 221614, 1
221617, 221615, 2
221617, 221614, 2
221617, 221616, 2
221617, 221618, 1
