299820, 299819, 2
299820, 299821, 1
299819, 299820, 1
299819, 299821, 2
299822, 299821, 2
299822, 299823, 1
299821, 299820, 2
299821, 299819, 2
299821, 299822, 1
299821, 299823, 2
299823, 299822, 2
299823, 299821, 2
