259211, 259213, 2
259211, 259212, 1
259213, 259211, 2
259213, 259212, 2
259213, 259215, 1
259213, 259214, 3
259215, 259213, 2
259215, 259216, 1
259215, 259214, 2
259216, 259215, 2
259216, 259217, 3
259212, 259211, 2
259212, 259213, 1
259217, 259216, 2
259214, 259213, 2
259214, 259215, 2
