295712, 295711, 2
295712, 295713, 1
295712, 295710, 2
295712, 295715, 2
295716, 295710, 2
295716, 295715, 6
295716, 295714, 2
295709, 295705, 2
295709, 295708, 2
295709, 295711, 2
295709, 295706, 2
295709, 295702, 2
295709, 295710, 1
295709, 295703, 2
295709, 295707, 2
295705, 295709, 2
295705, 295708, 2
295705, 295707, 2
295705, 295706, 1
295705, 295702, 2
295705, 295704, 2
295705, 295703, 2
295708, 295709, 2
295708, 295705, 2
295708, 295706, 2
295708, 295711, 2
295708, 295702, 2
295708, 295710, 2
295708, 295703, 2
295708, 295707, 2
295707, 295704, 2
295707, 295709, 0
295707, 295705, 2
295707, 295708, 6
295707, 295711, 1
295707, 295706, 2
295707, 295702, 2
295707, 295710, 2
295711, 295712, 1
295711, 295709, 2
295711, 295708, 2
295711, 295707, 2
295711, 295702, 2
295711, 295710, 2
295711, 295715, 2
295702, 295711, 2
295702, 295709, 2
295702, 295705, 2
295702, 295708, 2
295702, 295704, 2
295702, 295707, 2
295702, 295706, 2
295702, 295703, 2
295702, 295710, 2
295710, 295712, 2
295710, 295713, 2
295710, 295709, 2
295710, 295708, 2
295710, 295707, 2
295710, 295711, 2
295710, 295702, 2
295710, 295716, 2
295710, 295703, 2
295710, 295715, 2
295713, 295712, 2
295713, 295710, 2
295713, 295715, 2
295713, 295714, 1
295714, 295713, 2
295714, 295716, 1
295714, 295715, 2
295706, 295709, 2
295706, 295705, 2
295706, 295708, 2
295706, 295707, 1
295706, 295702, 2
295706, 295704, 2
295704, 295706, 2
295704, 295703, 2
295704, 295705, 2
295704, 295702, 2
295704, 295707, 2
295703, 295704, 3
295703, 295709, 2
295703, 295705, 1
295703, 295708, 2
295703, 295702, 6
295703, 295710, 2
295715, 295712, 2
295715, 295716, 2
295715, 295713, 2
295715, 295714, 2
295715, 295711, 2
295715, 295710, 2
