259789, 259787, 2
259789, 259788, 2
259782, 259783, 3
259782, 259784, 8
259782, 259785, 1
259785, 259783, 2
259785, 259786, 3
259785, 259788, 1
259785, 259787, 8
259785, 259784, 2
259785, 259782, 2
259786, 259787, 2
259786, 259784, 2
259786, 259785, 2
259786, 259788, 2
259783, 259782, 2
259783, 259784, 2
259783, 259785, 2
259787, 259789, 2
259787, 259786, 2
259787, 259785, 2
259787, 259788, 2
259784, 259786, 2
259784, 259783, 2
259784, 259782, 2
259784, 259785, 2
259788, 259789, 3
259788, 259786, 2
259788, 259787, 2
259788, 259785, 2
