258944, 258945, 1
258944, 258946, 2
258945, 258944, 2
258945, 258947, 1
258945, 258948, 2
258945, 258946, 8
258950, 258947, 2
258950, 258948, 2
258950, 258949, 2
258946, 258947, 2
258946, 258945, 2
258946, 258948, 2
258946, 258944, 2
258947, 258945, 2
258947, 258948, 8
258947, 258949, 2
258947, 258950, 1
258947, 258946, 2
258948, 258947, 2
258948, 258945, 2
258948, 258949, 1
258948, 258950, 2
258948, 258946, 2
258949, 258947, 2
258949, 258948, 2
258949, 258950, 2
