259528, 259527, 2
259528, 259529, 1
259529, 259528, 2
259529, 259526, 2
259524, 259523, 2
259524, 259525, 1
259523, 259524, 1
259527, 259528, 1
259527, 259526, 2
259525, 259524, 2
259525, 259526, 1
259526, 259527, 1
259526, 259525, 2
259526, 259529, 2
