131391, 131393, 2
131391, 131392, 1
131437, 131435, 2
131437, 131438, 1
131437, 131436, 2
131437, 131426, 2
131436, 131435, 2
131436, 131437, 1
131440, 131441, 1
131440, 131438, 2
131440, 131426, 2
131440, 131419, 2
131440, 131439, 2
131406, 131405, 2
131406, 131408, 1
131406, 131412, 2
131406, 131403, 2
131406, 131402, 2
131415, 131414, 2
131415, 131417, 2
131415, 131412, 2
131415, 131419, 2
131415, 131416, 1
131415, 131421, 2
131415, 131413, 2
131415, 131418, 2
131420, 131417, 2
131420, 131426, 2
131420, 131416, 2
131420, 131421, 2
131420, 131424, 2
131420, 131423, 2
131420, 131418, 2
131422, 131426, 2
131422, 131421, 2
131422, 131427, 2
131422, 131424, 1
131422, 131423, 0
131422, 131425, 2
131421, 131417, 2
131421, 131425, 2
131421, 131426, 2
131421, 131419, 2
131421, 131416, 2
131421, 131423, 2
131421, 131415, 2
131421, 131424, 2
131421, 131420, 2
131421, 131418, 2
131421, 131422, 1
131392, 131396, 2
131392, 131391, 2
131392, 131393, 3
131392, 131395, 1
131392, 131394, 0
131392, 131397, 2
131392, 131399, 2
131392, 131402, 2
131410, 131408, 2
131410, 131402, 2
131410, 131412, 2
131410, 131403, 2
131401, 131398, 2
131401, 131402, 1
131401, 131400, 2
131401, 131397, 2
131427, 131428, 1
131427, 131426, 2
131427, 131419, 2
131427, 131425, 2
131427, 131423, 2
131427, 131422, 2
131402, 131412, 2
131402, 131408, 2
131402, 131403, 1
131402, 131404, 2
131402, 131406, 2
131402, 131407, 2
131402, 131397, 2
131402, 131399, 2
131402, 131401, 2
131402, 131393, 2
131402, 131392, 2
131402, 131410, 2
131402, 131395, 2
131402, 131405, 2
131402, 131411, 2
131402, 131398, 2
131402, 131400, 2
131396, 131393, 2
131396, 131392, 2
131396, 131394, 2
131396, 131395, 2
131396, 131399, 2
131396, 131398, 1
131411, 131403, 2
131411, 131412, 2
131411, 131402, 2
131411, 131409, 2
131400, 131398, 2
131400, 131402, 2
131400, 131399, 2
131400, 131401, 1
131434, 131435, 1
131434, 131433, 2
131424, 131420, 2
131424, 131426, 2
131424, 131419, 2
131424, 131421, 2
131424, 131422, 2
131424, 131423, 2
131424, 131425, 1
131430, 131431, 1
131430, 131429, 2
131430, 131426, 2
131429, 131428, 2
131429, 131426, 2
131429, 131430, 1
131418, 131421, 2
131418, 131417, 2
131418, 131415, 2
131418, 131420, 1
131418, 131416, 2
131439, 131438, 2
131439, 131440, 1
131416, 131417, 1
131416, 131419, 2
131416, 131421, 2
131416, 131415, 2
131416, 131420, 2
131416, 131418, 2
131416, 131423, 2
131405, 131403, 2
131405, 131402, 2
131405, 131406, 1
131432, 131431, 2
131432, 131426, 2
131432, 131433, 1
131423, 131417, 2
131423, 131426, 2
131423, 131416, 2
131423, 131421, 2
131423, 131427, 2
131423, 131425, 2
131423, 131424, 2
131423, 131420, 2
131423, 131422, 2
131412, 131413, 1
131412, 131410, 2
131412, 131403, 2
131412, 131406, 2
131412, 131408, 2
131412, 131411, 2
131412, 131415, 2
131412, 131402, 2
131412, 131407, 2
131403, 131408, 2
131403, 131412, 1
131403, 131410, 2
131403, 131411, 2
131403, 131404, 6
131403, 131406, 2
131403, 131405, 4
131403, 131407, 2
131403, 131402, 2
131403, 131409, 2
131419, 131431, 2
131419, 131440, 2
131419, 131421, 2
131419, 131441, 2
131419, 131415, 2
131419, 131433, 2
131419, 131425, 2
131419, 131435, 2
131419, 131417, 2
131419, 131416, 2
131419, 131427, 2
131419, 131438, 2
131419, 131424, 2
131395, 131396, 4
131395, 131398, 2
131395, 131392, 2
131395, 131394, 2
131395, 131402, 2
131395, 131393, 2
131395, 131397, 6
131395, 131399, 1
131441, 131419, 2
131441, 131440, 2
131397, 131393, 2
131397, 131392, 2
131397, 131394, 2
131397, 131395, 2
131397, 131402, 2
131397, 131399, 2
131397, 131401, 2
131425, 131426, 0
131425, 131419, 2
131425, 131421, 2
131425, 131427, 1
131425, 131424, 2
131425, 131423, 2
131425, 131422, 2
131435, 131437, 2
131435, 131436, 1
131435, 131434, 2
131435, 131419, 2
131435, 131433, 2
131435, 131426, 2
131417, 131419, 4
131417, 131416, 2
131417, 131421, 1
131417, 131415, 2
131417, 131420, 2
131417, 131418, 6
131417, 131423, 2
131438, 131437, 2
131438, 131440, 2
131438, 131419, 2
131438, 131439, 1
131431, 131432, 1
131431, 131433, 2
131431, 131426, 2
131431, 131419, 2
131431, 131430, 2
131404, 131403, 2
131404, 131402, 2
131404, 131407, 1
131393, 131396, 2
131393, 131391, 2
131393, 131392, 2
131393, 131398, 2
131393, 131395, 2
131393, 131394, 2
131393, 131397, 2
131393, 131402, 2
131394, 131396, 2
131394, 131395, 2
131394, 131392, 2
131394, 131397, 2
131394, 131393, 2
131399, 131396, 2
131399, 131398, 2
131399, 131392, 2
131399, 131400, 1
131399, 131395, 2
131399, 131397, 2
131399, 131402, 2
131433, 131435, 2
131433, 131432, 2
131433, 131431, 2
131433, 131419, 2
131433, 131434, 1
131409, 131403, 2
131409, 131407, 2
131409, 131411, 1
131414, 131413, 2
131414, 131415, 1
131426, 131431, 2
131426, 131437, 2
131426, 131440, 2
131426, 131430, 2
131426, 131421, 2
131426, 131429, 2
131426, 131422, 2
131426, 131435, 2
131426, 131428, 2
131426, 131432, 2
131426, 131427, 2
131426, 131425, 2
131426, 131424, 2
131426, 131423, 2
131426, 131420, 2
131428, 131427, 2
131428, 131429, 1
131428, 131426, 2
131408, 131402, 2
131408, 131412, 2
131408, 131410, 1
131408, 131403, 2
131408, 131406, 2
131407, 131403, 2
131407, 131412, 2
131407, 131402, 2
131407, 131404, 2
131407, 131409, 1
131413, 131414, 1
131413, 131412, 2
131413, 131415, 2
131398, 131396, 2
131398, 131393, 2
131398, 131400, 2
131398, 131395, 2
131398, 131402, 2
131398, 131399, 2
131398, 131401, 2
