20997, 20998, 0
20997, 20995, 2
20997, 20996, 2
20995, 20997, 2
20995, 20993, 2
20995, 20998, 2
20995, 20994, 2
20995, 20996, 1
20994, 20993, 2
20994, 20995, 1
20993, 20995, 2
20993, 20994, 1
20998, 20997, 2
20998, 20995, 2
20996, 20997, 1
20996, 20995, 2
