120029, 120028, 2
120029, 120030, 1
120036, 120032, 2
120036, 120035, 2
120027, 120024, 2
120027, 120026, 2
120027, 120028, 2
120032, 120023, 2
120032, 120031, 2
120032, 120036, 2
120032, 120033, 2
120032, 120034, 2
120032, 120028, 2
120032, 120030, 2
120028, 120027, 2
120028, 120024, 2
120028, 120029, 1
120028, 120032, 2
120028, 120025, 2
120024, 120025, 3
120024, 120023, 2
120024, 120027, 2
120024, 120028, 1
120024, 120026, 2
120023, 120024, 1
120023, 120032, 2
120023, 120025, 2
120031, 120033, 1
120031, 120032, 0
120031, 120030, 2
120031, 120034, 2
120034, 120035, 1
120034, 120033, 2
120034, 120032, 2
120034, 120031, 2
120033, 120032, 2
120033, 120030, 2
120033, 120031, 2
120033, 120034, 1
120035, 120034, 2
120035, 120036, 1
120026, 120027, 1
120026, 120025, 2
120026, 120024, 2
120030, 120032, 2
120030, 120033, 2
120030, 120029, 2
120030, 120031, 1
120025, 120024, 2
120025, 120023, 2
120025, 120028, 2
120025, 120026, 1
