62050, 62052, 1
62050, 62051, 0
62050, 62049, 2
62058, 62057, 2
62058, 62055, 2
62058, 62056, 2
62055, 62057, 0
62055, 62058, 1
62055, 62054, 2
62055, 62056, 3
62055, 62053, 2
62052, 62050, 2
62052, 62051, 2
62052, 62053, 1
62052, 62054, 2
62053, 62055, 1
62053, 62054, 8
62053, 62052, 2
62049, 62050, 1
62051, 62050, 2
62051, 62052, 2
62057, 62058, 2
62057, 62055, 2
62057, 62056, 2
62056, 62057, 2
62056, 62058, 2
62056, 62055, 2
62054, 62053, 2
62054, 62055, 2
62054, 62052, 2
