339416, 339415, 2
339416, 339417, 2
339418, 339419, 1
339418, 339417, 2
339420, 339419, 2
339419, 339418, 2
339419, 339420, 0
339415, 339416, 3
339415, 339417, 1
339417, 339416, 2
339417, 339418, 1
339417, 339415, 2
