255312, 255313, 1
255312, 255310, 2
255312, 255311, 2
255326, 255328, 2
255326, 255323, 2
255326, 255325, 2
255326, 255327, 1
255326, 255324, 2
255302, 255303, 1
255320, 255321, 1
255320, 255323, 2
255320, 255319, 2
255320, 255322, 2
255323, 255318, 2
255323, 255324, 1
255323, 255317, 2
255323, 255320, 2
255323, 255326, 2
255323, 255319, 2
255323, 255325, 2
255323, 255322, 2
255323, 255315, 2
255304, 255306, 2
255304, 255305, 1
255304, 255303, 2
255308, 255307, 2
255308, 255306, 2
255308, 255309, 0
255308, 255310, 1
255314, 255318, 2
255314, 255317, 2
255314, 255316, 1
255314, 255313, 2
255314, 255315, 8
255307, 255306, 2
255307, 255308, 1
255313, 255312, 2
255313, 255314, 1
255313, 255317, 2
255313, 255310, 2
255313, 255311, 2
255313, 255316, 2
255313, 255315, 2
255310, 255312, 2
255310, 255313, 2
255310, 255308, 2
255310, 255309, 2
255310, 255311, 1
255321, 255318, 2
255321, 255317, 2
255321, 255319, 2
255321, 255322, 1
255321, 255320, 2
255328, 255326, 2
255328, 255327, 2
255322, 255321, 2
255322, 255323, 2
255322, 255320, 2
255316, 255314, 2
255316, 255313, 2
255316, 255317, 1
255316, 255315, 2
255324, 255326, 2
255324, 255323, 2
255324, 255325, 1
255319, 255321, 2
255319, 255318, 2
255319, 255323, 2
255319, 255320, 1
255327, 255326, 2
255327, 255328, 1
255303, 255302, 2
255303, 255306, 2
255303, 255304, 1
255303, 255305, 2
255305, 255306, 1
255305, 255304, 2
255305, 255303, 2
255315, 255314, 2
255315, 255313, 2
255315, 255323, 2
255315, 255317, 2
255315, 255316, 2
255318, 255314, 2
255318, 255321, 2
255318, 255323, 2
255318, 255319, 1
255318, 255317, 2
255306, 255307, 1
255306, 255304, 2
255306, 255308, 2
255306, 255303, 2
255306, 255305, 2
255317, 255314, 2
255317, 255318, 0
255317, 255313, 2
255317, 255321, 2
255317, 255323, 1
255317, 255316, 2
255317, 255315, 2
255325, 255326, 1
255325, 255323, 2
255325, 255324, 2
255311, 255312, 1
255311, 255313, 2
255311, 255310, 2
255309, 255308, 2
255309, 255310, 2
