123050, 123051, 1
123050, 123060, 2
123050, 123049, 2
123050, 123053, 2
123050, 123052, 2
123050, 123058, 2
123050, 123057, 2
123050, 123054, 2
123052, 123051, 2
123052, 123050, 2
123052, 123053, 1
123070, 123060, 2
123070, 123062, 2
123070, 123058, 2
123070, 123069, 2
123070, 123068, 2
123070, 123071, 2
123054, 123051, 2
123054, 123060, 2
123054, 123049, 2
123054, 123055, 2
123054, 123058, 2
123054, 123053, 2
123054, 123056, 2
123054, 123050, 2
123054, 123057, 2
123063, 123060, 2
123063, 123062, 2
123063, 123061, 2
123063, 123064, 8
123063, 123065, 1
123063, 123067, 2
123063, 123059, 2
123057, 123051, 2
123057, 123060, 2
123057, 123056, 2
123057, 123050, 2
123057, 123055, 2
123057, 123049, 2
123057, 123054, 2
123057, 123053, 2
123057, 123059, 1
123060, 123062, 2
123060, 123049, 2
123060, 123070, 2
123060, 123057, 2
123060, 123063, 2
123060, 123054, 2
123060, 123055, 2
123060, 123053, 2
123060, 123061, 1
123060, 123050, 2
123060, 123058, 2
123060, 123056, 2
123060, 123059, 2
123056, 123060, 1
123056, 123055, 2
123056, 123058, 6
123056, 123053, 2
123056, 123054, 2
123056, 123057, 4
123056, 123059, 2
123053, 123051, 2
123053, 123060, 2
123053, 123050, 2
123053, 123056, 2
123053, 123058, 2
123053, 123055, 1
123053, 123052, 2
123053, 123049, 2
123053, 123057, 2
123053, 123054, 3
123064, 123065, 2
123064, 123063, 2
123064, 123062, 2
123064, 123071, 2
123064, 123059, 2
123049, 123060, 2
123049, 123050, 1
123049, 123053, 2
123049, 123048, 2
123049, 123058, 2
123049, 123057, 2
123049, 123054, 2
123062, 123071, 2
123062, 123058, 2
123062, 123070, 2
123062, 123060, 2
123062, 123066, 2
123062, 123065, 2
123062, 123063, 3
123062, 123064, 2
123062, 123067, 1
123062, 123061, 2
123062, 123059, 2
123058, 123062, 2
123058, 123050, 2
123058, 123054, 2
123058, 123069, 2
123058, 123070, 2
123058, 123068, 2
123058, 123067, 2
123058, 123051, 2
123058, 123060, 2
123058, 123055, 2
123058, 123053, 2
123058, 123049, 2
123058, 123071, 2
123058, 123056, 2
123048, 123049, 1
123071, 123069, 2
123071, 123062, 2
123071, 123058, 2
123071, 123064, 2
123071, 123070, 2
123071, 123068, 2
123071, 123066, 2
123071, 123059, 2
123066, 123065, 2
123066, 123062, 2
123066, 123067, 2
123066, 123071, 2
123068, 123070, 2
123068, 123069, 1
123068, 123067, 2
123068, 123058, 2
123068, 123071, 2
123067, 123062, 2
123067, 123058, 2
123067, 123065, 2
123067, 123066, 2
123067, 123068, 1
123067, 123063, 2
123067, 123059, 2
123051, 123057, 2
123051, 123058, 2
123051, 123053, 2
123051, 123052, 1
123051, 123050, 2
123051, 123054, 2
123069, 123070, 0
123069, 123068, 2
123069, 123058, 2
123069, 123071, 1
123055, 123060, 2
123055, 123056, 1
123055, 123058, 2
123055, 123053, 2
123055, 123054, 2
123055, 123057, 2
123061, 123060, 2
123061, 123063, 2
123061, 123062, 1
123065, 123064, 2
123065, 123066, 1
123065, 123063, 2
123065, 123062, 2
123065, 123067, 2
123059, 123060, 2
123059, 123062, 2
123059, 123056, 2
123059, 123071, 2
123059, 123064, 2
123059, 123067, 2
123059, 123063, 2
123059, 123057, 2
