295890, 295892, 2
295890, 295891, 1
295890, 295893, 2
295890, 295885, 2
295890, 295887, 2
295890, 295889, 2
295890, 295888, 2
295893, 295892, 2
295893, 295890, 2
295893, 295891, 2
295893, 295894, 2
295893, 295885, 2
295893, 295889, 2
295893, 295895, 2
295887, 295892, 2
295887, 295890, 1
295887, 295891, 2
295887, 295889, 3
295887, 295886, 2
295887, 295888, 6
295886, 295892, 2
295886, 295885, 2
295886, 295887, 1
295886, 295888, 2
295886, 295884, 2
295886, 295883, 2
295886, 295889, 2
295889, 295890, 2
295889, 295891, 2
295889, 295893, 2
295889, 295885, 2
295889, 295887, 2
295889, 295888, 2
295889, 295886, 2
295884, 295882, 2
295884, 295883, 2
295884, 295886, 2
295884, 295885, 3
295883, 295882, 2
295883, 295888, 2
295883, 295884, 3
295883, 295886, 1
295895, 295892, 2
295895, 295893, 2
295895, 295896, 1
295895, 295894, 2
295882, 295888, 2
295882, 295884, 2
295882, 295883, 1
295882, 295885, 2
295892, 295890, 2
295892, 295891, 2
295892, 295893, 2
295892, 295896, 2
295892, 295887, 2
295892, 295894, 2
295892, 295888, 2
295892, 295886, 2
295892, 295895, 2
295891, 295892, 6
295891, 295890, 2
295891, 295894, 1
295891, 295887, 2
295891, 295893, 3
295891, 295889, 2
295891, 295888, 2
295894, 295892, 2
295894, 295891, 2
295894, 295893, 2
295894, 295895, 1
295885, 295882, 2
295885, 295890, 2
295885, 295893, 2
295885, 295889, 2
295885, 295884, 2
295885, 295886, 2
295896, 295892, 2
295896, 295895, 2
295888, 295882, 2
295888, 295892, 2
295888, 295890, 2
295888, 295891, 2
295888, 295887, 2
295888, 295886, 2
295888, 295889, 2
295888, 295883, 2
