129802, 129791, 2
129802, 129803, 2
129802, 129804, 2
129802, 129799, 2
129802, 129808, 2
129802, 129801, 2
129802, 129800, 2
129802, 129810, 2
129802, 129807, 2
129802, 129805, 2
129802, 129806, 2
129823, 129827, 2
129823, 129824, 3
129823, 129825, 2
129823, 129822, 2
129823, 129826, 1
129823, 129821, 2
129823, 129805, 2
129823, 129829, 2
129810, 129803, 2
129810, 129811, 1
129810, 129806, 2
129810, 129802, 2
129810, 129801, 2
129810, 129808, 2
129810, 129809, 2
129810, 129813, 2
129810, 129812, 2
129812, 129809, 2
129812, 129813, 1
129812, 129811, 2
129812, 129806, 2
129812, 129810, 2
129818, 129816, 2
129818, 129819, 2
129818, 129817, 2
129818, 129822, 2
129818, 129821, 2
129818, 129820, 2
129818, 129806, 2
129792, 129789, 2
129792, 129785, 2
129792, 129805, 2
129792, 129794, 2
129792, 129793, 2
129792, 129788, 2
129792, 129786, 2
129792, 129790, 2
129792, 129787, 2
129794, 129798, 2
129794, 129792, 2
129794, 129790, 2
129794, 129797, 1
129794, 129799, 2
129794, 129795, 3
129794, 129793, 2
129794, 129796, 2
129794, 129805, 2
129794, 129791, 2
129819, 129818, 2
129819, 129816, 2
129819, 129820, 1
129824, 129822, 2
129824, 129806, 2
129824, 129823, 2
129824, 129821, 2
129824, 129825, 1
129791, 129799, 2
129791, 129806, 2
129791, 129788, 2
129791, 129802, 2
129791, 129786, 2
129791, 129796, 2
129791, 129789, 2
129791, 129798, 2
129791, 129794, 2
129791, 129797, 2
129791, 129793, 2
129791, 129785, 2
129791, 129795, 2
129791, 129787, 2
129814, 129813, 2
129814, 129811, 2
129814, 129806, 2
129814, 129815, 2
129814, 129817, 2
129795, 129798, 2
129795, 129794, 2
129795, 129797, 2
129795, 129788, 2
129795, 129791, 2
129795, 129786, 2
129795, 129796, 1
129795, 129806, 2
129795, 129787, 2
129795, 129793, 2
129826, 129827, 1
129826, 129823, 2
129826, 129829, 2
129826, 129825, 2
129800, 129798, 2
129800, 129801, 1
129800, 129802, 2
129800, 129799, 2
129799, 129798, 2
129799, 129794, 2
129799, 129806, 2
129799, 129804, 2
129799, 129791, 2
129799, 129808, 2
129799, 129796, 2
129799, 129800, 2
129799, 129802, 2
129807, 129803, 2
129807, 129804, 2
129807, 129802, 2
129807, 129801, 2
129807, 129808, 2
129807, 129809, 2
129807, 129805, 2
129807, 129829, 2
129825, 129827, 2
129825, 129824, 2
129825, 129823, 2
129825, 129826, 2
129825, 129829, 2
129825, 129828, 2
129825, 129821, 2
129786, 129792, 2
129786, 129790, 2
129786, 129785, 2
129786, 129791, 2
129786, 129795, 2
129786, 129793, 2
129786, 129788, 1
129786, 129789, 2
129786, 129787, 3
129821, 129818, 2
129821, 129816, 2
129821, 129806, 2
129821, 129824, 2
129821, 129823, 2
129821, 129822, 2
129821, 129825, 2
129821, 129820, 2
129821, 129829, 2
129805, 129816, 2
129805, 129807, 3
129805, 129802, 2
129805, 129803, 2
129805, 129809, 2
129805, 129790, 2
129805, 129813, 2
129805, 129829, 2
129805, 129798, 2
129805, 129792, 2
129805, 129794, 2
129805, 129804, 2
129805, 129823, 2
129805, 129808, 2
129805, 129801, 2
129805, 129827, 2
129805, 129820, 2
129829, 129827, 2
129829, 129821, 2
129829, 129807, 2
129829, 129820, 2
129829, 129825, 2
129829, 129823, 2
129829, 129826, 2
129829, 129828, 2
129829, 129805, 2
129829, 129806, 2
129827, 129825, 2
129827, 129823, 2
129827, 129826, 2
129827, 129828, 3
129827, 129805, 2
129827, 129829, 1
129803, 129807, 2
129803, 129804, 1
129803, 129810, 2
129803, 129808, 2
129803, 129801, 2
129803, 129806, 2
129803, 129805, 2
129803, 129802, 2
129789, 129792, 2
129789, 129790, 6
129789, 129785, 2
129789, 129791, 4
129789, 129788, 2
129789, 129786, 2
129789, 129793, 1
129789, 129787, 2
129804, 129803, 2
129804, 129807, 2
129804, 129802, 2
129804, 129799, 2
129804, 129808, 1
129804, 129801, 2
129804, 129805, 6
129804, 129806, 4
129801, 129798, 2
129801, 129803, 1
129801, 129807, 2
129801, 129802, 3
129801, 129810, 2
129801, 129808, 2
129801, 129790, 2
129801, 129804, 2
129801, 129800, 2
129801, 129805, 2
129801, 129806, 2
129822, 129818, 2
129822, 129823, 1
129822, 129824, 2
129822, 129820, 2
129822, 129821, 2
129809, 129811, 2
129809, 129807, 2
129809, 129810, 3
129809, 129808, 2
129809, 129813, 2
129809, 129812, 1
129809, 129805, 2
129809, 129806, 2
129828, 129827, 2
129828, 129829, 2
129828, 129806, 2
129828, 129825, 2
129820, 129818, 2
129820, 129816, 2
129820, 129819, 2
129820, 129822, 1
129820, 129821, 3
129820, 129805, 2
129820, 129829, 2
129788, 129792, 2
129788, 129789, 1
129788, 129785, 2
129788, 129791, 2
129788, 129795, 2
129788, 129786, 2
129788, 129793, 2
129788, 129790, 2
129788, 129787, 2
129790, 129798, 2
129790, 129792, 3
129790, 129794, 2
129790, 129786, 2
129790, 129788, 2
129790, 129787, 2
129790, 129793, 2
129790, 129785, 2
129790, 129801, 2
129790, 129789, 2
129790, 129805, 2
129784, 129783, 2
129784, 129785, 1
129816, 129818, 2
129816, 129819, 1
129816, 129820, 2
129816, 129815, 2
129816, 129817, 3
129816, 129821, 2
129816, 129805, 2
129811, 129806, 2
129811, 129809, 2
129811, 129814, 2
129811, 129813, 2
129811, 129810, 2
129811, 129812, 2
129797, 129798, 1
129797, 129795, 2
129797, 129794, 2
129797, 129796, 2
129797, 129791, 2
129793, 129792, 2
129793, 129789, 2
129793, 129785, 2
129793, 129791, 2
129793, 129795, 2
129793, 129790, 2
129793, 129786, 2
129793, 129788, 2
129793, 129794, 1
129793, 129787, 2
129787, 129791, 2
129787, 129792, 2
129787, 129793, 2
129787, 129785, 2
129787, 129790, 2
129787, 129795, 2
129787, 129786, 2
129787, 129788, 2
129787, 129789, 2
129806, 129785, 2
129806, 129802, 2
129806, 129795, 2
129806, 129810, 2
129806, 129796, 2
129806, 129812, 2
129806, 129818, 2
129806, 129814, 2
129806, 129811, 2
129806, 129824, 2
129806, 129809, 2
129806, 129808, 2
129806, 129801, 2
129806, 129791, 2
129806, 129799, 2
129806, 129817, 2
129806, 129821, 2
129806, 129829, 2
129806, 129803, 2
129806, 129804, 2
129806, 129813, 2
129806, 129828, 2
129817, 129818, 1
129817, 129814, 2
129817, 129816, 2
129817, 129806, 2
129817, 129815, 2
129796, 129798, 2
129796, 129799, 2
129796, 129794, 2
129796, 129797, 2
129796, 129791, 2
129796, 129795, 2
129796, 129806, 2
129798, 129799, 3
129798, 129794, 2
129798, 129797, 2
129798, 129795, 2
129798, 129791, 2
129798, 129801, 2
129798, 129790, 2
129798, 129796, 2
129798, 129800, 1
129798, 129805, 2
129783, 129785, 2
129783, 129784, 1
129815, 129814, 2
129815, 129816, 1
129815, 129813, 2
129815, 129817, 2
129785, 129792, 2
129785, 129789, 2
129785, 129806, 2
129785, 129788, 2
129785, 129783, 2
129785, 129790, 2
129785, 129791, 2
129785, 129784, 2
129785, 129786, 1
129785, 129787, 2
129785, 129793, 2
129813, 129811, 2
129813, 129806, 2
129813, 129815, 1
129813, 129810, 2
129813, 129814, 3
129813, 129809, 2
129813, 129812, 2
129813, 129805, 2
129808, 129803, 2
129808, 129807, 2
129808, 129804, 2
129808, 129810, 2
129808, 129799, 2
129808, 129801, 2
129808, 129809, 1
129808, 129806, 2
129808, 129805, 2
129808, 129802, 2
