71349, 71350, 1
71349, 71346, 2
71349, 71348, 2
71349, 71347, 2
71350, 71349, 2
71350, 71351, 1
71348, 71349, 1
71348, 71347, 2
71347, 71349, 2
71347, 71348, 1
71347, 71346, 2
71351, 71350, 2
71346, 71349, 2
71346, 71347, 1
