134917, 134914, 2
134917, 134918, 8
134917, 134916, 2
134917, 134919, 1
134917, 134915, 2
134921, 134920, 2
134914, 134916, 8
134914, 134917, 1
134914, 134915, 3
134918, 134916, 2
134918, 134917, 2
134918, 134919, 2
134918, 134915, 2
134916, 134914, 2
134916, 134918, 2
134916, 134917, 2
134916, 134915, 2
134916, 134919, 2
134919, 134916, 2
134919, 134918, 2
134919, 134917, 2
134919, 134920, 1
134919, 134915, 2
134915, 134917, 2
134915, 134920, 2
134915, 134914, 2
134915, 134918, 2
134915, 134916, 2
134915, 134919, 2
134920, 134919, 2
134920, 134915, 2
134920, 134921, 1
