16233, 16232, 2
16233, 16234, 1
16230, 16229, 2
16230, 16231, 1
16230, 16227, 2
16230, 16228, 2
16235, 16234, 2
16235, 16237, 2
16235, 16236, 1
16237, 16238, 1
16237, 16235, 2
16237, 16236, 2
16234, 16233, 2
16234, 16235, 1
16231, 16232, 1
16231, 16230, 2
16227, 16230, 2
16227, 16229, 1
16227, 16228, 0
16232, 16233, 1
16232, 16231, 2
16228, 16230, 2
16228, 16227, 2
16228, 16229, 2
16238, 16237, 2
16229, 16230, 1
16229, 16227, 2
16229, 16228, 2
16236, 16235, 2
16236, 16237, 1
