161252, 161251, 2
161252, 161257, 2
161252, 161254, 2
161252, 161253, 1
161252, 161256, 2
161252, 161255, 2
161253, 161252, 2
161253, 161251, 2
161253, 161257, 2
161253, 161254, 4
161253, 161256, 2
161253, 161255, 6
161257, 161256, 2
161257, 161252, 2
161257, 161253, 2
161249, 161255, 2
161249, 161248, 2
161249, 161254, 2
161249, 161250, 1
161251, 161252, 1
161251, 161253, 2
161251, 161250, 2
161251, 161255, 2
161251, 161254, 2
161254, 161253, 2
161254, 161252, 2
161254, 161251, 2
161254, 161249, 2
161254, 161256, 1
161256, 161252, 2
161256, 161253, 2
161256, 161257, 1
161256, 161254, 2
161248, 161249, 1
161255, 161251, 2
161255, 161252, 2
161255, 161253, 2
161255, 161250, 2
161255, 161249, 2
161250, 161251, 1
161250, 161255, 2
161250, 161249, 2
