197019, 197021, 2
197019, 197020, 1
197019, 197022, 2
197021, 197019, 2
197021, 197020, 2
197021, 197022, 8
197021, 197023, 1
197020, 197019, 2
197020, 197021, 1
197022, 197019, 2
197022, 197021, 2
197022, 197023, 2
197023, 197021, 2
197023, 197022, 2
