186826, 186825, 2
186826, 186827, 2
186827, 186822, 2
186827, 186826, 2
186827, 186825, 2
186827, 186823, 2
186821, 186822, 1
186821, 186823, 2
186824, 186822, 2
186824, 186823, 2
186824, 186825, 2
186822, 186824, 8
186822, 186823, 3
186822, 186825, 1
186822, 186827, 2
186822, 186821, 2
186823, 186824, 2
186823, 186822, 2
186823, 186825, 2
186823, 186827, 2
186823, 186821, 2
186825, 186824, 2
186825, 186822, 2
186825, 186826, 3
186825, 186823, 2
186825, 186827, 1
