169926, 169927, 1
169928, 169927, 2
169928, 169929, 1
169929, 169930, 1
169929, 169927, 2
169929, 169928, 2
169931, 169930, 2
169930, 169931, 1
169930, 169929, 2
169927, 169926, 2
169927, 169929, 2
169927, 169928, 1
