335118, 335120, 2
335118, 335119, 1
335118, 335117, 2
335118, 335121, 2
335118, 335116, 2
335122, 335123, 1
335122, 335120, 2
335122, 335116, 2
335122, 335121, 2
335122, 335124, 2
335111, 335117, 1
335111, 335113, 2
335111, 335120, 2
335111, 335110, 2
335111, 335115, 2
335111, 335109, 4
335111, 335114, 2
335111, 335112, 2
335111, 335116, 2
335121, 335120, 2
335121, 335118, 2
335121, 335119, 2
335121, 335122, 1
335121, 335116, 2
335123, 335122, 2
335123, 335124, 1
335110, 335111, 2
335110, 335109, 2
335110, 335112, 1
335115, 335111, 2
335115, 335117, 2
335115, 335114, 2
335115, 335116, 1
335114, 335111, 2
335114, 335117, 2
335114, 335115, 1
335114, 335113, 2
335114, 335116, 2
335116, 335118, 2
335116, 335111, 2
335116, 335122, 2
335116, 335119, 2
335116, 335121, 2
335116, 335115, 2
335116, 335114, 2
335116, 335117, 2
335116, 335124, 2
335119, 335118, 2
335119, 335120, 0
335119, 335121, 1
335119, 335116, 2
335117, 335118, 1
335117, 335111, 2
335117, 335112, 2
335117, 335113, 2
335117, 335120, 2
335117, 335115, 2
335117, 335114, 2
335117, 335116, 2
335113, 335111, 2
335113, 335117, 2
335113, 335114, 1
335113, 335112, 2
335120, 335118, 2
335120, 335117, 2
335120, 335119, 2
335120, 335122, 2
335120, 335121, 2
335120, 335111, 2
335120, 335124, 2
335124, 335123, 2
335124, 335120, 2
335124, 335122, 2
335124, 335116, 2
335109, 335110, 1
335109, 335111, 2
335112, 335110, 2
335112, 335111, 2
335112, 335117, 2
335112, 335113, 1
