255048, 255042, 2
255048, 255046, 2
255048, 255045, 2
255048, 255043, 2
255048, 255041, 2
255048, 255049, 2
255048, 255047, 2
255049, 255046, 2
255049, 255044, 2
255049, 255047, 2
255049, 255050, 0
255049, 255051, 1
255049, 255040, 2
255049, 255048, 2
255051, 255046, 2
255051, 255056, 2
255051, 255053, 2
255051, 255054, 2
255051, 255049, 2
255051, 255045, 2
255051, 255050, 2
255051, 255052, 0
255031, 255032, 8
255031, 255034, 2
255031, 255030, 2
255031, 255033, 1
255040, 255042, 2
255040, 255046, 2
255040, 255034, 2
255040, 255044, 1
255040, 255041, 2
255040, 255047, 2
255040, 255049, 2
255040, 255039, 2
255040, 255050, 2
255040, 255038, 2
255042, 255046, 2
255042, 255041, 4
255042, 255039, 2
255042, 255044, 2
255042, 255045, 2
255042, 255048, 2
255042, 255047, 1
255042, 255043, 2
255042, 255050, 2
255042, 255040, 6
255042, 255038, 2
255055, 255056, 1
255055, 255054, 2
255050, 255042, 2
255050, 255046, 2
255050, 255040, 2
255050, 255047, 2
255050, 255049, 2
255050, 255051, 2
255050, 255052, 2
255045, 255042, 2
255045, 255041, 2
255045, 255046, 2
255045, 255056, 2
255045, 255047, 2
255045, 255039, 2
255045, 255043, 2
255045, 255051, 2
255045, 255038, 2
255045, 255048, 2
255056, 255046, 2
255056, 255055, 2
255056, 255051, 2
255056, 255054, 2
255056, 255045, 2
255044, 255042, 2
255044, 255046, 1
255044, 255039, 2
255044, 255038, 2
255044, 255049, 2
255044, 255047, 2
255044, 255040, 2
255046, 255044, 2
255046, 255054, 2
255046, 255049, 2
255046, 255050, 2
255046, 255039, 2
255046, 255051, 2
255046, 255040, 2
255046, 255042, 2
255046, 255038, 2
255046, 255045, 2
255046, 255047, 2
255046, 255056, 2
255046, 255052, 2
255046, 255048, 2
255041, 255042, 2
255041, 255034, 2
255041, 255038, 2
255041, 255036, 2
255041, 255045, 2
255041, 255048, 2
255041, 255032, 2
255041, 255039, 2
255041, 255043, 1
255041, 255040, 2
255041, 255047, 2
255033, 255032, 2
255033, 255034, 2
255033, 255031, 2
255054, 255046, 2
255054, 255055, 1
255054, 255052, 2
255054, 255056, 2
255054, 255051, 2
255054, 255053, 2
255047, 255042, 2
255047, 255046, 2
255047, 255043, 2
255047, 255044, 2
255047, 255041, 2
255047, 255049, 1
255047, 255045, 2
255047, 255050, 2
255047, 255040, 2
255047, 255048, 3
255039, 255042, 1
255039, 255046, 2
255039, 255043, 2
255039, 255044, 2
255039, 255041, 2
255039, 255045, 2
255039, 255040, 2
255039, 255038, 2
255053, 255051, 2
255053, 255052, 2
255053, 255054, 1
255035, 255037, 1
255035, 255034, 2
255035, 255038, 2
255035, 255036, 8
255034, 255035, 1
255034, 255041, 2
255034, 255030, 2
255034, 255033, 2
255034, 255036, 2
255034, 255032, 2
255034, 255037, 2
255034, 255031, 2
255034, 255040, 2
255030, 255032, 2
255030, 255034, 1
255030, 255031, 3
255052, 255046, 2
255052, 255050, 2
255052, 255051, 2
255052, 255053, 1
255052, 255054, 2
255036, 255035, 2
255036, 255041, 2
255036, 255037, 2
255036, 255034, 2
255036, 255038, 2
255032, 255030, 2
255032, 255034, 2
255032, 255031, 2
255032, 255033, 2
255032, 255041, 2
255037, 255035, 2
255037, 255034, 2
255037, 255036, 2
255037, 255038, 1
255043, 255042, 2
255043, 255041, 2
255043, 255045, 1
255043, 255047, 2
255043, 255039, 2
255043, 255048, 2
255038, 255042, 2
255038, 255041, 2
255038, 255046, 2
255038, 255044, 2
255038, 255035, 2
255038, 255045, 2
255038, 255037, 2
255038, 255039, 1
255038, 255040, 2
255038, 255036, 2
