18563, 18564, 1
18573, 18572, 2
18573, 18574, 1
18581, 18579, 2
18581, 18580, 2
18565, 18564, 2
18565, 18566, 1
18577, 18578, 2
18577, 18575, 2
18577, 18576, 2
18566, 18565, 2
18566, 18567, 1
18566, 18568, 2
18570, 18571, 1
18570, 18572, 2
18570, 18569, 2
18571, 18572, 1
18571, 18570, 2
18569, 18567, 2
18569, 18570, 1
18569, 18568, 2
18579, 18578, 2
18579, 18581, 2
18579, 18580, 1
18579, 18576, 2
18572, 18571, 2
18572, 18573, 1
18572, 18570, 2
18580, 18579, 2
18580, 18581, 1
18574, 18573, 2
18574, 18575, 1
18567, 18566, 2
18567, 18568, 8
18567, 18569, 1
18576, 18579, 2
18576, 18577, 8
18576, 18575, 2
18576, 18578, 1
18564, 18563, 2
18564, 18565, 1
18578, 18579, 1
18578, 18577, 2
18578, 18575, 2
18578, 18576, 2
18575, 18577, 2
18575, 18574, 2
18575, 18578, 2
18575, 18576, 1
18568, 18567, 2
18568, 18566, 2
18568, 18569, 2
