300141, 300143, 2
300141, 300139, 2
300141, 300142, 1
300141, 300140, 2
300143, 300141, 2
300143, 300142, 2
300139, 300141, 2
300139, 300142, 2
300139, 300140, 2
300142, 300141, 2
300142, 300143, 3
300142, 300139, 2
300140, 300141, 1
300140, 300139, 6
