61928, 61930, 2
61928, 61927, 2
61928, 61929, 1
61926, 61930, 2
61926, 61927, 1
61931, 61930, 2
61931, 61933, 2
61931, 61935, 2
61931, 61929, 2
61931, 61932, 2
61930, 61928, 2
61930, 61931, 2
61930, 61927, 2
61930, 61926, 2
61930, 61929, 2
61930, 61933, 2
61930, 61935, 2
61930, 61932, 2
61927, 61930, 2
61927, 61926, 2
61927, 61928, 1
61927, 61929, 2
61934, 61935, 1
61934, 61933, 2
61929, 61930, 3
61929, 61927, 2
61929, 61928, 2
61929, 61932, 1
61929, 61931, 0
61933, 61930, 2
61933, 61934, 1
61933, 61935, 2
61933, 61932, 2
61933, 61931, 2
61935, 61930, 2
61935, 61934, 2
61935, 61933, 2
61935, 61931, 2
61932, 61930, 2
61932, 61933, 1
61932, 61929, 2
61932, 61931, 2
