71008, 71007, 2
71007, 71008, 3
71007, 71006, 2
71007, 71005, 2
71007, 71004, 2
71006, 71007, 2
71006, 71005, 2
71006, 71004, 2
71005, 71007, 1
71005, 71006, 3
71005, 71004, 2
71004, 71007, 2
71004, 71005, 1
71004, 71006, 2
