334824, 334825, 1
334824, 334823, 2
334828, 334829, 1
334828, 334827, 2
334817, 334816, 2
334817, 334822, 2
334817, 334818, 2
334827, 334826, 2
334827, 334828, 1
334827, 334825, 2
334830, 334829, 2
334823, 334821, 2
334823, 334822, 2
334823, 334824, 1
334822, 334817, 2
334822, 334819, 2
334822, 334823, 2
334822, 334818, 2
334822, 334821, 2
334826, 334825, 2
334826, 334827, 1
334816, 334817, 0
334816, 334818, 1
334819, 334820, 8
334819, 334822, 2
334819, 334818, 2
334819, 334821, 1
334825, 334826, 1
334825, 334824, 2
334825, 334827, 2
334829, 334828, 2
334829, 334830, 0
334818, 334817, 2
334818, 334819, 1
334818, 334816, 2
334818, 334822, 2
334820, 334819, 2
334820, 334821, 2
334821, 334820, 2
334821, 334819, 2
334821, 334823, 1
334821, 334822, 0
