21516, 21517, 2
21516, 21515, 2
21516, 21519, 2
21516, 21518, 2
21516, 21520, 2
21519, 21521, 0
21519, 21517, 2
21519, 21516, 2
21519, 21518, 2
21519, 21520, 3
21521, 21517, 2
21521, 21515, 2
21521, 21518, 2
21521, 21519, 2
21521, 21520, 2
21517, 21515, 2
21517, 21516, 2
21517, 21519, 2
21517, 21518, 2
21517, 21521, 2
21515, 21517, 0
21515, 21516, 3
21515, 21518, 1
21515, 21521, 2
21518, 21516, 2
21518, 21519, 1
21518, 21521, 2
21518, 21517, 2
21518, 21515, 2
21518, 21520, 2
21520, 21516, 2
21520, 21518, 2
21520, 21519, 2
21520, 21521, 2
