217005, 217006, 1
217005, 217004, 2
217008, 217006, 2
217008, 217007, 2
217008, 217009, 1
217015, 217016, 1
217015, 217014, 2
217009, 217008, 2
217009, 217007, 2
217009, 217011, 2
217009, 217010, 1
217013, 217014, 2
217013, 217011, 2
217013, 217012, 2
217006, 217005, 2
217006, 217008, 2
217006, 217007, 1
217006, 217004, 2
217007, 217006, 2
217007, 217008, 1
217007, 217009, 2
217014, 217016, 2
217014, 217015, 1
217014, 217010, 2
217014, 217013, 2
217014, 217012, 2
217016, 217015, 2
217016, 217014, 2
217004, 217005, 1
217004, 217006, 2
217011, 217009, 2
217011, 217010, 2
217011, 217013, 2
217011, 217012, 2
217010, 217009, 2
217010, 217011, 8
217010, 217014, 2
217010, 217012, 1
217012, 217014, 1
217012, 217011, 2
217012, 217010, 2
217012, 217013, 3
