16018, 16019, 2
16018, 16017, 2
16022, 16021, 2
16022, 16019, 2
16022, 16016, 2
16022, 16023, 1
16020, 16021, 2
16020, 16019, 2
16023, 16022, 2
16023, 16016, 2
16023, 16024, 0
16021, 16022, 2
16021, 16020, 2
16021, 16019, 2
16019, 16018, 2
16019, 16022, 2
16019, 16021, 1
16019, 16020, 8
16019, 16017, 2
16019, 16016, 2
16016, 16022, 1
16016, 16019, 2
16016, 16023, 2
16016, 16017, 3
16016, 16015, 2
16016, 16014, 2
16016, 16024, 2
16017, 16019, 1
16017, 16016, 2
16017, 16018, 8
16015, 16014, 2
16015, 16016, 1
16014, 16015, 1
16014, 16016, 2
16024, 16016, 2
16024, 16023, 2
