300808, 300810, 1
300808, 300809, 3
300808, 300807, 2
300805, 300806, 3
300805, 300807, 1
300809, 300808, 2
300809, 300807, 2
300809, 300806, 2
300809, 300810, 2
300806, 300805, 2
300806, 300809, 2
300806, 300807, 2
300807, 300808, 1
300807, 300805, 2
300807, 300809, 2
300807, 300806, 2
300807, 300810, 2
300810, 300808, 2
300810, 300809, 2
300810, 300807, 2
