221032, 221033, 8
221032, 221035, 2
221032, 221031, 2
221032, 221034, 1
221035, 221032, 2
221035, 221034, 2
221031, 221032, 1
221031, 221034, 2
221031, 221033, 2
221034, 221032, 2
221034, 221035, 1
221034, 221031, 2
221034, 221033, 2
221033, 221032, 2
221033, 221031, 2
221033, 221034, 2
