22031, 22033, 2
22031, 22029, 2
22031, 22032, 2
22031, 22030, 2
22027, 22028, 1
22027, 22026, 2
22026, 22028, 2
22026, 22029, 2
22026, 22027, 1
22033, 22031, 2
22033, 22030, 2
22033, 22032, 2
22028, 22029, 8
22028, 22027, 2
22028, 22026, 2
22028, 22030, 1
22029, 22028, 2
22029, 22031, 2
22029, 22026, 2
22029, 22030, 2
22032, 22033, 3
22032, 22031, 2
22032, 22030, 2
22030, 22033, 2
22030, 22028, 2
22030, 22031, 8
22030, 22032, 1
22030, 22029, 2
