258757, 258758, 3
258757, 258759, 8
258757, 258760, 1
258758, 258757, 2
258758, 258759, 2
258758, 258760, 2
258759, 258758, 2
258759, 258757, 2
258759, 258761, 2
258759, 258760, 2
258761, 258759, 2
258761, 258760, 2
258760, 258757, 2
258760, 258758, 2
258760, 258759, 2
258760, 258761, 3
