185573, 185572, 2
185573, 185574, 1
185583, 185582, 2
185583, 185584, 1
185570, 185571, 1
185570, 185569, 2
185588, 185587, 2
185588, 185585, 2
185576, 185575, 2
185576, 185577, 2
185582, 185583, 1
185582, 185581, 2
185582, 185584, 2
185574, 185575, 1
185574, 185573, 2
185579, 185578, 2
185579, 185580, 1
185581, 185582, 1
185581, 185580, 2
185575, 185574, 2
185575, 185577, 1
185575, 185576, 8
185585, 185587, 1
185585, 185586, 8
185585, 185584, 2
185585, 185588, 2
185577, 185575, 2
185577, 185578, 1
185577, 185576, 2
185569, 185571, 2
185569, 185570, 1
185580, 185579, 2
185580, 185581, 1
185572, 185573, 1
185572, 185571, 2
185587, 185588, 1
185587, 185586, 2
185587, 185585, 2
185586, 185587, 2
185586, 185585, 2
185586, 185584, 2
185571, 185572, 1
185571, 185570, 2
185571, 185569, 2
185578, 185579, 1
185578, 185577, 2
185584, 185582, 2
185584, 185583, 2
185584, 185585, 1
185584, 185586, 2
