295392, 295391, 2
295379, 295380, 1
295385, 295387, 2
295385, 295384, 2
295385, 295388, 2
295385, 295386, 1
295385, 295383, 2
295380, 295379, 2
295380, 295382, 2
295380, 295381, 1
295380, 295383, 2
295386, 295387, 1
295386, 295388, 2
295386, 295385, 2
295388, 295387, 2
295388, 295389, 2
295388, 295386, 2
295388, 295382, 2
295388, 295385, 2
295387, 295389, 1
295387, 295386, 2
295387, 295388, 3
295387, 295385, 2
295391, 295392, 1
295391, 295389, 2
295391, 295390, 2
295382, 295380, 2
295382, 295381, 2
295382, 295383, 2
295382, 295388, 2
295390, 295391, 1
295390, 295389, 2
295383, 295380, 2
295383, 295384, 1
295383, 295381, 2
295383, 295382, 2
295383, 295385, 2
295389, 295387, 2
295389, 295391, 2
295389, 295388, 2
295389, 295390, 1
295384, 295383, 2
295384, 295385, 1
295381, 295380, 2
295381, 295382, 3
295381, 295383, 1
