253404, 253403, 2
253404, 253402, 2
253404, 253405, 1
253418, 253417, 2
253418, 253415, 2
253402, 253406, 2
253402, 253407, 1
253402, 253404, 0
253402, 253403, 3
253405, 253406, 1
253405, 253404, 2
253405, 253403, 2
253413, 253410, 2
253413, 253415, 2
253413, 253412, 2
253413, 253414, 1
253406, 253417, 2
253406, 253416, 2
253406, 253405, 2
253406, 253411, 2
253406, 253407, 2
253406, 253403, 2
253406, 253412, 2
253406, 253402, 2
253403, 253404, 2
253403, 253409, 2
253403, 253402, 2
253403, 253405, 2
253403, 253406, 2
253403, 253407, 2
253403, 253408, 2
253415, 253417, 2
253415, 253418, 2
253415, 253413, 2
253415, 253416, 2
253415, 253412, 2
253415, 253414, 2
253417, 253406, 2
253417, 253418, 3
253417, 253416, 2
253417, 253415, 2
253409, 253410, 1
253409, 253408, 2
253409, 253403, 2
253409, 253407, 2
253416, 253406, 2
253416, 253417, 1
253416, 253412, 2
253416, 253415, 2
253411, 253406, 2
253411, 253410, 2
253411, 253407, 2
253411, 253412, 1
253407, 253406, 2
253407, 253409, 2
253407, 253402, 2
253407, 253411, 1
253407, 253410, 2
253407, 253408, 3
253407, 253403, 2
253407, 253412, 2
253408, 253407, 2
253408, 253409, 1
253408, 253403, 2
253410, 253411, 2
253410, 253413, 2
253410, 253407, 2
253410, 253409, 2
253410, 253412, 2
253412, 253406, 2
253412, 253411, 2
253412, 253413, 3
253412, 253410, 2
253412, 253407, 2
253412, 253416, 1
253412, 253415, 2
253414, 253413, 2
253414, 253415, 1
