62911, 62910, 2
62911, 62912, 1
62915, 62914, 2
62915, 62916, 1
62907, 62906, 2
62907, 62908, 1
62906, 62907, 1
62906, 62908, 2
62918, 62917, 2
62916, 62914, 2
62916, 62915, 2
62916, 62917, 1
62917, 62916, 2
62917, 62918, 1
62912, 62914, 2
62912, 62911, 2
62912, 62913, 1
62914, 62915, 1
62914, 62912, 2
62914, 62916, 2
62914, 62913, 2
62909, 62910, 1
62909, 62908, 2
62908, 62909, 1
62908, 62907, 2
62908, 62906, 2
62913, 62914, 1
62913, 62912, 2
62910, 62911, 1
62910, 62909, 2
