339322, 339319, 2
339322, 339321, 2
339322, 339323, 1
339319, 339322, 2
339319, 339321, 2
339319, 339320, 1
339321, 339322, 0
339321, 339319, 2
339321, 339320, 2
339323, 339322, 2
339323, 339324, 1
339320, 339319, 2
339320, 339321, 1
339324, 339323, 2
