21257, 21258, 1
21257, 21259, 2
21257, 21261, 2
21257, 21260, 2
21258, 21257, 2
21258, 21259, 3
21258, 21260, 1
21259, 21258, 2
21259, 21257, 2
21259, 21260, 2
21261, 21257, 2
21261, 21260, 2
21260, 21257, 2
21260, 21258, 2
21260, 21259, 2
21260, 21261, 0
