295340, 295339, 2
295340, 295344, 2
295340, 295342, 1
295340, 295341, 2
295347, 295350, 2
295347, 295348, 3
295347, 295346, 2
295346, 295345, 2
295346, 295347, 1
295348, 295350, 1
295348, 295347, 2
295348, 295349, 8
295348, 295341, 2
295342, 295343, 1
295342, 295340, 2
295342, 295341, 2
295341, 295339, 2
295341, 295344, 2
295341, 295349, 2
295341, 295340, 2
295341, 295348, 2
295341, 295343, 2
295341, 295342, 2
295339, 295344, 1
295339, 295340, 0
295339, 295341, 3
295345, 295343, 2
295345, 295344, 2
295345, 295346, 1
295349, 295350, 2
295349, 295348, 2
295349, 295341, 2
295350, 295348, 2
295350, 295347, 2
295350, 295349, 2
295344, 295339, 2
295344, 295345, 1
295344, 295343, 2
295344, 295340, 2
295344, 295341, 2
295343, 295345, 2
295343, 295344, 2
295343, 295342, 2
295343, 295341, 2
