169910, 169909, 2
169910, 169908, 2
169910, 169912, 2
169910, 169911, 1
169909, 169910, 2
169909, 169912, 2
169909, 169908, 2
169909, 169911, 2
169908, 169910, 1
169908, 169909, 3
169908, 169912, 2
169908, 169911, 2
169911, 169910, 2
169911, 169909, 2
169911, 169908, 2
169911, 169912, 8
169911, 169913, 1
169913, 169912, 2
169913, 169911, 2
169912, 169910, 2
169912, 169909, 2
169912, 169908, 2
169912, 169913, 2
169912, 169911, 2
