251392, 251393, 1
251392, 251391, 2
251386, 251390, 2
251386, 251387, 2
251386, 251385, 2
251386, 251388, 2
251387, 251390, 2
251387, 251386, 2
251387, 251389, 2
251387, 251388, 1
251393, 251392, 2
251393, 251391, 2
251385, 251390, 1
251385, 251386, 3
251385, 251388, 2
251390, 251387, 2
251390, 251388, 2
251390, 251385, 2
251390, 251389, 2
251390, 251386, 2
251390, 251391, 3
251391, 251390, 2
251391, 251392, 1
251391, 251393, 2
251391, 251389, 2
251389, 251390, 2
251389, 251387, 2
251389, 251388, 2
251389, 251391, 2
251388, 251390, 2
251388, 251387, 2
251388, 251386, 2
251388, 251385, 2
251388, 251389, 1
