251862, 251860, 2
251862, 251863, 3
251862, 251861, 2
251862, 251865, 1
251864, 251865, 2
251864, 251863, 2
251864, 251867, 2
251864, 251866, 2
251865, 251864, 2
251865, 251866, 1
251865, 251863, 2
251865, 251862, 2
251858, 251860, 1
251858, 251859, 3
251858, 251857, 2
251857, 251858, 1
251857, 251859, 2
251866, 251864, 2
251866, 251867, 3
251866, 251865, 2
251867, 251864, 2
251867, 251866, 2
251863, 251862, 2
251863, 251864, 3
251863, 251865, 2
251860, 251862, 1
251860, 251858, 2
251860, 251859, 2
251860, 251861, 3
251861, 251862, 2
251861, 251860, 2
251859, 251860, 2
251859, 251858, 2
251859, 251857, 2
