333196, 333195, 2
333196, 333197, 1
333196, 333198, 2
333192, 333193, 1
333192, 333191, 2
333191, 333192, 1
333193, 333192, 2
333193, 333194, 1
333200, 333198, 2
333200, 333201, 1
333200, 333199, 2
333195, 333196, 1
333195, 333194, 2
333201, 333198, 2
333201, 333200, 2
333199, 333197, 2
333199, 333200, 1
333199, 333198, 2
333197, 333196, 2
333197, 333198, 1
333197, 333199, 2
333198, 333199, 0
333198, 333197, 2
333198, 333201, 2
333198, 333200, 2
333198, 333196, 2
333194, 333193, 2
333194, 333195, 1
