340301, 340300, 2
340301, 340302, 1
340300, 340301, 1
340300, 340299, 2
340305, 340303, 2
340305, 340304, 2
340299, 340300, 1
340303, 340305, 1
340303, 340304, 3
340303, 340302, 2
340304, 340303, 2
340304, 340305, 2
340302, 340301, 2
340302, 340303, 1
