254962, 254960, 2
254962, 254959, 2
254962, 254968, 2
254962, 254955, 2
254962, 254966, 2
254962, 254961, 2
254962, 254958, 2
254962, 254957, 2
254962, 254963, 1
254958, 254961, 2
254958, 254959, 2
254958, 254962, 2
254958, 254972, 2
254958, 254966, 2
254958, 254956, 2
254958, 254955, 2
254958, 254957, 2
254972, 254973, 2
254972, 254974, 2
254972, 254970, 2
254972, 254958, 2
254972, 254967, 2
254972, 254966, 2
254972, 254964, 2
254972, 254965, 2
254972, 254975, 2
254956, 254958, 2
254956, 254966, 2
254956, 254955, 2
254956, 254957, 1
254955, 254968, 2
254955, 254962, 2
254955, 254958, 2
254955, 254954, 2
254955, 254956, 1
254955, 254966, 2
254955, 254957, 2
254965, 254969, 2
254965, 254970, 2
254965, 254968, 2
254965, 254967, 1
254965, 254966, 2
254965, 254964, 2
254965, 254972, 2
254965, 254971, 2
254976, 254971, 2
254976, 254975, 2
254975, 254973, 2
254975, 254974, 2
254975, 254970, 2
254975, 254968, 2
254975, 254967, 2
254975, 254966, 2
254975, 254971, 2
254975, 254972, 2
254975, 254976, 3
254960, 254959, 2
254960, 254962, 2
254960, 254968, 2
254960, 254961, 2
254960, 254957, 2
254960, 254971, 2
254974, 254969, 2
254974, 254973, 2
254974, 254970, 2
254974, 254968, 2
254974, 254967, 2
254974, 254975, 2
254974, 254972, 2
254974, 254971, 2
254961, 254958, 2
254961, 254960, 2
254961, 254968, 2
254961, 254962, 2
254961, 254959, 2
254951, 254952, 6
254951, 254953, 1
254957, 254960, 2
254957, 254958, 6
254957, 254962, 1
254957, 254968, 2
254957, 254966, 2
254957, 254956, 2
254957, 254955, 2
254957, 254959, 3
254963, 254968, 2
254963, 254966, 2
254963, 254964, 1
254963, 254962, 2
254969, 254973, 2
254969, 254974, 2
254969, 254968, 2
254969, 254967, 2
254969, 254964, 2
254969, 254965, 2
254969, 254971, 1
254973, 254969, 2
254973, 254974, 3
254973, 254970, 2
254973, 254967, 2
254973, 254971, 2
254973, 254972, 2
254973, 254975, 1
254953, 254968, 2
254953, 254952, 2
254953, 254951, 2
254953, 254954, 1
254953, 254966, 2
254967, 254969, 2
254967, 254973, 1
254967, 254971, 2
254967, 254974, 2
254967, 254970, 2
254967, 254968, 4
254967, 254966, 6
254967, 254964, 2
254967, 254972, 2
254967, 254965, 2
254967, 254975, 2
254954, 254968, 2
254954, 254955, 1
254954, 254953, 2
254952, 254951, 2
254952, 254953, 2
254970, 254973, 2
254970, 254974, 2
254970, 254967, 2
254970, 254966, 2
254970, 254964, 2
254970, 254972, 1
254970, 254965, 2
254970, 254975, 2
254968, 254969, 1
254968, 254964, 2
254968, 254953, 2
254968, 254957, 2
254968, 254967, 2
254968, 254954, 2
254968, 254955, 2
254968, 254975, 2
254968, 254960, 2
254968, 254974, 2
254968, 254962, 2
254968, 254965, 2
254968, 254971, 2
254968, 254961, 2
254968, 254963, 2
254964, 254969, 2
254964, 254971, 2
254964, 254970, 2
254964, 254968, 2
254964, 254967, 2
254964, 254966, 2
254964, 254965, 1
254964, 254972, 2
254964, 254963, 2
254971, 254969, 2
254971, 254960, 2
254971, 254973, 2
254971, 254974, 2
254971, 254976, 2
254971, 254968, 2
254971, 254967, 2
254971, 254964, 2
254971, 254965, 2
254971, 254975, 2
254966, 254972, 2
254966, 254965, 2
254966, 254953, 2
254966, 254958, 2
254966, 254967, 2
254966, 254956, 2
254966, 254955, 2
254966, 254975, 2
254966, 254962, 2
254966, 254970, 1
254966, 254964, 2
254966, 254957, 2
254966, 254963, 2
254959, 254958, 2
254959, 254960, 8
254959, 254961, 1
254959, 254957, 2
254959, 254962, 2
