298092, 298091, 2
298087, 298088, 1
298087, 298085, 2
298087, 298086, 2
298066, 298067, 2
298066, 298065, 2
298067, 298066, 2
298067, 298073, 2
298067, 298069, 2
298067, 298065, 2
298067, 298068, 1
298065, 298066, 3
298065, 298067, 1
298065, 298073, 2
298081, 298079, 2
298081, 298082, 0
298081, 298085, 2
298081, 298083, 8
298081, 298084, 1
298081, 298078, 2
298081, 298080, 2
298070, 298073, 2
298070, 298069, 2
298070, 298071, 1
298082, 298079, 2
298082, 298085, 2
298082, 298083, 2
298082, 298080, 2
298082, 298081, 2
298082, 298078, 2
298082, 298084, 2
298071, 298069, 2
298071, 298070, 2
298071, 298073, 2
298071, 298072, 1
298071, 298074, 2
298085, 298087, 2
298085, 298082, 2
298085, 298090, 2
298085, 298086, 2
298085, 298084, 2
298085, 298083, 2
298085, 298091, 2
298085, 298081, 2
298088, 298087, 2
298088, 298089, 1
298088, 298090, 2
298076, 298077, 1
298076, 298079, 2
298076, 298078, 2
298076, 298075, 2
298084, 298082, 2
298084, 298085, 0
298084, 298086, 1
298084, 298080, 2
298084, 298083, 2
298084, 298081, 2
298075, 298079, 2
298075, 298073, 2
298075, 298076, 1
298075, 298074, 2
298077, 298076, 2
298077, 298078, 1
298079, 298075, 2
298079, 298073, 2
298079, 298076, 2
298079, 298082, 2
298079, 298081, 2
298079, 298078, 2
298079, 298080, 2
298072, 298073, 0
298072, 298071, 2
298072, 298074, 1
298089, 298088, 2
298089, 298090, 1
298086, 298087, 1
298086, 298085, 2
298086, 298083, 2
298086, 298084, 2
298069, 298070, 1
298069, 298067, 2
298069, 298073, 2
298069, 298071, 2
298069, 298068, 2
298080, 298079, 2
298080, 298082, 2
298080, 298083, 2
298080, 298081, 2
298080, 298078, 2
298080, 298084, 2
298073, 298070, 2
298073, 298079, 2
298073, 298071, 2
298073, 298072, 2
298073, 298078, 2
298073, 298067, 2
298073, 298065, 2
298073, 298069, 2
298073, 298075, 2
298073, 298074, 2
298091, 298092, 1
298091, 298085, 2
298091, 298090, 2
298090, 298088, 2
298090, 298085, 2
298090, 298091, 1
298090, 298089, 2
298083, 298082, 2
298083, 298085, 2
298083, 298086, 2
298083, 298080, 2
298083, 298081, 2
298083, 298084, 2
298068, 298067, 2
298068, 298069, 1
298078, 298077, 2
298078, 298073, 2
298078, 298079, 0
298078, 298082, 2
298078, 298076, 2
298078, 298081, 1
298078, 298080, 8
298074, 298073, 2
298074, 298071, 2
298074, 298072, 2
298074, 298075, 1
