122881, 122883, 1
122881, 122876, 2
122881, 122882, 0
122881, 122880, 2
122883, 122881, 2
122883, 122882, 2
122874, 122873, 2
122874, 122877, 2
122874, 122871, 2
122874, 122875, 1
122866, 122867, 1
122866, 122865, 2
122866, 122864, 2
122866, 122863, 2
122868, 122867, 2
122868, 122870, 2
122868, 122869, 1
122863, 122862, 2
122863, 122865, 2
122863, 122864, 3
122863, 122866, 1
122870, 122873, 2
122870, 122867, 2
122870, 122877, 2
122870, 122868, 2
122870, 122872, 2
122870, 122878, 2
122870, 122871, 2
122870, 122869, 2
122880, 122881, 1
122880, 122879, 2
122880, 122882, 2
122880, 122876, 2
122880, 122878, 2
122873, 122877, 2
122873, 122874, 1
122873, 122870, 2
122873, 122872, 2
122873, 122871, 2
122873, 122869, 2
122873, 122875, 2
122876, 122881, 2
122876, 122877, 2
122876, 122878, 2
122876, 122882, 2
122876, 122871, 2
122876, 122875, 2
122876, 122880, 2
122872, 122873, 1
122872, 122871, 2
122872, 122869, 2
122872, 122870, 2
122871, 122873, 2
122871, 122877, 1
122871, 122874, 2
122871, 122870, 2
122871, 122878, 2
122871, 122872, 0
122871, 122882, 2
122871, 122875, 2
122871, 122869, 2
122871, 122876, 2
122864, 122865, 1
122864, 122862, 2
122864, 122863, 2
122864, 122866, 2
122875, 122873, 2
122875, 122877, 2
122875, 122874, 2
122875, 122876, 1
122875, 122882, 2
122875, 122871, 2
122862, 122864, 2
122862, 122863, 1
122878, 122877, 2
122878, 122870, 2
122878, 122876, 2
122878, 122882, 2
122878, 122871, 2
122878, 122879, 1
122878, 122880, 2
122877, 122873, 2
122877, 122878, 1
122877, 122874, 2
122877, 122869, 2
122877, 122876, 2
122877, 122871, 2
122877, 122870, 2
122877, 122875, 2
122869, 122873, 2
122869, 122877, 2
122869, 122868, 2
122869, 122872, 2
122869, 122871, 1
122869, 122870, 0
122865, 122864, 2
122865, 122863, 2
122865, 122866, 2
122867, 122866, 2
122867, 122870, 2
122867, 122868, 1
122882, 122881, 2
122882, 122883, 2
122882, 122878, 2
122882, 122876, 2
122882, 122871, 2
122882, 122875, 2
122882, 122879, 2
122882, 122880, 2
122879, 122878, 2
122879, 122882, 2
122879, 122880, 1
