18911, 18908, 2
18911, 18912, 1
18911, 18907, 2
18911, 18910, 2
18918, 18922, 2
18918, 18916, 2
18918, 18919, 2
18918, 18915, 2
18918, 18917, 2
18918, 18920, 2
18919, 18918, 2
18919, 18921, 2
18919, 18916, 2
18919, 18915, 2
18919, 18917, 2
18919, 18920, 2
18919, 18914, 2
18912, 18911, 2
18912, 18910, 2
18912, 18907, 2
18912, 18908, 2
18912, 18913, 3
18912, 18914, 1
18920, 18918, 2
18920, 18922, 0
18920, 18921, 3
18920, 18925, 1
18920, 18927, 2
18920, 18919, 2
18920, 18915, 2
18920, 18924, 8
18920, 18917, 2
18920, 18923, 2
18926, 18924, 2
18926, 18928, 2
18926, 18925, 2
18926, 18927, 2
18922, 18918, 2
18922, 18924, 2
18922, 18921, 2
18922, 18916, 2
18922, 18915, 2
18922, 18927, 2
18922, 18917, 2
18922, 18920, 2
18922, 18923, 3
18924, 18922, 2
18924, 18921, 2
18924, 18925, 2
18924, 18926, 2
18924, 18920, 2
18924, 18923, 2
18915, 18918, 2
18915, 18922, 2
18915, 18916, 0
18915, 18919, 8
18915, 18917, 3
18915, 18920, 1
18915, 18914, 2
18921, 18922, 2
18921, 18924, 2
18921, 18925, 2
18921, 18927, 2
18921, 18919, 2
18921, 18920, 2
18921, 18923, 2
18907, 18911, 1
18907, 18908, 3
18907, 18910, 2
18907, 18912, 2
18907, 18909, 0
18928, 18923, 2
18928, 18927, 2
18928, 18925, 2
18928, 18926, 2
18916, 18918, 3
18916, 18922, 2
18916, 18919, 2
18916, 18915, 2
18916, 18917, 2
18916, 18914, 2
18913, 18908, 2
18913, 18912, 2
18913, 18914, 2
18917, 18918, 2
18917, 18922, 2
18917, 18916, 2
18917, 18919, 2
18917, 18915, 2
18917, 18914, 2
18917, 18920, 2
18923, 18922, 2
18923, 18924, 2
18923, 18921, 2
18923, 18925, 2
18923, 18927, 2
18923, 18928, 2
18923, 18920, 2
18925, 18921, 2
18925, 18924, 2
18925, 18928, 1
18925, 18927, 0
18925, 18923, 2
18925, 18920, 2
18925, 18926, 3
18927, 18921, 2
18927, 18922, 2
18927, 18928, 2
18927, 18925, 2
18927, 18926, 2
18927, 18920, 2
18927, 18923, 2
18908, 18911, 2
18908, 18910, 2
18908, 18907, 2
18908, 18913, 2
18908, 18909, 2
18908, 18912, 2
18908, 18914, 2
18910, 18911, 2
18910, 18908, 2
18910, 18912, 2
18910, 18907, 2
18910, 18909, 2
18914, 18912, 2
18914, 18916, 2
18914, 18919, 2
18914, 18915, 1
18914, 18913, 2
18914, 18917, 2
18914, 18908, 2
18909, 18908, 2
18909, 18910, 3
18909, 18907, 2
