259325, 259326, 1
259325, 259327, 2
259325, 259328, 2
259325, 259324, 2
259324, 259325, 2
259324, 259323, 2
259324, 259328, 2
259324, 259326, 2
259329, 259328, 2
259329, 259327, 2
259326, 259325, 2
259326, 259324, 2
259326, 259323, 2
259326, 259328, 2
259326, 259327, 1
259323, 259326, 2
259323, 259328, 1
259323, 259324, 3
259328, 259325, 2
259328, 259324, 2
259328, 259329, 3
259328, 259326, 2
259328, 259323, 2
259328, 259327, 2
259327, 259329, 2
259327, 259325, 2
259327, 259328, 2
259327, 259326, 2
