71363, 71362, 2
71359, 71358, 2
71359, 71360, 1
71359, 71361, 2
71358, 71359, 1
71360, 71361, 3
71360, 71362, 1
71360, 71359, 2
71361, 71360, 2
71361, 71362, 2
71361, 71359, 2
71362, 71360, 2
71362, 71361, 2
71362, 71363, 1
