333558, 333560, 1
333558, 333556, 2
333558, 333559, 0
333558, 333562, 2
333558, 333561, 2
333558, 333557, 2
333557, 333558, 2
333557, 333556, 2
333560, 333558, 2
333560, 333561, 1
333560, 333559, 2
333567, 333566, 2
333561, 333558, 2
333561, 333560, 2
333561, 333559, 2
333561, 333562, 3
333561, 333564, 2
333561, 333563, 1
333564, 333566, 1
333564, 333562, 2
333564, 333561, 2
333564, 333565, 3
333564, 333563, 2
333556, 333558, 1
333556, 333557, 3
333565, 333566, 2
333565, 333564, 2
333559, 333561, 2
333559, 333558, 2
333559, 333560, 2
333562, 333558, 2
333562, 333561, 2
333562, 333564, 2
333562, 333563, 2
333566, 333565, 2
333566, 333564, 2
333566, 333567, 0
333563, 333562, 2
333563, 333561, 2
333563, 333564, 1
