293848, 293849, 1
293848, 293847, 2
293842, 293841, 2
293842, 293843, 2
293842, 293846, 2
293842, 293845, 2
293842, 293844, 2
293845, 293841, 2
293845, 293843, 2
293845, 293846, 1
293845, 293842, 2
293845, 293844, 2
293841, 293843, 1
293841, 293842, 0
293841, 293845, 2
293843, 293841, 2
293843, 293842, 2
293843, 293845, 2
293843, 293844, 1
293846, 293842, 2
293846, 293847, 1
293846, 293845, 2
293849, 293848, 2
293847, 293846, 2
293847, 293848, 1
293844, 293843, 2
293844, 293842, 2
293844, 293845, 1
