170457, 170450, 2
170457, 170464, 2
170457, 170455, 2
170457, 170458, 1
170457, 170445, 2
170458, 170450, 2
170458, 170457, 2
170458, 170464, 2
170458, 170445, 2
170458, 170461, 2
170458, 170459, 1
170427, 170432, 1
170427, 170431, 2
170427, 170426, 4
170427, 170425, 6
170427, 170434, 2
170427, 170428, 2
170427, 170412, 2
170427, 170415, 2
170427, 170414, 2
170427, 170423, 2
170427, 170429, 2
170427, 170424, 2
170427, 170422, 2
170427, 170416, 2
170427, 170430, 2
170427, 170433, 2
170442, 170444, 2
170442, 170450, 2
170442, 170415, 2
170442, 170454, 2
170442, 170433, 2
170442, 170440, 2
170442, 170422, 2
170442, 170443, 2
170442, 170430, 2
170442, 170416, 2
170442, 170441, 2
170442, 170431, 2
170442, 170434, 2
170442, 170439, 2
170442, 170464, 2
170442, 170447, 2
170442, 170414, 2
170442, 170412, 2
170442, 170445, 1
170442, 170446, 2
170442, 170451, 2
170442, 170449, 2
170442, 170448, 2
170442, 170438, 2
170463, 170450, 2
170463, 170462, 2
170463, 170445, 2
170463, 170461, 2
170463, 170464, 2
170410, 170413, 2
170410, 170407, 2
170410, 170408, 2
170410, 170409, 2
170410, 170411, 4
170410, 170415, 2
170410, 170414, 1
170410, 170421, 2
170410, 170417, 2
170410, 170422, 2
170410, 170436, 2
170410, 170425, 2
170456, 170450, 2
170456, 170464, 2
170456, 170445, 2
170456, 170454, 2
170456, 170460, 1
170452, 170450, 2
170452, 170455, 2
170452, 170451, 2
170452, 170464, 2
170452, 170453, 1
170452, 170445, 2
170423, 170431, 2
170423, 170426, 2
170423, 170421, 2
170423, 170427, 2
170423, 170428, 2
170423, 170415, 2
170423, 170414, 2
170423, 170429, 2
170423, 170424, 1
170423, 170422, 2
170423, 170416, 2
170423, 170430, 2
170423, 170425, 2
170433, 170431, 2
170433, 170432, 2
170433, 170444, 2
170433, 170434, 2
170433, 170427, 2
170433, 170442, 2
170433, 170429, 2
170433, 170435, 1
170433, 170430, 2
170433, 170439, 2
170433, 170436, 2
170433, 170425, 2
170422, 170431, 2
170422, 170421, 2
170422, 170420, 2
170422, 170410, 2
170422, 170418, 2
170422, 170427, 2
170422, 170443, 2
170422, 170419, 2
170422, 170415, 2
170422, 170414, 2
170422, 170423, 2
170422, 170417, 2
170422, 170438, 2
170422, 170449, 2
170422, 170442, 2
170422, 170436, 2
170422, 170441, 2
170422, 170425, 2
170414, 170431, 2
170414, 170413, 2
170414, 170407, 2
170414, 170415, 0
170414, 170408, 2
170414, 170427, 2
170414, 170421, 2
170414, 170419, 2
170414, 170410, 2
170414, 170423, 2
170414, 170417, 2
170414, 170422, 2
170414, 170442, 2
170414, 170441, 2
170414, 170425, 2
170437, 170434, 2
170437, 170439, 2
170437, 170438, 1
170437, 170436, 2
170441, 170431, 2
170441, 170414, 2
170441, 170415, 2
170441, 170440, 2
170441, 170422, 2
170441, 170434, 2
170441, 170439, 2
170441, 170438, 2
170441, 170442, 2
170406, 170405, 2
170406, 170412, 2
170406, 170417, 2
170406, 170407, 1
170406, 170408, 2
170406, 170409, 2
170431, 170427, 2
170431, 170432, 2
170431, 170425, 2
170431, 170415, 2
170431, 170438, 2
170431, 170434, 2
170431, 170442, 2
170431, 170443, 2
170431, 170414, 2
170431, 170423, 2
170431, 170433, 2
170431, 170435, 2
170431, 170424, 2
170431, 170422, 2
170431, 170449, 2
170431, 170430, 2
170431, 170436, 2
170431, 170441, 2
170431, 170429, 2
170421, 170415, 2
170421, 170414, 2
170421, 170423, 1
170421, 170425, 2
170421, 170420, 2
170421, 170410, 2
170421, 170422, 6
170421, 170416, 2
170421, 170419, 2
170464, 170450, 2
170464, 170457, 2
170464, 170461, 2
170464, 170458, 2
170464, 170459, 2
170464, 170442, 2
170464, 170463, 2
170464, 170443, 2
170464, 170456, 2
170464, 170452, 2
170464, 170454, 2
170464, 170445, 2
170464, 170460, 2
170464, 170462, 2
170408, 170407, 2
170408, 170410, 2
170408, 170414, 2
170408, 170412, 4
170408, 170413, 2
170408, 170417, 1
170408, 170415, 2
170408, 170409, 6
170408, 170416, 2
170408, 170411, 2
170408, 170406, 2
170411, 170408, 2
170411, 170410, 2
170411, 170413, 1
170447, 170450, 2
170447, 170451, 2
170447, 170445, 2
170447, 170449, 1
170447, 170453, 2
170447, 170443, 2
170447, 170442, 2
170404, 170405, 1
170404, 170409, 2
170404, 170412, 2
170404, 170403, 2
170455, 170452, 2
170455, 170450, 2
170455, 170457, 1
170455, 170445, 2
170455, 170453, 2
170451, 170450, 2
170451, 170452, 1
170451, 170444, 2
170451, 170453, 2
170451, 170449, 2
170451, 170445, 2
170451, 170448, 2
170451, 170447, 2
170451, 170442, 2
170403, 170404, 1
170403, 170409, 2
170435, 170431, 2
170435, 170432, 2
170435, 170433, 2
170435, 170434, 2
170435, 170430, 2
170435, 170428, 2
170435, 170436, 1
170435, 170425, 2
170449, 170443, 2
170449, 170450, 2
170449, 170454, 2
170449, 170431, 2
170449, 170445, 2
170449, 170451, 2
170449, 170422, 2
170449, 170448, 2
170449, 170447, 2
170449, 170442, 2
170448, 170450, 2
170448, 170451, 2
170448, 170444, 2
170448, 170445, 2
170448, 170446, 2
170448, 170449, 2
170448, 170442, 2
170445, 170450, 1
170445, 170457, 2
170445, 170444, 4
170445, 170464, 2
170445, 170458, 2
170445, 170447, 2
170445, 170442, 2
170445, 170463, 2
170445, 170443, 6
170445, 170456, 2
170445, 170452, 2
170445, 170451, 2
170445, 170455, 2
170445, 170453, 2
170445, 170446, 2
170445, 170460, 2
170445, 170449, 2
170445, 170462, 2
170445, 170448, 2
170445, 170454, 2
170426, 170432, 2
170426, 170425, 2
170426, 170420, 2
170426, 170434, 2
170426, 170427, 2
170426, 170428, 1
170426, 170419, 2
170426, 170423, 2
170426, 170417, 2
170426, 170424, 2
170426, 170412, 2
170426, 170416, 2
170426, 170430, 2
170444, 170450, 2
170444, 170434, 2
170444, 170439, 2
170444, 170442, 2
170444, 170443, 2
170444, 170451, 2
170444, 170433, 2
170444, 170440, 2
170444, 170445, 2
170444, 170446, 1
170444, 170430, 2
170444, 170448, 2
170444, 170436, 2
170407, 170410, 2
170407, 170414, 2
170407, 170412, 2
170407, 170413, 2
170407, 170417, 2
170407, 170408, 1
170407, 170409, 2
170407, 170406, 2
170450, 170457, 2
170450, 170444, 2
170450, 170445, 2
170450, 170442, 2
170450, 170463, 2
170450, 170443, 2
170450, 170456, 2
170450, 170452, 2
170450, 170454, 6
170450, 170447, 2
170450, 170461, 2
170450, 170460, 2
170450, 170464, 1
170450, 170458, 2
170450, 170459, 2
170450, 170455, 2
170450, 170451, 4
170450, 170453, 2
170450, 170446, 2
170450, 170449, 2
170450, 170462, 2
170450, 170448, 2
170453, 170450, 2
170453, 170452, 2
170453, 170451, 2
170453, 170455, 1
170453, 170445, 2
170453, 170447, 2
170419, 170415, 2
170419, 170414, 2
170419, 170426, 2
170419, 170421, 2
170419, 170417, 2
170419, 170420, 1
170419, 170422, 2
170419, 170418, 2
170419, 170416, 2
170419, 170425, 2
170415, 170431, 2
170415, 170421, 2
170415, 170408, 2
170415, 170418, 2
170415, 170427, 2
170415, 170419, 2
170415, 170410, 2
170415, 170414, 2
170415, 170423, 2
170415, 170417, 2
170415, 170438, 2
170415, 170422, 2
170415, 170416, 2
170415, 170442, 2
170415, 170436, 2
170415, 170441, 2
170415, 170425, 2
170440, 170444, 2
170440, 170434, 2
170440, 170430, 2
170440, 170439, 2
170440, 170438, 2
170440, 170441, 0
170440, 170442, 1
170461, 170463, 2
170461, 170450, 2
170461, 170464, 2
170461, 170462, 1
170461, 170458, 2
170461, 170459, 2
170424, 170431, 2
170424, 170430, 2
170424, 170426, 2
170424, 170425, 2
170424, 170423, 2
170424, 170427, 1
170424, 170428, 2
170424, 170429, 2
170460, 170450, 2
170460, 170456, 2
170460, 170464, 2
170460, 170445, 2
170430, 170431, 2
170430, 170426, 2
170430, 170444, 2
170430, 170434, 2
170430, 170427, 2
170430, 170428, 2
170430, 170442, 2
170430, 170440, 2
170430, 170423, 2
170430, 170433, 2
170430, 170435, 2
170430, 170424, 2
170430, 170412, 2
170430, 170439, 2
170430, 170438, 2
170430, 170432, 2
170413, 170408, 2
170413, 170410, 2
170413, 170414, 2
170413, 170411, 2
170413, 170407, 2
170405, 170404, 2
170405, 170409, 2
170405, 170412, 2
170405, 170406, 1
170432, 170431, 2
170432, 170426, 2
170432, 170425, 2
170432, 170434, 3
170432, 170427, 2
170432, 170428, 2
170432, 170438, 2
170432, 170433, 0
170432, 170435, 2
170432, 170430, 2
170432, 170439, 1
170432, 170436, 2
170432, 170429, 2
170425, 170431, 2
170425, 170426, 2
170425, 170421, 2
170425, 170410, 2
170425, 170418, 2
170425, 170427, 2
170425, 170419, 2
170425, 170415, 2
170425, 170414, 2
170425, 170423, 2
170425, 170429, 1
170425, 170417, 2
170425, 170435, 2
170425, 170424, 2
170425, 170432, 2
170425, 170422, 2
170425, 170436, 2
170425, 170433, 2
170420, 170422, 2
170420, 170416, 2
170420, 170426, 2
170420, 170421, 1
170420, 170419, 2
170434, 170431, 2
170434, 170426, 2
170434, 170444, 2
170434, 170442, 2
170434, 170427, 2
170434, 170428, 2
170434, 170437, 2
170434, 170436, 2
170434, 170433, 2
170434, 170435, 2
170434, 170440, 2
170434, 170432, 2
170434, 170416, 2
170434, 170430, 2
170434, 170439, 2
170434, 170438, 2
170434, 170441, 2
170409, 170405, 2
170409, 170410, 1
170409, 170403, 2
170409, 170407, 2
170409, 170408, 2
170409, 170404, 2
170409, 170406, 2
170418, 170415, 2
170418, 170425, 2
170418, 170417, 2
170418, 170422, 2
170418, 170416, 2
170418, 170419, 1
170459, 170450, 2
170459, 170464, 2
170459, 170462, 2
170459, 170458, 2
170459, 170461, 1
170428, 170423, 2
170428, 170427, 2
170428, 170432, 2
170428, 170435, 2
170428, 170434, 2
170428, 170424, 2
170428, 170426, 2
170428, 170430, 1
170443, 170431, 2
170443, 170444, 2
170443, 170450, 2
170443, 170464, 2
170443, 170447, 1
170443, 170442, 2
170443, 170454, 2
170443, 170445, 2
170443, 170422, 2
170443, 170449, 2
170443, 170439, 2
170443, 170438, 2
170436, 170431, 2
170436, 170425, 2
170436, 170432, 2
170436, 170444, 2
170436, 170415, 2
170436, 170434, 2
170436, 170437, 1
170436, 170410, 2
170436, 170433, 2
170436, 170435, 2
170436, 170422, 2
170436, 170439, 2
170436, 170438, 2
170436, 170429, 2
170412, 170405, 2
170412, 170404, 2
170412, 170430, 2
170412, 170426, 2
170412, 170407, 2
170412, 170417, 2
170412, 170442, 2
170412, 170408, 2
170412, 170416, 2
170412, 170427, 2
170412, 170406, 2
170417, 170426, 2
170417, 170425, 2
170417, 170407, 2
170417, 170410, 2
170417, 170408, 2
170417, 170418, 1
170417, 170419, 2
170417, 170415, 2
170417, 170414, 2
170417, 170412, 2
170417, 170422, 2
170417, 170416, 4
170417, 170406, 2
170446, 170450, 2
170446, 170445, 2
170446, 170448, 1
170446, 170444, 2
170446, 170442, 2
170454, 170450, 2
170454, 170456, 1
170454, 170464, 2
170454, 170449, 2
170454, 170445, 2
170454, 170443, 2
170454, 170442, 2
170416, 170426, 2
170416, 170421, 2
170416, 170420, 2
170416, 170434, 2
170416, 170408, 2
170416, 170418, 2
170416, 170427, 2
170416, 170419, 2
170416, 170415, 2
170416, 170423, 2
170416, 170417, 2
170416, 170412, 2
170416, 170442, 2
170462, 170463, 1
170462, 170450, 2
170462, 170464, 2
170462, 170461, 2
170462, 170445, 2
170462, 170459, 2
170439, 170432, 2
170439, 170444, 2
170439, 170434, 2
170439, 170436, 2
170439, 170437, 2
170439, 170442, 2
170439, 170443, 2
170439, 170433, 2
170439, 170440, 1
170439, 170430, 2
170439, 170438, 2
170439, 170441, 2
170438, 170431, 2
170438, 170432, 2
170438, 170434, 2
170438, 170436, 2
170438, 170443, 2
170438, 170442, 2
170438, 170415, 2
170438, 170440, 2
170438, 170422, 2
170438, 170430, 2
170438, 170439, 2
170438, 170437, 2
170438, 170441, 2
170429, 170431, 1
170429, 170423, 2
170429, 170433, 2
170429, 170424, 2
170429, 170432, 2
170429, 170427, 2
170429, 170436, 2
170429, 170425, 2
