335747, 335748, 1
335747, 335746, 2
335752, 335753, 1
335752, 335751, 2
335762, 335761, 2
335762, 335763, 2
335746, 335747, 1
335746, 335745, 2
335750, 335749, 2
335750, 335751, 1
335760, 335761, 1
335760, 335759, 2
335748, 335749, 1
335748, 335747, 2
335757, 335758, 1
335757, 335756, 2
335757, 335754, 2
335757, 335755, 2
335759, 335758, 2
335759, 335760, 1
335745, 335746, 1
335758, 335759, 1
335758, 335757, 2
335756, 335753, 2
335756, 335757, 1
335756, 335754, 2
335756, 335755, 2
335761, 335762, 0
335761, 335760, 2
335761, 335763, 1
335754, 335756, 2
335754, 335757, 2
335754, 335753, 2
335754, 335755, 0
335749, 335750, 1
335749, 335748, 2
335751, 335750, 2
335751, 335752, 1
335763, 335762, 2
335763, 335761, 2
335753, 335752, 2
335753, 335756, 1
335753, 335754, 3
335753, 335755, 2
335755, 335756, 2
335755, 335757, 2
335755, 335753, 2
335755, 335754, 2
