186230, 186227, 2
186230, 186231, 1
186230, 186229, 2
186236, 186227, 2
186236, 186238, 2
186236, 186235, 2
186236, 186237, 1
186228, 186227, 2
186228, 186229, 2
186228, 186226, 2
186232, 186231, 2
186232, 186233, 1
186259, 186252, 2
186259, 186258, 2
186259, 186257, 2
186259, 186261, 2
186259, 186260, 1
186246, 186244, 2
186246, 186248, 1
186246, 186247, 3
186246, 186243, 2
186246, 186245, 2
186245, 186227, 2
186245, 186251, 2
186245, 186244, 2
186245, 186238, 2
186245, 186250, 2
186245, 186239, 2
186245, 186247, 2
186245, 186240, 2
186245, 186231, 2
186245, 186233, 2
186245, 186243, 2
186245, 186229, 2
186245, 186242, 2
186245, 186241, 2
186245, 186248, 2
186245, 186246, 2
186245, 186252, 2
186234, 186235, 2
186234, 186233, 2
186240, 186241, 1
186240, 186250, 2
186240, 186245, 2
186240, 186239, 2
186256, 186255, 2
186256, 186258, 2
186256, 186257, 2
186235, 186227, 2
186235, 186236, 1
186235, 186233, 2
186235, 186234, 2
186226, 186227, 0
186226, 186229, 1
186226, 186228, 3
186233, 186227, 2
186233, 186231, 2
186233, 186235, 1
186233, 186232, 2
186233, 186245, 2
186233, 186234, 8
186237, 186238, 1
186237, 186236, 2
186229, 186227, 2
186229, 186230, 1
186229, 186228, 2
186229, 186226, 2
186229, 186245, 2
186264, 186263, 2
186264, 186260, 2
186241, 186242, 1
186241, 186250, 2
186241, 186239, 2
186241, 186245, 2
186241, 186240, 2
186260, 186264, 2
186260, 186259, 2
186260, 186257, 2
186260, 186263, 2
186260, 186261, 2
186227, 186230, 2
186227, 186236, 2
186227, 186228, 2
186227, 186239, 2
186227, 186238, 2
186227, 186245, 2
186227, 186251, 2
186227, 186231, 2
186227, 186235, 2
186227, 186226, 2
186227, 186233, 2
186227, 186229, 2
186227, 186248, 2
186227, 186252, 2
186258, 186256, 2
186258, 186259, 1
186258, 186257, 2
186258, 186253, 2
186258, 186261, 2
186258, 186255, 2
186258, 186252, 2
186253, 186252, 2
186253, 186249, 2
186253, 186254, 1
186253, 186255, 2
186253, 186250, 2
186253, 186258, 2
186253, 186251, 2
186261, 186259, 2
186261, 186257, 2
186261, 186262, 1
186261, 186258, 2
186261, 186263, 2
186261, 186260, 2
186239, 186227, 2
186239, 186243, 2
186239, 186238, 2
186239, 186241, 2
186239, 186250, 2
186239, 186245, 2
186239, 186240, 1
186255, 186256, 8
186255, 186254, 2
186255, 186257, 1
186255, 186253, 2
186255, 186258, 2
186255, 186252, 2
186238, 186227, 2
186238, 186236, 2
186238, 186245, 2
186238, 186237, 2
186238, 186239, 1
186250, 186244, 2
186250, 186249, 2
186250, 186240, 2
186250, 186253, 2
186250, 186243, 2
186250, 186239, 2
186250, 186242, 2
186250, 186241, 2
186250, 186248, 2
186250, 186245, 2
186250, 186251, 1
186247, 186246, 2
186247, 186248, 2
186247, 186245, 2
186263, 186264, 1
186263, 186262, 2
186263, 186261, 2
186263, 186260, 2
186251, 186227, 2
186251, 186249, 2
186251, 186253, 2
186251, 186250, 2
186251, 186245, 2
186251, 186252, 1
186231, 186227, 2
186231, 186230, 2
186231, 186245, 2
186231, 186232, 1
186231, 186233, 2
186249, 186252, 2
186249, 186250, 0
186249, 186248, 2
186249, 186253, 1
186249, 186251, 2
186254, 186255, 1
186254, 186253, 2
186244, 186250, 2
186244, 186248, 2
186244, 186246, 1
186244, 186243, 2
186244, 186245, 0
186243, 186244, 1
186243, 186239, 2
186243, 186242, 2
186243, 186250, 2
186243, 186246, 2
186243, 186245, 2
186262, 186263, 1
186262, 186261, 2
186242, 186241, 2
186242, 186250, 2
186242, 186245, 2
186242, 186243, 1
186257, 186256, 2
186257, 186259, 2
186257, 186261, 1
186257, 186252, 2
186257, 186255, 2
186257, 186258, 0
186257, 186260, 2
186248, 186227, 2
186248, 186244, 2
186248, 186249, 1
186248, 186246, 2
186248, 186250, 2
186248, 186245, 2
186248, 186247, 2
186252, 186227, 2
186252, 186259, 2
186252, 186249, 2
186252, 186257, 2
186252, 186253, 2
186252, 186255, 2
186252, 186258, 2
186252, 186245, 2
186252, 186251, 2
