295059, 295057, 2
295059, 295060, 1
295059, 295061, 2
295059, 295058, 2
295059, 295055, 2
295062, 295063, 1
295062, 295061, 2
295061, 295059, 2
295061, 295062, 1
295061, 295060, 2
295053, 295056, 2
295053, 295054, 1
295064, 295063, 2
295064, 295065, 1
295056, 295057, 2
295056, 295055, 2
295056, 295053, 2
295056, 295054, 2
295056, 295058, 2
295055, 295056, 3
295055, 295057, 1
295055, 295059, 2
295055, 295054, 2
295057, 295059, 1
295057, 295056, 2
295057, 295055, 2
295057, 295058, 3
295065, 295064, 2
295065, 295063, 2
295054, 295056, 2
295054, 295053, 2
295054, 295055, 1
295063, 295064, 1
295063, 295065, 2
295063, 295062, 2
295060, 295059, 2
295060, 295061, 1
295058, 295059, 2
295058, 295057, 2
295058, 295056, 2
