66934, 66933, 2
66934, 66941, 2
66934, 66935, 1
66946, 66948, 2
66946, 66941, 2
66946, 66947, 1
66946, 66945, 2
66953, 66952, 2
66953, 66954, 1
66951, 66952, 1
66951, 66941, 2
66951, 66949, 2
66951, 66948, 2
66951, 66950, 2
66947, 66946, 2
66947, 66941, 2
66947, 66948, 1
66943, 66944, 1
66943, 66940, 2
66943, 66941, 2
66943, 66942, 2
66940, 66943, 1
66940, 66942, 0
66940, 66939, 2
66940, 66941, 6
66940, 66938, 2
66956, 66955, 2
66956, 66954, 2
66948, 66941, 2
66948, 66949, 1
66948, 66946, 2
66948, 66950, 2
66948, 66951, 2
66948, 66947, 2
66952, 66953, 1
66952, 66951, 2
66952, 66941, 2
66937, 66941, 2
66937, 66936, 2
66937, 66938, 1
66945, 66946, 1
66945, 66944, 2
66945, 66941, 2
66939, 66940, 2
66939, 66941, 2
66939, 66938, 2
66955, 66956, 2
66955, 66954, 2
66930, 66941, 2
66930, 66931, 1
66932, 66933, 2
66932, 66931, 2
66954, 66953, 2
66954, 66941, 2
66954, 66956, 1
66954, 66955, 0
66936, 66937, 1
66936, 66935, 2
66931, 66932, 0
66931, 66933, 1
66931, 66941, 2
66931, 66930, 2
66942, 66940, 2
66942, 66941, 2
66942, 66943, 2
66944, 66943, 2
66944, 66941, 2
66944, 66945, 1
66933, 66932, 2
66933, 66941, 2
66933, 66931, 2
66933, 66934, 1
66941, 66948, 2
66941, 66930, 2
66941, 66934, 2
66941, 66946, 2
66941, 66951, 2
66941, 66954, 2
66941, 66952, 2
66941, 66947, 2
66941, 66943, 2
66941, 66944, 2
66941, 66940, 2
66941, 66933, 2
66941, 66942, 2
66941, 66939, 2
66941, 66945, 2
66941, 66935, 2
66941, 66931, 2
66941, 66937, 2
66941, 66938, 2
66949, 66950, 1
66949, 66951, 2
66949, 66948, 2
66938, 66940, 1
66938, 66941, 2
66938, 66939, 8
66938, 66937, 2
66935, 66941, 2
66935, 66936, 1
66935, 66934, 2
66950, 66951, 1
66950, 66949, 2
66950, 66948, 2
