296446, 296445, 2
296446, 296447, 1
296442, 296443, 1
296442, 296441, 2
296449, 296447, 2
296449, 296448, 2
296449, 296450, 1
296443, 296445, 1
296443, 296442, 2
296443, 296441, 2
296443, 296444, 3
296454, 296453, 2
296454, 296452, 2
296447, 296446, 2
296447, 296449, 2
296447, 296445, 2
296447, 296448, 1
296447, 296451, 2
296445, 296446, 1
296445, 296443, 2
296445, 296447, 2
296445, 296444, 2
296444, 296443, 2
296444, 296445, 2
296440, 296441, 1
296440, 296439, 2
296453, 296454, 1
296453, 296452, 2
296441, 296440, 2
296441, 296443, 2
296441, 296442, 1
296441, 296439, 2
296448, 296449, 1
296448, 296447, 2
296448, 296450, 2
296452, 296454, 2
296452, 296453, 1
296452, 296451, 2
296452, 296450, 2
296451, 296452, 2
296451, 296447, 2
296451, 296450, 2
296438, 296439, 1
296450, 296449, 2
296450, 296452, 1
296450, 296451, 3
296450, 296448, 2
296439, 296440, 1
296439, 296441, 2
296439, 296438, 2
