197483, 197481, 2
197483, 197485, 2
197483, 197480, 2
197483, 197484, 1
197483, 197486, 2
197483, 197482, 2
197481, 197483, 1
197481, 197482, 3
197481, 197480, 2
197485, 197483, 2
197485, 197486, 3
197485, 197484, 2
197480, 197479, 2
197480, 197483, 2
197480, 197481, 1
197480, 197482, 2
197484, 197483, 2
197484, 197486, 2
197484, 197485, 1
197479, 197480, 1
197486, 197483, 2
197486, 197485, 2
197486, 197484, 2
197482, 197483, 2
197482, 197481, 2
197482, 197480, 2
