259378, 259377, 2
259377, 259376, 2
259377, 259378, 1
259374, 259375, 1
259374, 259376, 2
259374, 259373, 2
259375, 259376, 1
259375, 259374, 2
259376, 259375, 2
259376, 259377, 1
259376, 259374, 2
259371, 259373, 1
259371, 259372, 3
259373, 259371, 2
259373, 259372, 2
259373, 259374, 1
259372, 259371, 2
259372, 259373, 2
