62065, 62063, 2
62065, 62066, 1
62065, 62067, 2
62065, 62064, 2
62069, 62068, 2
62067, 62065, 2
62067, 62066, 2
62067, 62068, 2
62061, 62060, 2
62061, 62062, 2
62060, 62062, 1
62060, 62061, 3
62062, 62060, 2
62062, 62064, 2
62062, 62063, 1
62062, 62061, 2
62064, 62062, 2
62064, 62065, 2
62064, 62063, 2
62068, 62066, 2
62068, 62067, 2
62068, 62069, 8
62063, 62062, 2
62063, 62065, 1
62063, 62064, 3
62066, 62065, 2
62066, 62068, 1
62066, 62067, 3
