197331, 197328, 2
197331, 197327, 2
197331, 197330, 2
197331, 197329, 2
197327, 197331, 1
197327, 197329, 2
197327, 197328, 8
197327, 197326, 2
197327, 197330, 2
197327, 197325, 2
197329, 197331, 2
197329, 197328, 2
197329, 197327, 2
197329, 197330, 1
197328, 197331, 2
197328, 197327, 2
197328, 197329, 1
197328, 197326, 2
197328, 197330, 2
197328, 197325, 2
197326, 197328, 2
197326, 197327, 1
197326, 197325, 2
197330, 197331, 2
197330, 197328, 2
197330, 197327, 2
197330, 197329, 2
197325, 197328, 2
197325, 197327, 2
197325, 197326, 1
