164953, 164952, 2
164953, 164956, 2
164953, 164950, 2
164953, 164951, 2
164953, 164954, 1
164928, 164943, 2
164928, 164937, 2
164928, 164929, 2
164928, 164939, 2
164928, 164950, 2
164928, 164933, 2
164928, 164932, 2
164928, 164944, 2
164928, 164931, 2
164928, 164930, 2
164928, 164952, 2
164928, 164934, 2
164928, 164938, 2
164928, 164935, 2
164928, 164936, 2
164936, 164928, 2
164936, 164937, 1
164936, 164935, 2
164936, 164934, 2
164936, 164938, 2
164936, 164933, 2
164939, 164943, 2
164939, 164928, 2
164939, 164937, 2
164939, 164950, 2
164939, 164940, 1
164939, 164938, 4
164939, 164935, 2
164939, 164949, 2
164942, 164938, 2
164942, 164943, 3
164942, 164945, 1
164942, 164941, 2
164942, 164944, 2
164944, 164938, 2
164944, 164943, 2
164944, 164928, 2
164944, 164952, 2
164944, 164945, 2
164944, 164947, 2
164944, 164950, 2
164944, 164942, 2
164957, 164949, 2
164957, 164951, 2
164957, 164958, 1
164957, 164955, 2
164957, 164956, 2
164947, 164946, 2
164947, 164945, 2
164947, 164951, 2
164947, 164948, 1
164947, 164952, 2
164947, 164944, 2
164947, 164950, 2
164947, 164949, 2
164930, 164931, 0
164930, 164928, 2
164930, 164929, 2
164930, 164934, 2
164930, 164938, 2
164930, 164932, 1
164952, 164953, 1
164952, 164948, 2
164952, 164947, 2
164952, 164928, 2
164952, 164951, 4
164952, 164946, 2
164952, 164956, 2
164952, 164938, 2
164952, 164949, 2
164952, 164950, 2
164952, 164944, 2
164940, 164941, 1
164940, 164943, 2
164940, 164950, 2
164940, 164939, 2
164940, 164938, 2
164940, 164949, 2
164938, 164941, 2
164938, 164943, 2
164938, 164928, 2
164938, 164951, 2
164938, 164937, 2
164938, 164929, 2
164938, 164939, 2
164938, 164950, 2
164938, 164933, 2
164938, 164945, 2
164938, 164944, 2
164938, 164942, 2
164938, 164930, 2
164938, 164935, 2
164938, 164940, 2
164938, 164952, 2
164938, 164936, 2
164958, 164957, 2
164958, 164949, 2
164956, 164953, 2
164956, 164951, 2
164956, 164950, 2
164956, 164957, 2
164956, 164952, 2
164956, 164955, 2
164956, 164954, 2
164941, 164940, 2
164941, 164938, 2
164941, 164943, 2
164941, 164942, 1
164941, 164949, 2
164943, 164941, 2
164943, 164939, 2
164943, 164942, 2
164943, 164945, 2
164943, 164938, 2
164943, 164940, 2
164943, 164928, 2
164943, 164944, 3
164945, 164946, 0
164945, 164947, 1
164945, 164943, 2
164945, 164950, 2
164945, 164938, 2
164945, 164944, 2
164945, 164942, 2
164945, 164949, 2
164951, 164953, 2
164951, 164956, 2
164951, 164947, 2
164951, 164950, 2
164951, 164948, 2
164951, 164952, 2
164951, 164957, 2
164951, 164938, 2
164951, 164935, 2
164951, 164955, 2
164951, 164949, 2
164951, 164954, 2
164937, 164939, 1
164937, 164938, 2
164937, 164935, 2
164937, 164928, 2
164937, 164936, 2
164946, 164952, 2
164946, 164948, 2
164946, 164947, 2
164946, 164945, 2
164946, 164949, 2
164950, 164953, 2
164950, 164947, 2
164950, 164928, 2
164950, 164951, 2
164950, 164939, 2
164950, 164945, 2
164950, 164952, 2
164950, 164944, 2
164950, 164948, 2
164950, 164938, 2
164950, 164940, 2
164950, 164929, 2
164950, 164935, 2
164950, 164956, 2
164933, 164928, 2
164933, 164935, 2
164933, 164934, 3
164933, 164938, 2
164933, 164932, 2
164933, 164936, 1
164932, 164934, 2
164932, 164931, 2
164932, 164928, 2
164932, 164930, 2
164932, 164933, 1
164935, 164928, 2
164935, 164951, 2
164935, 164937, 2
164935, 164938, 2
164935, 164939, 2
164935, 164934, 2
164935, 164933, 2
164935, 164950, 2
164935, 164936, 2
164948, 164946, 2
164948, 164947, 2
164948, 164951, 2
164948, 164950, 4
164948, 164952, 1
164948, 164949, 6
164931, 164928, 2
164931, 164932, 2
164931, 164930, 2
164931, 164949, 2
164934, 164928, 2
164934, 164930, 2
164934, 164929, 2
164934, 164935, 3
164934, 164933, 2
164934, 164932, 2
164934, 164936, 2
164929, 164928, 4
164929, 164930, 1
164929, 164950, 2
164929, 164934, 2
164929, 164938, 2
164929, 164949, 2
164954, 164953, 2
164954, 164956, 2
164954, 164949, 2
164954, 164951, 2
164954, 164955, 1
164955, 164957, 1
164955, 164956, 3
164955, 164949, 2
164955, 164951, 2
164955, 164954, 2
164949, 164941, 2
164949, 164947, 2
164949, 164945, 2
164949, 164951, 2
164949, 164946, 2
164949, 164939, 2
164949, 164940, 2
164949, 164948, 2
164949, 164931, 2
164949, 164929, 2
164949, 164957, 2
164949, 164952, 2
164949, 164958, 2
164949, 164955, 2
164949, 164954, 2
