62797, 62790, 2
62797, 62799, 2
62797, 62800, 2
62797, 62795, 2
62797, 62796, 2
62797, 62792, 2
62797, 62794, 2
62799, 62798, 2
62799, 62797, 2
62799, 62800, 3
62799, 62795, 2
62799, 62796, 2
62799, 62794, 2
62793, 62791, 2
62793, 62790, 2
62793, 62794, 1
62793, 62798, 2
62793, 62792, 2
62790, 62798, 2
62790, 62797, 2
62790, 62793, 2
62790, 62792, 2
62790, 62791, 1
62790, 62789, 2
62791, 62790, 2
62791, 62794, 2
62791, 62793, 1
62791, 62792, 8
62795, 62798, 2
62795, 62797, 2
62795, 62799, 2
62795, 62800, 2
62795, 62796, 1
62795, 62794, 2
62794, 62798, 2
62794, 62797, 2
62794, 62799, 2
62794, 62793, 2
62794, 62792, 2
62794, 62791, 2
62794, 62795, 1
62794, 62796, 2
62800, 62797, 2
62800, 62796, 2
62800, 62799, 2
62800, 62795, 2
62789, 62790, 1
62798, 62790, 2
62798, 62799, 2
62798, 62793, 2
62798, 62795, 2
62798, 62794, 2
62798, 62796, 2
62792, 62791, 2
62792, 62797, 2
62792, 62794, 2
62792, 62793, 2
62792, 62790, 2
62796, 62798, 6
62796, 62797, 4
62796, 62799, 1
62796, 62795, 2
62796, 62800, 2
62796, 62794, 2
