300395, 300394, 2
300395, 300393, 2
300395, 300396, 1
300392, 300391, 2
300392, 300393, 1
300394, 300395, 2
300394, 300393, 2
300394, 300396, 2
300391, 300392, 1
300393, 300394, 0
300393, 300395, 1
300393, 300392, 2
300393, 300396, 2
300396, 300395, 2
300396, 300394, 2
300396, 300393, 2
