72649, 72650, 1
72649, 72648, 2
72645, 72646, 1
72645, 72644, 2
72650, 72649, 2
72650, 72648, 2
72644, 72645, 1
72644, 72643, 2
72643, 72644, 1
72646, 72645, 2
72646, 72647, 3
72646, 72648, 1
72647, 72646, 2
72647, 72648, 2
72648, 72646, 2
72648, 72650, 2
72648, 72647, 2
72648, 72649, 1
