161332, 161330, 2
161332, 161329, 2
161332, 161326, 2
161332, 161331, 2
161332, 161334, 1
161332, 161327, 2
161330, 161332, 2
161330, 161329, 2
161330, 161335, 2
161330, 161331, 1
161330, 161334, 2
161330, 161333, 2
161326, 161332, 2
161326, 161327, 2
161326, 161325, 2
161328, 161333, 2
161328, 161327, 2
161328, 161329, 1
161329, 161332, 2
161329, 161331, 2
161329, 161330, 1
161329, 161333, 2
161329, 161328, 2
161335, 161331, 2
161335, 161330, 2
161335, 161334, 2
161325, 161326, 3
161325, 161327, 1
161331, 161332, 4
161331, 161330, 2
161331, 161329, 2
161331, 161335, 2
161331, 161334, 2
161331, 161333, 6
161327, 161332, 2
161327, 161326, 2
161327, 161333, 2
161327, 161328, 1
161327, 161325, 2
161333, 161331, 2
161333, 161330, 2
161333, 161328, 2
161333, 161329, 2
161333, 161327, 2
161334, 161332, 2
161334, 161331, 2
161334, 161330, 2
161334, 161335, 1
