216946, 216950, 2
216946, 216951, 2
216946, 216945, 2
216946, 216949, 1
216946, 216947, 6
216946, 216948, 8
216943, 216942, 2
216943, 216944, 1
216943, 216945, 2
216943, 216940, 2
216943, 216941, 2
216951, 216946, 2
216951, 216950, 2
216951, 216947, 2
216951, 216949, 2
216951, 216941, 2
216945, 216946, 1
216945, 216943, 2
216945, 216950, 2
216945, 216947, 2
216945, 216944, 2
216945, 216948, 2
216945, 216941, 2
216949, 216946, 2
216949, 216950, 6
216949, 216951, 1
216949, 216947, 2
216949, 216948, 2
216940, 216942, 1
216940, 216943, 2
216940, 216939, 2
216940, 216941, 2
216947, 216946, 2
216947, 216950, 2
216947, 216951, 2
216947, 216945, 2
216947, 216949, 2
216947, 216948, 2
216948, 216946, 2
216948, 216950, 2
216948, 216947, 2
216948, 216945, 2
216948, 216949, 2
216950, 216946, 2
216950, 216951, 2
216950, 216945, 2
216950, 216949, 2
216950, 216947, 2
216950, 216948, 2
216950, 216941, 2
216944, 216943, 2
216944, 216945, 1
216944, 216941, 2
216942, 216943, 1
216942, 216940, 2
216942, 216941, 6
216939, 216940, 1
216939, 216941, 2
216941, 216942, 2
216941, 216943, 2
216941, 216951, 2
216941, 216945, 2
216941, 216940, 2
216941, 216950, 2
216941, 216939, 2
216941, 216944, 2
