299984, 299987, 2
299984, 299985, 3
299984, 299986, 1
299985, 299984, 2
299985, 299986, 2
299985, 299987, 2
299987, 299984, 2
299987, 299985, 2
299987, 299986, 2
299986, 299984, 2
299986, 299985, 2
299986, 299987, 1
