162159, 162157, 2
162159, 162163, 2
162159, 162160, 1
162159, 162165, 2
162159, 162158, 2
162163, 162159, 2
162163, 162157, 2
162163, 162167, 2
162163, 162168, 2
162163, 162164, 1
162163, 162161, 2
162163, 162171, 2
162163, 162162, 2
162163, 162158, 2
162163, 162166, 2
162163, 162165, 2
162168, 162171, 2
162168, 162163, 2
162168, 162164, 2
162171, 162163, 2
162171, 162168, 2
162171, 162164, 2
162171, 162169, 2
162171, 162170, 2
162171, 162167, 2
162160, 162159, 2
162160, 162157, 2
162160, 162161, 1
162160, 162158, 2
162170, 162171, 2
162170, 162167, 2
162170, 162164, 2
162170, 162169, 2
162165, 162159, 2
162165, 162157, 2
162165, 162163, 2
162165, 162164, 2
162165, 162167, 2
162165, 162166, 1
162157, 162159, 1
162157, 162163, 2
162157, 162162, 2
162157, 162160, 2
162157, 162165, 2
162157, 162158, 3
162167, 162170, 2
162167, 162164, 2
162167, 162166, 2
162167, 162169, 4
162167, 162171, 2
162167, 162163, 2
162167, 162165, 2
162161, 162162, 1
162161, 162160, 2
162161, 162163, 2
162161, 162158, 2
162164, 162163, 2
162164, 162168, 4
162164, 162167, 2
162164, 162165, 6
162164, 162169, 2
162164, 162171, 1
162164, 162170, 2
162164, 162166, 2
162169, 162171, 2
162169, 162170, 1
162169, 162164, 2
162169, 162167, 2
162162, 162157, 2
162162, 162163, 1
162162, 162161, 2
162162, 162158, 2
162166, 162163, 2
162166, 162164, 2
162166, 162167, 1
162166, 162165, 2
162158, 162159, 2
162158, 162157, 2
162158, 162163, 2
162158, 162161, 2
162158, 162162, 2
162158, 162160, 2
