168513, 168512, 2
168513, 168508, 2
168513, 168514, 1
168536, 168535, 2
168536, 168541, 2
168536, 168533, 2
168536, 168538, 2
168536, 168537, 1
168545, 168542, 2
168545, 168549, 2
168545, 168541, 2
168545, 168547, 1
168545, 168550, 2
168545, 168543, 2
168549, 168545, 2
168549, 168542, 2
168549, 168541, 2
168549, 168543, 2
168549, 168550, 6
168549, 168551, 2
168549, 168547, 2
168526, 168529, 2
168526, 168528, 2
168526, 168527, 2
168526, 168541, 2
168526, 168533, 2
168526, 168525, 2
168526, 168538, 2
168526, 168531, 2
168514, 168512, 2
168514, 168508, 2
168514, 168513, 2
168514, 168515, 1
168520, 168516, 2
168520, 168522, 2
168520, 168528, 2
168520, 168519, 2
168520, 168518, 2
168520, 168521, 1
168520, 168517, 2
168520, 168515, 2
168547, 168541, 2
168547, 168549, 1
168547, 168545, 2
168547, 168542, 2
168547, 168550, 2
168547, 168543, 2
168532, 168531, 2
168532, 168527, 2
168532, 168535, 2
168532, 168518, 2
168532, 168533, 2
168532, 168538, 2
168532, 168530, 2
168532, 168534, 1
168537, 168538, 2
168537, 168536, 2
168537, 168541, 2
168537, 168518, 2
168537, 168533, 2
168537, 168539, 1
168542, 168544, 6
168542, 168549, 2
168542, 168548, 2
168542, 168546, 2
168542, 168545, 2
168542, 168541, 2
168542, 168543, 4
168542, 168550, 2
168542, 168551, 1
168542, 168547, 2
168512, 168511, 2
168512, 168508, 2
168512, 168513, 1
168512, 168518, 2
168512, 168514, 2
168512, 168517, 2
168512, 168515, 2
168552, 168553, 1
168552, 168551, 2
168509, 168506, 2
168509, 168508, 2
168509, 168510, 1
168509, 168507, 2
168551, 168544, 2
168551, 168542, 2
168551, 168548, 2
168551, 168549, 2
168551, 168553, 2
168551, 168552, 1
168551, 168550, 2
168551, 168541, 2
168551, 168543, 2
168515, 168516, 1
168515, 168522, 2
168515, 168508, 2
168515, 168519, 2
168515, 168518, 2
168515, 168512, 2
168515, 168521, 2
168515, 168514, 2
168515, 168520, 2
168515, 168517, 2
168516, 168522, 2
168516, 168529, 2
168516, 168528, 2
168516, 168519, 2
168516, 168518, 4
168516, 168521, 2
168516, 168520, 1
168516, 168517, 6
168516, 168530, 2
168516, 168515, 2
168527, 168522, 2
168527, 168529, 2
168527, 168532, 2
168527, 168526, 2
168527, 168524, 2
168527, 168531, 1
168527, 168523, 2
168527, 168528, 4
168527, 168518, 2
168527, 168535, 2
168527, 168530, 2
168527, 168534, 2
168541, 168538, 2
168541, 168536, 2
168541, 168545, 2
168541, 168549, 2
168541, 168526, 2
168541, 168537, 2
168541, 168543, 2
168541, 168544, 2
168541, 168548, 2
168541, 168546, 2
168541, 168550, 2
168541, 168518, 2
168541, 168542, 1
168541, 168533, 2
168541, 168547, 2
168541, 168539, 2
168541, 168540, 2
168541, 168551, 2
168518, 168516, 2
168518, 168522, 2
168518, 168508, 2
168518, 168538, 2
168518, 168527, 2
168518, 168541, 2
168518, 168521, 2
168518, 168520, 2
168518, 168537, 2
168518, 168507, 2
168518, 168505, 2
168518, 168528, 2
168518, 168532, 2
168518, 168535, 2
168518, 168512, 2
168518, 168534, 2
168518, 168540, 2
168518, 168530, 2
168518, 168515, 2
168517, 168516, 2
168517, 168511, 2
168517, 168528, 2
168517, 168519, 1
168517, 168512, 2
168517, 168521, 2
168517, 168520, 2
168517, 168515, 2
168506, 168508, 1
168506, 168505, 2
168506, 168528, 2
168506, 168507, 0
168506, 168509, 2
168506, 168510, 2
168546, 168542, 2
168546, 168541, 2
168546, 168548, 1
168546, 168544, 2
168543, 168541, 2
168543, 168542, 2
168543, 168545, 1
168543, 168549, 2
168543, 168550, 2
168543, 168551, 2
168543, 168547, 2
168524, 168529, 2
168524, 168523, 2
168524, 168528, 2
168524, 168527, 2
168524, 168530, 2
168524, 168525, 1
168539, 168541, 2
168539, 168533, 2
168539, 168540, 1
168539, 168537, 2
168539, 168538, 2
168505, 168518, 2
168505, 168506, 1
168505, 168528, 2
168535, 168532, 2
168535, 168531, 2
168535, 168536, 1
168535, 168527, 2
168535, 168518, 2
168535, 168533, 2
168535, 168538, 2
168535, 168534, 2
168534, 168532, 2
168534, 168531, 2
168534, 168527, 2
168534, 168535, 2
168534, 168518, 2
168534, 168533, 2
168534, 168538, 2
168525, 168526, 1
168525, 168529, 2
168525, 168528, 2
168525, 168524, 2
168508, 168506, 2
168508, 168507, 2
168508, 168513, 2
168508, 168518, 2
168508, 168512, 2
168508, 168514, 2
168508, 168509, 0
168508, 168510, 2
168508, 168528, 2
168508, 168515, 2
168519, 168516, 2
168519, 168522, 2
168519, 168521, 2
168519, 168520, 2
168519, 168517, 2
168519, 168515, 2
168521, 168516, 2
168521, 168522, 1
168521, 168519, 2
168521, 168518, 2
168521, 168520, 2
168521, 168517, 2
168521, 168515, 2
168523, 168522, 2
168523, 168524, 1
168523, 168528, 2
168523, 168529, 2
168523, 168527, 2
168523, 168530, 2
168544, 168542, 2
168544, 168541, 2
168544, 168548, 2
168544, 168546, 1
168544, 168551, 2
168548, 168544, 2
168548, 168541, 2
168548, 168551, 2
168548, 168542, 2
168548, 168550, 2
168548, 168546, 2
168531, 168529, 2
168531, 168532, 2
168531, 168528, 2
168531, 168527, 2
168531, 168535, 2
168531, 168526, 2
168531, 168533, 1
168531, 168530, 2
168531, 168534, 2
168533, 168532, 2
168533, 168538, 1
168533, 168536, 2
168533, 168541, 2
168533, 168526, 2
168533, 168537, 2
168533, 168531, 2
168533, 168535, 2
168533, 168539, 2
168533, 168540, 2
168533, 168530, 2
168533, 168534, 2
168550, 168545, 2
168550, 168549, 2
168550, 168548, 2
168550, 168542, 2
168550, 168547, 2
168550, 168541, 2
168550, 168551, 2
168550, 168543, 2
168530, 168516, 2
168530, 168524, 2
168530, 168532, 1
168530, 168531, 2
168530, 168527, 2
168530, 168518, 2
168530, 168533, 2
168530, 168529, 2
168530, 168523, 2
168530, 168538, 2
168522, 168516, 2
168522, 168523, 1
168522, 168528, 2
168522, 168519, 2
168522, 168527, 2
168522, 168518, 2
168522, 168521, 2
168522, 168520, 2
168522, 168515, 2
168529, 168516, 2
168529, 168524, 2
168529, 168531, 2
168529, 168523, 2
168529, 168528, 2
168529, 168527, 2
168529, 168526, 2
168529, 168538, 2
168529, 168530, 1
168529, 168525, 2
168511, 168512, 1
168511, 168510, 2
168511, 168517, 2
168510, 168511, 1
168510, 168506, 2
168510, 168508, 2
168510, 168509, 2
168510, 168507, 2
168507, 168506, 2
168507, 168508, 2
168507, 168528, 2
168507, 168518, 2
168507, 168509, 2
168507, 168510, 2
168553, 168552, 2
168553, 168551, 2
168538, 168529, 2
168538, 168532, 2
168538, 168536, 2
168538, 168541, 1
168538, 168518, 2
168538, 168537, 2
168538, 168528, 2
168538, 168526, 2
168538, 168535, 4
168538, 168533, 2
168538, 168539, 2
168538, 168540, 2
168538, 168530, 2
168538, 168534, 2
168540, 168541, 2
168540, 168518, 2
168540, 168533, 2
168540, 168539, 2
168540, 168538, 2
168528, 168516, 2
168528, 168522, 2
168528, 168508, 2
168528, 168538, 2
168528, 168527, 2
168528, 168526, 2
168528, 168529, 1
168528, 168520, 2
168528, 168524, 2
168528, 168506, 2
168528, 168523, 2
168528, 168505, 2
168528, 168531, 2
168528, 168518, 2
168528, 168507, 2
168528, 168517, 2
168528, 168525, 2
