253792, 253795, 2
253792, 253794, 1
253792, 253793, 8
253792, 253786, 2
253792, 253791, 2
253792, 253798, 2
253796, 253795, 2
253796, 253791, 2
253796, 253793, 2
253796, 253798, 2
253796, 253797, 2
253786, 253792, 1
253786, 253785, 2
253786, 253790, 2
253786, 253787, 3
253786, 253791, 2
253786, 253788, 2
253786, 253789, 2
253787, 253784, 2
253787, 253789, 2
253787, 253786, 2
253787, 253788, 1
253782, 253781, 2
253782, 253783, 1
253782, 253784, 2
253782, 253785, 2
253795, 253792, 2
253795, 253796, 3
253795, 253793, 2
253795, 253797, 1
253795, 253794, 2
253795, 253798, 2
253791, 253792, 2
253791, 253794, 2
253791, 253790, 2
253791, 253786, 2
253791, 253793, 2
253791, 253796, 2
253783, 253781, 2
253783, 253785, 2
253783, 253784, 1
253783, 253782, 2
253781, 253783, 2
253781, 253784, 2
253781, 253785, 1
253781, 253782, 3
253785, 253781, 2
253785, 253783, 2
253785, 253784, 2
253785, 253786, 1
253785, 253782, 2
253794, 253795, 1
253794, 253791, 2
253794, 253793, 2
253794, 253792, 2
253797, 253795, 2
253797, 253796, 2
253797, 253798, 1
253793, 253795, 2
253793, 253794, 2
253793, 253791, 2
253793, 253796, 2
253793, 253792, 2
253798, 253795, 2
253798, 253796, 2
253798, 253797, 2
253798, 253792, 2
253788, 253786, 2
253788, 253789, 1
253788, 253787, 2
253784, 253781, 2
253784, 253783, 2
253784, 253785, 2
253784, 253787, 2
253784, 253782, 2
253790, 253789, 2
253790, 253786, 2
253790, 253791, 1
253789, 253790, 1
253789, 253786, 2
253789, 253787, 2
253789, 253788, 2
