20965, 20966, 2
20965, 20963, 2
20965, 20964, 2
20966, 20965, 2
20966, 20967, 1
20966, 20964, 2
20967, 20966, 2
20967, 20964, 2
20963, 20965, 2
20963, 20964, 1
20964, 20965, 8
20964, 20966, 1
20964, 20967, 2
20964, 20963, 2
