16388, 16390, 1
16388, 16389, 8
16388, 16387, 2
16386, 16384, 2
16386, 16383, 2
16386, 16385, 2
16386, 16387, 1
16389, 16388, 2
16389, 16390, 2
16383, 16384, 0
16383, 16386, 2
16383, 16385, 1
16385, 16384, 2
16385, 16386, 1
16385, 16383, 2
16393, 16390, 2
16393, 16391, 2
16393, 16392, 2
16384, 16386, 2
16384, 16383, 2
16384, 16385, 2
16387, 16388, 1
16387, 16386, 2
16390, 16388, 2
16390, 16392, 1
16390, 16389, 2
16390, 16391, 0
16390, 16393, 2
16392, 16390, 2
16392, 16391, 2
16392, 16393, 1
16391, 16390, 2
16391, 16392, 2
16391, 16393, 2
