197203, 197202, 2
197203, 197201, 2
197201, 197203, 1
197201, 197202, 8
197201, 197200, 2
197201, 197199, 2
197202, 197203, 2
197202, 197201, 2
197202, 197200, 2
197202, 197199, 2
197200, 197201, 1
197200, 197202, 2
197200, 197199, 2
197199, 197201, 2
197199, 197202, 2
197199, 197200, 1
