126227, 126225, 2
126227, 126238, 2
126227, 126239, 2
126227, 126229, 2
126227, 126244, 2
126227, 126230, 2
126227, 126224, 4
126227, 126237, 2
126227, 126233, 2
126227, 126240, 2
126227, 126236, 2
126227, 126232, 2
126227, 126234, 2
126227, 126241, 2
126227, 126221, 2
126227, 126226, 6
126227, 126222, 2
126227, 126223, 2
126227, 126228, 2
126227, 126231, 2
126227, 126235, 1
126239, 126238, 2
126239, 126227, 2
126239, 126245, 2
126239, 126230, 2
126239, 126237, 2
126239, 126242, 2
126239, 126236, 2
126239, 126232, 2
126239, 126234, 2
126239, 126243, 2
126239, 126221, 2
126239, 126241, 3
126239, 126246, 2
126239, 126235, 2
126244, 126238, 2
126244, 126227, 2
126244, 126245, 1
126244, 126237, 2
126244, 126248, 2
126244, 126240, 2
126244, 126236, 2
126244, 126242, 2
126244, 126234, 2
126244, 126243, 2
126244, 126249, 2
126244, 126252, 2
126244, 126247, 2
126244, 126246, 2
126251, 126245, 2
126251, 126249, 2
126251, 126252, 2
126251, 126254, 2
126251, 126253, 2
126251, 126246, 2
126251, 126250, 2
126253, 126254, 0
126253, 126237, 2
126253, 126251, 2
126253, 126248, 2
126253, 126252, 2
126226, 126225, 2
126226, 126227, 2
126226, 126232, 1
126226, 126241, 2
126226, 126221, 2
126226, 126224, 2
126226, 126230, 8
126226, 126222, 2
126226, 126223, 2
126226, 126238, 2
126226, 126235, 2
126247, 126238, 2
126247, 126234, 2
126247, 126243, 2
126247, 126249, 1
126247, 126244, 2
126247, 126245, 2
126247, 126246, 2
126247, 126240, 2
126240, 126238, 2
126240, 126227, 2
126240, 126245, 2
126240, 126244, 2
126240, 126224, 2
126240, 126237, 2
126240, 126248, 2
126240, 126231, 2
126240, 126236, 2
126240, 126232, 2
126240, 126234, 2
126240, 126247, 2
126240, 126222, 2
126240, 126252, 2
126240, 126228, 2
126240, 126246, 2
126236, 126238, 1
126236, 126227, 2
126236, 126239, 2
126236, 126244, 2
126236, 126230, 2
126236, 126224, 2
126236, 126237, 3
126236, 126232, 2
126236, 126248, 2
126236, 126240, 2
126236, 126242, 2
126236, 126234, 2
126236, 126245, 2
126236, 126233, 2
126236, 126252, 2
126236, 126241, 2
126236, 126228, 2
126236, 126231, 2
126236, 126235, 2
126242, 126238, 2
126242, 126236, 2
126242, 126239, 2
126242, 126243, 2
126242, 126244, 2
126242, 126241, 2
126242, 126245, 2
126242, 126248, 2
126234, 126238, 2
126234, 126227, 2
126234, 126239, 2
126234, 126244, 2
126234, 126237, 2
126234, 126247, 2
126234, 126240, 2
126234, 126236, 2
126234, 126232, 2
126234, 126248, 2
126234, 126233, 2
126234, 126222, 2
126234, 126241, 2
126234, 126231, 2
126234, 126235, 2
126248, 126238, 2
126248, 126236, 2
126248, 126242, 2
126248, 126234, 2
126248, 126243, 2
126248, 126244, 2
126248, 126253, 2
126248, 126252, 2
126248, 126237, 2
126248, 126245, 2
126248, 126240, 2
126233, 126227, 2
126233, 126232, 2
126233, 126234, 1
126233, 126236, 2
126233, 126237, 2
126233, 126231, 2
126233, 126235, 2
126252, 126238, 2
126252, 126245, 2
126252, 126244, 2
126252, 126253, 1
126252, 126237, 2
126252, 126248, 2
126252, 126240, 2
126252, 126236, 2
126252, 126249, 2
126252, 126254, 2
126252, 126251, 2
126252, 126250, 2
126241, 126238, 2
126241, 126227, 2
126241, 126239, 2
126241, 126232, 2
126241, 126236, 2
126241, 126242, 8
126241, 126234, 2
126241, 126243, 1
126241, 126221, 2
126241, 126226, 2
126241, 126246, 2
126241, 126235, 2
126246, 126238, 2
126246, 126239, 2
126246, 126244, 2
126246, 126247, 3
126246, 126240, 2
126246, 126232, 2
126246, 126249, 2
126246, 126243, 2
126246, 126254, 2
126246, 126241, 2
126246, 126251, 2
126246, 126245, 2
126235, 126227, 2
126235, 126234, 2
126235, 126239, 2
126235, 126241, 2
126235, 126233, 2
126235, 126230, 2
126235, 126236, 1
126235, 126226, 2
126235, 126228, 2
126235, 126232, 2
126235, 126231, 2
126225, 126227, 2
126225, 126226, 2
126225, 126228, 1
126225, 126221, 2
126225, 126224, 2
126245, 126239, 2
126245, 126244, 2
126245, 126237, 2
126245, 126248, 4
126245, 126240, 2
126245, 126236, 2
126245, 126242, 2
126245, 126249, 2
126245, 126243, 2
126245, 126252, 1
126245, 126247, 2
126245, 126251, 2
126245, 126246, 6
126245, 126250, 2
126229, 126227, 2
126229, 126228, 2
126229, 126231, 2
126230, 126238, 2
126230, 126227, 2
126230, 126232, 2
126230, 126239, 2
126230, 126221, 2
126230, 126226, 2
126230, 126236, 2
126230, 126235, 2
126224, 126225, 1
126224, 126227, 2
126224, 126221, 2
126224, 126226, 2
126224, 126222, 2
126224, 126236, 2
126224, 126223, 2
126224, 126228, 2
126224, 126237, 2
126224, 126240, 2
126237, 126238, 2
126237, 126227, 2
126237, 126239, 2
126237, 126244, 2
126237, 126224, 2
126237, 126253, 2
126237, 126248, 2
126237, 126240, 2
126237, 126236, 2
126237, 126234, 2
126237, 126245, 2
126237, 126233, 2
126237, 126222, 2
126237, 126252, 2
126237, 126223, 2
126237, 126228, 2
126237, 126231, 2
126250, 126252, 2
126250, 126245, 2
126250, 126251, 2
126250, 126249, 2
126220, 126221, 1
126232, 126238, 2
126232, 126227, 2
126232, 126239, 2
126232, 126230, 2
126232, 126233, 2
126232, 126240, 2
126232, 126236, 2
126232, 126234, 2
126232, 126221, 2
126232, 126226, 2
126232, 126241, 2
126232, 126246, 2
126232, 126235, 2
126249, 126238, 2
126249, 126245, 2
126249, 126243, 2
126249, 126244, 2
126249, 126252, 2
126249, 126251, 1
126249, 126246, 2
126249, 126247, 2
126249, 126250, 8
126243, 126238, 2
126243, 126242, 2
126243, 126239, 2
126243, 126247, 2
126243, 126244, 2
126243, 126245, 2
126243, 126241, 2
126243, 126249, 2
126243, 126248, 2
126243, 126246, 2
126221, 126225, 2
126221, 126227, 1
126221, 126239, 2
126221, 126230, 2
126221, 126224, 2
126221, 126220, 2
126221, 126223, 2
126221, 126232, 2
126221, 126226, 2
126221, 126222, 3
126221, 126241, 2
126221, 126228, 2
126221, 126231, 2
126254, 126253, 2
126254, 126251, 2
126254, 126246, 2
126254, 126252, 2
126222, 126227, 2
126222, 126234, 2
126222, 126221, 2
126222, 126226, 2
126222, 126224, 2
126222, 126237, 2
126222, 126223, 3
126222, 126228, 2
126222, 126231, 2
126222, 126240, 2
126223, 126227, 2
126223, 126221, 2
126223, 126222, 2
126223, 126224, 2
126223, 126237, 2
126223, 126226, 2
126228, 126225, 2
126228, 126227, 2
126228, 126222, 2
126228, 126229, 8
126228, 126221, 2
126228, 126236, 2
126228, 126224, 2
126228, 126237, 2
126228, 126240, 2
126228, 126231, 1
126228, 126235, 2
126231, 126238, 2
126231, 126227, 2
126231, 126229, 2
126231, 126237, 2
126231, 126240, 2
126231, 126236, 2
126231, 126234, 2
126231, 126221, 2
126231, 126233, 1
126231, 126222, 2
126231, 126228, 2
126231, 126235, 2
126238, 126227, 2
126238, 126239, 6
126238, 126244, 1
126238, 126230, 2
126238, 126237, 2
126238, 126232, 2
126238, 126248, 2
126238, 126240, 4
126238, 126236, 2
126238, 126242, 2
126238, 126234, 2
126238, 126247, 2
126238, 126249, 2
126238, 126226, 2
126238, 126252, 2
126238, 126241, 2
126238, 126231, 2
126238, 126246, 2
126238, 126243, 2
