259671, 259668, 2
259671, 259670, 2
259671, 259672, 1
259665, 259667, 1
259665, 259666, 3
259669, 259668, 2
259669, 259667, 2
259669, 259670, 2
259668, 259667, 2
259668, 259671, 2
259668, 259670, 1
259668, 259669, 3
259667, 259668, 1
259667, 259665, 2
259667, 259666, 2
259667, 259669, 2
259666, 259667, 2
259666, 259665, 2
259670, 259668, 2
259670, 259671, 1
259670, 259669, 2
259672, 259671, 2
