251504, 251505, 3
251504, 251502, 2
251504, 251503, 2
251500, 251501, 2
251500, 251499, 2
251499, 251501, 1
251499, 251498, 2
251499, 251500, 3
251499, 251496, 2
251499, 251497, 2
251497, 251498, 2
251497, 251499, 2
251497, 251496, 2
251505, 251504, 2
251501, 251500, 2
251501, 251499, 2
251501, 251502, 1
251498, 251499, 1
251498, 251496, 2
251498, 251497, 2
251496, 251498, 1
251496, 251499, 2
251496, 251497, 0
251502, 251501, 2
251502, 251504, 1
251502, 251503, 3
251503, 251504, 2
251503, 251502, 2
