333082, 333083, 1
333082, 333081, 2
333087, 333083, 2
333087, 333088, 2
333087, 333086, 2
333090, 333091, 1
333090, 333089, 2
333085, 333083, 2
333085, 333086, 1
333085, 333084, 2
333081, 333083, 2
333081, 333082, 1
333083, 333087, 2
333083, 333084, 1
333083, 333082, 2
333083, 333085, 2
333083, 333081, 2
333091, 333090, 2
333088, 333087, 2
333088, 333089, 1
333088, 333086, 2
333089, 333088, 2
333089, 333090, 1
333086, 333087, 8
333086, 333088, 1
333086, 333085, 2
333084, 333083, 2
333084, 333085, 1
