334693, 334694, 1
334693, 334692, 2
334691, 334689, 2
334691, 334690, 2
334691, 334692, 1
334690, 334689, 2
334690, 334691, 2
334690, 334692, 2
334695, 334694, 2
334684, 334682, 2
334684, 334685, 1
334684, 334683, 2
334694, 334693, 2
334694, 334695, 1
334683, 334682, 2
334683, 334685, 2
334683, 334684, 1
334685, 334683, 2
334685, 334682, 2
334685, 334687, 2
334685, 334686, 1
334685, 334684, 2
334682, 334681, 2
334682, 334683, 1
334682, 334685, 2
334682, 334684, 2
334681, 334682, 1
334689, 334691, 1
334689, 334690, 8
334689, 334688, 2
334687, 334685, 2
334687, 334688, 1
334687, 334686, 2
334688, 334689, 1
334688, 334687, 2
334692, 334693, 1
334692, 334691, 2
334692, 334690, 2
334686, 334687, 1
334686, 334685, 2
