293969, 293967, 2
293969, 293966, 2
293969, 293968, 2
293962, 293965, 2
293962, 293961, 2
293962, 293964, 2
293962, 293963, 1
293961, 293965, 2
293961, 293962, 1
293961, 293963, 2
293964, 293965, 8
293964, 293966, 1
293964, 293962, 2
293964, 293963, 2
293963, 293964, 1
293963, 293962, 2
293963, 293961, 2
293967, 293969, 2
293967, 293965, 2
293967, 293966, 2
293967, 293968, 1
293965, 293962, 2
293965, 293967, 2
293965, 293964, 2
293965, 293966, 2
293965, 293961, 2
293966, 293969, 1
293966, 293968, 2
293966, 293965, 2
293966, 293964, 2
293966, 293967, 8
293968, 293969, 2
293968, 293966, 2
293968, 293967, 2
