161919, 161917, 2
161919, 161906, 2
161919, 161914, 2
161919, 161918, 2
161919, 161907, 2
161919, 161905, 2
161906, 161911, 2
161906, 161915, 2
161906, 161919, 2
161906, 161909, 2
161906, 161908, 2
161906, 161914, 2
161906, 161907, 1
161906, 161905, 2
161914, 161917, 3
161914, 161919, 1
161914, 161906, 2
161914, 161907, 2
161914, 161918, 2
161914, 161913, 2
161914, 161905, 2
161912, 161911, 2
161912, 161915, 3
161912, 161916, 1
161912, 161907, 2
161918, 161917, 2
161918, 161919, 2
161918, 161914, 2
161918, 161907, 2
161916, 161912, 2
161916, 161915, 2
161916, 161907, 2
161905, 161911, 2
161905, 161919, 2
161905, 161906, 1
161905, 161908, 2
161905, 161907, 2
161905, 161909, 2
161905, 161914, 2
161911, 161912, 1
161911, 161915, 2
161911, 161906, 2
161911, 161907, 2
161911, 161905, 2
161917, 161910, 2
161917, 161919, 2
161917, 161914, 2
161917, 161908, 2
161917, 161918, 1
161917, 161909, 2
161917, 161913, 2
161917, 161907, 2
161915, 161911, 2
161915, 161912, 2
161915, 161906, 2
161915, 161916, 2
161915, 161907, 2
161908, 161905, 2
161908, 161917, 2
161908, 161909, 1
161908, 161907, 2
161908, 161906, 2
161910, 161917, 2
161910, 161909, 2
161910, 161913, 1
161910, 161907, 2
161907, 161919, 2
161907, 161906, 2
161907, 161912, 2
161907, 161918, 2
161907, 161909, 2
161907, 161916, 2
161907, 161905, 2
161907, 161911, 6
161907, 161917, 2
161907, 161915, 2
161907, 161908, 4
161907, 161910, 2
161907, 161913, 2
161907, 161914, 2
161913, 161917, 2
161913, 161914, 1
161913, 161907, 2
161913, 161910, 2
161909, 161917, 2
161909, 161910, 1
161909, 161906, 2
161909, 161908, 2
161909, 161907, 2
161909, 161905, 2
