341277, 341278, 1
341277, 341276, 2
341277, 341279, 2
341275, 341276, 1
341275, 341274, 2
341278, 341276, 2
341278, 341279, 1
341278, 341277, 2
341272, 341273, 0
341272, 341274, 1
341273, 341272, 2
341273, 341274, 2
341280, 341279, 2
341279, 341278, 2
341279, 341276, 2
341279, 341280, 1
341279, 341277, 2
341276, 341278, 2
341276, 341275, 2
341276, 341279, 2
341276, 341277, 1
341274, 341272, 2
341274, 341273, 2
341274, 341275, 1
