301948, 301945, 2
301948, 301947, 2
301948, 301946, 2
301948, 301949, 6
301948, 301950, 1
301946, 301948, 1
301946, 301950, 2
301946, 301945, 6
301946, 301947, 8
301946, 301944, 2
301946, 301949, 2
301950, 301948, 2
301950, 301947, 2
301950, 301946, 2
301950, 301949, 2
301947, 301948, 2
301947, 301946, 2
301947, 301950, 2
301947, 301944, 2
301947, 301949, 2
301947, 301945, 2
301943, 301944, 1
301943, 301949, 2
301943, 301945, 2
301944, 301947, 2
301944, 301943, 2
301944, 301946, 1
301944, 301949, 2
301944, 301945, 2
301949, 301948, 2
301949, 301946, 2
301949, 301950, 2
301949, 301944, 2
301949, 301947, 2
301949, 301943, 2
301949, 301945, 2
301945, 301948, 2
301945, 301946, 2
301945, 301947, 2
301945, 301943, 2
301945, 301944, 2
301945, 301949, 2
