293888, 293889, 1
293888, 293887, 2
293885, 293887, 2
293885, 293883, 2
293885, 293886, 1
293885, 293884, 2
293886, 293885, 2
293886, 293883, 2
293886, 293887, 2
293886, 293884, 2
293882, 293881, 2
293882, 293883, 1
293884, 293881, 2
293884, 293887, 2
293884, 293885, 1
293884, 293883, 2
293884, 293886, 2
293881, 293883, 2
293881, 293882, 1
293881, 293884, 2
293889, 293888, 2
293889, 293883, 2
293889, 293887, 2
293887, 293888, 1
293887, 293889, 2
293887, 293886, 2
293887, 293884, 2
293887, 293885, 2
293887, 293883, 2
293883, 293889, 2
293883, 293886, 2
293883, 293882, 2
293883, 293884, 8
293883, 293881, 2
293883, 293885, 2
293883, 293887, 1
