186532, 186534, 2
186532, 186530, 2
186532, 186531, 2
186532, 186533, 1
186534, 186532, 2
186534, 186533, 2
186530, 186532, 2
186530, 186531, 1
186531, 186532, 1
186531, 186530, 2
186533, 186532, 2
186533, 186534, 1
