17767, 17765, 2
17767, 17766, 2
17767, 17773, 2
17767, 17768, 1
17774, 17771, 2
17774, 17773, 2
17774, 17770, 2
17774, 17772, 2
17774, 17777, 2
17774, 17775, 1
17771, 17769, 2
17771, 17770, 2
17771, 17772, 2
17771, 17774, 2
17771, 17773, 2
17776, 17777, 2
17776, 17775, 2
17764, 17763, 2
17764, 17765, 1
17770, 17769, 2
17770, 17771, 2
17770, 17774, 2
17766, 17767, 1
17766, 17765, 2
17772, 17771, 2
17772, 17774, 2
17772, 17773, 1
17777, 17776, 2
17777, 17779, 1
17777, 17778, 8
17777, 17774, 2
17777, 17775, 2
17775, 17776, 8
17775, 17774, 2
17775, 17777, 1
17768, 17769, 1
17768, 17767, 2
17769, 17771, 1
17769, 17770, 8
17769, 17773, 2
17769, 17768, 2
17779, 17778, 2
17779, 17777, 2
17779, 17780, 1
17778, 17779, 2
17778, 17777, 2
17773, 17769, 2
17773, 17771, 2
17773, 17774, 1
17773, 17767, 2
17773, 17763, 2
17773, 17765, 2
17773, 17772, 2
17763, 17764, 1
17763, 17773, 2
17763, 17765, 2
17765, 17763, 2
17765, 17764, 2
17765, 17766, 3
17765, 17773, 2
17765, 17767, 2
17780, 17779, 2
