61667, 61670, 2
61667, 61669, 2
61667, 61668, 2
61667, 61666, 2
61670, 61667, 2
61670, 61669, 2
61670, 61674, 2
61670, 61671, 1
61670, 61672, 2
61668, 61667, 2
61668, 61669, 1
61668, 61666, 2
61666, 61667, 0
61666, 61669, 2
61666, 61668, 1
61672, 61669, 2
61672, 61670, 2
61672, 61673, 1
61672, 61671, 2
61672, 61674, 2
61674, 61669, 2
61674, 61670, 2
61674, 61673, 2
61674, 61672, 2
61669, 61667, 2
61669, 61670, 0
61669, 61668, 2
61669, 61666, 2
61669, 61672, 2
61669, 61671, 2
61669, 61674, 2
61671, 61669, 2
61671, 61670, 2
61671, 61672, 1
61673, 61674, 1
61673, 61672, 2
