71998, 71997, 2
71998, 72000, 2
71998, 71999, 2
71998, 71996, 2
72000, 71998, 2
72000, 71999, 2
71999, 71998, 2
71999, 71997, 2
71999, 72000, 1
71999, 71996, 2
71995, 71996, 1
71997, 71998, 8
71997, 71999, 1
71997, 71996, 2
71996, 71998, 2
71996, 71997, 1
71996, 71999, 2
71996, 71995, 2
