124133, 124134, 8
124133, 124136, 2
124133, 124135, 1
124133, 124132, 2
124123, 124124, 1
124123, 124122, 2
124123, 124129, 2
124123, 124121, 2
124123, 124140, 2
124123, 124126, 2
124121, 124129, 2
124121, 124122, 3
124121, 124123, 1
124137, 124138, 1
124137, 124136, 2
124139, 124141, 1
124139, 124138, 2
124139, 124140, 2
124139, 124142, 2
124139, 124129, 2
124127, 124124, 2
124127, 124128, 1
124127, 124126, 2
124127, 124125, 2
124127, 124140, 2
124127, 124130, 2
124127, 124129, 2
124127, 124131, 2
124136, 124134, 2
124136, 124133, 2
124136, 124135, 2
124136, 124129, 2
124136, 124137, 1
124136, 124140, 2
124144, 124145, 8
124144, 124146, 1
124144, 124147, 2
124144, 124143, 2
124138, 124129, 2
124138, 124137, 2
124138, 124139, 1
124138, 124140, 2
124145, 124144, 2
124145, 124146, 2
124145, 124147, 2
124129, 124130, 2
124129, 124123, 2
124129, 124131, 2
124129, 124121, 2
124129, 124140, 2
124129, 124139, 2
124129, 124136, 2
124129, 124127, 2
124129, 124138, 2
124129, 124148, 2
124129, 124143, 2
124129, 124128, 2
124129, 124141, 2
124129, 124147, 2
124129, 124132, 2
124143, 124144, 1
124143, 124141, 2
124143, 124129, 2
124143, 124146, 2
124143, 124140, 2
124143, 124142, 2
124142, 124141, 2
124142, 124143, 2
124142, 124140, 2
124142, 124139, 2
124141, 124129, 2
124141, 124143, 1
124141, 124140, 6
124141, 124139, 2
124141, 124142, 3
124147, 124144, 2
124147, 124148, 1
124147, 124146, 2
124147, 124129, 2
124147, 124145, 2
124147, 124140, 2
124124, 124126, 1
124124, 124125, 8
124124, 124127, 2
124124, 124123, 2
124125, 124126, 2
124125, 124124, 2
124125, 124127, 2
124131, 124132, 2
124131, 124129, 2
124131, 124122, 2
124131, 124130, 2
124131, 124127, 2
124131, 124128, 2
124140, 124123, 2
124140, 124141, 2
124140, 124139, 2
124140, 124136, 2
124140, 124127, 2
124140, 124138, 2
124140, 124148, 2
124140, 124129, 2
124140, 124143, 2
124140, 124130, 2
124140, 124142, 2
124140, 124147, 2
124140, 124132, 2
124128, 124129, 2
124128, 124131, 2
124128, 124130, 1
124128, 124127, 2
124134, 124133, 2
124134, 124135, 2
124134, 124136, 2
124148, 124129, 2
124148, 124140, 2
124148, 124147, 2
124135, 124134, 2
124135, 124136, 1
124135, 124133, 2
124135, 124132, 2
124146, 124144, 2
124146, 124145, 2
124146, 124147, 1
124146, 124143, 2
124122, 124131, 2
124122, 124121, 2
124122, 124123, 2
124130, 124131, 3
124130, 124129, 6
124130, 124140, 2
124130, 124132, 1
124130, 124127, 2
124130, 124128, 2
124126, 124124, 2
124126, 124127, 1
124126, 124123, 2
124126, 124125, 2
124132, 124131, 2
124132, 124135, 2
124132, 124133, 1
124132, 124129, 2
124132, 124140, 2
124132, 124130, 2
