16481, 16482, 2
16481, 16480, 2
16473, 16474, 3
16473, 16476, 1
16476, 16473, 2
16476, 16477, 1
16476, 16475, 2
16479, 16478, 2
16479, 16482, 2
16479, 16480, 1
16475, 16474, 2
16475, 16476, 2
16474, 16473, 2
16474, 16475, 1
16483, 16482, 2
16483, 16484, 3
16477, 16478, 1
16477, 16476, 2
16478, 16477, 2
16478, 16479, 1
16482, 16481, 2
16482, 16483, 1
16482, 16479, 2
16482, 16484, 2
16482, 16480, 2
16484, 16483, 2
16484, 16482, 2
16480, 16481, 3
16480, 16482, 1
16480, 16479, 2
