340165, 340164, 2
340163, 340164, 1
340163, 340162, 2
340163, 340159, 2
340163, 340160, 2
340163, 340161, 2
340159, 340163, 1
340159, 340162, 2
340159, 340160, 3
340159, 340161, 0
340164, 340165, 3
340164, 340163, 2
340161, 340163, 2
340161, 340159, 2
340161, 340162, 2
340161, 340160, 2
340162, 340163, 2
340162, 340159, 2
340162, 340160, 2
340162, 340161, 2
340160, 340163, 2
340160, 340159, 2
340160, 340162, 0
340160, 340161, 2
