197563, 197564, 1
197563, 197565, 2
197563, 197562, 2
197561, 197560, 2
197561, 197559, 2
197561, 197562, 1
197562, 197563, 1
197562, 197561, 2
197564, 197563, 2
197564, 197565, 1
197559, 197560, 3
197559, 197561, 1
197560, 197561, 2
197560, 197559, 2
197565, 197564, 2
197565, 197563, 2
