197134, 197136, 2
197134, 197133, 2
197134, 197135, 1
197135, 197134, 2
197135, 197136, 2
197135, 197133, 2
197138, 197136, 2
197138, 197137, 2
197136, 197138, 2
197136, 197133, 2
197136, 197135, 2
197136, 197137, 1
197136, 197134, 2
197133, 197134, 0
197133, 197136, 1
197133, 197135, 2
197137, 197138, 1
197137, 197136, 2
