186120, 186119, 2
186120, 186121, 1
186102, 186107, 2
186102, 186103, 1
186102, 186101, 2
186102, 186112, 2
186095, 186097, 2
186095, 186096, 2
186095, 186094, 2
186105, 186107, 2
186105, 186108, 2
186105, 186104, 2
186105, 186101, 2
186105, 186106, 1
186098, 186097, 2
186098, 186101, 2
186098, 186099, 8
186098, 186100, 1
186113, 186111, 2
186113, 186118, 2
186113, 186115, 2
186113, 186112, 2
186113, 186114, 1
186119, 186118, 2
186119, 186120, 1
186119, 186117, 2
186119, 186112, 2
186119, 186121, 2
186116, 186118, 2
186116, 186117, 2
186116, 186115, 2
186100, 186097, 2
186100, 186096, 2
186100, 186101, 1
186100, 186099, 2
186100, 186098, 2
186097, 186094, 2
186097, 186096, 2
186097, 186098, 1
186097, 186107, 2
186097, 186100, 2
186097, 186099, 2
186097, 186095, 2
186103, 186107, 2
186103, 186101, 2
186103, 186104, 1
186103, 186102, 2
186103, 186112, 2
186106, 186107, 0
186106, 186112, 2
186106, 186105, 2
186106, 186108, 1
186106, 186110, 2
186094, 186097, 1
186094, 186096, 0
186094, 186095, 3
186104, 186107, 2
186104, 186103, 2
186104, 186105, 1
186104, 186112, 2
186101, 186102, 1
186101, 186098, 2
186101, 186107, 2
186101, 186103, 2
186101, 186105, 2
186101, 186096, 2
186101, 186100, 2
186101, 186112, 2
186115, 186118, 2
186115, 186113, 2
186115, 186117, 1
186115, 186112, 2
186115, 186116, 8
186115, 186114, 2
186099, 186097, 2
186099, 186100, 2
186099, 186098, 2
186121, 186118, 2
186121, 186120, 2
186121, 186119, 2
186121, 186122, 1
186107, 186104, 2
186107, 186101, 2
186107, 186105, 2
186107, 186096, 2
186107, 186102, 2
186107, 186110, 2
186107, 186103, 2
186107, 186097, 2
186107, 186112, 2
186107, 186109, 2
186107, 186106, 2
186107, 186108, 2
186118, 186122, 2
186118, 186117, 2
186118, 186115, 2
186118, 186116, 2
186118, 186113, 2
186118, 186119, 2
186118, 186112, 2
186118, 186121, 2
186122, 186118, 2
186122, 186121, 2
186117, 186116, 2
186117, 186118, 0
186117, 186119, 1
186117, 186115, 2
186117, 186112, 2
186112, 186104, 2
186112, 186115, 2
186112, 186101, 2
186112, 186119, 2
186112, 186107, 2
186112, 186118, 2
186112, 186113, 2
186112, 186117, 2
186112, 186110, 2
186112, 186102, 2
186112, 186111, 2
186112, 186103, 2
186112, 186106, 2
186108, 186106, 2
186108, 186110, 1
186108, 186107, 2
186108, 186109, 3
186108, 186096, 2
186108, 186105, 2
186111, 186113, 1
186111, 186112, 0
186111, 186110, 2
186110, 186107, 2
186110, 186108, 2
186110, 186112, 2
186110, 186111, 1
186110, 186109, 2
186110, 186106, 2
186110, 186096, 2
186109, 186107, 2
186109, 186108, 2
186109, 186110, 2
186096, 186107, 2
186096, 186101, 2
186096, 186100, 2
186096, 186097, 2
186096, 186110, 2
186096, 186108, 2
186096, 186094, 2
186096, 186095, 2
186114, 186113, 2
186114, 186115, 1
