340081, 340079, 2
340081, 340080, 2
340077, 340078, 1
340077, 340076, 2
340077, 340075, 2
340079, 340081, 1
340079, 340078, 2
340079, 340080, 3
340078, 340077, 2
340078, 340079, 1
340076, 340075, 2
340076, 340077, 2
340080, 340081, 2
340080, 340079, 2
340075, 340076, 3
340075, 340077, 1
