130683, 130684, 1
130683, 130686, 2
130684, 130683, 2
130684, 130686, 2
130684, 130685, 1
130686, 130683, 2
130686, 130684, 2
130686, 130687, 1
130686, 130685, 2
130687, 130686, 2
130685, 130684, 2
130685, 130686, 1
