341092, 341095, 2
341092, 341094, 2
341092, 341093, 1
341098, 341095, 2
341098, 341097, 2
341098, 341100, 1
341098, 341099, 3
341098, 341096, 2
341093, 341092, 2
341093, 341094, 1
341097, 341095, 2
341097, 341098, 2
341097, 341096, 2
341095, 341097, 8
341095, 341092, 2
341095, 341094, 2
341095, 341098, 1
341095, 341096, 3
341094, 341095, 1
341094, 341092, 2
341094, 341093, 2
341100, 341098, 2
341100, 341099, 2
341099, 341100, 2
341099, 341098, 2
341096, 341095, 2
341096, 341098, 2
341096, 341097, 2
