196815, 196816, 2
196815, 196811, 2
196815, 196810, 2
196815, 196814, 2
196815, 196812, 2
196819, 196818, 2
196819, 196821, 2
196819, 196817, 2
196819, 196820, 2
196813, 196816, 2
196813, 196805, 2
196813, 196812, 2
196813, 196814, 1
196813, 196810, 2
196810, 196815, 2
196810, 196807, 2
196810, 196813, 2
196810, 196809, 2
196810, 196814, 2
196810, 196811, 2
196810, 196812, 2
196803, 196804, 1
196830, 196828, 2
196830, 196831, 1
196830, 196825, 2
196830, 196833, 2
196830, 196829, 2
196830, 196827, 2
196830, 196834, 2
196817, 196816, 2
196817, 196818, 0
196817, 196819, 2
196817, 196820, 1
196817, 196821, 2
196833, 196828, 2
196833, 196830, 2
196833, 196835, 2
196833, 196834, 1
196833, 196832, 2
196833, 196829, 2
196833, 196831, 2
196833, 196827, 2
196825, 196828, 2
196825, 196830, 2
196825, 196823, 2
196825, 196826, 2
196825, 196824, 2
196825, 196832, 2
196825, 196831, 2
196825, 196827, 2
196812, 196816, 2
196812, 196815, 2
196812, 196813, 1
196812, 196810, 2
196812, 196814, 2
196812, 196811, 2
196811, 196815, 2
196811, 196814, 2
196811, 196810, 2
196811, 196809, 2
196811, 196812, 1
196834, 196830, 2
196834, 196831, 2
196834, 196832, 2
196834, 196833, 2
196834, 196829, 2
196834, 196835, 2
196834, 196827, 2
196828, 196830, 2
196828, 196823, 2
196828, 196825, 2
196828, 196824, 2
196828, 196832, 2
196828, 196833, 2
196828, 196829, 1
196828, 196831, 2
196828, 196827, 2
196808, 196805, 2
196808, 196807, 2
196808, 196806, 2
196808, 196809, 1
196823, 196828, 2
196823, 196822, 2
196823, 196825, 2
196823, 196826, 2
196823, 196824, 1
196827, 196828, 2
196827, 196830, 2
196827, 196831, 2
196827, 196829, 2
196827, 196824, 2
196827, 196833, 2
196827, 196825, 2
196827, 196826, 2
196827, 196834, 2
196806, 196805, 2
196806, 196808, 1
196806, 196807, 3
196814, 196816, 1
196814, 196815, 3
196814, 196813, 2
196814, 196810, 2
196814, 196811, 2
196814, 196812, 2
196809, 196808, 2
196809, 196807, 2
196809, 196810, 3
196809, 196811, 1
196805, 196808, 2
196805, 196807, 2
196805, 196813, 2
196805, 196806, 1
196805, 196804, 2
196818, 196819, 1
196818, 196817, 2
196836, 196835, 2
196821, 196822, 1
196821, 196819, 2
196821, 196817, 2
196821, 196820, 2
196835, 196832, 2
196835, 196833, 2
196835, 196834, 2
196835, 196836, 1
196835, 196831, 2
196826, 196823, 2
196826, 196825, 2
196826, 196824, 2
196826, 196827, 1
196816, 196815, 2
196816, 196813, 2
196816, 196817, 1
196816, 196814, 2
196816, 196812, 2
196822, 196823, 1
196822, 196821, 2
196807, 196805, 2
196807, 196808, 2
196807, 196809, 2
196807, 196810, 2
196807, 196806, 2
196820, 196821, 1
196820, 196819, 2
196820, 196817, 2
196824, 196828, 1
196824, 196823, 2
196824, 196825, 3
196824, 196827, 2
196824, 196826, 0
196832, 196828, 2
196832, 196835, 2
196832, 196834, 2
196832, 196833, 2
196832, 196825, 2
196832, 196831, 2
196829, 196828, 2
196829, 196830, 1
196829, 196833, 2
196829, 196834, 2
196829, 196827, 2
196831, 196828, 2
196831, 196830, 2
196831, 196835, 1
196831, 196834, 2
196831, 196832, 3
196831, 196833, 0
196831, 196825, 2
196831, 196827, 2
196804, 196805, 1
196804, 196803, 2
