251599, 251598, 2
251599, 251600, 1
251599, 251597, 2
251599, 251601, 2
251598, 251599, 2
251598, 251597, 2
251595, 251596, 1
251595, 251597, 2
251602, 251603, 1
251602, 251600, 2
251602, 251601, 2
251596, 251595, 2
251596, 251597, 1
251600, 251599, 2
251600, 251602, 2
251600, 251601, 1
251604, 251603, 2
251603, 251604, 1
251603, 251602, 2
251597, 251599, 1
251597, 251595, 2
251597, 251596, 2
251597, 251598, 0
251601, 251599, 2
251601, 251600, 2
251601, 251602, 1
