22014, 22015, 1
22014, 22012, 2
22014, 22013, 2
22012, 22011, 2
22012, 22014, 1
22012, 22015, 2
22012, 22010, 2
22012, 22013, 8
22016, 22015, 2
22010, 22011, 1
22010, 22012, 2
22010, 22013, 2
22011, 22012, 1
22011, 22013, 2
22011, 22010, 2
22015, 22014, 2
22015, 22012, 2
22015, 22016, 1
22015, 22013, 2
22013, 22011, 2
22013, 22014, 2
22013, 22012, 2
22013, 22015, 2
22013, 22010, 2
