184741, 184740, 2
184741, 184742, 1
184735, 184736, 1
184739, 184738, 2
184739, 184737, 2
184739, 184740, 1
184744, 184743, 2
184744, 184745, 1
184737, 184738, 8
184737, 184739, 1
184737, 184740, 2
184737, 184736, 2
184743, 184744, 1
184743, 184742, 2
184742, 184741, 2
184742, 184743, 1
184745, 184744, 2
184738, 184739, 2
184738, 184737, 2
184738, 184740, 2
184740, 184741, 1
184740, 184738, 2
184740, 184739, 2
184740, 184737, 2
184736, 184735, 2
184736, 184737, 1
