68317, 68311, 2
68317, 68314, 2
68317, 68330, 2
68317, 68319, 3
68317, 68321, 2
68317, 68310, 2
68317, 68316, 2
68317, 68324, 2
68317, 68325, 2
68308, 68312, 2
68308, 68311, 2
68308, 68313, 2
68308, 68310, 1
68308, 68307, 2
68308, 68309, 2
68298, 68299, 2
68298, 68309, 2
68298, 68297, 2
68330, 68317, 2
68330, 68329, 2
68330, 68328, 2
68330, 68325, 2
68319, 68317, 2
68319, 68310, 2
68319, 68314, 2
68319, 68321, 2
68302, 68303, 1
68302, 68301, 2
68297, 68312, 2
68297, 68316, 2
68297, 68298, 3
68297, 68299, 1
68305, 68312, 2
68305, 68303, 2
68305, 68307, 2
68305, 68316, 2
68305, 68309, 2
68305, 68304, 2
68305, 68306, 1
68327, 68326, 2
68327, 68328, 1
68327, 68325, 2
68312, 68308, 2
68312, 68299, 2
68312, 68315, 2
68312, 68297, 2
68312, 68305, 2
68312, 68300, 2
68312, 68301, 2
68312, 68310, 2
68312, 68303, 2
68312, 68307, 2
68312, 68316, 2
68312, 68314, 2
68300, 68312, 2
68300, 68316, 2
68300, 68299, 2
68300, 68309, 2
68300, 68301, 1
68320, 68329, 2
68320, 68326, 2
68320, 68324, 2
68320, 68321, 2
68320, 68323, 2
68320, 68313, 2
68320, 68315, 2
68320, 68314, 2
68320, 68318, 2
68320, 68325, 2
68307, 68312, 2
68307, 68308, 1
68307, 68311, 2
68307, 68313, 2
68307, 68310, 2
68307, 68316, 2
68307, 68305, 2
68307, 68309, 2
68307, 68306, 2
68301, 68312, 2
68301, 68302, 1
68301, 68303, 2
68301, 68316, 2
68301, 68309, 2
68301, 68300, 2
68325, 68317, 2
68325, 68320, 2
68325, 68326, 3
68325, 68330, 2
68325, 68324, 2
68325, 68328, 2
68325, 68327, 1
68299, 68312, 2
68299, 68298, 2
68299, 68316, 2
68299, 68297, 2
68299, 68309, 2
68299, 68300, 1
68326, 68328, 2
68326, 68318, 2
68326, 68329, 2
68326, 68327, 2
68326, 68320, 2
68326, 68325, 2
68303, 68312, 2
68303, 68302, 2
68303, 68316, 2
68303, 68305, 1
68303, 68304, 3
68303, 68301, 2
68324, 68317, 2
68324, 68323, 2
68324, 68318, 2
68324, 68320, 2
68324, 68325, 1
68321, 68317, 2
68321, 68322, 1
68321, 68318, 2
68321, 68319, 2
68321, 68310, 2
68321, 68315, 2
68321, 68314, 2
68321, 68320, 2
68311, 68317, 2
68311, 68308, 2
68311, 68313, 1
68311, 68310, 2
68311, 68316, 2
68311, 68307, 2
68311, 68309, 2
68311, 68315, 2
68311, 68314, 2
68315, 68312, 2
68315, 68313, 2
68315, 68320, 2
68315, 68321, 2
68315, 68310, 2
68315, 68311, 2
68315, 68309, 2
68315, 68314, 2
68315, 68318, 1
68315, 68304, 2
68306, 68307, 1
68306, 68305, 2
68328, 68329, 3
68328, 68325, 2
68328, 68326, 2
68328, 68330, 1
68328, 68327, 2
68304, 68303, 2
68304, 68315, 2
68304, 68305, 2
68304, 68309, 2
68313, 68308, 2
68313, 68311, 2
68313, 68307, 2
68313, 68310, 2
68313, 68316, 2
68313, 68315, 2
68313, 68314, 2
68313, 68320, 2
68322, 68323, 1
68322, 68321, 2
68314, 68317, 2
68314, 68319, 2
68314, 68321, 1
68314, 68313, 2
68314, 68315, 4
68314, 68320, 2
68314, 68312, 2
68314, 68311, 2
68314, 68310, 2
68314, 68316, 6
68314, 68309, 2
68314, 68318, 2
68329, 68320, 2
68329, 68326, 2
68329, 68330, 2
68329, 68328, 2
68329, 68318, 2
68323, 68322, 2
68323, 68320, 2
68323, 68324, 1
68323, 68318, 2
68310, 68317, 2
68310, 68308, 2
68310, 68319, 2
68310, 68321, 2
68310, 68313, 2
68310, 68315, 2
68310, 68312, 6
68310, 68311, 2
68310, 68307, 2
68310, 68316, 2
68310, 68309, 4
68310, 68314, 1
68316, 68317, 1
68316, 68299, 2
68316, 68313, 2
68316, 68297, 2
68316, 68305, 2
68316, 68300, 2
68316, 68301, 2
68316, 68312, 2
68316, 68311, 2
68316, 68307, 2
68316, 68303, 2
68316, 68310, 2
68316, 68314, 2
68309, 68308, 2
68309, 68299, 2
68309, 68315, 2
68309, 68305, 2
68309, 68300, 2
68309, 68304, 2
68309, 68311, 1
68309, 68314, 2
68309, 68310, 2
68309, 68307, 2
68309, 68298, 2
68309, 68301, 2
68318, 68329, 2
68318, 68326, 2
68318, 68324, 2
68318, 68321, 2
68318, 68323, 2
68318, 68315, 2
68318, 68314, 2
68318, 68320, 3
