118404, 118405, 1
118404, 118409, 2
118408, 118409, 3
118408, 118407, 2
118408, 118410, 0
118408, 118411, 2
118408, 118412, 2
118405, 118404, 2
118405, 118409, 2
118405, 118406, 1
118407, 118408, 1
118407, 118410, 2
118407, 118406, 2
118407, 118409, 2
118409, 118404, 2
118409, 118408, 2
118409, 118405, 2
118409, 118407, 2
118409, 118410, 2
118409, 118412, 2
118409, 118411, 2
118409, 118406, 2
118406, 118410, 2
118406, 118405, 2
118406, 118407, 1
118406, 118409, 2
118410, 118408, 2
118410, 118407, 2
118410, 118409, 2
118410, 118406, 2
118410, 118411, 1
118411, 118408, 2
118411, 118409, 2
118411, 118412, 1
118411, 118410, 2
118412, 118408, 2
118412, 118409, 2
118412, 118411, 2
