221450, 221449, 2
221450, 221448, 2
221450, 221447, 2
221445, 221446, 1
221445, 221447, 2
221449, 221450, 3
221449, 221448, 2
221446, 221445, 2
221446, 221447, 1
221448, 221449, 1
221448, 221447, 2
221448, 221450, 2
221447, 221450, 2
221447, 221446, 2
221447, 221448, 1
221447, 221445, 2
