341198, 341196, 2
341198, 341199, 1
341198, 341197, 2
341194, 341197, 2
341194, 341196, 1
341194, 341191, 2
341194, 341195, 8
341194, 341192, 2
341194, 341193, 2
341197, 341198, 2
341197, 341194, 2
341197, 341196, 2
341197, 341195, 2
341197, 341199, 2
341197, 341192, 2
341196, 341198, 1
341196, 341194, 2
341196, 341195, 2
341196, 341197, 3
341191, 341195, 2
341191, 341194, 2
341191, 341192, 3
341191, 341193, 1
341195, 341191, 2
341195, 341194, 2
341195, 341197, 2
341195, 341192, 2
341195, 341196, 2
341199, 341198, 2
341199, 341197, 2
341192, 341191, 2
341192, 341195, 2
341192, 341194, 2
341192, 341197, 2
341192, 341193, 2
341193, 341191, 2
341193, 341194, 1
341193, 341192, 2
