333102, 333101, 2
333095, 333096, 1
333095, 333094, 2
333092, 333093, 1
333094, 333095, 1
333094, 333093, 2
333098, 333097, 2
333098, 333099, 1
333097, 333098, 1
333097, 333096, 2
333100, 333101, 1
333100, 333099, 2
333096, 333095, 2
333096, 333097, 1
333101, 333102, 1
333101, 333100, 2
333099, 333098, 2
333099, 333100, 1
333093, 333092, 2
333093, 333094, 1
