295463, 295465, 2
295463, 295464, 1
295463, 295466, 2
295469, 295472, 2
295469, 295468, 2
295469, 295467, 2
295469, 295470, 2
295469, 295471, 2
295469, 295466, 2
295473, 295474, 1
295473, 295475, 2
295473, 295472, 2
295473, 295468, 2
295473, 295467, 2
295473, 295470, 2
295470, 295469, 2
295470, 295468, 2
295470, 295473, 2
295470, 295471, 3
295470, 295472, 1
295475, 295473, 2
295475, 295474, 2
295475, 295472, 2
295465, 295463, 2
295465, 295467, 1
295465, 295464, 2
295465, 295466, 3
295471, 295469, 2
295471, 295472, 2
295471, 295470, 2
295466, 295463, 2
295466, 295469, 2
295466, 295464, 2
295466, 295465, 2
295466, 295467, 2
295474, 295473, 2
295474, 295472, 2
295474, 295475, 1
295467, 295469, 2
295467, 295473, 2
295467, 295465, 2
295467, 295466, 2
295467, 295468, 1
295468, 295469, 3
295468, 295473, 2
295468, 295470, 1
295468, 295467, 2
295472, 295473, 0
295472, 295474, 2
295472, 295475, 2
295472, 295470, 2
295472, 295471, 2
295472, 295469, 2
295464, 295463, 2
295464, 295465, 1
295464, 295466, 2
