17851, 17850, 2
17845, 17844, 2
17845, 17848, 2
17845, 17847, 2
17845, 17843, 2
17845, 17846, 1
17843, 17844, 1
17843, 17845, 2
17843, 17842, 2
17838, 17840, 2
17838, 17836, 2
17838, 17839, 0
17838, 17841, 1
17838, 17837, 2
17838, 17835, 2
17844, 17845, 1
17844, 17843, 2
17844, 17846, 2
17840, 17839, 2
17840, 17841, 2
17840, 17837, 2
17840, 17835, 2
17840, 17838, 2
17849, 17850, 1
17849, 17848, 2
17849, 17847, 2
17835, 17839, 2
17835, 17837, 1
17835, 17836, 3
17835, 17838, 2
17835, 17840, 2
17847, 17848, 1
17847, 17845, 2
17847, 17849, 2
17847, 17846, 2
17842, 17841, 2
17842, 17843, 1
17836, 17839, 2
17836, 17841, 2
17836, 17837, 2
17836, 17835, 2
17836, 17838, 2
17848, 17847, 2
17848, 17849, 1
17848, 17845, 2
17848, 17846, 2
17850, 17851, 1
17850, 17849, 2
17839, 17840, 1
17839, 17838, 2
17839, 17836, 2
17839, 17841, 2
17839, 17837, 2
17839, 17835, 2
17841, 17839, 2
17841, 17840, 2
17841, 17842, 1
17841, 17838, 2
17841, 17836, 2
17837, 17839, 2
17837, 17840, 2
17837, 17835, 2
17837, 17838, 1
17837, 17836, 2
17846, 17844, 2
17846, 17848, 2
17846, 17845, 2
17846, 17847, 1
