70933, 70935, 2
70933, 70932, 2
70933, 70934, 1
70933, 70936, 2
70935, 70933, 2
70935, 70936, 1
70935, 70934, 2
70934, 70933, 2
70934, 70935, 1
70934, 70936, 2
70937, 70936, 2
70932, 70933, 1
70936, 70933, 2
70936, 70937, 1
70936, 70935, 2
70936, 70934, 2
