165719, 165721, 2
165719, 165720, 1
165719, 165718, 2
165719, 165723, 2
165728, 165723, 2
165728, 165726, 2
165728, 165730, 2
165728, 165727, 2
165728, 165729, 1
165728, 165725, 2
165731, 165732, 3
165731, 165741, 2
165731, 165730, 2
165731, 165733, 1
165743, 165746, 1
165743, 165741, 4
165743, 165744, 2
165743, 165740, 2
165743, 165739, 2
165743, 165742, 2
165743, 165749, 2
165743, 165738, 2
165743, 165747, 2
165735, 165736, 2
165735, 165741, 2
165735, 165730, 2
165735, 165732, 2
165735, 165734, 2
165735, 165738, 2
165727, 165726, 2
165727, 165730, 1
165727, 165722, 2
165727, 165728, 2
165727, 165724, 2
165727, 165725, 2
165727, 165729, 2
165737, 165736, 2
165737, 165741, 2
165737, 165738, 1
165737, 165734, 2
165737, 165733, 2
165737, 165730, 2
165733, 165736, 2
165733, 165741, 2
165733, 165730, 2
165733, 165732, 2
165733, 165731, 2
165733, 165734, 3
165733, 165737, 1
165733, 165738, 2
165725, 165723, 2
165725, 165726, 2
165725, 165722, 2
165725, 165728, 2
165725, 165724, 2
165725, 165727, 1
165725, 165729, 2
165720, 165723, 2
165720, 165719, 2
165720, 165718, 2
165720, 165741, 2
165720, 165730, 2
165720, 165722, 1
165720, 165721, 2
165751, 165746, 2
165751, 165750, 2
165751, 165749, 2
165751, 165747, 2
165751, 165752, 2
165729, 165723, 2
165729, 165727, 2
165729, 165730, 2
165729, 165728, 2
165729, 165725, 2
165730, 165741, 2
165730, 165728, 2
165730, 165731, 1
165730, 165735, 2
165730, 165727, 2
165730, 165737, 2
165730, 165733, 2
165730, 165726, 2
165730, 165720, 2
165730, 165718, 2
165730, 165732, 2
165730, 165738, 2
165730, 165722, 2
165730, 165724, 2
165730, 165734, 2
165730, 165729, 2
165722, 165723, 2
165722, 165720, 2
165722, 165718, 2
165722, 165721, 2
165722, 165730, 2
165722, 165724, 1
165722, 165727, 2
165722, 165725, 2
165752, 165746, 2
165752, 165747, 2
165752, 165751, 2
165752, 165748, 2
165752, 165750, 2
165752, 165742, 2
165752, 165749, 2
165752, 165753, 1
165745, 165748, 1
165745, 165739, 2
165745, 165742, 2
165745, 165749, 2
165745, 165738, 2
165753, 165748, 2
165753, 165746, 2
165753, 165747, 2
165753, 165742, 2
165753, 165752, 2
165734, 165736, 1
165734, 165741, 2
165734, 165738, 2
165734, 165732, 2
165734, 165735, 8
165734, 165737, 2
165734, 165733, 2
165734, 165730, 2
165742, 165746, 2
165742, 165741, 2
165742, 165744, 2
165742, 165740, 4
165742, 165743, 2
165742, 165739, 6
165742, 165738, 2
165742, 165753, 2
165742, 165748, 2
165742, 165752, 2
165742, 165745, 2
165742, 165750, 2
165742, 165749, 1
165742, 165747, 2
165747, 165749, 2
165747, 165746, 2
165747, 165732, 2
165747, 165744, 2
165747, 165740, 2
165747, 165752, 2
165747, 165743, 2
165747, 165750, 2
165747, 165742, 2
165747, 165751, 2
165747, 165753, 2
165721, 165723, 1
165721, 165719, 4
165721, 165718, 2
165721, 165722, 2
165721, 165720, 2
165721, 165724, 2
165746, 165741, 2
165746, 165744, 2
165746, 165740, 2
165746, 165743, 2
165746, 165738, 2
165746, 165753, 2
165746, 165751, 2
165746, 165752, 2
165746, 165748, 2
165746, 165750, 2
165746, 165742, 2
165746, 165749, 2
165746, 165747, 2
165741, 165746, 2
165741, 165744, 1
165741, 165740, 2
165741, 165731, 2
165741, 165743, 2
165741, 165739, 2
165741, 165737, 2
165741, 165738, 2
165741, 165736, 2
165741, 165720, 2
165741, 165732, 2
165741, 165733, 2
165741, 165735, 2
165741, 165734, 2
165741, 165742, 2
165741, 165724, 2
165741, 165730, 2
165744, 165736, 2
165744, 165746, 2
165744, 165741, 2
165744, 165740, 2
165744, 165732, 2
165744, 165743, 2
165744, 165750, 2
165744, 165742, 2
165744, 165738, 2
165744, 165747, 1
165740, 165746, 2
165740, 165741, 2
165740, 165744, 2
165740, 165743, 1
165740, 165739, 2
165740, 165750, 2
165740, 165742, 2
165740, 165749, 2
165740, 165738, 2
165740, 165747, 2
165748, 165746, 2
165748, 165752, 2
165748, 165745, 2
165748, 165742, 2
165748, 165749, 2
165748, 165738, 2
165748, 165753, 2
165738, 165746, 2
165738, 165741, 2
165738, 165744, 2
165738, 165740, 2
165738, 165743, 2
165738, 165735, 2
165738, 165737, 2
165738, 165733, 2
165738, 165736, 2
165738, 165748, 2
165738, 165732, 2
165738, 165730, 2
165738, 165739, 2
165738, 165745, 2
165738, 165734, 2
165738, 165742, 1
165726, 165723, 2
165726, 165730, 2
165726, 165728, 1
165726, 165724, 2
165726, 165727, 2
165726, 165725, 2
165736, 165741, 2
165736, 165744, 2
165736, 165738, 2
165736, 165735, 2
165736, 165734, 2
165736, 165737, 2
165736, 165733, 2
165723, 165721, 2
165723, 165720, 2
165723, 165718, 2
165723, 165729, 2
165723, 165726, 2
165723, 165728, 2
165723, 165722, 2
165723, 165719, 2
165723, 165724, 2
165723, 165725, 1
165718, 165721, 1
165718, 165719, 2
165718, 165723, 2
165718, 165730, 2
165718, 165722, 2
165718, 165720, 2
165718, 165724, 2
165732, 165741, 2
165732, 165744, 2
165732, 165730, 2
165732, 165731, 2
165732, 165735, 2
165732, 165734, 2
165732, 165738, 2
165732, 165733, 2
165732, 165747, 2
165739, 165743, 2
165739, 165741, 2
165739, 165740, 2
165739, 165745, 1
165739, 165742, 2
165739, 165749, 2
165739, 165738, 2
165724, 165723, 2
165724, 165721, 2
165724, 165718, 2
165724, 165741, 2
165724, 165730, 2
165724, 165722, 2
165724, 165726, 1
165724, 165727, 2
165724, 165725, 2
165750, 165746, 2
165750, 165744, 2
165750, 165740, 2
165750, 165752, 2
165750, 165747, 2
165750, 165742, 2
165750, 165751, 1
165750, 165749, 2
165749, 165745, 2
165749, 165751, 2
165749, 165748, 2
165749, 165740, 2
165749, 165752, 1
165749, 165743, 2
165749, 165739, 2
165749, 165750, 3
165749, 165742, 2
165749, 165746, 2
165749, 165747, 2
