72838, 72837, 2
72838, 72839, 1
72838, 72836, 2
72842, 72841, 2
72840, 72841, 1
72840, 72839, 2
72837, 72838, 2
72837, 72835, 2
72837, 72836, 2
72835, 72837, 2
72835, 72836, 1
72839, 72838, 2
72839, 72841, 2
72839, 72840, 1
72841, 72842, 1
72841, 72839, 2
72841, 72840, 2
72836, 72838, 1
72836, 72837, 3
72836, 72835, 2
