123909, 123899, 2
123909, 123900, 2
123909, 123913, 2
123909, 123912, 2
123909, 123905, 2
123909, 123914, 2
123909, 123911, 2
123909, 123907, 2
123909, 123910, 2
123920, 123921, 2
123920, 123916, 2
123920, 123922, 2
123920, 123923, 2
123920, 123911, 2
123920, 123924, 2
123920, 123918, 2
123917, 123919, 1
123917, 123911, 2
123917, 123915, 2
123905, 123899, 2
123905, 123909, 2
123905, 123903, 2
123905, 123900, 2
123905, 123907, 1
123905, 123910, 2
123907, 123905, 2
123907, 123909, 1
123907, 123900, 2
123910, 123899, 2
123910, 123919, 2
123910, 123909, 2
123910, 123915, 2
123910, 123912, 2
123910, 123905, 2
123910, 123914, 2
123910, 123911, 1
123910, 123904, 2
123910, 123916, 2
123910, 123902, 2
123910, 123922, 2
123910, 123900, 2
123910, 123913, 2
123910, 123908, 2
123910, 123921, 2
123904, 123899, 2
123904, 123900, 2
123904, 123906, 1
123904, 123902, 2
123904, 123910, 2
123916, 123921, 2
123916, 123922, 2
123916, 123912, 2
123916, 123920, 2
123916, 123914, 2
123916, 123911, 2
123916, 123910, 2
123916, 123924, 2
123916, 123918, 1
123922, 123919, 2
123922, 123925, 2
123922, 123915, 2
123922, 123916, 2
123922, 123913, 2
123922, 123920, 2
123922, 123914, 2
123922, 123921, 2
123922, 123923, 6
123922, 123924, 4
123922, 123910, 2
123911, 123919, 2
123911, 123909, 2
123911, 123915, 2
123911, 123917, 2
123911, 123912, 6
123911, 123923, 2
123911, 123914, 2
123911, 123910, 2
123911, 123925, 2
123911, 123918, 2
123911, 123916, 2
123911, 123920, 2
123911, 123913, 4
123911, 123908, 2
123911, 123924, 2
123911, 123921, 1
123921, 123919, 2
123921, 123911, 2
123921, 123920, 2
123921, 123914, 2
123921, 123910, 2
123921, 123925, 2
123921, 123916, 2
123921, 123922, 1
123921, 123923, 2
123921, 123913, 2
123921, 123915, 2
123921, 123924, 2
123899, 123904, 2
123899, 123909, 2
123899, 123902, 2
123899, 123905, 2
123899, 123903, 2
123899, 123900, 1
123899, 123908, 2
123899, 123901, 2
123899, 123910, 2
123919, 123925, 2
123919, 123921, 2
123919, 123922, 2
123919, 123917, 2
123919, 123923, 2
123919, 123915, 2
123919, 123911, 2
123919, 123924, 2
123919, 123910, 2
123908, 123899, 2
123908, 123911, 2
123908, 123900, 2
123908, 123912, 2
123908, 123913, 2
123908, 123906, 2
123908, 123915, 2
123908, 123910, 2
123903, 123899, 2
123903, 123905, 1
123903, 123901, 2
123903, 123900, 2
123900, 123899, 2
123900, 123909, 2
123900, 123908, 2
123900, 123903, 2
123900, 123912, 2
123900, 123913, 2
123900, 123910, 1
123900, 123907, 2
123900, 123904, 2
123900, 123902, 4
123900, 123905, 2
123900, 123906, 2
123900, 123901, 6
123914, 123909, 2
123914, 123921, 2
123914, 123916, 2
123914, 123922, 2
123914, 123912, 2
123914, 123911, 2
123914, 123924, 2
123914, 123910, 2
123918, 123920, 1
123918, 123911, 2
123918, 123916, 2
123912, 123909, 2
123912, 123908, 2
123912, 123916, 1
123912, 123900, 2
123912, 123914, 3
123912, 123911, 2
123912, 123910, 2
123925, 123919, 2
123925, 123911, 2
123925, 123923, 2
123925, 123922, 2
123925, 123921, 2
123902, 123899, 2
123902, 123904, 1
123902, 123900, 2
123902, 123910, 2
123913, 123909, 2
123913, 123921, 2
123913, 123922, 2
123913, 123900, 2
123913, 123911, 2
123913, 123915, 1
123913, 123908, 2
123913, 123910, 2
123923, 123919, 2
123923, 123925, 1
123923, 123921, 2
123923, 123922, 2
123923, 123920, 2
123923, 123911, 2
123915, 123919, 2
123915, 123917, 1
123915, 123922, 2
123915, 123913, 2
123915, 123911, 2
123915, 123910, 2
123915, 123908, 2
123915, 123921, 2
123906, 123904, 2
123906, 123908, 1
123906, 123900, 2
123901, 123899, 2
123901, 123900, 2
123901, 123903, 1
123924, 123919, 2
123924, 123921, 2
123924, 123916, 2
123924, 123922, 2
123924, 123920, 2
123924, 123914, 2
123924, 123911, 2
