15203, 15202, 2
15203, 15204, 1
15205, 15206, 1
15205, 15204, 2
15202, 15203, 1
15202, 15201, 2
15207, 15206, 2
15204, 15203, 2
15204, 15205, 1
15206, 15205, 2
15206, 15207, 1
15200, 15199, 2
15200, 15198, 2
15200, 15201, 1
15199, 15198, 2
15199, 15201, 2
15199, 15200, 2
15198, 15199, 0
15198, 15201, 2
15198, 15200, 1
15201, 15199, 2
15201, 15198, 2
15201, 15202, 1
15201, 15200, 2
