17093, 17094, 1
17093, 17092, 2
17083, 17082, 2
17083, 17084, 1
17083, 17085, 2
17083, 17087, 2
17087, 17084, 2
17087, 17083, 2
17087, 17086, 2
17087, 17090, 1
17087, 17085, 2
17087, 17088, 3
17092, 17091, 2
17092, 17093, 1
17092, 17089, 2
17092, 17090, 2
17092, 17094, 2
17086, 17085, 2
17086, 17087, 2
17086, 17088, 2
17082, 17083, 1
17082, 17081, 2
17085, 17084, 2
17085, 17083, 2
17085, 17087, 2
17085, 17086, 2
17088, 17089, 2
17088, 17090, 2
17088, 17087, 2
17088, 17086, 2
17084, 17083, 2
17084, 17085, 3
17084, 17087, 1
17080, 17081, 1
17091, 17089, 2
17091, 17090, 2
17091, 17092, 2
17089, 17091, 2
17089, 17090, 2
17089, 17088, 2
17089, 17092, 2
17090, 17091, 3
17090, 17089, 2
17090, 17088, 2
17090, 17092, 1
17090, 17087, 2
17094, 17093, 2
17094, 17092, 2
17081, 17082, 1
17081, 17080, 2
