21469, 21470, 0
21469, 21468, 2
21469, 21467, 2
21469, 21471, 2
21469, 21466, 2
21469, 21472, 1
21468, 21469, 1
21468, 21466, 2
21468, 21467, 2
21467, 21469, 2
21467, 21466, 2
21467, 21468, 2
21471, 21469, 2
21471, 21470, 2
21471, 21472, 2
21466, 21469, 2
21466, 21468, 1
21466, 21467, 3
21470, 21469, 2
21470, 21471, 3
21472, 21469, 2
21472, 21471, 2
