221018, 221016, 2
221018, 221019, 1
221018, 221017, 2
221016, 221018, 2
221016, 221019, 2
221016, 221017, 1
221019, 221018, 2
221019, 221016, 2
221019, 221020, 1
221019, 221017, 2
221020, 221019, 2
221017, 221018, 1
221017, 221016, 2
221017, 221019, 2
