165164, 165170, 2
165164, 165168, 2
165164, 165174, 2
165164, 165172, 2
165164, 165163, 2
165164, 165173, 2
165164, 165171, 2
165164, 165159, 2
165164, 165169, 2
165164, 165167, 2
165164, 165166, 6
165164, 165165, 4
165164, 165162, 2
165164, 165175, 1
165172, 165164, 2
165172, 165174, 2
165172, 165170, 2
165172, 165173, 2
165172, 165175, 2
165168, 165164, 2
165168, 165167, 2
165168, 165159, 2
165168, 165170, 2
165168, 165174, 2
165168, 165165, 2
165156, 165159, 2
165156, 165157, 1
165185, 165186, 0
165185, 165184, 2
165185, 165189, 2
165185, 165187, 2
165185, 165188, 2
165185, 165183, 2
165174, 165173, 2
165174, 165164, 2
165174, 165170, 2
165174, 165172, 2
165174, 165177, 2
165174, 165168, 2
165174, 165175, 2
165161, 165162, 1
165161, 165166, 2
165161, 165159, 2
165161, 165163, 2
165161, 165160, 2
165157, 165158, 1
165157, 165159, 2
165157, 165156, 2
165189, 165186, 2
165189, 165188, 2
165189, 165185, 2
165162, 165164, 2
165162, 165161, 2
165162, 165159, 2
165162, 165163, 2
165162, 165165, 2
165181, 165182, 3
165181, 165184, 1
165181, 165180, 2
165186, 165184, 2
165186, 165185, 2
165186, 165187, 1
165186, 165188, 2
165186, 165189, 2
165186, 165175, 2
165169, 165164, 2
165169, 165166, 2
165169, 165171, 2
165183, 165182, 2
165183, 165184, 2
165183, 165185, 2
165176, 165177, 1
165176, 165175, 2
165158, 165159, 1
165158, 165157, 2
165177, 165174, 2
165177, 165178, 1
165177, 165175, 2
165177, 165176, 2
165177, 165179, 2
165187, 165186, 2
165187, 165188, 1
165187, 165185, 2
165175, 165164, 2
165175, 165170, 2
165175, 165174, 2
165175, 165172, 2
165175, 165163, 2
165175, 165159, 2
165175, 165173, 2
165175, 165171, 2
165175, 165186, 2
165175, 165176, 1
165175, 165166, 2
165175, 165177, 2
165175, 165165, 2
165170, 165164, 2
165170, 165173, 1
165170, 165163, 2
165170, 165167, 2
165170, 165174, 2
165170, 165172, 2
165170, 165165, 2
165170, 165175, 2
165170, 165168, 2
165165, 165164, 2
165165, 165162, 2
165165, 165159, 2
165165, 165163, 2
165165, 165167, 1
165165, 165170, 2
165165, 165168, 2
165165, 165175, 2
165171, 165164, 2
165171, 165166, 2
165171, 165169, 2
165171, 165163, 2
165171, 165175, 2
165180, 165181, 1
165180, 165184, 2
165180, 165179, 2
165182, 165181, 2
165182, 165184, 2
165182, 165183, 1
165188, 165186, 2
165188, 165187, 2
165188, 165189, 1
165188, 165185, 2
165167, 165164, 2
165167, 165170, 1
165167, 165168, 3
165167, 165165, 2
165159, 165164, 2
165159, 165165, 2
165159, 165161, 2
165159, 165163, 2
165159, 165157, 2
165159, 165168, 2
165159, 165162, 2
165159, 165156, 2
165159, 165166, 2
165159, 165158, 2
165159, 165160, 1
165159, 165175, 2
165184, 165181, 2
165184, 165186, 2
165184, 165180, 2
165184, 165185, 1
165184, 165182, 2
165184, 165183, 2
165173, 165164, 2
165173, 165174, 3
165173, 165170, 2
165173, 165175, 2
165173, 165172, 6
165166, 165164, 2
165166, 165171, 1
165166, 165159, 2
165166, 165169, 0
165166, 165161, 2
165166, 165163, 2
165166, 165160, 2
165166, 165175, 2
165163, 165164, 1
165163, 165162, 2
165163, 165159, 2
165163, 165165, 2
165163, 165170, 2
165163, 165161, 2
165163, 165160, 2
165163, 165166, 2
165163, 165175, 2
165163, 165171, 2
165178, 165177, 2
165178, 165179, 1
165160, 165161, 3
165160, 165159, 2
165160, 165163, 1
165160, 165166, 2
165179, 165178, 2
165179, 165177, 2
165179, 165180, 1
