252135, 252137, 0
252135, 252141, 2
252135, 252140, 1
252135, 252142, 2
252135, 252136, 3
252135, 252139, 2
252145, 252146, 1
252145, 252142, 2
252145, 252143, 2
252145, 252144, 2
252145, 252141, 2
252143, 252142, 2
252143, 252145, 2
252143, 252136, 2
252143, 252141, 2
252143, 252144, 1
252138, 252137, 2
252138, 252136, 2
252138, 252139, 1
252140, 252135, 2
252140, 252137, 2
252140, 252141, 1
252140, 252139, 2
252140, 252136, 2
252142, 252135, 2
252142, 252145, 2
252142, 252136, 2
252142, 252143, 1
252142, 252141, 2
252136, 252135, 2
252136, 252137, 2
252136, 252141, 2
252136, 252138, 2
252136, 252140, 2
252136, 252142, 2
252136, 252139, 2
252136, 252143, 2
252139, 252137, 2
252139, 252135, 2
252139, 252141, 2
252139, 252138, 2
252139, 252140, 2
252139, 252146, 2
252139, 252136, 2
252144, 252145, 2
252144, 252146, 2
252144, 252143, 2
252144, 252141, 2
252137, 252135, 2
252137, 252136, 2
252137, 252138, 1
252137, 252139, 2
252137, 252140, 2
252146, 252145, 2
252146, 252141, 2
252146, 252144, 2
252146, 252139, 2
252141, 252135, 2
252141, 252145, 1
252141, 252143, 2
252141, 252140, 2
252141, 252142, 3
252141, 252136, 2
252141, 252146, 2
252141, 252139, 2
252141, 252144, 2
