251453, 251452, 2
251451, 251450, 2
251451, 251452, 1
251452, 251451, 2
251452, 251453, 1
251446, 251449, 2
251446, 251448, 2
251446, 251445, 2
251446, 251447, 1
251449, 251446, 2
251449, 251447, 2
251449, 251450, 1
251449, 251448, 2
251448, 251446, 2
251448, 251450, 2
251448, 251449, 1
251448, 251447, 2
251450, 251451, 1
251450, 251447, 2
251450, 251449, 2
251450, 251448, 2
251447, 251446, 2
251447, 251450, 2
251447, 251449, 2
251447, 251448, 1
251445, 251446, 1
