339106, 339103, 2
339106, 339105, 2
339102, 339104, 2
339102, 339103, 1
339102, 339105, 2
339104, 339102, 2
339104, 339103, 2
339104, 339105, 2
339103, 339102, 2
339103, 339104, 8
339103, 339106, 2
339103, 339105, 1
339105, 339102, 2
339105, 339104, 2
339105, 339103, 2
339105, 339106, 1
