259838, 259837, 2
259838, 259836, 2
259838, 259839, 1
259837, 259838, 1
259837, 259836, 2
259841, 259840, 2
259841, 259842, 1
259839, 259838, 2
259839, 259840, 1
259844, 259843, 2
259840, 259842, 2
259840, 259841, 1
259840, 259839, 2
259842, 259840, 2
259842, 259843, 1
259842, 259841, 2
259836, 259838, 2
259836, 259837, 1
259843, 259844, 1
259843, 259842, 2
