294494, 294493, 2
294494, 294492, 2
294494, 294495, 1
294492, 294494, 2
294492, 294493, 1
294492, 294491, 2
294496, 294495, 2
294496, 294497, 1
294500, 294499, 2
294493, 294494, 1
294493, 294492, 2
294497, 294498, 1
294497, 294496, 2
294490, 294491, 1
294498, 294499, 1
294498, 294497, 2
294495, 294494, 2
294495, 294496, 1
294499, 294498, 2
294499, 294500, 1
294491, 294492, 1
294491, 294490, 2
