258906, 258905, 2
258906, 258901, 2
258906, 258904, 2
258906, 258903, 2
258906, 258899, 2
258906, 258907, 1
258883, 258880, 2
258883, 258885, 0
258883, 258851, 2
258883, 258877, 2
258883, 258865, 2
258883, 258887, 1
258883, 258864, 2
258883, 258890, 2
258883, 258878, 2
258883, 258875, 2
258862, 258863, 0
258862, 258850, 2
258862, 258866, 2
258862, 258860, 2
258862, 258877, 2
258862, 258865, 2
258862, 258864, 2
258862, 258851, 2
258862, 258857, 2
258862, 258878, 2
258862, 258868, 2
258866, 258850, 2
258866, 258862, 2
258866, 258851, 2
258866, 258867, 1
258866, 258865, 2
258866, 258864, 2
258866, 258861, 2
258866, 258863, 2
258866, 258878, 2
258866, 258877, 2
258867, 258850, 2
258867, 258866, 2
258867, 258851, 2
258867, 258877, 2
258867, 258865, 2
258867, 258870, 1
258867, 258864, 2
258867, 258878, 2
258870, 258881, 2
258870, 258850, 2
258870, 258851, 2
258870, 258867, 2
258870, 258865, 2
258870, 258877, 2
258870, 258861, 2
258870, 258864, 2
258870, 258872, 0
258870, 258878, 2
258870, 258874, 1
258904, 258906, 2
258904, 258905, 1
258904, 258901, 2
258904, 258903, 2
258904, 258899, 2
258904, 258907, 2
258848, 258852, 2
258848, 258846, 2
258848, 258849, 1
258848, 258847, 2
258907, 258906, 2
258907, 258901, 2
258907, 258908, 0
258907, 258904, 2
258907, 258900, 2
258907, 258899, 2
258881, 258890, 2
258881, 258875, 2
258881, 258878, 2
258881, 258851, 2
258881, 258870, 2
258881, 258865, 2
258881, 258877, 2
258881, 258864, 2
258881, 258874, 2
258881, 258876, 2
258881, 258882, 1
258869, 258865, 2
258869, 258851, 2
258869, 258864, 2
258869, 258871, 1
258869, 258877, 2
258869, 258878, 2
258869, 258868, 2
258890, 258898, 2
258890, 258883, 2
258890, 258902, 2
258890, 258851, 2
258890, 258886, 2
258890, 258887, 2
258890, 258892, 2
258890, 258899, 2
258890, 258881, 2
258890, 258865, 2
258890, 258895, 2
258890, 258879, 2
258890, 258894, 2
258890, 258877, 2
258890, 258900, 2
258890, 258878, 2
258890, 258888, 2
258890, 258889, 2
258890, 258893, 2
258890, 258903, 2
258890, 258880, 2
258890, 258891, 1
258890, 258884, 2
258890, 258896, 2
258890, 258875, 2
258890, 258874, 2
258890, 258882, 2
258849, 258850, 1
258849, 258852, 2
258849, 258847, 2
258849, 258851, 2
258849, 258865, 2
258849, 258864, 2
258849, 258848, 2
258849, 258878, 2
258849, 258854, 2
258877, 258879, 2
258877, 258894, 2
258877, 258862, 2
258877, 258866, 2
258877, 258886, 2
258877, 258870, 2
258877, 258861, 2
258877, 258857, 2
258877, 258892, 2
258877, 258881, 2
258877, 258869, 2
258877, 258890, 2
258877, 258883, 2
258877, 258878, 1
258877, 258868, 2
258877, 258888, 2
258877, 258873, 2
258877, 258893, 2
258877, 258867, 2
258877, 258880, 2
258877, 258865, 2
258877, 258884, 2
258877, 258871, 2
258877, 258882, 2
258877, 258887, 2
258877, 258874, 2
258877, 258876, 2
258877, 258875, 2
258894, 258897, 0
258894, 258890, 2
258894, 258902, 2
258894, 258891, 2
258894, 258851, 2
258894, 258865, 2
258894, 258877, 2
258894, 258903, 2
258894, 258892, 2
258894, 258899, 1
258844, 258843, 2
258844, 258845, 2
258844, 258842, 2
258843, 258845, 2
258843, 258841, 2
258843, 258854, 2
258843, 258844, 2
258843, 258842, 2
258841, 258843, 2
258841, 258845, 1
258841, 258842, 3
258888, 258890, 2
258888, 258902, 2
258888, 258851, 2
258888, 258891, 2
258888, 258886, 2
258888, 258865, 2
258888, 258893, 2
258888, 258877, 2
258888, 258892, 2
258888, 258878, 2
258852, 258865, 2
258852, 258850, 2
258852, 258846, 2
258852, 258849, 2
258852, 258851, 2
258852, 258853, 1
258852, 258845, 2
258852, 258864, 2
258852, 258848, 2
258852, 258878, 2
258903, 258906, 2
258903, 258898, 2
258903, 258902, 2
258903, 258901, 2
258903, 258904, 1
258903, 258892, 2
258903, 258895, 2
258903, 258899, 2
258903, 258890, 2
258903, 258905, 2
258903, 258891, 2
258903, 258896, 2
258903, 258894, 2
258903, 258900, 2
258886, 258890, 2
258886, 258851, 2
258886, 258884, 2
258886, 258865, 2
258886, 258877, 2
258886, 258888, 1
258886, 258878, 2
258884, 258890, 2
258884, 258851, 2
258884, 258886, 1
258884, 258865, 2
258884, 258877, 2
258884, 258878, 2
258884, 258882, 2
258891, 258898, 2
258891, 258888, 2
258891, 258902, 1
258891, 258901, 2
258891, 258893, 4
258891, 258903, 2
258891, 258892, 6
258891, 258895, 2
258891, 258899, 2
258891, 258897, 2
258891, 258890, 2
258891, 258887, 2
258891, 258896, 2
258891, 258894, 2
258891, 258900, 2
258891, 258889, 2
258842, 258843, 8
258842, 258841, 2
258842, 258845, 2
258842, 258844, 1
258863, 258862, 2
258863, 258851, 2
258863, 258865, 2
258863, 258864, 2
258863, 258872, 2
258863, 258866, 2
258863, 258868, 2
258887, 258902, 2
258887, 258890, 2
258887, 258883, 2
258887, 258889, 0
258887, 258851, 2
258887, 258891, 2
258887, 258865, 2
258887, 258877, 2
258887, 258892, 2
258887, 258878, 2
258887, 258885, 2
258871, 258869, 2
258871, 258851, 2
258871, 258877, 2
258871, 258865, 2
258871, 258873, 1
258871, 258864, 2
258871, 258878, 2
258851, 258863, 2
258851, 258883, 2
258851, 258852, 6
258851, 258862, 2
258851, 258866, 2
258851, 258867, 2
258851, 258870, 2
258851, 258861, 2
258851, 258857, 2
258851, 258892, 2
258851, 258899, 2
258851, 258881, 2
258851, 258869, 2
258851, 258890, 2
258851, 258879, 2
258851, 258849, 2
258851, 258894, 2
258851, 258868, 2
258851, 258882, 2
258851, 258888, 2
258851, 258858, 2
258851, 258886, 2
258851, 258859, 2
258851, 258856, 2
258851, 258873, 2
258851, 258864, 1
258851, 258853, 2
258851, 258880, 2
258851, 258850, 2
258851, 258855, 2
258851, 258884, 2
258851, 258871, 2
258851, 258860, 2
258851, 258875, 2
258851, 258887, 2
258851, 258874, 2
258851, 258854, 4
258872, 258865, 2
258872, 258870, 2
258872, 258874, 2
258872, 258863, 2
258885, 258887, 2
258885, 258883, 2
258885, 258876, 2
258885, 258878, 2
258882, 258881, 2
258882, 258890, 2
258882, 258851, 2
258882, 258884, 1
258882, 258865, 2
258882, 258877, 2
258882, 258878, 2
258898, 258890, 2
258898, 258903, 2
258898, 258902, 2
258898, 258891, 2
258898, 258896, 2
258898, 258900, 1
258879, 258890, 2
258879, 258880, 1
258879, 258876, 2
258879, 258851, 2
258879, 258864, 2
258879, 258865, 2
258879, 258877, 2
258879, 258874, 2
258879, 258878, 2
258879, 258875, 2
258902, 258898, 2
258902, 258888, 2
258902, 258894, 2
258902, 258901, 2
258902, 258893, 2
258902, 258903, 1
258902, 258892, 2
258902, 258890, 2
258902, 258899, 2
258902, 258895, 2
258902, 258891, 2
258902, 258887, 2
258902, 258896, 2
258902, 258900, 2
258860, 258857, 2
258860, 258862, 2
258860, 258851, 2
258845, 258843, 2
258845, 258841, 2
258845, 258846, 1
258845, 258842, 2
258845, 258852, 2
258845, 258854, 2
258845, 258844, 2
258845, 258847, 2
258861, 258850, 2
258861, 258878, 2
258861, 258859, 2
258861, 258851, 2
258861, 258864, 2
258861, 258865, 2
258861, 258877, 2
258861, 258870, 2
258861, 258866, 2
258861, 258868, 2
258857, 258850, 2
258857, 258862, 1
258857, 258860, 0
258857, 258864, 2
258857, 258865, 2
258857, 258877, 2
258857, 258851, 2
258857, 258855, 2
258857, 258878, 2
258892, 258888, 2
258892, 258902, 2
258892, 258851, 2
258892, 258887, 2
258892, 258903, 2
258892, 258890, 2
258892, 258894, 1
258892, 258891, 2
258892, 258865, 2
258892, 258877, 2
258892, 258889, 2
258892, 258878, 2
258899, 258906, 2
258899, 258894, 2
258899, 258851, 2
258899, 258901, 0
258899, 258904, 2
258899, 258903, 2
258899, 258907, 2
258899, 258865, 2
258899, 258890, 2
258899, 258891, 2
258899, 258908, 2
258899, 258897, 2
258899, 258902, 2
258865, 258879, 2
258865, 258852, 2
258865, 258862, 2
258865, 258866, 6
258865, 258867, 2
258865, 258870, 2
258865, 258861, 2
258865, 258857, 2
258865, 258892, 2
258865, 258899, 2
258865, 258881, 2
258865, 258869, 2
258865, 258890, 2
258865, 258883, 2
258865, 258894, 2
258865, 258849, 2
258865, 258853, 2
258865, 258877, 1
258865, 258854, 2
258865, 258868, 4
258865, 258855, 2
258865, 258888, 2
258865, 258858, 2
258865, 258859, 2
258865, 258856, 2
258865, 258873, 2
258865, 258864, 2
258865, 258886, 2
258865, 258874, 2
258865, 258880, 2
258865, 258863, 2
258865, 258884, 2
258865, 258871, 2
258865, 258875, 2
258865, 258887, 2
258865, 258872, 2
258865, 258876, 2
258865, 258882, 2
258895, 258890, 2
258895, 258902, 2
258895, 258891, 2
258895, 258896, 1
258895, 258893, 2
258895, 258903, 2
258850, 258858, 2
258850, 258852, 2
258850, 258859, 2
258850, 258866, 2
258850, 258856, 2
258850, 258870, 2
258850, 258861, 2
258850, 258867, 2
258850, 258868, 2
258850, 258849, 2
258850, 258855, 2
258850, 258853, 2
258850, 258851, 1
258850, 258857, 2
258850, 258854, 2
258850, 258862, 2
258846, 258845, 2
258846, 258848, 1
258846, 258852, 2
258846, 258847, 8
258853, 258850, 2
258853, 258852, 2
258853, 258855, 1
258853, 258851, 2
258853, 258865, 2
258853, 258864, 2
258853, 258878, 2
258897, 258889, 2
258897, 258894, 2
258897, 258899, 2
258897, 258891, 2
258908, 258901, 2
258908, 258899, 2
258908, 258907, 2
258900, 258898, 2
258900, 258890, 2
258900, 258902, 2
258900, 258891, 2
258900, 258903, 2
258900, 258907, 2
258878, 258883, 2
258878, 258852, 2
258878, 258862, 2
258878, 258866, 2
258878, 258886, 2
258878, 258887, 2
258878, 258861, 2
258878, 258857, 2
258878, 258892, 2
258878, 258881, 4
258878, 258869, 2
258878, 258890, 1
258878, 258879, 6
258878, 258849, 2
258878, 258853, 2
258878, 258877, 2
258878, 258854, 2
258878, 258868, 2
258878, 258888, 2
258878, 258858, 2
258878, 258889, 2
258878, 258859, 2
258878, 258856, 2
258878, 258873, 2
258878, 258893, 2
258878, 258867, 2
258878, 258884, 2
258878, 258880, 2
258878, 258885, 2
258878, 258855, 2
258878, 258870, 2
258878, 258871, 2
258878, 258882, 2
258878, 258874, 2
258878, 258876, 2
258878, 258875, 2
258868, 258869, 1
258868, 258850, 2
258868, 258862, 2
258868, 258851, 2
258868, 258864, 2
258868, 258865, 2
258868, 258877, 2
258868, 258861, 2
258868, 258863, 2
258868, 258878, 2
258858, 258850, 2
258858, 258859, 1
258858, 258851, 2
258858, 258856, 2
258858, 258865, 2
258858, 258864, 2
258858, 258878, 2
258889, 258890, 2
258889, 258891, 2
258889, 258893, 2
258889, 258897, 2
258889, 258887, 2
258889, 258892, 2
258889, 258878, 2
258859, 258850, 2
258859, 258851, 2
258859, 258865, 2
258859, 258864, 2
258859, 258861, 1
258859, 258878, 2
258859, 258858, 2
258856, 258850, 2
258856, 258851, 2
258856, 258865, 2
258856, 258864, 2
258856, 258854, 2
258856, 258878, 2
258856, 258858, 1
258873, 258871, 2
258873, 258851, 2
258873, 258864, 2
258873, 258865, 2
258873, 258877, 2
258873, 258878, 2
258873, 258875, 1
258893, 258890, 2
258893, 258902, 2
258893, 258891, 2
258893, 258877, 2
258893, 258895, 1
258893, 258889, 2
258893, 258888, 2
258893, 258878, 2
258855, 258850, 2
258855, 258851, 2
258855, 258853, 2
258855, 258865, 2
258855, 258864, 2
258855, 258857, 1
258855, 258878, 2
258854, 258843, 2
258854, 258845, 2
258854, 258850, 2
258854, 258849, 2
258854, 258851, 2
258854, 258856, 1
258854, 258865, 2
258854, 258864, 2
258854, 258878, 2
258854, 258847, 2
258901, 258906, 2
258901, 258902, 2
258901, 258891, 2
258901, 258908, 2
258901, 258904, 2
258901, 258903, 2
258901, 258899, 2
258901, 258907, 2
258880, 258890, 2
258880, 258883, 1
258880, 258851, 2
258880, 258864, 2
258880, 258865, 2
258880, 258877, 2
258880, 258879, 2
258880, 258878, 2
258905, 258906, 1
258905, 258904, 2
258905, 258903, 2
258864, 258863, 2
258864, 258879, 2
258864, 258852, 2
258864, 258862, 2
258864, 258866, 2
258864, 258867, 2
258864, 258870, 2
258864, 258861, 2
258864, 258857, 2
258864, 258881, 2
258864, 258869, 2
258864, 258883, 2
258864, 258849, 2
258864, 258868, 2
258864, 258858, 2
258864, 258859, 2
258864, 258856, 2
258864, 258873, 2
258864, 258853, 2
258864, 258880, 2
258864, 258865, 1
258864, 258855, 2
258864, 258871, 2
258864, 258851, 2
258864, 258875, 2
258864, 258874, 2
258864, 258854, 2
258896, 258898, 1
258896, 258890, 2
258896, 258902, 2
258896, 258891, 2
258896, 258903, 2
258896, 258895, 2
258847, 258845, 2
258847, 258848, 2
258847, 258846, 2
258847, 258849, 2
258847, 258854, 2
258874, 258881, 2
258874, 258890, 2
258874, 258879, 2
258874, 258876, 0
258874, 258851, 2
258874, 258877, 2
258874, 258865, 2
258874, 258870, 2
258874, 258872, 2
258874, 258864, 2
258874, 258878, 2
258876, 258881, 2
258876, 258879, 2
258876, 258885, 2
258876, 258865, 2
258876, 258877, 2
258876, 258874, 2
258876, 258878, 2
258875, 258881, 2
258875, 258873, 2
258875, 258890, 2
258875, 258879, 2
258875, 258851, 2
258875, 258864, 2
258875, 258865, 2
258875, 258877, 2
258875, 258883, 2
258875, 258878, 2
