134138, 134139, 1
134138, 134136, 2
134138, 134137, 2
134139, 134138, 2
134139, 134136, 2
134139, 134140, 1
134141, 134136, 2
134141, 134140, 2
134140, 134139, 2
134140, 134141, 1
134140, 134136, 2
134136, 134138, 2
134136, 134139, 2
134136, 134141, 2
134136, 134140, 2
134136, 134137, 0
134137, 134138, 1
134137, 134136, 2
