254337, 254331, 2
254337, 254338, 1
254337, 254339, 2
254337, 254336, 2
254347, 254346, 2
254347, 254348, 0
254347, 254349, 1
254342, 254340, 2
254342, 254341, 2
254342, 254343, 1
254350, 254349, 2
254332, 254331, 2
254332, 254334, 2
254332, 254330, 2
254332, 254333, 1
254348, 254349, 2
254348, 254347, 2
254348, 254344, 2
254334, 254331, 2
254334, 254332, 2
254334, 254335, 1
254334, 254336, 2
254334, 254333, 2
254338, 254337, 2
254338, 254339, 1
254339, 254337, 2
254339, 254331, 2
254339, 254338, 2
254339, 254340, 1
254335, 254334, 2
254335, 254336, 1
254343, 254331, 2
254343, 254344, 0
254343, 254342, 2
254343, 254345, 1
254336, 254337, 1
254336, 254331, 2
254336, 254334, 2
254336, 254335, 2
254346, 254349, 2
254346, 254347, 1
254346, 254344, 2
254346, 254345, 2
254349, 254346, 2
254349, 254347, 2
254349, 254350, 1
254349, 254348, 2
254330, 254331, 6
254330, 254332, 1
254341, 254342, 1
254341, 254340, 2
254333, 254331, 2
254333, 254334, 1
254333, 254332, 2
254331, 254337, 2
254331, 254340, 2
254331, 254343, 2
254331, 254333, 2
254331, 254344, 2
254331, 254332, 2
254331, 254339, 2
254331, 254334, 2
254331, 254330, 2
254331, 254336, 2
254345, 254346, 1
254345, 254344, 2
254345, 254343, 2
254344, 254346, 2
254344, 254331, 2
254344, 254345, 2
254344, 254343, 2
254344, 254348, 2
254340, 254331, 2
254340, 254342, 2
254340, 254339, 2
254340, 254341, 1
