134214, 134213, 2
134214, 134215, 1
134213, 134214, 1
134213, 134215, 2
134213, 134216, 2
134219, 134218, 2
134216, 134217, 1
134216, 134213, 2
134216, 134215, 2
134217, 134216, 2
134217, 134218, 1
134215, 134214, 2
134215, 134213, 2
134215, 134216, 1
134218, 134217, 2
134218, 134219, 1
