62537, 62538, 1
62537, 62541, 2
62537, 62540, 2
62537, 62539, 2
62542, 62546, 2
62542, 62540, 2
62542, 62539, 2
62542, 62544, 2
62542, 62547, 2
62542, 62541, 2
62542, 62545, 2
62542, 62543, 2
62546, 62542, 2
62546, 62547, 1
62546, 62544, 2
62546, 62545, 2
62546, 62543, 2
62545, 62542, 2
62545, 62546, 2
62545, 62544, 2
62545, 62543, 2
62538, 62537, 2
62538, 62541, 1
62538, 62540, 8
62538, 62539, 0
62544, 62542, 2
62544, 62546, 1
62544, 62545, 0
62544, 62543, 2
62547, 62542, 2
62547, 62546, 2
62543, 62542, 2
62543, 62546, 2
62543, 62541, 2
62543, 62544, 1
62543, 62545, 2
62541, 62537, 2
62541, 62542, 6
62541, 62538, 2
62541, 62539, 2
62541, 62540, 2
62541, 62543, 1
62540, 62537, 2
62540, 62538, 2
62540, 62542, 2
62540, 62541, 2
62540, 62539, 2
62539, 62537, 2
62539, 62538, 2
62539, 62542, 2
62539, 62541, 2
62539, 62540, 2
