72572, 72571, 2
72572, 72578, 2
72572, 72573, 2
72572, 72574, 2
72574, 72572, 2
72574, 72576, 1
72574, 72571, 2
72574, 72578, 2
72574, 72573, 2
72574, 72575, 3
72576, 72575, 2
72576, 72574, 2
72576, 72578, 2
72576, 72577, 1
72571, 72572, 0
72571, 72573, 1
72571, 72574, 2
72577, 72576, 2
72577, 72578, 6
72578, 72576, 2
72578, 72572, 2
72578, 72574, 2
72578, 72577, 2
72573, 72571, 2
72573, 72575, 2
72573, 72572, 2
72573, 72574, 1
72575, 72576, 2
72575, 72573, 2
72575, 72574, 2
