22288, 22287, 2
22283, 22282, 2
22283, 22284, 1
22283, 22280, 2
22283, 22281, 2
22282, 22283, 1
22282, 22280, 2
22282, 22281, 2
22287, 22288, 1
22287, 22286, 2
22285, 22286, 1
22285, 22284, 2
22285, 22281, 2
22286, 22285, 2
22286, 22287, 1
22286, 22281, 2
22284, 22285, 1
22284, 22283, 2
22284, 22281, 2
22280, 22283, 2
22280, 22282, 1
22280, 22281, 0
22281, 22283, 2
22281, 22282, 2
22281, 22285, 2
22281, 22286, 2
22281, 22284, 2
22281, 22280, 2
