300204, 300206, 0
300204, 300205, 3
300208, 300207, 2
300208, 300205, 2
300207, 300208, 1
300207, 300206, 2
300207, 300205, 2
300206, 300204, 2
300206, 300207, 1
300206, 300205, 2
300205, 300204, 2
300205, 300208, 2
300205, 300207, 2
300205, 300206, 2
