163319, 163322, 2
163319, 163321, 2
163319, 163320, 0
163319, 163318, 2
163314, 163313, 2
163314, 163316, 1
163314, 163315, 8
163314, 163312, 2
163314, 163310, 2
163314, 163311, 2
163310, 163314, 2
163310, 163307, 2
163310, 163305, 2
163310, 163308, 2
163310, 163309, 2
163310, 163312, 2
163310, 163306, 2
163310, 163311, 1
163315, 163314, 2
163315, 163316, 2
163315, 163317, 2
163315, 163318, 2
163318, 163319, 1
163318, 163317, 2
163318, 163315, 2
163306, 163307, 8
163306, 163310, 1
163306, 163305, 2
163306, 163308, 2
163306, 163309, 2
163306, 163304, 2
163306, 163302, 2
163306, 163303, 2
163312, 163313, 2
163312, 163314, 2
163312, 163310, 2
163312, 163311, 2
163316, 163314, 2
163316, 163313, 2
163316, 163317, 1
163316, 163315, 2
163320, 163319, 2
163320, 163322, 2
163320, 163321, 1
163303, 163305, 0
163303, 163302, 2
163303, 163306, 1
163303, 163304, 3
163311, 163313, 0
163311, 163314, 1
163311, 163312, 3
163311, 163310, 2
163313, 163314, 2
163313, 163312, 2
163313, 163316, 2
163313, 163311, 2
163307, 163310, 2
163307, 163306, 2
163307, 163308, 1
163307, 163309, 2
163322, 163319, 2
163322, 163321, 2
163322, 163320, 2
163321, 163319, 2
163321, 163322, 1
163321, 163320, 2
163305, 163304, 2
163305, 163310, 2
163305, 163306, 2
163305, 163303, 2
163308, 163307, 2
163308, 163310, 2
163308, 163306, 2
163308, 163309, 1
163309, 163307, 2
163309, 163310, 2
163309, 163306, 2
163309, 163308, 2
163309, 163304, 2
163304, 163306, 2
163304, 163305, 2
163304, 163309, 2
163304, 163303, 2
163304, 163302, 2
163302, 163306, 2
163302, 163304, 2
163302, 163303, 1
163317, 163316, 2
163317, 163315, 2
163317, 163318, 1
