171624, 171627, 2
171624, 171623, 2
171624, 171625, 3
171624, 171626, 1
171629, 171627, 2
171629, 171628, 2
171629, 171626, 2
171627, 171629, 1
171627, 171624, 2
171627, 171625, 2
171627, 171628, 8
171627, 171626, 2
171623, 171624, 1
171623, 171625, 2
171625, 171624, 2
171625, 171627, 2
171625, 171623, 2
171625, 171628, 2
171625, 171626, 2
171628, 171627, 2
171628, 171629, 2
171628, 171625, 2
171626, 171624, 2
171626, 171627, 3
171626, 171625, 2
171626, 171629, 2
