185466, 185467, 1
185466, 185468, 2
185466, 185465, 2
185459, 185460, 2
185459, 185458, 2
185469, 185468, 2
185469, 185470, 2
185471, 185472, 1
185471, 185470, 2
185460, 185461, 1
185460, 185463, 2
185460, 185458, 2
185460, 185459, 2
185458, 185459, 3
185458, 185460, 1
185474, 185472, 2
185474, 185473, 2
185474, 185475, 1
185461, 185462, 3
185461, 185460, 2
185461, 185463, 1
185472, 185474, 2
185472, 185473, 1
185472, 185471, 2
185473, 185474, 1
185473, 185472, 2
185475, 185474, 2
185467, 185466, 2
185467, 185468, 1
185470, 185469, 2
185470, 185468, 2
185470, 185471, 1
185462, 185461, 2
185462, 185463, 2
185468, 185466, 2
185468, 185467, 2
185468, 185469, 3
185468, 185470, 1
185463, 185464, 1
185463, 185461, 2
185463, 185462, 2
185463, 185460, 2
185463, 185465, 2
185464, 185465, 1
185464, 185463, 2
185465, 185466, 1
185465, 185464, 2
185465, 185463, 2
