163470, 163469, 4
163470, 163468, 2
163470, 163471, 1
163470, 163475, 2
163476, 163479, 2
163476, 163474, 2
163476, 163469, 2
163476, 163477, 2
163476, 163481, 2
163476, 163475, 2
163476, 163482, 2
163475, 163471, 2
163475, 163470, 2
163475, 163474, 2
163475, 163476, 3
163475, 163473, 2
163475, 163469, 2
163475, 163477, 2
163479, 163478, 2
163479, 163476, 2
163479, 163477, 2
163479, 163480, 1
163479, 163481, 2
163479, 163482, 2
163471, 163472, 0
163471, 163469, 2
163471, 163470, 2
163471, 163475, 2
163471, 163473, 1
163482, 163483, 1
163482, 163476, 2
163482, 163479, 2
163482, 163477, 2
163482, 163480, 2
163482, 163481, 2
163473, 163472, 2
163473, 163469, 2
163473, 163471, 2
163473, 163475, 2
163473, 163474, 1
163472, 163469, 2
163472, 163473, 2
163472, 163471, 2
163477, 163479, 2
163477, 163474, 2
163477, 163476, 2
163477, 163469, 2
163477, 163481, 8
163477, 163475, 2
163477, 163482, 1
163477, 163478, 0
163481, 163479, 2
163481, 163478, 2
163481, 163476, 2
163481, 163483, 2
163481, 163477, 2
163481, 163480, 2
163481, 163482, 2
163464, 163469, 2
163464, 163463, 2
163464, 163465, 1
163466, 163469, 2
163466, 163467, 1
163466, 163465, 2
163474, 163469, 2
163474, 163477, 1
163474, 163475, 3
163474, 163476, 2
163474, 163473, 2
163463, 163469, 2
163463, 163462, 2
163463, 163464, 1
163483, 163469, 2
163483, 163481, 2
163483, 163482, 2
163469, 163470, 2
163469, 163466, 2
163469, 163474, 2
163469, 163476, 2
163469, 163483, 2
163469, 163477, 2
163469, 163463, 2
163469, 163475, 2
163469, 163465, 2
163469, 163467, 2
163469, 163468, 2
163469, 163471, 2
163469, 163462, 2
163469, 163472, 2
163469, 163473, 2
163469, 163464, 2
163462, 163469, 2
163462, 163463, 1
163467, 163469, 2
163467, 163468, 1
163467, 163466, 2
163465, 163469, 2
163465, 163464, 2
163465, 163466, 1
163468, 163469, 2
163468, 163470, 1
163468, 163467, 2
163480, 163479, 2
163480, 163481, 2
163480, 163482, 2
163478, 163477, 2
163478, 163481, 2
163478, 163479, 1
