253103, 253105, 2
253103, 253104, 1
253103, 253101, 2
253103, 253102, 2
253099, 253100, 1
253112, 253111, 2
253112, 253113, 2
253108, 253109, 1
253108, 253107, 2
253105, 253103, 2
253105, 253106, 2
253105, 253107, 2
253105, 253104, 2
253107, 253105, 2
253107, 253106, 2
253107, 253104, 2
253107, 253108, 1
253104, 253103, 2
253104, 253105, 3
253104, 253107, 1
253104, 253106, 0
253101, 253103, 1
253101, 253100, 2
253101, 253102, 0
253109, 253110, 1
253109, 253108, 2
253111, 253110, 2
253111, 253113, 1
253111, 253112, 3
253113, 253111, 2
253113, 253112, 2
253102, 253103, 2
253102, 253101, 2
253100, 253099, 2
253100, 253101, 1
253110, 253111, 1
253110, 253109, 2
253106, 253105, 2
253106, 253107, 2
253106, 253104, 2
