65297, 65298, 1
65297, 65299, 2
65297, 65296, 2
65297, 65295, 2
65301, 65302, 1
65301, 65299, 2
65301, 65300, 2
65304, 65302, 2
65304, 65303, 2
65304, 65305, 1
65312, 65310, 2
65312, 65313, 1
65312, 65311, 2
65298, 65297, 2
65298, 65299, 1
65299, 65297, 2
65299, 65302, 2
65299, 65298, 2
65299, 65301, 2
65299, 65300, 1
65306, 65309, 2
65306, 65308, 1
65306, 65307, 8
65306, 65310, 2
65306, 65305, 2
65311, 65313, 2
65311, 65310, 2
65311, 65312, 1
65310, 65308, 2
65310, 65307, 2
65310, 65313, 2
65310, 65309, 2
65310, 65312, 2
65310, 65306, 2
65310, 65311, 1
65308, 65309, 6
65308, 65307, 2
65308, 65310, 1
65308, 65306, 2
65308, 65305, 2
65307, 65309, 2
65307, 65310, 2
65307, 65308, 2
65307, 65305, 2
65307, 65306, 2
65296, 65297, 1
65296, 65295, 2
65300, 65299, 2
65300, 65301, 1
65309, 65308, 2
65309, 65307, 2
65309, 65310, 2
65309, 65306, 2
65309, 65305, 2
65302, 65303, 1
65302, 65299, 2
65302, 65301, 2
65302, 65304, 2
65303, 65302, 2
65303, 65304, 1
65313, 65312, 2
65313, 65310, 2
65313, 65311, 2
65295, 65297, 2
65295, 65296, 1
65305, 65309, 2
65305, 65308, 2
65305, 65307, 2
65305, 65306, 1
65305, 65304, 2
