221226, 221228, 8
221226, 221227, 3
221226, 221229, 1
221230, 221228, 2
221230, 221227, 2
221230, 221229, 2
221228, 221226, 2
221228, 221230, 2
221228, 221227, 2
221228, 221229, 2
221227, 221226, 2
221227, 221230, 2
221227, 221228, 2
221227, 221229, 2
221229, 221226, 2
221229, 221228, 2
221229, 221227, 2
221229, 221230, 3
