15343, 15344, 3
15343, 15342, 2
15343, 15345, 1
15343, 15341, 2
15343, 15339, 2
15343, 15340, 2
15344, 15342, 2
15344, 15343, 2
15344, 15345, 2
15344, 15346, 2
15346, 15345, 2
15346, 15344, 2
15338, 15339, 1
15342, 15343, 2
15342, 15344, 2
15342, 15341, 2
15345, 15343, 2
15345, 15344, 2
15345, 15346, 3
15345, 15340, 2
15345, 15339, 2
15341, 15342, 3
15341, 15343, 1
15341, 15339, 2
15341, 15340, 2
15339, 15343, 2
15339, 15345, 2
15339, 15341, 2
15339, 15340, 1
15339, 15338, 2
15340, 15343, 2
15340, 15345, 2
15340, 15341, 3
15340, 15339, 2
