21345, 21342, 2
21345, 21343, 2
21345, 21344, 2
21341, 21342, 3
21341, 21344, 1
21341, 21343, 0
21342, 21345, 2
21342, 21341, 2
21342, 21344, 2
21342, 21343, 2
21344, 21345, 1
21344, 21341, 2
21344, 21342, 2
21344, 21343, 2
21343, 21345, 2
21343, 21341, 2
21343, 21342, 2
21343, 21344, 2
