120775, 120773, 2
120775, 120779, 2
120775, 120776, 1
120775, 120774, 2
120777, 120773, 2
120777, 120776, 2
120777, 120778, 1
120777, 120779, 2
120776, 120775, 2
120776, 120777, 1
120776, 120779, 2
120776, 120773, 2
120778, 120773, 2
120778, 120777, 2
120778, 120779, 2
120768, 120769, 1
120768, 120767, 2
120768, 120766, 2
120765, 120764, 2
120765, 120767, 2
120765, 120766, 1
120773, 120775, 2
120773, 120777, 2
120773, 120776, 2
120773, 120778, 2
120773, 120779, 1
120773, 120772, 2
120773, 120774, 0
120769, 120771, 2
120769, 120767, 2
120769, 120772, 1
120769, 120774, 2
120769, 120770, 3
120769, 120766, 2
120769, 120768, 2
120774, 120775, 1
120774, 120779, 2
120774, 120773, 2
120774, 120772, 2
120774, 120769, 2
120774, 120766, 2
120764, 120767, 2
120764, 120765, 1
120771, 120779, 2
120771, 120772, 2
120771, 120769, 2
120771, 120770, 2
120779, 120775, 2
120779, 120777, 2
120779, 120776, 2
120779, 120778, 2
120779, 120771, 2
120779, 120773, 2
120779, 120772, 2
120779, 120774, 2
120772, 120771, 2
120772, 120779, 2
120772, 120773, 1
120772, 120769, 2
120772, 120774, 2
120772, 120770, 2
120770, 120771, 1
120770, 120772, 2
120770, 120769, 2
120770, 120767, 2
120770, 120766, 2
120766, 120767, 3
120766, 120765, 2
120766, 120769, 2
120766, 120774, 2
120766, 120770, 2
120766, 120768, 1
120767, 120768, 2
120767, 120765, 2
120767, 120764, 2
120767, 120769, 2
120767, 120770, 2
120767, 120766, 2
