171444, 171445, 4
171444, 171446, 6
171444, 171442, 2
171444, 171441, 2
171444, 171443, 2
171446, 171444, 2
171446, 171439, 2
171446, 171442, 2
171446, 171441, 2
171446, 171443, 2
171439, 171446, 2
171439, 171441, 2
171439, 171440, 1
171445, 171444, 2
171445, 171442, 2
171445, 171441, 2
171445, 171443, 2
171440, 171439, 2
171440, 171441, 1
171442, 171444, 2
171442, 171445, 2
171442, 171446, 2
171442, 171441, 2
171442, 171443, 2
171441, 171444, 2
171441, 171446, 2
171441, 171439, 2
171441, 171445, 2
171441, 171440, 2
171441, 171442, 1
171441, 171443, 0
171443, 171444, 1
171443, 171445, 2
171443, 171446, 2
171443, 171442, 2
171443, 171441, 2
