15787, 15786, 2
15787, 15788, 2
15787, 15789, 2
15792, 15793, 0
15792, 15791, 2
15792, 15785, 2
15792, 15790, 2
15783, 15784, 1
15785, 15793, 2
15785, 15792, 2
15785, 15788, 2
15785, 15784, 2
15785, 15786, 3
15785, 15790, 1
15793, 15792, 2
15793, 15785, 2
15784, 15788, 2
15784, 15786, 2
15784, 15783, 2
15784, 15785, 1
15784, 15790, 2
15788, 15787, 2
15788, 15785, 2
15788, 15784, 2
15788, 15786, 2
15788, 15790, 2
15788, 15789, 3
15786, 15784, 2
15786, 15787, 3
15786, 15788, 1
15786, 15785, 2
15786, 15790, 2
15791, 15792, 2
15791, 15790, 2
15791, 15789, 2
15790, 15792, 1
15790, 15788, 2
15790, 15785, 2
15790, 15784, 2
15790, 15786, 2
15790, 15791, 3
15790, 15789, 2
15789, 15787, 2
15789, 15791, 2
15789, 15788, 2
15789, 15790, 2
