119165, 119164, 2
119165, 119161, 2
119165, 119166, 2
119162, 119163, 2
119162, 119164, 2
119162, 119161, 2
119162, 119168, 2
119162, 119159, 2
119162, 119157, 2
119162, 119167, 2
119162, 119160, 2
119162, 119166, 2
119168, 119162, 2
119168, 119164, 2
119168, 119161, 2
119168, 119169, 2
119168, 119167, 2
119168, 119166, 2
119158, 119157, 2
119158, 119159, 1
119169, 119167, 2
119169, 119168, 2
119157, 119158, 1
119157, 119162, 2
119157, 119159, 2
119166, 119165, 2
119166, 119162, 2
119166, 119167, 1
119166, 119168, 2
119166, 119164, 2
119163, 119162, 2
119163, 119164, 1
119163, 119161, 2
119167, 119162, 2
119167, 119169, 1
119167, 119168, 0
119167, 119166, 2
119161, 119165, 2
119161, 119162, 0
119161, 119164, 2
119161, 119168, 2
119161, 119163, 1
119161, 119160, 2
119159, 119158, 2
119159, 119162, 2
119159, 119157, 2
119159, 119160, 1
119164, 119165, 3
119164, 119162, 2
119164, 119161, 2
119164, 119168, 2
119164, 119163, 2
119164, 119166, 1
119160, 119162, 2
119160, 119161, 1
119160, 119159, 2
