340581, 340583, 1
340581, 340582, 8
340581, 340580, 2
340583, 340581, 2
340583, 340584, 1
340583, 340582, 2
340582, 340581, 2
340582, 340583, 2
340582, 340586, 2
340579, 340580, 1
340586, 340585, 2
340586, 340582, 2
340584, 340585, 1
340584, 340583, 2
340585, 340584, 2
340585, 340586, 1
340580, 340579, 2
340580, 340581, 1
