221111, 221113, 8
221111, 221114, 1
221111, 221112, 3
221113, 221111, 2
221113, 221115, 2
221113, 221114, 2
221113, 221112, 2
221115, 221113, 2
221115, 221114, 2
221115, 221112, 2
221114, 221111, 2
221114, 221113, 2
221114, 221115, 3
221114, 221112, 2
221112, 221111, 2
221112, 221113, 2
221112, 221115, 2
221112, 221114, 2
