171488, 171489, 1
171488, 171490, 2
171488, 171487, 2
171488, 171491, 2
171488, 171493, 2
171488, 171492, 2
171489, 171488, 2
171489, 171493, 2
171489, 171492, 2
171489, 171490, 4
171489, 171491, 6
171490, 171488, 2
171490, 171487, 2
171490, 171489, 2
171490, 171492, 1
171487, 171488, 1
171487, 171490, 2
171487, 171491, 2
171492, 171488, 2
171492, 171489, 2
171492, 171490, 2
171492, 171493, 1
171493, 171488, 2
171493, 171489, 2
171493, 171492, 2
171491, 171488, 2
171491, 171487, 2
171491, 171489, 2
