171901, 171900, 2
171901, 171902, 1
171901, 171898, 2
171900, 171901, 1
171900, 171897, 2
171900, 171896, 2
171900, 171899, 2
171900, 171898, 2
171896, 171900, 2
171896, 171899, 1
171896, 171895, 2
171896, 171897, 3
171895, 171897, 2
171895, 171896, 1
171897, 171895, 2
171897, 171900, 2
171897, 171896, 2
171897, 171899, 2
171897, 171898, 3
171902, 171901, 2
171902, 171898, 2
171898, 171901, 2
171898, 171900, 2
171898, 171902, 2
171898, 171899, 2
171898, 171897, 2
171899, 171900, 1
171899, 171896, 2
171899, 171898, 2
171899, 171897, 2
