162074, 162073, 2
162074, 162075, 1
162063, 162062, 2
162063, 162064, 1
162064, 162067, 2
162064, 162065, 1
162064, 162063, 2
162064, 162066, 2
162064, 162061, 2
162061, 162062, 1
162061, 162067, 2
162061, 162064, 2
162071, 162073, 1
162071, 162067, 2
162071, 162072, 8
162071, 162070, 2
162071, 162068, 2
162069, 162072, 2
162069, 162070, 1
162069, 162068, 2
162068, 162071, 2
162068, 162072, 2
162068, 162070, 2
162068, 162069, 1
162068, 162067, 2
162068, 162066, 2
162062, 162067, 2
162062, 162063, 1
162062, 162061, 2
162065, 162066, 1
162065, 162064, 2
162072, 162071, 2
162072, 162070, 2
162072, 162069, 2
162072, 162073, 2
162072, 162067, 2
162072, 162068, 2
162072, 162075, 2
162070, 162067, 2
162070, 162071, 1
162070, 162072, 2
162070, 162068, 2
162070, 162069, 2
162066, 162067, 8
162066, 162065, 2
162066, 162068, 1
162066, 162064, 2
162073, 162074, 1
162073, 162072, 2
162073, 162071, 2
162073, 162075, 2
162067, 162062, 2
162067, 162071, 2
162067, 162072, 2
162067, 162070, 2
162067, 162064, 2
162067, 162061, 2
162067, 162068, 2
162067, 162066, 2
162075, 162073, 2
162075, 162074, 2
162075, 162072, 2
