197586, 197588, 2
197586, 197587, 1
197586, 197585, 2
197588, 197586, 2
197588, 197589, 2
197588, 197587, 2
197587, 197586, 2
197587, 197588, 8
197587, 197589, 1
197587, 197585, 2
197585, 197586, 1
197585, 197587, 2
197593, 197591, 2
197593, 197592, 2
197589, 197590, 1
197589, 197588, 2
197589, 197587, 2
197589, 197591, 2
197589, 197592, 2
197590, 197589, 2
197590, 197591, 1
197590, 197592, 2
197591, 197590, 2
197591, 197593, 1
197591, 197589, 2
197591, 197592, 8
197592, 197590, 2
197592, 197593, 2
197592, 197589, 2
197592, 197591, 2
