259497, 259496, 2
259497, 259495, 2
259494, 259493, 2
259494, 259495, 1
259495, 259497, 2
259495, 259493, 2
259495, 259496, 1
259495, 259494, 2
259493, 259492, 2
259493, 259494, 1
259493, 259495, 2
259492, 259493, 1
259492, 259491, 2
259496, 259497, 1
259496, 259495, 2
259491, 259492, 1
