68814, 68807, 2
68814, 68813, 2
68814, 68811, 2
68814, 68815, 2
68814, 68812, 2
68814, 68809, 2
68811, 68814, 2
68811, 68832, 2
68811, 68828, 2
68811, 68808, 2
68811, 68833, 2
68811, 68817, 2
68811, 68819, 2
68811, 68806, 2
68811, 68804, 2
68811, 68807, 2
68811, 68813, 2
68811, 68815, 2
68811, 68826, 2
68811, 68827, 2
68811, 68812, 2
68811, 68829, 2
68811, 68831, 2
68811, 68809, 2
68811, 68830, 2
68816, 68813, 2
68816, 68817, 1
68816, 68815, 2
68822, 68813, 2
68822, 68823, 1
68822, 68821, 2
68822, 68820, 2
68822, 68818, 2
68822, 68819, 2
68833, 68813, 2
68833, 68828, 2
68833, 68811, 2
68833, 68810, 2
68833, 68820, 2
68833, 68829, 2
68833, 68831, 2
68833, 68830, 2
68833, 68819, 2
68833, 68832, 2
68826, 68827, 1
68826, 68811, 2
68826, 68819, 2
68826, 68825, 2
68801, 68800, 2
68801, 68804, 2
68801, 68807, 2
68801, 68810, 2
68801, 68803, 1
68801, 68802, 0
68803, 68804, 1
68803, 68800, 2
68803, 68801, 2
68803, 68807, 2
68803, 68802, 2
68824, 68819, 2
68824, 68825, 1
68824, 68823, 2
68806, 68804, 2
68806, 68807, 2
68806, 68811, 2
68806, 68808, 1
68806, 68810, 2
68806, 68805, 2
68806, 68809, 2
68806, 68800, 2
68804, 68800, 2
68804, 68807, 2
68804, 68802, 2
68804, 68811, 2
68804, 68808, 2
68804, 68810, 2
68804, 68805, 0
68804, 68801, 2
68804, 68803, 2
68804, 68806, 1
68804, 68809, 2
68813, 68800, 2
68813, 68814, 2
68813, 68828, 2
68813, 68811, 2
68813, 68816, 2
68813, 68808, 2
68813, 68810, 2
68813, 68820, 2
68813, 68805, 2
68813, 68817, 2
68813, 68822, 2
68813, 68815, 2
68813, 68833, 2
68813, 68821, 2
68813, 68827, 2
68813, 68812, 2
68813, 68818, 2
68813, 68809, 2
68813, 68823, 2
68813, 68831, 2
68812, 68814, 3
68812, 68813, 6
68812, 68811, 2
68812, 68815, 1
68812, 68808, 2
68812, 68810, 2
68812, 68809, 2
68802, 68804, 2
68802, 68800, 2
68802, 68805, 2
68802, 68810, 2
68802, 68801, 2
68802, 68803, 2
68800, 68797, 2
68800, 68808, 2
68800, 68810, 2
68800, 68799, 2
68800, 68805, 2
68800, 68798, 2
68800, 68803, 2
68800, 68806, 2
68800, 68804, 2
68800, 68807, 2
68800, 68813, 2
68800, 68820, 2
68800, 68801, 1
68800, 68802, 2
68828, 68813, 2
68828, 68811, 2
68828, 68833, 2
68828, 68810, 2
68828, 68827, 2
68828, 68829, 1
68828, 68831, 2
68797, 68800, 2
68797, 68799, 1
68797, 68798, 3
68808, 68804, 2
68808, 68807, 4
68808, 68813, 2
68808, 68811, 2
68808, 68805, 2
68808, 68810, 6
68808, 68812, 1
68808, 68809, 2
68808, 68800, 2
68808, 68806, 2
68810, 68800, 2
68810, 68828, 2
68810, 68808, 2
68810, 68820, 2
68810, 68805, 2
68810, 68801, 2
68810, 68806, 2
68810, 68804, 2
68810, 68813, 2
68810, 68815, 2
68810, 68833, 2
68810, 68827, 2
68810, 68812, 2
68810, 68831, 2
68810, 68823, 2
68810, 68802, 2
68799, 68800, 1
68799, 68798, 2
68799, 68797, 2
68805, 68804, 2
68805, 68807, 2
68805, 68813, 2
68805, 68808, 2
68805, 68810, 2
68805, 68809, 2
68805, 68800, 2
68805, 68806, 2
68805, 68802, 2
68798, 68800, 2
68798, 68799, 2
68798, 68797, 2
68825, 68827, 2
68825, 68819, 2
68825, 68823, 2
68825, 68824, 2
68825, 68826, 1
68819, 68811, 2
68819, 68822, 2
68819, 68833, 2
68819, 68817, 2
68819, 68824, 2
68819, 68825, 2
68819, 68820, 2
68819, 68830, 2
68819, 68826, 2
68819, 68821, 2
68819, 68829, 2
68819, 68818, 2
68819, 68823, 2
68819, 68831, 2
68832, 68833, 2
68832, 68831, 2
68832, 68811, 2
68807, 68804, 2
68807, 68814, 2
68807, 68809, 1
68807, 68811, 2
68807, 68808, 2
68807, 68800, 2
68807, 68805, 2
68807, 68801, 2
68807, 68803, 2
68807, 68806, 2
68809, 68804, 2
68809, 68814, 2
68809, 68813, 2
68809, 68811, 1
68809, 68808, 2
68809, 68812, 2
68809, 68805, 2
68809, 68807, 2
68809, 68806, 2
68830, 68833, 2
68830, 68829, 2
68830, 68831, 1
68830, 68811, 2
68830, 68819, 2
68815, 68814, 2
68815, 68813, 2
68815, 68811, 2
68815, 68816, 1
68815, 68810, 2
68815, 68812, 2
68820, 68800, 2
68820, 68821, 2
68820, 68813, 2
68820, 68822, 2
68820, 68833, 2
68820, 68818, 2
68820, 68817, 2
68820, 68819, 2
68820, 68810, 2
68821, 68822, 1
68821, 68820, 2
68821, 68813, 2
68821, 68818, 2
68821, 68819, 2
68827, 68813, 2
68827, 68828, 1
68827, 68811, 2
68827, 68826, 2
68827, 68810, 2
68827, 68825, 2
68829, 68833, 2
68829, 68830, 1
68829, 68828, 2
68829, 68811, 2
68829, 68819, 2
68818, 68822, 2
68818, 68813, 2
68818, 68821, 1
68818, 68820, 0
68818, 68817, 2
68818, 68819, 3
68817, 68813, 2
68817, 68811, 2
68817, 68816, 2
68817, 68820, 2
68817, 68818, 1
68817, 68819, 2
68823, 68810, 2
68823, 68813, 2
68823, 68819, 2
68823, 68822, 2
68823, 68825, 2
68823, 68824, 1
68831, 68813, 2
68831, 68828, 2
68831, 68811, 2
68831, 68810, 2
68831, 68833, 1
68831, 68830, 2
68831, 68819, 2
68831, 68832, 3
