197344, 197343, 2
197344, 197345, 1
197341, 197342, 1
197341, 197340, 2
197342, 197341, 2
197342, 197343, 1
197340, 197341, 1
197340, 197339, 2
197339, 197340, 1
197345, 197344, 2
197343, 197344, 1
197343, 197342, 2
