195916, 195913, 2
195916, 195915, 2
195916, 195917, 1
195916, 195914, 2
195912, 195914, 2
195912, 195910, 2
195912, 195911, 2
195912, 195913, 1
195911, 195912, 2
195911, 195908, 2
195911, 195910, 2
195908, 195910, 2
195908, 195911, 2
195908, 195907, 2
195908, 195909, 2
195913, 195916, 1
195913, 195912, 2
195913, 195917, 2
195913, 195915, 8
195913, 195914, 3
195917, 195916, 2
195917, 195914, 2
195917, 195913, 2
195915, 195916, 2
195915, 195913, 2
195915, 195914, 2
195914, 195916, 2
195914, 195915, 2
195914, 195912, 2
195914, 195917, 2
195914, 195913, 2
195907, 195908, 3
195907, 195909, 1
195909, 195908, 2
195909, 195907, 2
195909, 195910, 1
195910, 195912, 1
195910, 195911, 3
195910, 195908, 2
195910, 195909, 2
