15643, 15641, 2
15643, 15645, 8
15643, 15640, 2
15643, 15644, 3
15643, 15646, 1
15643, 15642, 2
15650, 15649, 2
15650, 15647, 2
15641, 15643, 2
15641, 15640, 2
15641, 15642, 2
15645, 15643, 2
15645, 15644, 2
15645, 15646, 2
15640, 15643, 2
15640, 15641, 0
15640, 15642, 1
15647, 15650, 2
15647, 15648, 2
15647, 15646, 2
15647, 15649, 2
15648, 15647, 2
15648, 15646, 2
15648, 15649, 2
15649, 15650, 0
15649, 15648, 2
15649, 15647, 2
15649, 15646, 2
15644, 15643, 2
15644, 15646, 2
15644, 15645, 2
15646, 15643, 2
15646, 15648, 8
15646, 15647, 0
15646, 15644, 2
15646, 15649, 1
15646, 15645, 2
15642, 15643, 1
15642, 15641, 2
15642, 15640, 2
