336377, 336378, 8
336377, 336379, 1
336377, 336376, 2
336372, 336373, 1
336372, 336370, 2
336372, 336375, 2
336372, 336371, 2
336370, 336369, 2
336370, 336372, 1
336370, 336371, 8
336366, 336369, 2
336366, 336367, 1
336366, 336365, 2
336373, 336374, 1
336373, 336372, 2
336379, 336380, 1
336379, 336377, 2
336379, 336378, 2
336362, 336364, 2
336362, 336363, 1
336374, 336373, 2
336374, 336375, 1
336367, 336368, 1
336367, 336369, 2
336367, 336366, 2
336369, 336368, 2
336369, 336370, 1
336369, 336367, 2
336369, 336366, 2
336375, 336374, 2
336375, 336376, 1
336375, 336372, 2
336375, 336378, 2
336380, 336381, 1
336380, 336379, 2
336380, 336382, 2
336376, 336375, 2
336376, 336377, 1
336381, 336380, 2
336381, 336382, 1
336378, 336375, 2
336378, 336377, 2
336378, 336379, 2
336378, 336382, 2
336368, 336367, 2
336368, 336369, 1
336365, 336364, 2
336365, 336366, 1
336382, 336380, 2
336382, 336378, 2
336382, 336381, 2
336363, 336362, 2
336363, 336364, 1
336364, 336365, 1
336364, 336362, 2
336364, 336363, 2
336371, 336370, 2
336371, 336372, 2
