296007, 296009, 1
296007, 296008, 3
296007, 296006, 2
296015, 296014, 2
296015, 296017, 2
296015, 296009, 2
296015, 296016, 1
296015, 296010, 2
296011, 296014, 2
296011, 296009, 2
296011, 296010, 2
296011, 296012, 2
296011, 296013, 2
296011, 296008, 2
296010, 296012, 1
296010, 296009, 2
296010, 296011, 3
296010, 296015, 2
296005, 296008, 2
296005, 296006, 1
296018, 296019, 1
296018, 296014, 2
296018, 296017, 2
296012, 296014, 1
296012, 296013, 3
296012, 296011, 2
296012, 296010, 2
296019, 296014, 2
296019, 296018, 2
296014, 296019, 2
296014, 296011, 2
296014, 296015, 0
296014, 296012, 2
296014, 296018, 2
296014, 296013, 2
296014, 296016, 2
296014, 296017, 2
296009, 296007, 2
296009, 296015, 2
296009, 296008, 2
296009, 296011, 2
296009, 296010, 1
296017, 296014, 2
296017, 296018, 1
296017, 296016, 2
296017, 296015, 2
296016, 296014, 2
296016, 296015, 2
296016, 296017, 1
296013, 296014, 2
296013, 296012, 2
296013, 296011, 2
296008, 296005, 2
296008, 296007, 2
296008, 296009, 2
296008, 296011, 2
296008, 296006, 2
296006, 296005, 2
296006, 296007, 1
296006, 296008, 2
