62185, 62186, 1
62185, 62184, 2
62185, 62182, 2
62185, 62183, 2
62185, 62181, 2
62185, 62188, 2
62185, 62187, 2
62183, 62185, 2
62183, 62181, 2
62183, 62184, 1
62183, 62182, 2
62190, 62189, 2
62190, 62187, 2
62184, 62185, 2
62184, 62183, 2
62184, 62181, 2
62182, 62185, 2
62182, 62183, 1
62182, 62181, 2
62186, 62185, 2
62186, 62187, 8
62186, 62188, 1
62181, 62185, 1
62181, 62183, 2
62181, 62184, 2
62181, 62182, 0
62188, 62185, 2
62188, 62186, 2
62188, 62187, 2
62188, 62189, 1
62189, 62190, 1
62189, 62187, 2
62189, 62188, 2
62187, 62185, 2
62187, 62186, 2
62187, 62190, 2
62187, 62189, 2
62187, 62188, 2
