166493, 166492, 2
166493, 166491, 2
166493, 166490, 2
166490, 166492, 0
166490, 166491, 3
166490, 166493, 2
166491, 166493, 3
166491, 166490, 2
166491, 166492, 2
166492, 166490, 2
166492, 166491, 2
166492, 166493, 2
