301384, 301381, 2
301384, 301383, 6
301384, 301382, 2
301384, 301378, 2
301384, 301380, 2
301382, 301384, 1
301382, 301381, 2
301382, 301383, 2
301382, 301380, 2
301378, 301384, 2
301378, 301377, 2
301378, 301381, 2
301378, 301379, 2
301378, 301380, 2
301379, 301377, 2
301379, 301381, 1
301379, 301378, 2
301379, 301380, 2
301380, 301384, 2
301380, 301382, 2
301380, 301378, 2
301380, 301379, 2
301380, 301377, 2
301380, 301381, 2
301380, 301383, 2
301377, 301383, 2
301377, 301381, 2
301377, 301379, 1
301377, 301378, 6
301377, 301380, 2
301381, 301384, 2
301381, 301383, 2
301381, 301378, 2
301381, 301379, 2
301381, 301380, 6
301381, 301377, 2
301381, 301382, 1
301383, 301384, 2
301383, 301377, 2
301383, 301381, 2
301383, 301382, 2
301383, 301380, 2
