301284, 301283, 2
301284, 301282, 2
301281, 301279, 2
301281, 301282, 8
301281, 301280, 2
301281, 301278, 2
301281, 301283, 1
301282, 301281, 2
301282, 301284, 2
301282, 301280, 2
301282, 301283, 2
301279, 301281, 2
301279, 301280, 2
301279, 301278, 2
301279, 301283, 2
301280, 301279, 2
301280, 301281, 2
301280, 301282, 2
301280, 301283, 2
301278, 301279, 3
301278, 301281, 1
301278, 301283, 2
301283, 301284, 3
301283, 301281, 2
301283, 301282, 2
301283, 301279, 2
301283, 301280, 2
301283, 301278, 2
