66160, 66161, 1
66160, 66159, 2
66175, 66177, 1
66175, 66174, 2
66175, 66176, 8
66175, 66178, 2
66173, 66174, 1
66173, 66172, 2
66172, 66169, 2
66172, 66171, 2
66172, 66170, 2
66172, 66173, 1
66169, 66171, 1
66169, 66170, 8
66169, 66172, 2
66169, 66168, 2
66165, 66164, 2
66165, 66167, 2
66165, 66162, 2
66165, 66163, 2
66165, 66166, 1
66166, 66165, 2
66166, 66167, 1
66166, 66168, 2
66161, 66160, 2
66161, 66162, 1
66174, 66175, 1
66174, 66173, 2
66167, 66165, 2
66167, 66168, 1
66167, 66166, 2
66176, 66177, 2
66176, 66175, 2
66176, 66178, 2
66163, 66164, 2
66163, 66165, 2
66163, 66162, 2
66177, 66175, 2
66177, 66176, 2
66177, 66178, 1
66157, 66156, 2
66157, 66158, 2
66178, 66177, 2
66178, 66175, 2
66178, 66176, 2
66164, 66165, 1
66164, 66162, 2
66164, 66163, 2
66158, 66157, 2
66158, 66156, 2
66158, 66159, 1
66171, 66169, 2
66171, 66170, 2
66171, 66172, 1
66170, 66169, 2
66170, 66171, 2
66170, 66172, 2
66162, 66161, 2
66162, 66164, 1
66162, 66165, 2
66162, 66163, 8
66159, 66160, 1
66159, 66158, 2
66168, 66169, 1
66168, 66167, 2
66168, 66166, 2
66156, 66157, 0
66156, 66158, 1
