222417, 222416, 2
222417, 222418, 1
222411, 222412, 1
222418, 222417, 2
222418, 222419, 1
222414, 222412, 2
222414, 222413, 2
222414, 222415, 2
222419, 222418, 2
222412, 222411, 2
222412, 222414, 2
222412, 222413, 1
222416, 222417, 1
222416, 222413, 2
222416, 222415, 2
222413, 222412, 2
222413, 222416, 2
222413, 222414, 3
222413, 222415, 1
222415, 222416, 1
222415, 222414, 2
222415, 222413, 2
