68011, 68012, 1
68011, 68009, 2
68011, 68010, 2
68021, 68023, 1
68021, 68020, 2
68021, 68022, 8
68016, 68017, 2
68016, 68019, 2
68016, 68015, 2
68016, 68018, 2
68007, 68008, 1
68007, 68006, 2
68007, 68005, 2
68010, 68011, 1
68010, 68009, 2
68017, 68019, 2
68017, 68016, 2
68017, 68018, 1
68017, 68015, 2
68005, 68006, 1
68005, 68007, 2
68012, 68011, 2
68012, 68013, 1
68034, 68033, 2
68009, 68011, 2
68009, 68008, 2
68009, 68010, 1
68015, 68017, 1
68015, 68016, 0
68015, 68014, 2
68008, 68007, 2
68008, 68009, 1
68014, 68015, 1
68014, 68013, 2
68013, 68012, 2
68013, 68014, 1
68020, 68021, 1
68020, 68019, 2
68020, 68023, 2
68020, 68022, 2
68006, 68007, 1
68006, 68005, 2
68031, 68032, 1
68031, 68033, 2
68031, 68030, 2
68018, 68017, 2
68018, 68019, 1
68018, 68016, 2
68023, 68021, 2
68023, 68020, 2
68023, 68024, 1
68023, 68022, 2
68019, 68017, 2
68019, 68020, 1
68019, 68016, 2
68019, 68022, 2
68019, 68018, 2
68025, 68026, 1
68025, 68024, 2
68030, 68029, 2
68030, 68031, 1
68029, 68027, 2
68029, 68028, 2
68029, 68030, 1
68032, 68033, 1
68032, 68031, 2
68022, 68021, 2
68022, 68023, 2
68022, 68019, 2
68022, 68020, 2
68024, 68023, 2
68024, 68025, 1
68033, 68032, 2
68033, 68034, 1
68033, 68031, 2
68026, 68027, 1
68026, 68025, 2
68027, 68029, 2
68027, 68026, 2
68027, 68028, 1
68028, 68029, 1
68028, 68027, 2
