625778, 625780, 2
625778, 625781, 2
625778, 625779, 1
625778, 625784, 2
625780, 625778, 2
625780, 625781, 6
625780, 625784, 2
625780, 625779, 2
625780, 625783, 2
625780, 625782, 1
625784, 625780, 2
625784, 625779, 2
625784, 625783, 2
625784, 625778, 2
625783, 625780, 2
625783, 625784, 3
625783, 625781, 2
625783, 625782, 2
625779, 625778, 2
625779, 625780, 1
625779, 625784, 2
625781, 625778, 2
625781, 625780, 2
625781, 625783, 2
625782, 625780, 2
625782, 625783, 1
