642114, 642115, 1
642114, 642113, 2
642120, 642119, 2
642120, 642116, 2
642109, 642110, 8
642109, 642111, 1
642109, 642112, 2
642109, 642108, 2
642110, 642109, 2
642110, 642108, 2
642110, 642111, 2
642116, 642117, 0
642116, 642115, 2
642116, 642120, 1
642111, 642109, 2
642111, 642110, 2
642111, 642112, 1
642111, 642108, 2
642112, 642109, 2
642112, 642111, 2
642112, 642113, 1
642113, 642114, 1
642113, 642115, 2
642113, 642112, 2
642118, 642119, 1
642118, 642117, 2
642119, 642120, 2
642119, 642118, 2
642108, 642109, 1
642108, 642110, 2
642108, 642111, 2
642108, 642107, 2
642117, 642116, 2
642117, 642118, 1
642115, 642114, 2
642115, 642116, 1
642115, 642113, 2
642107, 642108, 1
