550340, 550342, 1
550340, 550341, 0
550340, 550339, 2
550340, 550343, 2
550333, 550335, 2
550333, 550334, 1
550333, 550332, 2
550341, 550340, 2
550341, 550342, 2
550341, 550343, 2
550341, 550339, 2
550336, 550337, 1
550336, 550335, 2
550342, 550340, 2
550342, 550341, 2
550342, 550343, 1
550342, 550339, 2
550332, 550333, 1
550332, 550334, 2
550332, 550331, 2
550337, 550336, 2
550337, 550335, 2
550337, 550338, 1
550343, 550340, 2
550343, 550342, 2
550343, 550344, 1
550343, 550341, 2
550329, 550330, 1
550335, 550336, 1
550335, 550333, 2
550335, 550334, 2
550335, 550337, 2
550344, 550343, 2
550338, 550337, 2
550338, 550339, 1
550330, 550329, 2
550330, 550331, 1
550334, 550333, 2
550334, 550332, 2
550334, 550335, 1
550331, 550330, 2
550331, 550332, 1
550339, 550340, 1
550339, 550342, 2
550339, 550341, 2
550339, 550338, 2
