570193, 570194, 1
570193, 570191, 2
570193, 570189, 2
570193, 570192, 2
570194, 570193, 2
570194, 570191, 2
570194, 570189, 2
570194, 570195, 1
570194, 570192, 2
570197, 570196, 2
570197, 570198, 1
570190, 570191, 1
570190, 570189, 2
570196, 570189, 2
570196, 570197, 1
570196, 570195, 2
570189, 570193, 2
570189, 570194, 2
570189, 570190, 3
570189, 570196, 1
570189, 570191, 2
570189, 570198, 2
570198, 570189, 2
570198, 570197, 2
570191, 570193, 2
570191, 570194, 2
570191, 570189, 2
570191, 570190, 2
570191, 570192, 1
570195, 570194, 2
570195, 570196, 2
570192, 570193, 1
570192, 570194, 2
570192, 570191, 2
