420641, 420642, 1
420641, 420644, 2
420641, 420645, 2
420643, 420642, 2
420643, 420644, 4
420643, 420645, 6
420642, 420641, 2
420642, 420643, 1
420642, 420644, 2
420642, 420645, 2
420644, 420641, 2
420644, 420643, 2
420644, 420642, 2
420645, 420641, 2
420645, 420643, 2
420645, 420642, 2
