489504, 489505, 2
489504, 489503, 2
489504, 489506, 2
489504, 489502, 2
489501, 489503, 2
489501, 489499, 2
489501, 489500, 2
489501, 489502, 1
489501, 489498, 2
489503, 489504, 2
489503, 489505, 2
489503, 489506, 2
489503, 489501, 2
489503, 489502, 2
489499, 489501, 1
489499, 489500, 3
489499, 489498, 2
489502, 489504, 8
489502, 489501, 2
489502, 489503, 3
489502, 489506, 2
489502, 489505, 1
489506, 489504, 2
489506, 489505, 2
489506, 489503, 2
489506, 489502, 2
489505, 489504, 2
489505, 489503, 2
489505, 489506, 1
489505, 489502, 2
489496, 489497, 1
489497, 489496, 2
489497, 489498, 1
489500, 489501, 2
489500, 489499, 2
489498, 489497, 2
489498, 489501, 2
489498, 489499, 3
