592282, 592283, 2
592282, 592281, 2
592283, 592282, 2
592283, 592280, 2
592283, 592284, 0
592283, 592281, 2
592280, 592283, 2
592280, 592281, 1
592284, 592283, 2
592281, 592282, 0
592281, 592283, 1
592281, 592280, 2
