644127, 644126, 2
644122, 644123, 2
644122, 644124, 2
644122, 644121, 2
644122, 644126, 2
644124, 644125, 1
644124, 644122, 2
644124, 644126, 2
644124, 644123, 2
644124, 644121, 2
644125, 644126, 2
644125, 644124, 2
644125, 644123, 2
644123, 644125, 2
644123, 644122, 2
644123, 644124, 1
644123, 644126, 2
644121, 644122, 3
644121, 644124, 2
644121, 644126, 1
644126, 644127, 3
644126, 644122, 2
644126, 644124, 2
644126, 644125, 2
644126, 644123, 2
644126, 644121, 2
