643844, 643843, 2
643844, 643845, 1
643847, 643843, 2
643847, 643846, 2
643847, 643845, 2
643843, 643844, 1
643843, 643847, 2
643846, 643847, 1
643846, 643845, 2
643845, 643844, 2
643845, 643847, 2
643845, 643846, 1
