377082, 377084, 1
377082, 377083, 3
377082, 377080, 2
377082, 377081, 2
377092, 377095, 2
377092, 377088, 2
377092, 377091, 2
377092, 377090, 2
377092, 377094, 2
377092, 377093, 1
377098, 377097, 2
377098, 377102, 2
377098, 377100, 1
377098, 377099, 8
377102, 377101, 2
377102, 377100, 2
377102, 377103, 1
377102, 377098, 2
377102, 377104, 2
377095, 377096, 1
377095, 377092, 2
377095, 377094, 2
377095, 377093, 2
377101, 377102, 2
377101, 377100, 2
377101, 377099, 2
377076, 377077, 2
377076, 377078, 2
377076, 377075, 2
377076, 377074, 2
377091, 377092, 2
377091, 377090, 2
377091, 377089, 2
377087, 377090, 2
377087, 377088, 1
377087, 377086, 2
377087, 377089, 2
377104, 377102, 2
377104, 377103, 2
377096, 377097, 1
377096, 377095, 2
377096, 377094, 2
377074, 377076, 2
377074, 377075, 2
377074, 377072, 2
377074, 377073, 2
377072, 377073, 1
377072, 377074, 2
377072, 377075, 2
377072, 377071, 2
377081, 377082, 2
377081, 377078, 2
377081, 377083, 2
377081, 377080, 2
377099, 377097, 2
377099, 377101, 2
377099, 377100, 2
377099, 377098, 2
377071, 377072, 1
377078, 377077, 2
377078, 377076, 2
377078, 377079, 2
377078, 377081, 2
377075, 377077, 1
377075, 377076, 3
377075, 377074, 2
377075, 377072, 2
377075, 377073, 2
377100, 377097, 2
377100, 377101, 3
377100, 377102, 1
377100, 377099, 2
377100, 377098, 2
377093, 377092, 2
377093, 377095, 1
377093, 377094, 3
377089, 377091, 2
377089, 377090, 2
377089, 377087, 2
377089, 377088, 2
377085, 377086, 1
377085, 377084, 2
377097, 377096, 2
377097, 377100, 2
377097, 377099, 2
377097, 377098, 1
377088, 377092, 2
377088, 377090, 1
377088, 377087, 2
377088, 377089, 8
377103, 377104, 3
377103, 377102, 2
377090, 377092, 1
377090, 377091, 3
377090, 377087, 2
377090, 377088, 2
377090, 377089, 2
377094, 377096, 2
377094, 377092, 2
377094, 377095, 2
377094, 377093, 2
377084, 377082, 2
377084, 377085, 1
377084, 377083, 2
377084, 377086, 2
377084, 377080, 2
377077, 377076, 2
377077, 377078, 3
377077, 377075, 2
377077, 377079, 1
377073, 377074, 8
377073, 377072, 2
377073, 377075, 1
377083, 377082, 2
377083, 377081, 2
377083, 377084, 2
377079, 377077, 2
377079, 377078, 2
377079, 377080, 1
377080, 377082, 1
377080, 377079, 2
377080, 377081, 3
377080, 377084, 2
377086, 377085, 2
377086, 377087, 1
377086, 377084, 2
