550237, 550236, 2
550237, 550238, 1
550236, 550237, 1
550236, 550235, 2
550243, 550244, 3
550243, 550240, 2
550243, 550242, 2
550243, 550241, 2
550243, 550245, 1
550240, 550243, 2
550240, 550242, 2
550240, 550241, 1
550240, 550239, 2
550235, 550236, 1
550247, 550245, 2
550247, 550246, 2
550247, 550248, 2
550244, 550243, 2
550244, 550246, 2
550244, 550249, 2
550244, 550248, 2
550244, 550245, 2
550242, 550243, 1
550242, 550240, 2
550242, 550241, 2
550241, 550243, 2
550241, 550240, 2
550241, 550242, 1
550248, 550247, 2
550248, 550244, 2
550248, 550246, 2
550248, 550249, 3
550239, 550238, 2
550239, 550240, 1
550245, 550247, 2
550245, 550243, 2
550245, 550246, 1
550245, 550244, 2
550238, 550239, 1
550238, 550237, 2
550249, 550244, 2
550249, 550248, 2
550246, 550247, 0
550246, 550244, 2
550246, 550248, 1
550246, 550245, 2
