452272, 452269, 2
452272, 452270, 2
452272, 452271, 2
452272, 452273, 1
452248, 452250, 1
452248, 452249, 8
452248, 452247, 2
452254, 452252, 2
452254, 452253, 2
452254, 452255, 2
452269, 452272, 2
452269, 452267, 2
452269, 452270, 1
452269, 452271, 2
452269, 452265, 2
452269, 452268, 2
452268, 452267, 2
452268, 452269, 2
452268, 452265, 2
452251, 452250, 2
452251, 452249, 2
452251, 452252, 1
452251, 452253, 2
452251, 452255, 2
452270, 452272, 1
452270, 452269, 2
452270, 452271, 8
452263, 452264, 1
452263, 452262, 2
452263, 452261, 2
452263, 452265, 2
452273, 452272, 2
452273, 452271, 2
452265, 452267, 2
452265, 452264, 2
452265, 452263, 2
452265, 452266, 1
452265, 452269, 2
452265, 452268, 2
452267, 452266, 2
452267, 452268, 3
452267, 452265, 2
452267, 452269, 1
452259, 452260, 1
452259, 452258, 2
452259, 452257, 2
452252, 452251, 2
452252, 452254, 2
452252, 452253, 1
452252, 452255, 2
452257, 452256, 2
452257, 452259, 2
452257, 452255, 2
452257, 452258, 2
452247, 452250, 2
452247, 452245, 2
452247, 452246, 2
452247, 452248, 1
452247, 452249, 2
452256, 452257, 8
452256, 452258, 1
452256, 452255, 2
452249, 452250, 2
452249, 452251, 2
452249, 452247, 2
452249, 452248, 2
452264, 452263, 2
452264, 452265, 1
452271, 452272, 2
452271, 452269, 2
452271, 452270, 2
452271, 452273, 2
452246, 452247, 2
452246, 452245, 2
452253, 452254, 3
452253, 452251, 2
452253, 452252, 2
452253, 452255, 1
452245, 452247, 1
452245, 452246, 3
452255, 452251, 2
452255, 452256, 1
452255, 452258, 2
452255, 452254, 2
452255, 452252, 2
452255, 452257, 2
452255, 452253, 2
452250, 452251, 1
452250, 452249, 2
452250, 452247, 2
452250, 452248, 2
452266, 452267, 1
452266, 452265, 2
452261, 452262, 3
452261, 452260, 2
452261, 452263, 1
452258, 452256, 2
452258, 452257, 2
452258, 452259, 1
452258, 452255, 2
452260, 452261, 1
452260, 452259, 2
452262, 452261, 2
452262, 452263, 2
