592767, 592765, 2
592767, 592766, 2
592763, 592764, 1
592763, 592762, 2
592764, 592765, 1
592764, 592763, 2
592762, 592763, 1
592765, 592764, 2
592765, 592767, 2
592765, 592766, 1
592766, 592767, 1
592766, 592765, 2
