590802, 590803, 1
590811, 590812, 1
590811, 590810, 2
590803, 590802, 2
590803, 590804, 1
590804, 590803, 2
590804, 590805, 1
590813, 590812, 2
590813, 590814, 1
590805, 590806, 1
590805, 590804, 2
590810, 590812, 2
590810, 590811, 0
590810, 590809, 2
590810, 590814, 2
590812, 590810, 2
590812, 590811, 2
590812, 590813, 1
590814, 590810, 2
590814, 590813, 2
590806, 590807, 0
590806, 590808, 2
590806, 590805, 2
590807, 590806, 2
590807, 590808, 1
590809, 590810, 1
590809, 590808, 2
590808, 590806, 2
590808, 590807, 2
590808, 590809, 1
