624535, 624534, 2
624535, 624536, 1
624543, 624548, 2
624543, 624541, 2
624543, 624542, 2
624543, 624545, 2
624543, 624546, 2
624543, 624544, 3
624543, 624547, 1
624538, 624539, 1
624538, 624534, 2
624538, 624540, 2
624538, 624536, 2
624538, 624537, 2
624536, 624535, 2
624536, 624538, 2
624536, 624534, 2
624536, 624537, 1
624547, 624549, 2
624547, 624545, 2
624547, 624543, 2
624547, 624548, 1
624547, 624546, 2
624542, 624539, 2
624542, 624543, 1
624542, 624541, 2
624542, 624540, 2
624544, 624545, 1
624544, 624543, 2
624544, 624541, 2
624544, 624540, 2
624540, 624538, 2
624540, 624541, 2
624540, 624542, 2
624540, 624539, 2
624540, 624537, 2
624540, 624544, 2
624539, 624538, 2
624539, 624534, 2
624539, 624541, 8
624539, 624540, 3
624539, 624542, 1
624534, 624535, 3
624534, 624539, 2
624534, 624533, 2
624534, 624536, 2
624534, 624537, 2
624534, 624538, 1
624533, 624534, 1
624537, 624538, 2
624537, 624534, 2
624537, 624540, 2
624537, 624536, 2
624549, 624546, 2
624549, 624548, 2
624549, 624547, 2
624545, 624544, 2
624545, 624546, 1
624545, 624541, 2
624545, 624543, 2
624545, 624547, 2
624546, 624549, 2
624546, 624545, 2
624546, 624543, 2
624546, 624547, 2
624541, 624543, 2
624541, 624542, 2
624541, 624539, 2
624541, 624545, 2
624541, 624544, 2
624541, 624540, 2
624548, 624549, 3
624548, 624543, 2
624548, 624547, 2
