456953, 456951, 2
456953, 456954, 1
456953, 456952, 2
456953, 456950, 2
456953, 456955, 2
456948, 456949, 1
456948, 456947, 2
456949, 456948, 2
456949, 456950, 1
456951, 456953, 2
456951, 456952, 1
456951, 456950, 2
456954, 456953, 2
456954, 456955, 1
456955, 456953, 2
456955, 456954, 2
456952, 456953, 1
456952, 456951, 2
456952, 456950, 2
456950, 456951, 1
456950, 456953, 2
456950, 456952, 2
456950, 456949, 2
456947, 456948, 1
