374836, 374837, 1
374836, 374835, 2
374834, 374835, 1
374834, 374833, 2
374843, 374842, 2
374833, 374832, 2
374833, 374834, 1
374831, 374832, 1
374832, 374831, 2
374832, 374833, 1
374838, 374837, 2
374838, 374839, 1
374835, 374836, 1
374835, 374834, 2
374835, 374837, 2
374842, 374843, 1
374842, 374841, 2
374837, 374836, 2
374837, 374840, 2
374837, 374838, 1
374837, 374835, 2
374839, 374840, 1
374839, 374838, 2
374841, 374840, 2
374841, 374842, 1
374840, 374837, 2
374840, 374839, 2
374840, 374841, 1
