405686, 405683, 2
405686, 405688, 2
405686, 405685, 2
405686, 405684, 2
405686, 405687, 1
405684, 405688, 2
405684, 405685, 2
405684, 405686, 2
405684, 405683, 2
405687, 405688, 1
405687, 405686, 2
405688, 405686, 2
405688, 405687, 2
405688, 405684, 2
405685, 405686, 1
405685, 405683, 2
405685, 405684, 2
405683, 405685, 1
405683, 405686, 2
405683, 405684, 3
