607549, 607550, 1
607549, 607548, 2
607537, 607536, 2
607537, 607538, 1
607543, 607542, 2
607543, 607544, 1
607562, 607561, 2
607562, 607559, 2
607545, 607547, 2
607545, 607546, 1
607545, 607544, 2
607545, 607542, 2
607556, 607555, 2
607556, 607554, 2
607556, 607552, 2
607556, 607557, 1
607556, 607551, 2
607554, 607553, 2
607554, 607556, 1
607554, 607555, 3
607548, 607549, 1
607548, 607547, 2
607535, 607536, 1
607535, 607534, 2
607561, 607559, 2
607561, 607560, 2
607561, 607562, 1
607542, 607545, 2
607542, 607541, 2
607542, 607543, 1
607542, 607544, 2
607538, 607540, 2
607538, 607537, 2
607538, 607539, 1
607536, 607535, 2
607536, 607537, 1
607559, 607560, 3
607559, 607561, 1
607559, 607558, 2
607559, 607562, 2
607555, 607554, 2
607555, 607556, 2
607555, 607551, 2
607555, 607558, 2
607553, 607554, 1
607553, 607552, 2
607553, 607551, 2
607557, 607556, 2
607557, 607558, 1
607551, 607555, 2
607551, 607556, 2
607551, 607552, 1
607551, 607550, 2
607551, 607553, 2
607534, 607535, 1
607541, 607540, 2
607541, 607542, 1
607547, 607545, 2
607547, 607548, 1
607547, 607546, 2
607544, 607545, 1
607544, 607543, 2
607544, 607542, 2
607550, 607549, 2
607550, 607551, 1
607560, 607561, 2
607560, 607559, 2
607540, 607541, 1
607540, 607538, 2
607540, 607539, 2
607539, 607540, 1
607539, 607538, 2
607552, 607553, 1
607552, 607556, 2
607552, 607551, 2
607546, 607545, 2
607546, 607547, 1
607558, 607555, 2
607558, 607557, 2
607558, 607559, 1
