656321, 656322, 3
656321, 656319, 2
656321, 656320, 2
656321, 656323, 1
656321, 656318, 2
656320, 656321, 1
656320, 656322, 2
656320, 656319, 2
656320, 656323, 2
656320, 656318, 2
656318, 656322, 2
656318, 656319, 3
656318, 656320, 1
656318, 656321, 2
656326, 656327, 1
656326, 656325, 2
656322, 656321, 2
656322, 656319, 2
656322, 656320, 2
656322, 656323, 2
656322, 656318, 2
656323, 656321, 2
656323, 656324, 1
656323, 656325, 2
656323, 656320, 2
656323, 656322, 2
656324, 656323, 2
656324, 656325, 1
656325, 656326, 1
656325, 656324, 2
656325, 656323, 2
656319, 656321, 2
656319, 656322, 2
656319, 656320, 2
656319, 656318, 2
656327, 656326, 2
