554316, 554315, 2
554316, 554318, 2
554316, 554317, 2
554316, 554319, 2
554313, 554312, 2
554313, 554315, 2
554313, 554314, 2
554318, 554316, 2
554318, 554315, 2
554318, 554319, 2
554318, 554317, 2
554317, 554316, 2
554317, 554315, 2
554317, 554318, 2
554317, 554319, 2
554312, 554315, 2
554312, 554313, 3
554312, 554314, 1
554315, 554316, 2
554315, 554318, 2
554315, 554317, 2
554315, 554312, 2
554315, 554313, 2
554315, 554314, 2
554315, 554319, 2
554314, 554312, 2
554314, 554315, 2
554314, 554313, 2
554319, 554316, 2
554319, 554315, 2
554319, 554318, 2
554319, 554317, 2
