607973, 607970, 2
607973, 607969, 2
607973, 607971, 2
607973, 607972, 2
607970, 607973, 2
607970, 607969, 2
607970, 607971, 3
607970, 607972, 1
607969, 607973, 2
607969, 607970, 1
607971, 607973, 2
607971, 607970, 2
607971, 607972, 2
607972, 607973, 6
607972, 607970, 2
607972, 607971, 2
