572752, 572751, 2
572752, 572750, 2
572750, 572751, 2
572750, 572752, 2
572750, 572749, 2
572750, 572748, 2
572749, 572751, 2
572749, 572747, 2
572749, 572746, 2
572749, 572750, 1
572749, 572748, 2
572751, 572752, 3
572751, 572750, 2
572751, 572749, 2
572751, 572746, 2
572751, 572747, 2
572751, 572748, 2
572746, 572751, 1
572746, 572747, 3
572746, 572749, 2
572746, 572748, 8
572747, 572751, 2
572747, 572746, 2
572747, 572749, 2
572747, 572748, 2
572748, 572751, 2
572748, 572746, 2
572748, 572747, 2
572748, 572749, 1
572748, 572750, 2
