495174, 495175, 2
495174, 495173, 2
495174, 495172, 2
495172, 495175, 1
495172, 495174, 2
495172, 495173, 0
495175, 495174, 2
495175, 495177, 2
495175, 495172, 2
495175, 495176, 1
495175, 495173, 2
495173, 495175, 2
495173, 495174, 1
495173, 495172, 2
495177, 495175, 2
495177, 495176, 2
495177, 495178, 2
495178, 495176, 2
495178, 495177, 2
495176, 495175, 2
495176, 495178, 1
495176, 495177, 3
