376297, 376295, 2
376297, 376298, 1
376297, 376296, 2
376297, 376293, 2
376294, 376295, 2
376294, 376296, 2
376294, 376292, 2
376294, 376293, 2
376304, 376306, 1
376304, 376303, 2
376304, 376302, 2
376304, 376305, 8
376300, 376298, 2
376300, 376301, 1
376300, 376299, 2
376296, 376297, 2
376296, 376294, 2
376296, 376298, 2
376296, 376293, 2
376296, 376295, 2
376312, 376313, 1
376312, 376311, 2
376299, 376298, 2
376299, 376301, 2
376299, 376300, 2
376311, 376308, 2
376311, 376309, 2
376311, 376310, 2
376311, 376312, 1
376302, 376304, 1
376302, 376301, 2
376302, 376306, 2
376302, 376303, 8
376313, 376312, 2
376306, 376307, 1
376306, 376302, 2
376306, 376304, 2
376306, 376305, 2
376298, 376297, 2
376298, 376296, 2
376298, 376301, 2
376298, 376300, 1
376298, 376299, 0
376293, 376297, 2
376293, 376294, 8
376293, 376296, 2
376293, 376295, 1
376293, 376292, 2
376292, 376294, 2
376292, 376293, 1
376301, 376302, 1
376301, 376303, 2
376301, 376300, 2
376301, 376298, 2
376301, 376299, 2
376303, 376304, 2
376303, 376301, 2
376303, 376302, 2
376303, 376305, 2
376295, 376297, 1
376295, 376294, 2
376295, 376296, 8
376295, 376293, 2
376307, 376308, 1
376307, 376306, 2
376307, 376310, 2
376307, 376309, 2
376307, 376305, 2
376310, 376308, 2
376310, 376311, 1
376310, 376309, 2
376310, 376307, 2
376308, 376311, 2
376308, 376307, 2
376308, 376310, 1
376308, 376309, 8
376309, 376308, 2
376309, 376311, 2
376309, 376307, 2
376309, 376310, 2
376305, 376307, 2
376305, 376303, 2
376305, 376306, 2
376305, 376304, 2
