338112, 338111, 2
338112, 338113, 3
338112, 338110, 2
338112, 338114, 2
338107, 338105, 2
338107, 338106, 2
338107, 338108, 2
338096, 338097, 2
338096, 338095, 2
338118, 338119, 1
338118, 338117, 2
338093, 338092, 2
338093, 338094, 1
338093, 338098, 2
338108, 338107, 2
338108, 338110, 2
338108, 338109, 1
338108, 338105, 2
338108, 338106, 2
338108, 338111, 2
338102, 338103, 1
338102, 338104, 2
338102, 338101, 2
338085, 338086, 2
338085, 338090, 2
338085, 338084, 2
338111, 338112, 0
338111, 338113, 2
338111, 338110, 2
338111, 338114, 2
338111, 338109, 2
338111, 338108, 2
338113, 338111, 2
338113, 338112, 2
338113, 338110, 2
338113, 338114, 2
338113, 338115, 2
338106, 338107, 0
338106, 338108, 1
338106, 338105, 2
338114, 338115, 1
338114, 338112, 2
338114, 338113, 2
338114, 338110, 2
338114, 338111, 2
338104, 338105, 2
338104, 338103, 2
338104, 338102, 2
338099, 338101, 2
338099, 338100, 0
338099, 338097, 2
338099, 338098, 2
338103, 338105, 1
338103, 338104, 0
338103, 338102, 2
338119, 338118, 2
338092, 338093, 1
338092, 338091, 2
338092, 338098, 2
338087, 338088, 3
338087, 338086, 2
338087, 338084, 2
338109, 338111, 2
338109, 338110, 1
338109, 338108, 2
338084, 338085, 3
338084, 338087, 2
338084, 338086, 1
338115, 338116, 1
338115, 338113, 2
338115, 338114, 2
338116, 338115, 2
338116, 338117, 1
338097, 338101, 1
338097, 338098, 0
338097, 338096, 2
338097, 338095, 2
338097, 338099, 2
338086, 338085, 2
338086, 338087, 0
338086, 338088, 2
338086, 338090, 1
338086, 338084, 2
338117, 338116, 2
338117, 338118, 1
338098, 338092, 2
338098, 338094, 2
338098, 338089, 2
338098, 338099, 3
338098, 338093, 2
338098, 338097, 2
338098, 338095, 2
338094, 338093, 2
338094, 338095, 1
338094, 338098, 2
338105, 338107, 2
338105, 338106, 1
338105, 338108, 2
338105, 338104, 2
338105, 338103, 2
338088, 338087, 2
338088, 338086, 2
338088, 338090, 2
338088, 338089, 0
338089, 338088, 2
338089, 338090, 2
338089, 338098, 2
338101, 338100, 2
338101, 338097, 2
338101, 338099, 2
338101, 338102, 1
338110, 338112, 2
338110, 338113, 2
338110, 338114, 1
338110, 338109, 2
338110, 338111, 0
338110, 338108, 2
338091, 338092, 1
338091, 338090, 2
338100, 338101, 2
338100, 338099, 2
338090, 338088, 2
338090, 338091, 1
338090, 338089, 2
338090, 338086, 2
338090, 338085, 2
338095, 338094, 2
338095, 338097, 1
338095, 338096, 3
338095, 338098, 2
