537264, 537262, 2
537264, 537261, 2
537264, 537263, 2
537259, 537261, 2
537259, 537260, 2
537259, 537257, 2
537259, 537258, 2
537257, 537261, 2
537257, 537260, 1
537257, 537259, 0
537257, 537258, 3
537257, 537262, 2
537260, 537261, 1
537260, 537257, 2
537260, 537258, 2
537260, 537259, 2
537258, 537261, 2
537258, 537260, 2
537258, 537259, 2
537258, 537257, 2
537258, 537262, 2
537262, 537261, 2
537262, 537264, 2
537262, 537257, 2
537262, 537258, 2
537262, 537263, 1
537261, 537264, 2
537261, 537259, 2
537261, 537257, 2
537261, 537260, 2
537261, 537258, 2
537261, 537262, 3
537261, 537263, 2
537263, 537264, 1
537263, 537262, 2
537263, 537261, 2
