449758, 449760, 1
449758, 449759, 8
449758, 449757, 2
449751, 449752, 2
449751, 449750, 2
449754, 449755, 1
449754, 449756, 2
449754, 449757, 2
449754, 449753, 2
449760, 449761, 1
449760, 449758, 2
449760, 449759, 2
449760, 449757, 2
449752, 449751, 2
449752, 449750, 2
449752, 449753, 1
449761, 449760, 2
449761, 449759, 2
449759, 449760, 2
449759, 449761, 2
449759, 449758, 2
449759, 449757, 2
449750, 449751, 3
449750, 449752, 1
449753, 449754, 1
449753, 449752, 2
449755, 449756, 1
449755, 449754, 2
449755, 449757, 2
449756, 449755, 2
449756, 449754, 2
449756, 449757, 1
449757, 449758, 1
449757, 449759, 2
449757, 449754, 2
449757, 449760, 2
449757, 449755, 2
449757, 449756, 2
