421316, 421317, 2
421316, 421319, 2
421316, 421318, 2
421316, 421315, 2
421316, 421320, 2
421319, 421316, 2
421319, 421318, 2
421319, 421315, 2
421319, 421317, 2
421319, 421320, 2
421319, 421321, 2
421318, 421316, 2
421318, 421319, 8
421318, 421320, 1
421318, 421315, 2
421318, 421317, 2
421315, 421316, 3
421315, 421319, 2
421315, 421318, 1
421315, 421320, 2
421317, 421316, 2
421317, 421319, 2
421317, 421318, 2
421317, 421320, 2
421320, 421316, 2
421320, 421319, 2
421320, 421318, 2
421320, 421315, 2
421320, 421317, 2
421320, 421321, 3
421321, 421319, 2
421321, 421320, 2
