495240, 495241, 3
495240, 495239, 2
495237, 495238, 1
495237, 495236, 2
495239, 495240, 1
495239, 495238, 2
495239, 495241, 2
495235, 495236, 1
495241, 495240, 2
495241, 495239, 2
495241, 495238, 2
495238, 495241, 2
495238, 495237, 2
495238, 495239, 1
495236, 495237, 1
495236, 495235, 2
