494635, 494636, 8
494635, 494637, 1
494635, 494634, 2
494638, 494636, 2
494638, 494637, 2
494637, 494636, 2
494637, 494635, 2
494637, 494638, 1
494637, 494634, 2
494636, 494634, 2
494636, 494635, 2
494636, 494638, 2
494636, 494637, 2
494633, 494634, 1
494634, 494636, 2
494634, 494633, 2
494634, 494635, 1
494634, 494637, 2
