450038, 450037, 2
450038, 450039, 2
450044, 450041, 2
450044, 450047, 1
450044, 450043, 2
450044, 450045, 6
450044, 450046, 3
450044, 450042, 2
450047, 450044, 2
450047, 450046, 2
450047, 450045, 2
450047, 450048, 1
450047, 450049, 2
450040, 450041, 6
450040, 450042, 1
450040, 450039, 2
450041, 450044, 2
450041, 450049, 2
450041, 450045, 2
450041, 450040, 2
450041, 450037, 2
450041, 450048, 2
450041, 450042, 2
450041, 450039, 2
450039, 450041, 2
450039, 450045, 2
450039, 450040, 1
450039, 450037, 2
450039, 450038, 2
450039, 450042, 2
450049, 450045, 2
450049, 450041, 2
450049, 450047, 2
450049, 450048, 2
450037, 450041, 2
450037, 450038, 3
450037, 450039, 1
450043, 450045, 2
450043, 450044, 1
450043, 450042, 2
450045, 450044, 2
450045, 450049, 2
450045, 450047, 2
450045, 450039, 2
450045, 450043, 2
450045, 450042, 2
450045, 450046, 2
450045, 450041, 2
450045, 450048, 2
450046, 450045, 2
450046, 450044, 2
450046, 450047, 2
450042, 450044, 2
450042, 450045, 2
450042, 450040, 2
450042, 450043, 1
450042, 450041, 2
450042, 450039, 2
450048, 450045, 2
450048, 450041, 2
450048, 450049, 1
450048, 450047, 2
