450647, 450648, 2
450647, 450646, 2
450637, 450640, 1
450637, 450638, 3
450637, 450636, 2
450652, 450649, 2
450652, 450653, 1
450652, 450651, 2
450645, 450646, 1
450645, 450643, 2
450645, 450644, 2
450638, 450637, 2
450638, 450639, 2
450638, 450636, 2
450638, 450640, 2
450640, 450637, 2
450640, 450642, 1
450640, 450639, 2
450640, 450638, 2
450640, 450636, 2
450640, 450641, 3
450644, 450643, 2
450644, 450645, 1
450653, 450652, 2
450653, 450651, 2
450641, 450642, 2
450641, 450640, 2
450641, 450639, 2
450649, 450648, 2
450649, 450652, 2
450649, 450650, 3
450649, 450651, 1
450643, 450642, 2
450643, 450644, 1
450643, 450645, 2
450648, 450647, 2
450648, 450649, 1
450648, 450646, 2
450642, 450640, 2
450642, 450639, 2
450642, 450643, 1
450642, 450641, 2
450639, 450642, 2
450639, 450640, 2
450639, 450638, 2
450639, 450641, 2
450646, 450647, 3
450646, 450648, 1
450646, 450645, 2
450636, 450637, 1
450636, 450640, 2
450636, 450638, 2
450651, 450649, 2
450651, 450652, 1
450651, 450650, 2
450651, 450653, 2
450650, 450649, 2
450650, 450651, 2
