490088, 490087, 2
490088, 490089, 1
490088, 490086, 2
490090, 490089, 2
490090, 490092, 2
490090, 490091, 1
490082, 490081, 2
490082, 490080, 2
490082, 490085, 2
490082, 490083, 2
490082, 490079, 2
490082, 490084, 2
490086, 490087, 1
490086, 490088, 2
490086, 490085, 2
490079, 490082, 2
490079, 490081, 2
490079, 490080, 1
490081, 490080, 2
490081, 490085, 2
490081, 490083, 2
490081, 490082, 2
490081, 490079, 2
490081, 490084, 2
490080, 490084, 2
490080, 490082, 0
490080, 490079, 2
490080, 490081, 3
490080, 490083, 1
490085, 490082, 2
490085, 490086, 1
490085, 490081, 2
490085, 490083, 2
490085, 490084, 2
490083, 490082, 2
490083, 490081, 2
490083, 490080, 2
490083, 490085, 2
490083, 490084, 1
490087, 490086, 2
490087, 490088, 1
490092, 490091, 2
490092, 490090, 2
490089, 490088, 2
490089, 490090, 1
490091, 490092, 1
490091, 490090, 2
490084, 490082, 2
490084, 490081, 2
490084, 490080, 2
490084, 490085, 1
490084, 490083, 2
