495996, 495997, 1
495996, 495994, 2
495996, 495995, 2
495996, 495998, 2
495995, 495996, 2
495995, 495994, 2
496001, 496002, 1
496001, 496000, 2
496000, 495999, 2
496000, 495998, 2
496000, 496001, 1
496002, 496001, 2
495999, 495998, 2
495999, 496000, 1
495997, 495996, 2
495997, 495998, 1
495998, 495999, 1
495998, 495997, 2
495998, 495996, 2
495998, 496000, 2
495994, 495996, 1
495994, 495995, 3
