431815, 431814, 2
431815, 431817, 2
431815, 431811, 2
431815, 431813, 2
431815, 431812, 2
431815, 431816, 1
431814, 431815, 1
431814, 431813, 2
431814, 431812, 2
431814, 431811, 2
431819, 431818, 2
431819, 431820, 1
431820, 431819, 2
431817, 431815, 2
431817, 431818, 1
431817, 431816, 2
431811, 431815, 2
431811, 431814, 1
431811, 431812, 0
431811, 431813, 2
431818, 431819, 1
431818, 431817, 2
431812, 431815, 2
431812, 431814, 2
431812, 431813, 1
431812, 431811, 2
431813, 431815, 2
431813, 431814, 2
431813, 431812, 2
431813, 431811, 2
431816, 431815, 2
431816, 431817, 1
