590273, 590274, 1
590273, 590272, 2
590270, 590271, 1
590271, 590272, 1
590271, 590270, 2
590276, 590274, 2
590276, 590278, 2
590276, 590277, 1
590276, 590275, 2
590274, 590273, 2
590274, 590272, 2
590274, 590275, 0
590274, 590276, 2
590278, 590276, 2
590278, 590277, 2
590277, 590276, 2
590277, 590278, 1
590272, 590274, 2
590272, 590273, 1
590272, 590271, 2
590275, 590274, 2
590275, 590276, 1
