493129, 493135, 2
493129, 493131, 2
493129, 493128, 2
493129, 493130, 2
493129, 493127, 2
493129, 493133, 2
493129, 493132, 2
493124, 493127, 1
493124, 493123, 2
493124, 493125, 3
493140, 493139, 2
493117, 493116, 2
493117, 493118, 1
493138, 493136, 2
493138, 493139, 1
493138, 493137, 2
493107, 493106, 2
493107, 493108, 2
493105, 493106, 3
493105, 493108, 1
493125, 493127, 2
493125, 493124, 2
493125, 493126, 3
493125, 493123, 2
493115, 493116, 1
493115, 493114, 2
493134, 493135, 2
493134, 493132, 2
493134, 493133, 2
493109, 493110, 3
493109, 493108, 2
493109, 493112, 1
493128, 493130, 3
493128, 493127, 2
493128, 493129, 6
493128, 493132, 1
493128, 493133, 2
493110, 493111, 2
493110, 493109, 2
493110, 493112, 2
493110, 493114, 2
493121, 493120, 2
493121, 493122, 1
493127, 493129, 2
493127, 493124, 2
493127, 493128, 1
493127, 493133, 2
493127, 493126, 2
493127, 493125, 2
493127, 493132, 2
493114, 493115, 1
493114, 493110, 2
493114, 493113, 2
493114, 493112, 2
493118, 493120, 2
493118, 493116, 2
493118, 493119, 1
493118, 493117, 2
493136, 493135, 2
493136, 493137, 1
493136, 493138, 2
493135, 493136, 1
493135, 493134, 2
493135, 493129, 2
493135, 493133, 2
493135, 493130, 2
493135, 493132, 2
493111, 493110, 2
493111, 493112, 2
493131, 493130, 2
493131, 493129, 2
493131, 493132, 2
493131, 493133, 2
493106, 493108, 2
493106, 493107, 3
493106, 493105, 2
493130, 493135, 2
493130, 493129, 2
493130, 493131, 2
493130, 493133, 2
493130, 493128, 2
493130, 493132, 2
493119, 493120, 1
493119, 493118, 2
493108, 493106, 2
493108, 493109, 1
493108, 493107, 2
493108, 493105, 2
493108, 493112, 2
493123, 493124, 1
493123, 493125, 2
493123, 493122, 2
493132, 493135, 1
493132, 493129, 2
493132, 493131, 2
493132, 493133, 6
493132, 493130, 2
493132, 493127, 2
493132, 493128, 2
493132, 493134, 3
493137, 493136, 2
493137, 493138, 1
493113, 493114, 2
493113, 493112, 2
493122, 493121, 2
493122, 493123, 1
493133, 493135, 2
493133, 493129, 2
493133, 493131, 2
493133, 493128, 2
493133, 493130, 2
493133, 493127, 2
493133, 493134, 2
493133, 493132, 2
493139, 493140, 1
493139, 493138, 2
493120, 493121, 1
493120, 493118, 2
493120, 493119, 2
493116, 493115, 2
493116, 493118, 2
493116, 493117, 1
493126, 493127, 2
493126, 493125, 2
493112, 493111, 2
493112, 493113, 3
493112, 493109, 2
493112, 493110, 2
493112, 493114, 1
493112, 493108, 2
