523232, 523233, 1
523232, 523231, 2
523234, 523233, 2
523234, 523236, 2
523234, 523235, 1
523236, 523237, 1
523236, 523235, 2
523236, 523234, 2
523233, 523232, 2
523233, 523234, 1
523231, 523232, 1
523237, 523236, 2
523237, 523238, 1
523238, 523237, 2
523235, 523236, 1
523235, 523234, 2
