644446, 644447, 2
644446, 644443, 2
644446, 644445, 2
644446, 644444, 2
644446, 644442, 2
644446, 644441, 2
644447, 644446, 2
644447, 644443, 2
644447, 644445, 2
644447, 644444, 2
644447, 644442, 2
644447, 644441, 2
644443, 644446, 1
644443, 644447, 2
644443, 644445, 8
644443, 644444, 2
644443, 644439, 2
644443, 644442, 2
644443, 644440, 2
644443, 644441, 2
644442, 644446, 2
644442, 644447, 2
644442, 644443, 2
644442, 644445, 2
644442, 644444, 1
644442, 644441, 2
644444, 644446, 2
644444, 644447, 1
644444, 644443, 2
644444, 644445, 2
644444, 644442, 2
644444, 644441, 2
644439, 644443, 2
644439, 644440, 1
644445, 644444, 2
644445, 644446, 2
644445, 644447, 2
644445, 644443, 2
644445, 644442, 2
644440, 644439, 2
644440, 644443, 2
644440, 644441, 1
644441, 644446, 2
644441, 644447, 2
644441, 644443, 3
644441, 644444, 2
644441, 644442, 0
644441, 644440, 2
