490241, 490242, 1
490241, 490243, 2
490241, 490240, 2
490241, 490239, 2
490242, 490241, 2
490242, 490244, 0
490242, 490239, 2
490242, 490243, 3
490233, 490234, 3
490233, 490236, 1
490244, 490242, 2
490244, 490245, 1
490244, 490243, 2
490244, 490239, 2
490239, 490241, 1
490239, 490242, 2
490239, 490238, 2
490239, 490244, 2
490239, 490240, 3
490245, 490244, 2
490245, 490243, 2
490245, 490246, 1
490238, 490237, 2
490238, 490236, 2
490238, 490239, 1
490243, 490242, 2
490243, 490245, 2
490243, 490241, 2
490243, 490244, 2
490243, 490246, 2
490243, 490240, 2
490237, 490238, 2
490237, 490236, 2
490235, 490234, 2
490235, 490236, 2
490236, 490235, 2
490236, 490238, 1
490236, 490233, 2
490236, 490237, 3
490236, 490234, 2
490246, 490245, 2
490246, 490243, 2
490240, 490241, 2
490240, 490243, 2
490240, 490239, 2
490234, 490235, 2
490234, 490233, 2
490234, 490236, 2
