489219, 489220, 0
489219, 489221, 1
489219, 489218, 2
489217, 489216, 2
489217, 489218, 1
489220, 489219, 2
489220, 489221, 2
489220, 489216, 2
489220, 489222, 2
489218, 489219, 1
489218, 489217, 2
489218, 489216, 2
489222, 489223, 0
489222, 489225, 1
489222, 489221, 2
489222, 489224, 3
489222, 489220, 2
489223, 489225, 2
489223, 489224, 2
489223, 489222, 2
489225, 489223, 2
489225, 489226, 3
489225, 489222, 2
489225, 489224, 2
489221, 489219, 2
489221, 489220, 2
489221, 489222, 1
489224, 489223, 2
489224, 489225, 2
489224, 489226, 2
489224, 489222, 2
489226, 489225, 2
489226, 489224, 2
489216, 489217, 1
489216, 489220, 2
489216, 489218, 2
