657389, 657391, 1
657389, 657390, 3
657389, 657387, 2
657389, 657388, 2
657391, 657394, 2
657391, 657393, 2
657391, 657390, 2
657391, 657389, 2
657391, 657392, 1
657396, 657397, 1
657396, 657395, 2
657386, 657385, 2
657386, 657387, 0
657386, 657388, 1
657394, 657391, 2
657394, 657393, 2
657394, 657395, 1
657394, 657392, 2
657379, 657377, 2
657379, 657378, 2
657379, 657380, 1
657379, 657376, 2
657379, 657374, 2
657395, 657394, 2
657395, 657396, 1
657395, 657392, 2
657385, 657387, 2
657385, 657384, 2
657385, 657386, 1
657387, 657389, 2
657387, 657388, 2
657387, 657385, 2
657387, 657386, 2
657393, 657394, 2
657393, 657391, 2
657393, 657392, 2
657392, 657394, 1
657392, 657391, 2
657392, 657393, 8
657392, 657395, 2
657397, 657398, 1
657397, 657396, 2
657398, 657397, 2
657381, 657382, 8
657381, 657380, 2
657381, 657384, 2
657381, 657383, 1
657375, 657377, 1
657375, 657378, 2
657375, 657376, 8
657375, 657374, 2
657377, 657376, 2
657377, 657375, 2
657377, 657379, 2
657377, 657380, 2
657377, 657378, 2
657377, 657374, 2
657388, 657389, 1
657388, 657387, 2
657388, 657386, 2
657374, 657377, 2
657374, 657378, 1
657374, 657376, 2
657374, 657379, 2
657374, 657375, 3
657382, 657381, 2
657382, 657383, 2
657382, 657380, 2
657376, 657377, 2
657376, 657379, 2
657376, 657374, 2
657376, 657390, 2
657376, 657375, 2
657390, 657389, 2
657390, 657391, 2
657390, 657376, 2
657378, 657377, 2
657378, 657379, 1
657378, 657375, 2
657378, 657374, 2
657380, 657377, 2
657380, 657379, 2
657380, 657381, 1
657380, 657382, 2
657380, 657383, 2
657384, 657385, 1
657384, 657381, 2
657384, 657383, 2
657383, 657382, 2
657383, 657381, 2
657383, 657384, 1
657383, 657380, 2
