378480, 378481, 1
378484, 378482, 2
378484, 378483, 2
378484, 378481, 2
378484, 378485, 1
378485, 378483, 2
378485, 378484, 2
378483, 378482, 2
378483, 378484, 2
378483, 378485, 2
378481, 378480, 2
378481, 378484, 2
378481, 378482, 1
378482, 378483, 2
378482, 378484, 1
378482, 378481, 2
