522298, 522299, 1
522298, 522300, 2
522298, 522297, 2
522298, 522301, 2
522303, 522302, 2
522303, 522301, 2
522303, 522306, 2
522303, 522304, 1
522303, 522305, 2
522307, 522308, 1
522307, 522306, 2
522307, 522305, 2
522301, 522298, 2
522301, 522303, 2
522301, 522302, 1
522301, 522300, 2
522301, 522299, 2
522302, 522303, 1
522302, 522301, 2
522302, 522300, 2
522302, 522305, 2
522300, 522298, 2
522300, 522299, 2
522300, 522301, 2
522300, 522302, 2
522300, 522297, 2
522304, 522303, 2
522304, 522306, 2
522304, 522305, 1
522305, 522303, 2
522305, 522302, 2
522305, 522307, 1
522305, 522304, 2
522305, 522308, 2
522305, 522306, 6
522299, 522298, 2
522299, 522300, 3
522299, 522301, 1
522306, 522303, 2
522306, 522307, 2
522306, 522304, 2
522306, 522308, 2
522306, 522305, 2
522297, 522298, 1
522297, 522300, 2
522308, 522307, 2
522308, 522306, 2
522308, 522305, 2
