432208, 432207, 2
432208, 432206, 2
432208, 432211, 2
432208, 432209, 1
432210, 432207, 2
432210, 432212, 2
432210, 432211, 2
432210, 432209, 2
432214, 432216, 2
432214, 432213, 2
432214, 432212, 2
432214, 432207, 2
432214, 432211, 2
432214, 432215, 1
432219, 432220, 2
432219, 432221, 2
432219, 432222, 2
432219, 432217, 2
432219, 432218, 2
432206, 432207, 1
432206, 432208, 2
432206, 432211, 2
432207, 432211, 1
432207, 432214, 2
432207, 432209, 2
432207, 432206, 2
432207, 432208, 3
432207, 432210, 8
432223, 432222, 2
432223, 432221, 2
432223, 432224, 2
432215, 432216, 1
432215, 432214, 2
432211, 432209, 2
432211, 432213, 2
432211, 432207, 2
432211, 432212, 3
432211, 432210, 2
432211, 432208, 2
432211, 432206, 2
432211, 432214, 1
432224, 432223, 2
432224, 432222, 2
432224, 432217, 2
432224, 432221, 2
432220, 432222, 2
432220, 432221, 2
432220, 432217, 2
432220, 432219, 2
432216, 432214, 2
432216, 432213, 2
432216, 432221, 2
432216, 432215, 2
432216, 432218, 2
432216, 432217, 1
432217, 432220, 8
432217, 432219, 2
432217, 432224, 2
432217, 432216, 2
432217, 432218, 3
432217, 432221, 1
432209, 432207, 2
432209, 432210, 2
432209, 432208, 2
432209, 432211, 2
432209, 432212, 2
432212, 432210, 2
432212, 432211, 2
432212, 432209, 2
432212, 432214, 2
432212, 432213, 1
432222, 432221, 2
432222, 432223, 1
432222, 432220, 2
432222, 432224, 2
432222, 432219, 2
432221, 432220, 2
432221, 432217, 2
432221, 432219, 2
432221, 432223, 2
432221, 432222, 3
432221, 432216, 2
432221, 432218, 2
432221, 432224, 1
432218, 432216, 2
432218, 432221, 2
432218, 432217, 2
432218, 432219, 1
432213, 432212, 2
432213, 432211, 2
432213, 432216, 2
432213, 432214, 2
