537524, 537526, 8
537524, 537527, 1
537524, 537523, 2
537524, 537525, 3
537523, 537524, 1
537523, 537525, 2
537529, 537527, 2
537529, 537530, 1
537529, 537528, 2
537529, 537531, 2
537525, 537524, 2
537525, 537526, 2
537525, 537527, 2
537525, 537523, 2
537525, 537528, 2
537526, 537524, 2
537526, 537527, 2
537526, 537528, 2
537526, 537525, 2
537527, 537524, 2
537527, 537530, 2
537527, 537529, 8
537527, 537525, 2
537527, 537526, 2
537527, 537528, 3
537527, 537531, 1
537528, 537530, 2
537528, 537529, 2
537528, 537525, 2
537528, 537526, 2
537528, 537527, 2
537528, 537531, 2
537530, 537528, 2
537530, 537527, 2
537530, 537529, 2
537530, 537531, 2
537531, 537528, 2
537531, 537527, 2
537531, 537530, 2
537531, 537529, 2
