573096, 573097, 2
573096, 573095, 2
573096, 573094, 2
573099, 573100, 1
573099, 573098, 2
573095, 573096, 2
573095, 573097, 2
573095, 573094, 2
573098, 573097, 2
573098, 573099, 1
573094, 573096, 0
573094, 573095, 3
573094, 573097, 1
573097, 573096, 2
573097, 573095, 2
573097, 573098, 1
573097, 573094, 2
573101, 573100, 2
573100, 573099, 2
573100, 573101, 1
