641725, 641723, 2
641725, 641724, 2
641725, 641726, 1
641719, 641721, 8
641719, 641720, 3
641719, 641723, 1
641719, 641717, 2
641719, 641716, 2
641719, 641718, 2
641719, 641722, 2
641721, 641719, 2
641721, 641723, 2
641721, 641720, 2
641721, 641722, 1
641724, 641725, 1
641724, 641726, 2
641724, 641723, 2
641724, 641722, 2
641720, 641719, 2
641720, 641721, 2
641720, 641722, 2
641720, 641718, 2
641720, 641723, 2
641723, 641725, 2
641723, 641719, 2
641723, 641721, 2
641723, 641720, 2
641723, 641726, 2
641723, 641724, 3
641723, 641722, 2
641717, 641719, 2
641717, 641716, 2
641717, 641718, 2
641726, 641725, 2
641726, 641724, 2
641726, 641723, 2
641716, 641719, 1
641716, 641717, 3
641718, 641719, 2
641718, 641717, 2
641718, 641720, 2
641722, 641719, 2
641722, 641721, 2
641722, 641724, 2
641722, 641720, 2
641722, 641723, 2
