644370, 644372, 1
644370, 644368, 2
644370, 644369, 2
644370, 644371, 0
644370, 644367, 2
644367, 644370, 2
644367, 644368, 0
644367, 644369, 1
644369, 644370, 1
644369, 644367, 2
644369, 644368, 2
644372, 644370, 2
644372, 644373, 1
644372, 644371, 2
644374, 644373, 2
644374, 644371, 2
644373, 644372, 2
644373, 644374, 0
644373, 644371, 2
644368, 644370, 2
644368, 644367, 2
644368, 644369, 2
644368, 644371, 2
644371, 644370, 2
644371, 644372, 2
644371, 644373, 2
644371, 644374, 2
644371, 644368, 2
