421639, 421640, 2
421639, 421638, 2
421639, 421637, 2
421641, 421642, 8
421641, 421640, 2
421641, 421643, 1
421643, 421642, 2
421643, 421640, 2
421643, 421644, 1
421643, 421641, 2
421642, 421640, 2
421642, 421644, 2
421642, 421641, 2
421642, 421643, 2
421638, 421640, 2
421638, 421639, 2
421638, 421637, 2
421645, 421644, 2
421644, 421642, 2
421644, 421645, 1
421644, 421643, 2
421640, 421639, 2
421640, 421641, 1
421640, 421643, 2
421640, 421642, 2
421640, 421638, 2
421640, 421637, 2
421637, 421638, 3
421637, 421639, 0
421637, 421640, 1
