433361, 433362, 3
433361, 433358, 2
433361, 433359, 2
433361, 433363, 1
433361, 433360, 2
433360, 433361, 2
433360, 433358, 2
433360, 433359, 2
433357, 433358, 1
433357, 433359, 2
433358, 433361, 1
433358, 433360, 8
433358, 433357, 2
433358, 433359, 3
433358, 433363, 2
433363, 433361, 2
433363, 433362, 2
433363, 433358, 2
433362, 433361, 2
433362, 433363, 2
433359, 433361, 2
433359, 433360, 2
433359, 433357, 2
433359, 433358, 2
