449349, 449353, 1
449349, 449351, 2
449349, 449350, 3
449349, 449348, 2
449353, 449349, 2
449353, 449352, 2
449353, 449350, 2
449353, 449358, 1
449353, 449354, 3
449353, 449348, 2
449353, 449355, 2
449353, 449351, 2
449353, 449357, 2
449351, 449349, 2
449351, 449353, 2
449351, 449352, 2
449351, 449350, 2
449351, 449348, 2
449350, 449349, 2
449350, 449353, 2
449350, 449351, 1
449350, 449348, 2
449348, 449349, 1
449348, 449353, 2
449348, 449351, 2
449348, 449350, 2
449356, 449355, 2
449356, 449358, 2
449356, 449357, 1
449354, 449353, 2
449354, 449352, 2
449354, 449355, 1
449354, 449358, 2
449355, 449354, 2
449355, 449353, 2
449355, 449358, 2
449355, 449356, 1
449352, 449354, 2
449352, 449353, 2
449352, 449351, 2
449358, 449354, 2
449358, 449353, 2
449358, 449355, 2
449358, 449356, 2
449358, 449357, 2
449357, 449353, 2
449357, 449358, 2
449357, 449356, 2
