333249, 333250, 6
333249, 333247, 2
333249, 333246, 2
333249, 333251, 1
333249, 333248, 2
333256, 333255, 2
333256, 333253, 2
333254, 333250, 2
333254, 333255, 1
333254, 333253, 2
333251, 333249, 2
333251, 333250, 2
333251, 333247, 2
333251, 333252, 1
333252, 333251, 2
333252, 333253, 1
333248, 333249, 1
333248, 333250, 2
333248, 333247, 2
333248, 333246, 2
333250, 333249, 2
333250, 333247, 2
333250, 333254, 2
333250, 333251, 2
333250, 333253, 2
333250, 333248, 2
333250, 333246, 2
333253, 333250, 2
333253, 333254, 0
333253, 333255, 2
333253, 333252, 2
333253, 333256, 2
333247, 333249, 2
333247, 333250, 2
333247, 333246, 2
333247, 333251, 2
333247, 333248, 2
333246, 333249, 2
333246, 333250, 2
333246, 333247, 3
333246, 333248, 1
333255, 333253, 2
333255, 333254, 2
333255, 333256, 1
