494066, 494065, 2
494066, 494067, 2
494069, 494068, 2
494069, 494067, 2
494065, 494066, 3
494065, 494067, 1
494068, 494069, 3
494068, 494067, 2
494067, 494066, 2
494067, 494065, 2
494067, 494068, 1
494067, 494069, 2
