378212, 378213, 1
378212, 378214, 2
378212, 378215, 2
378213, 378212, 2
378213, 378214, 8
378213, 378215, 1
378213, 378216, 2
378215, 378213, 2
378215, 378214, 2
378215, 378212, 2
378215, 378216, 1
378216, 378213, 2
378216, 378214, 2
378216, 378215, 2
378214, 378213, 2
378214, 378212, 2
378214, 378215, 2
378214, 378216, 2
