404257, 404258, 0
404257, 404260, 2
404257, 404256, 2
404257, 404259, 1
404260, 404258, 2
404260, 404257, 2
404260, 404259, 2
404256, 404257, 1
404256, 404254, 2
404256, 404255, 2
404254, 404253, 2
404254, 404256, 2
404254, 404255, 3
404249, 404250, 1
404253, 404251, 2
404253, 404252, 2
404253, 404254, 3
404259, 404258, 2
404259, 404257, 2
404259, 404260, 1
404255, 404256, 2
404255, 404254, 2
404258, 404257, 2
404258, 404260, 2
404258, 404259, 2
404251, 404253, 1
404251, 404250, 2
404251, 404252, 3
404252, 404253, 2
404252, 404251, 2
404250, 404251, 1
404250, 404249, 2
