455829, 455831, 1
455829, 455830, 3
455831, 455829, 2
455831, 455830, 2
455831, 455832, 1
455831, 455833, 2
455830, 455829, 2
455830, 455831, 2
455832, 455831, 2
455832, 455833, 1
455833, 455831, 2
455833, 455832, 2
