457040, 457041, 1
457040, 457039, 2
457040, 457037, 2
457040, 457038, 2
457041, 457040, 2
457041, 457043, 2
457041, 457042, 1
457041, 457038, 2
457041, 457037, 2
457041, 457039, 2
457044, 457043, 2
457044, 457042, 2
457042, 457041, 2
457042, 457043, 3
457042, 457044, 1
457038, 457040, 2
457038, 457041, 2
457038, 457037, 2
457038, 457039, 2
457043, 457041, 2
457043, 457044, 2
457043, 457042, 2
457037, 457040, 2
457037, 457041, 2
457037, 457039, 1
457037, 457038, 3
457039, 457040, 1
457039, 457041, 2
457039, 457037, 2
457039, 457038, 2
