658342, 658344, 2
658342, 658343, 1
658342, 658341, 2
658338, 658339, 1
658338, 658344, 2
658339, 658344, 2
658339, 658338, 2
658339, 658340, 1
658344, 658342, 2
658344, 658338, 2
658344, 658339, 2
658344, 658345, 2
658344, 658343, 2
658344, 658341, 2
658344, 658340, 2
658345, 658344, 2
658345, 658343, 2
658343, 658342, 2
658343, 658345, 0
658343, 658344, 6
658340, 658339, 2
658340, 658344, 2
658340, 658341, 1
658341, 658342, 1
658341, 658344, 2
658341, 658340, 2
