570477, 570476, 2
570477, 570474, 2
570477, 570479, 2
570477, 570478, 1
570481, 570480, 2
570480, 570481, 1
570480, 570479, 2
570472, 570473, 1
570474, 570477, 2
570474, 570473, 2
570474, 570476, 2
570474, 570475, 1
570478, 570477, 2
570478, 570479, 1
570476, 570477, 1
570476, 570473, 2
570476, 570474, 2
570476, 570475, 2
570473, 570476, 2
570473, 570472, 2
570473, 570474, 1
570473, 570475, 2
570475, 570476, 1
570475, 570474, 2
570475, 570473, 2
570479, 570477, 2
570479, 570480, 1
570479, 570478, 2
