338066, 338067, 2
338066, 338065, 2
338069, 338071, 2
338069, 338070, 1
338069, 338068, 2
338051, 338050, 2
338051, 338052, 3
338051, 338053, 1
338051, 338055, 2
338054, 338057, 2
338054, 338053, 2
338054, 338055, 2
338081, 338080, 2
338081, 338082, 2
338081, 338077, 2
338081, 338075, 2
338081, 338083, 2
338059, 338060, 3
338059, 338061, 1
338059, 338058, 2
338080, 338081, 1
338080, 338082, 2
338080, 338079, 2
338080, 338075, 2
338080, 338077, 2
338083, 338081, 2
338083, 338082, 2
338082, 338081, 2
338082, 338080, 2
338082, 338079, 2
338082, 338078, 2
338082, 338083, 3
338049, 338050, 1
338049, 338048, 2
338079, 338080, 3
338079, 338082, 1
338079, 338078, 2
338050, 338053, 2
338050, 338051, 3
338050, 338049, 2
338050, 338055, 1
338065, 338066, 3
338065, 338064, 2
338065, 338067, 1
338065, 338063, 2
338067, 338066, 2
338067, 338065, 2
338067, 338068, 1
338073, 338072, 2
338073, 338074, 3
338073, 338076, 1
338064, 338065, 2
338064, 338063, 2
338060, 338057, 2
338060, 338059, 2
338060, 338061, 2
338048, 338049, 1
338052, 338053, 2
338052, 338051, 2
338072, 338071, 2
338072, 338073, 1
338072, 338076, 2
338074, 338073, 2
338074, 338075, 3
338074, 338076, 2
338077, 338080, 2
338077, 338075, 2
338077, 338078, 2
338077, 338076, 2
338077, 338081, 2
338056, 338057, 3
338056, 338058, 1
338056, 338055, 2
338053, 338050, 2
338053, 338052, 2
338053, 338051, 2
338053, 338055, 2
338053, 338054, 3
338068, 338069, 1
338068, 338067, 2
338071, 338072, 1
338071, 338069, 2
338071, 338070, 2
338062, 338063, 1
338062, 338061, 2
338078, 338082, 2
338078, 338079, 1
338078, 338076, 2
338078, 338077, 2
338076, 338075, 2
338076, 338078, 1
338076, 338077, 3
338076, 338072, 2
338076, 338074, 2
338076, 338073, 2
338063, 338064, 3
338063, 338062, 2
338063, 338065, 1
338063, 338061, 2
338058, 338059, 1
338058, 338057, 2
338058, 338056, 2
338070, 338071, 1
338070, 338069, 2
338057, 338055, 2
338057, 338060, 2
338057, 338058, 2
338057, 338056, 2
338057, 338054, 2
338075, 338081, 2
338075, 338074, 2
338075, 338076, 2
338075, 338080, 2
338075, 338077, 2
338061, 338060, 2
338061, 338059, 2
338061, 338062, 1
338061, 338063, 2
338055, 338053, 2
338055, 338051, 2
338055, 338054, 2
338055, 338050, 2
338055, 338057, 2
338055, 338056, 1
