572470, 572472, 1
572470, 572471, 8
572473, 572472, 2
572473, 572474, 2
572473, 572471, 2
572475, 572474, 2
572472, 572470, 2
572472, 572474, 1
572472, 572473, 8
572472, 572471, 2
572474, 572475, 1
572474, 572472, 2
572474, 572473, 2
572471, 572470, 2
572471, 572472, 2
572471, 572473, 2
