378044, 378043, 2
378044, 378045, 1
378044, 378042, 2
378043, 378044, 2
378043, 378045, 2
378043, 378042, 2
378045, 378044, 2
378045, 378043, 2
378045, 378042, 2
378042, 378044, 1
378042, 378043, 0
378042, 378045, 2
