570095, 570097, 2
570095, 570098, 2
570095, 570093, 2
570095, 570096, 1
570095, 570094, 2
570089, 570091, 1
570089, 570090, 3
570097, 570095, 2
570097, 570098, 1
570097, 570096, 2
570092, 570094, 1
570092, 570093, 8
570092, 570091, 2
570093, 570095, 2
570093, 570091, 2
570093, 570092, 2
570093, 570094, 2
570091, 570089, 2
570091, 570092, 1
570091, 570093, 2
570091, 570090, 2
570094, 570095, 1
570094, 570092, 2
570094, 570093, 2
570098, 570095, 2
570098, 570097, 2
570096, 570095, 2
570096, 570097, 1
570090, 570089, 2
570090, 570091, 2
