626027, 626026, 2
626027, 626025, 2
626027, 626024, 2
626024, 626027, 2
626024, 626026, 1
626024, 626025, 2
626024, 626023, 2
626026, 626027, 3
626026, 626025, 6
626026, 626024, 2
626025, 626027, 2
626025, 626026, 2
626025, 626024, 2
626023, 626024, 1
