626066, 626067, 2
626066, 626063, 2
626066, 626065, 2
626066, 626064, 2
626062, 626060, 2
626062, 626061, 2
626062, 626063, 2
626062, 626059, 2
626062, 626064, 2
626059, 626060, 1
626059, 626062, 2
626059, 626061, 2
626067, 626066, 2
626067, 626063, 2
626067, 626065, 2
626067, 626064, 2
626060, 626062, 2
626060, 626059, 2
626060, 626061, 1
626065, 626067, 2
626065, 626066, 1
626065, 626063, 2
626065, 626064, 2
626063, 626066, 2
626063, 626062, 2
626063, 626067, 1
626063, 626061, 2
626063, 626064, 8
626063, 626065, 2
626064, 626067, 2
626064, 626066, 2
626064, 626062, 2
626064, 626063, 2
626064, 626065, 1
626061, 626060, 2
626061, 626062, 8
626061, 626063, 1
626061, 626059, 2
