406355, 406356, 1
406360, 406359, 2
406360, 406361, 2
406360, 406358, 2
406357, 406356, 2
406357, 406358, 2
406362, 406361, 2
406362, 406363, 0
406356, 406355, 2
406356, 406357, 3
406356, 406358, 1
406358, 406361, 2
406358, 406356, 2
406358, 406360, 2
406358, 406359, 1
406358, 406357, 2
406361, 406362, 1
406361, 406359, 2
406361, 406360, 2
406361, 406358, 2
406359, 406361, 1
406359, 406360, 3
406359, 406358, 2
406363, 406362, 2
