549420, 549421, 3
549420, 549422, 1
549420, 549419, 2
549420, 549418, 2
549418, 549420, 2
549418, 549417, 2
549418, 549413, 2
549418, 549416, 2
549418, 549414, 2
549418, 549421, 2
549418, 549422, 2
549418, 549419, 2
549417, 549414, 2
549417, 549418, 1
549417, 549415, 2
549417, 549413, 2
549417, 549416, 2
549417, 549419, 2
549417, 549421, 2
549415, 549413, 2
549415, 549416, 2
549415, 549414, 2
549415, 549419, 2
549415, 549417, 1
549413, 549415, 2
549413, 549416, 2
549413, 549414, 1
549413, 549418, 2
549413, 549417, 2
549422, 549421, 2
549422, 549420, 2
549422, 549418, 2
549414, 549415, 2
549414, 549413, 2
549414, 549416, 1
549414, 549418, 2
549414, 549417, 2
549419, 549420, 1
549419, 549418, 2
549419, 549417, 2
549419, 549415, 2
549419, 549416, 2
549419, 549421, 2
549416, 549414, 2
549416, 549418, 2
549416, 549417, 2
549416, 549415, 4
549416, 549413, 2
549416, 549419, 1
549416, 549421, 2
549421, 549420, 2
549421, 549418, 2
549421, 549417, 2
549421, 549422, 2
549421, 549419, 2
549421, 549416, 2
