590516, 590514, 2
590516, 590518, 2
590516, 590515, 2
590516, 590517, 1
590518, 590516, 2
590518, 590519, 1
590518, 590517, 2
590519, 590518, 2
590519, 590520, 1
590519, 590521, 2
590515, 590514, 2
590515, 590516, 1
590521, 590522, 1
590521, 590519, 2
590521, 590520, 2
590521, 590523, 2
590514, 590516, 2
590514, 590515, 1
590514, 590513, 2
590522, 590523, 1
590522, 590521, 2
590523, 590522, 2
590523, 590521, 2
590520, 590519, 2
590520, 590521, 1
590513, 590514, 1
590517, 590516, 2
590517, 590518, 1
