537180, 537182, 2
537180, 537181, 1
537180, 537179, 2
537182, 537180, 2
537182, 537181, 2
537179, 537180, 1
537179, 537178, 2
537177, 537178, 1
537181, 537180, 2
537181, 537182, 1
537178, 537177, 2
537178, 537179, 1
