374607, 374608, 1
374607, 374606, 2
374609, 374610, 2
374609, 374608, 2
374608, 374609, 0
374608, 374607, 2
374608, 374610, 1
374615, 374614, 2
374606, 374605, 2
374606, 374604, 2
374606, 374607, 1
374613, 374614, 2
374613, 374612, 2
374604, 374605, 1
374604, 374603, 2
374604, 374606, 2
374612, 374614, 1
374612, 374613, 0
374612, 374611, 2
374614, 374612, 2
374614, 374613, 2
374614, 374615, 0
374605, 374604, 2
374605, 374606, 1
374611, 374612, 1
374611, 374610, 2
374603, 374604, 1
374610, 374609, 2
374610, 374608, 2
374610, 374611, 1
