624041, 624040, 2
624041, 624042, 8
624041, 624038, 2
624041, 624043, 1
624041, 624039, 2
624042, 624041, 2
624042, 624044, 2
624042, 624043, 2
624042, 624039, 2
624044, 624042, 2
624044, 624045, 1
624044, 624043, 2
624037, 624038, 2
624037, 624036, 2
624037, 624035, 2
624043, 624041, 2
624043, 624042, 2
624043, 624044, 8
624043, 624045, 2
624043, 624046, 2
624038, 624040, 2
624038, 624041, 2
624038, 624036, 2
624038, 624037, 2
624038, 624039, 3
624039, 624041, 2
624039, 624042, 2
624039, 624038, 2
624039, 624040, 1
624046, 624045, 2
624046, 624043, 2
624040, 624041, 1
624040, 624038, 2
624040, 624039, 2
624035, 624037, 2
624035, 624036, 1
624045, 624044, 2
624045, 624043, 2
624045, 624046, 1
624036, 624038, 1
624036, 624037, 3
624036, 624035, 2
