417417, 417418, 1
417421, 417422, 1
417421, 417420, 2
417421, 417423, 2
417422, 417421, 2
417422, 417420, 2
417422, 417423, 1
417419, 417420, 1
417419, 417418, 2
417424, 417425, 1
417424, 417423, 2
417425, 417424, 2
417425, 417426, 1
417423, 417424, 1
417423, 417421, 2
417423, 417422, 2
417420, 417421, 1
417420, 417422, 2
417420, 417419, 2
417426, 417425, 2
417418, 417417, 2
417418, 417419, 1
