656493, 656492, 2
656493, 656496, 2
656493, 656494, 1
656492, 656491, 2
656492, 656493, 1
656495, 656496, 3
656495, 656497, 0
656495, 656494, 2
656491, 656492, 1
656491, 656496, 2
656491, 656490, 2
656490, 656491, 1
656490, 656489, 2
656488, 656496, 2
656488, 656489, 2
656488, 656487, 2
656497, 656496, 2
656497, 656495, 2
656489, 656488, 2
656489, 656490, 1
656489, 656487, 2
656496, 656491, 2
656496, 656497, 2
656496, 656488, 2
656496, 656493, 2
656496, 656494, 2
656496, 656495, 2
656494, 656496, 2
656494, 656495, 1
656494, 656493, 2
656487, 656488, 3
656487, 656489, 1
