656601, 656600, 2
656601, 656602, 3
656600, 656601, 1
656600, 656599, 2
656600, 656598, 2
656600, 656602, 2
656600, 656590, 2
656600, 656597, 2
656593, 656595, 2
656593, 656590, 2
656593, 656591, 2
656593, 656594, 2
656593, 656592, 2
656593, 656596, 2
656602, 656601, 2
656602, 656600, 2
656602, 656599, 2
656591, 656590, 2
656591, 656593, 1
656591, 656594, 2
656591, 656592, 8
656599, 656600, 2
656599, 656598, 2
656599, 656596, 2
656599, 656602, 2
656592, 656591, 2
656592, 656593, 2
656592, 656596, 2
656596, 656599, 2
656596, 656598, 2
656596, 656595, 2
656596, 656593, 2
656596, 656590, 2
656596, 656594, 2
656596, 656592, 2
656596, 656597, 2
656598, 656599, 3
656598, 656597, 2
656598, 656600, 1
656598, 656596, 2
656598, 656595, 2
656595, 656593, 2
656595, 656596, 3
656595, 656590, 2
656595, 656598, 2
656595, 656594, 2
656595, 656597, 1
656590, 656600, 2
656590, 656593, 2
656590, 656595, 2
656590, 656591, 3
656590, 656594, 1
656590, 656596, 2
656594, 656590, 2
656594, 656593, 2
656594, 656595, 1
656594, 656596, 2
656594, 656591, 2
656597, 656600, 2
656597, 656598, 1
656597, 656596, 2
656597, 656595, 2
