433292, 433291, 2
433292, 433288, 2
433292, 433290, 2
433292, 433289, 2
433292, 433293, 1
433290, 433292, 2
433290, 433288, 2
433290, 433291, 1
433290, 433289, 2
433288, 433292, 2
433288, 433290, 1
433288, 433289, 0
433288, 433291, 2
433291, 433292, 1
433291, 433288, 2
433291, 433290, 2
433291, 433289, 2
433294, 433289, 2
433294, 433293, 2
433289, 433292, 2
433289, 433294, 2
433289, 433288, 2
433289, 433290, 2
433289, 433291, 2
433293, 433292, 2
433293, 433294, 1
