456263, 456264, 2
456263, 456265, 2
456263, 456262, 2
456263, 456261, 2
456261, 456264, 2
456261, 456263, 2
456261, 456262, 1
456261, 456260, 2
456264, 456263, 2
456264, 456265, 1
456264, 456262, 2
456264, 456261, 2
456260, 456261, 1
456265, 456264, 2
456265, 456263, 2
456262, 456264, 1
456262, 456263, 8
456262, 456261, 2
