431740, 431743, 2
431740, 431741, 1
431740, 431742, 2
431741, 431743, 2
431741, 431740, 2
431741, 431742, 1
431742, 431743, 1
431742, 431740, 2
431742, 431741, 2
431746, 431747, 1
431746, 431745, 2
431747, 431746, 2
431747, 431748, 1
431743, 431740, 2
431743, 431741, 2
431743, 431742, 2
431743, 431744, 1
431743, 431745, 2
431745, 431743, 2
431745, 431746, 1
431745, 431744, 2
431749, 431748, 2
431744, 431743, 2
431744, 431745, 1
431748, 431747, 2
431748, 431749, 1
