339832, 339831, 2
339832, 339834, 2
339832, 339833, 2
339832, 339830, 2
339830, 339831, 1
339830, 339832, 2
339830, 339829, 2
339830, 339833, 2
339831, 339834, 2
339831, 339832, 8
339831, 339833, 1
339831, 339830, 2
339834, 339831, 2
339834, 339832, 2
339834, 339833, 2
339833, 339831, 2
339833, 339834, 1
339833, 339832, 2
339833, 339830, 2
339829, 339830, 1
