523355, 523354, 2
523349, 523350, 1
523349, 523348, 2
523352, 523351, 2
523352, 523350, 2
523352, 523353, 1
523347, 523348, 1
523354, 523355, 1
523354, 523353, 2
523351, 523350, 2
523351, 523352, 1
523350, 523349, 2
523350, 523351, 1
523350, 523352, 2
523353, 523354, 1
523353, 523352, 2
523348, 523349, 1
523348, 523347, 2
