377632, 377635, 2
377632, 377634, 1
377632, 377633, 0
377635, 377632, 2
377635, 377634, 2
377635, 377633, 2
377634, 377632, 2
377634, 377635, 1
377634, 377633, 2
377633, 377632, 2
377633, 377635, 2
377633, 377634, 2
