418326, 418323, 2
418326, 418325, 2
418326, 418327, 1
418326, 418328, 2
418326, 418324, 2
418327, 418326, 2
418327, 418329, 1
418327, 418328, 0
418340, 418341, 1
418340, 418339, 2
418341, 418342, 1
418341, 418339, 2
418341, 418343, 2
418341, 418340, 2
418324, 418323, 2
418324, 418326, 1
418324, 418322, 2
418324, 418325, 0
418322, 418323, 1
418322, 418324, 2
418325, 418323, 2
418325, 418326, 2
418325, 418324, 2
418334, 418335, 1
418334, 418333, 2
418339, 418338, 2
418339, 418341, 2
418339, 418340, 1
418331, 418330, 2
418331, 418332, 1
418344, 418343, 2
418336, 418337, 1
418336, 418335, 2
418323, 418326, 2
418323, 418325, 2
418323, 418322, 2
418323, 418324, 1
418337, 418338, 1
418337, 418336, 2
418337, 418335, 2
418332, 418331, 2
418332, 418333, 1
418338, 418337, 2
418338, 418339, 1
418342, 418341, 2
418342, 418343, 1
418329, 418330, 1
418329, 418327, 2
418329, 418328, 2
418335, 418337, 2
418335, 418334, 2
418335, 418336, 1
418335, 418333, 2
418343, 418344, 1
418343, 418342, 2
418343, 418341, 2
418333, 418332, 2
418333, 418334, 1
418333, 418335, 2
418330, 418331, 1
418330, 418329, 2
418328, 418326, 2
418328, 418329, 2
418328, 418327, 2
