608122, 608119, 2
608122, 608120, 2
608122, 608121, 2
608122, 608118, 2
608120, 608119, 2
608120, 608122, 3
608120, 608121, 0
608121, 608117, 2
608121, 608122, 2
608121, 608120, 2
608119, 608118, 2
608119, 608122, 2
608119, 608117, 2
608119, 608120, 1
608118, 608117, 2
608118, 608122, 2
608118, 608119, 2
608117, 608118, 3
608117, 608121, 2
608117, 608119, 1
