450287, 450285, 2
450287, 450286, 2
450287, 450289, 1
450287, 450288, 3
450289, 450287, 2
450289, 450290, 1
450289, 450285, 2
450289, 450288, 2
450290, 450291, 1
450290, 450289, 2
450290, 450292, 2
450281, 450283, 1
450281, 450282, 3
450282, 450283, 2
450282, 450281, 2
450294, 450295, 1
450294, 450293, 2
450294, 450292, 2
450291, 450293, 1
450291, 450292, 8
450291, 450290, 2
450295, 450294, 2
450286, 450287, 1
450286, 450285, 2
450286, 450288, 2
450288, 450287, 2
450288, 450286, 2
450288, 450289, 2
450283, 450281, 2
450283, 450284, 1
450283, 450282, 2
450284, 450283, 2
450284, 450285, 1
450293, 450294, 1
450293, 450291, 2
450293, 450292, 2
450285, 450287, 2
450285, 450284, 2
450285, 450286, 1
450285, 450289, 2
450292, 450293, 2
450292, 450294, 2
450292, 450291, 2
450292, 450290, 2
