456546, 456545, 2
456546, 456547, 2
456548, 456549, 1
456548, 456547, 2
456545, 456543, 2
456545, 456546, 2
456545, 456544, 2
456545, 456547, 2
456549, 456548, 2
456543, 456545, 2
456543, 456544, 3
456543, 456547, 1
456544, 456545, 1
456544, 456543, 2
456547, 456545, 2
456547, 456546, 2
456547, 456548, 3
456547, 456543, 2
