537028, 537025, 2
537028, 537027, 2
537028, 537023, 2
537028, 537026, 2
537028, 537024, 2
537023, 537028, 2
537023, 537025, 2
537023, 537026, 2
537023, 537027, 2
537023, 537024, 2
537025, 537028, 2
537025, 537027, 2
537025, 537023, 2
537025, 537026, 2
537025, 537024, 2
537026, 537028, 2
537026, 537025, 2
537026, 537027, 2
537026, 537023, 2
537026, 537024, 2
537027, 537028, 2
537027, 537025, 2
537027, 537026, 2
537027, 537023, 2
537027, 537024, 2
537024, 537028, 2
537024, 537025, 2
537024, 537026, 2
537024, 537023, 2
537024, 537027, 2
