495697, 495700, 1
495697, 495696, 2
495697, 495699, 3
495697, 495698, 0
495697, 495695, 2
495699, 495697, 2
495699, 495701, 2
495699, 495698, 2
495699, 495700, 2
495701, 495700, 2
495701, 495699, 2
495695, 495697, 2
495695, 495696, 1
495700, 495697, 2
495700, 495699, 2
495700, 495698, 2
495700, 495701, 3
495696, 495697, 1
495696, 495695, 2
495698, 495697, 2
495698, 495699, 2
495698, 495700, 2
