572544, 572542, 2
572544, 572545, 2
572544, 572543, 2
572547, 572546, 2
572547, 572545, 2
572545, 572544, 2
572545, 572543, 2
572545, 572542, 2
572545, 572547, 2
572545, 572546, 1
572546, 572547, 1
572546, 572545, 2
572546, 572543, 2
572542, 572544, 0
572542, 572545, 1
572542, 572543, 3
572543, 572544, 2
572543, 572546, 2
572543, 572545, 2
572543, 572542, 2
