572296, 572299, 1
572296, 572297, 3
572296, 572298, 0
572299, 572296, 2
572299, 572300, 1
572299, 572301, 2
572299, 572297, 2
572299, 572298, 2
572300, 572299, 2
572300, 572297, 2
572300, 572301, 1
572301, 572299, 2
572301, 572300, 2
572297, 572296, 2
572297, 572299, 2
572297, 572300, 2
572297, 572298, 2
572298, 572296, 2
572298, 572299, 2
572298, 572297, 2
