379712, 379713, 0
379712, 379711, 2
379707, 379708, 1
379707, 379706, 2
379708, 379707, 2
379708, 379706, 2
379708, 379709, 1
379708, 379710, 2
379710, 379708, 2
379710, 379709, 2
379710, 379711, 1
379709, 379708, 2
379709, 379710, 1
379705, 379706, 1
379713, 379712, 2
379706, 379705, 2
379706, 379707, 1
379706, 379708, 2
379711, 379712, 1
379711, 379710, 2
