592897, 592893, 2
592897, 592898, 2
592897, 592895, 2
592897, 592896, 2
592894, 592893, 2
592894, 592895, 1
592894, 592896, 2
592895, 592897, 2
592895, 592893, 2
592895, 592894, 2
592895, 592898, 1
592895, 592896, 0
592896, 592897, 2
592896, 592893, 2
592896, 592894, 2
592896, 592898, 2
592896, 592895, 2
592893, 592897, 2
592893, 592894, 1
592893, 592898, 2
592893, 592895, 2
592893, 592896, 2
592898, 592897, 5
592898, 592893, 2
592898, 592895, 2
592898, 592896, 2
