491680, 491681, 1
491681, 491680, 2
491681, 491682, 1
491691, 491692, 8
491691, 491688, 2
491691, 491689, 2
491691, 491690, 2
491691, 491693, 1
491691, 491687, 2
491690, 491689, 2
491690, 491687, 2
491690, 491691, 1
491690, 491688, 2
491683, 491682, 2
491683, 491684, 2
491698, 491699, 1
491698, 491696, 2
491698, 491697, 2
491696, 491692, 2
491696, 491698, 2
491696, 491694, 2
491696, 491693, 2
491696, 491697, 2
491696, 491695, 2
491697, 491699, 2
491697, 491696, 2
491697, 491698, 8
491697, 491695, 2
491686, 491685, 2
491686, 491687, 1
491682, 491683, 3
491682, 491681, 2
491682, 491684, 1
491685, 491686, 1
491685, 491684, 2
491688, 491689, 6
491688, 491687, 2
491688, 491691, 2
491688, 491690, 2
491688, 491692, 2
491689, 491688, 2
491689, 491691, 2
491689, 491690, 2
491689, 491687, 2
491684, 491683, 2
491684, 491685, 1
491684, 491682, 2
491694, 491696, 2
491694, 491695, 1
491694, 491693, 2
491693, 491692, 2
491693, 491696, 2
491693, 491695, 2
491693, 491691, 2
491693, 491694, 1
491699, 491697, 2
491699, 491698, 2
491687, 491691, 2
491687, 491688, 3
491687, 491689, 2
491687, 491686, 2
491687, 491690, 1
491692, 491696, 2
491692, 491688, 2
491692, 491691, 2
491692, 491695, 2
491692, 491693, 2
491695, 491692, 2
491695, 491696, 8
491695, 491697, 1
491695, 491694, 2
491695, 491693, 2
