608518, 608517, 2
608518, 608519, 1
608519, 608518, 2
608519, 608517, 2
608519, 608520, 1
608519, 608522, 2
608520, 608519, 2
608520, 608521, 1
608520, 608522, 2
608522, 608521, 2
608522, 608519, 2
608522, 608517, 2
608522, 608520, 2
608522, 608523, 2
608523, 608521, 2
608523, 608524, 1
608523, 608522, 2
608517, 608518, 1
608517, 608519, 2
608517, 608522, 2
608525, 608524, 2
608524, 608525, 1
608524, 608523, 2
608521, 608520, 2
608521, 608522, 6
608521, 608523, 1
