449324, 449325, 1
449324, 449323, 2
449316, 449315, 2
449316, 449320, 2
449316, 449318, 1
449316, 449317, 3
449320, 449316, 2
449320, 449315, 2
449320, 449317, 2
449320, 449319, 2
449320, 449321, 2
449320, 449318, 2
449319, 449321, 1
449319, 449320, 8
449319, 449318, 2
449315, 449316, 1
449315, 449318, 2
449315, 449320, 2
449322, 449321, 2
449322, 449325, 2
449322, 449323, 2
449317, 449316, 2
449317, 449318, 2
449317, 449320, 2
449318, 449319, 1
449318, 449320, 2
449318, 449316, 2
449318, 449315, 2
449318, 449317, 2
449321, 449319, 2
449321, 449322, 3
449321, 449320, 2
449321, 449323, 1
449323, 449324, 1
449323, 449322, 2
449323, 449321, 2
449323, 449325, 2
449325, 449324, 2
449325, 449322, 2
449325, 449323, 2
