339846, 339845, 2
339841, 339842, 1
339841, 339843, 2
339842, 339841, 2
339842, 339843, 1
339844, 339845, 1
339844, 339843, 2
339845, 339846, 1
339845, 339844, 2
339843, 339842, 2
339843, 339844, 1
339843, 339841, 2
