644060, 644059, 2
644055, 644056, 1
644058, 644056, 2
644058, 644059, 2
644058, 644057, 2
644056, 644057, 1
644056, 644058, 2
644056, 644055, 2
644059, 644057, 2
644059, 644060, 1
644059, 644058, 2
644057, 644056, 2
644057, 644059, 1
644057, 644058, 8
