491790, 491789, 2
491790, 491791, 2
491790, 491793, 2
491790, 491792, 2
491791, 491790, 2
491791, 491789, 2
491791, 491792, 2
491796, 491798, 1
491796, 491797, 3
491796, 491795, 2
491805, 491804, 2
491805, 491806, 2
491794, 491793, 2
491794, 491795, 2
491799, 491801, 2
491799, 491798, 2
491799, 491800, 2
491801, 491803, 2
491801, 491802, 2
491801, 491799, 2
491801, 491798, 2
491801, 491804, 2
491801, 491800, 2
491798, 491803, 2
491798, 491799, 8
491798, 491801, 2
491798, 491796, 2
491798, 491797, 2
491798, 491795, 2
491798, 491800, 1
491797, 491796, 2
491797, 491798, 2
491800, 491799, 2
491800, 491801, 6
491800, 491803, 1
491800, 491798, 2
491800, 491802, 3
491789, 491790, 6
491789, 491791, 3
491789, 491792, 1
491803, 491801, 2
491803, 491804, 1
491803, 491798, 2
491803, 491802, 2
491803, 491800, 2
491792, 491790, 2
491792, 491791, 2
491792, 491789, 2
491792, 491793, 1
491793, 491790, 2
491793, 491794, 3
491793, 491795, 1
491793, 491792, 2
491802, 491801, 2
491802, 491803, 2
491802, 491800, 2
491807, 491808, 3
491807, 491806, 2
491807, 491809, 1
491806, 491807, 1
491806, 491804, 2
491806, 491809, 2
491806, 491805, 2
491808, 491809, 2
491808, 491807, 2
491809, 491808, 2
491809, 491806, 2
491809, 491807, 2
491795, 491794, 2
491795, 491796, 1
491795, 491798, 2
491795, 491793, 2
491804, 491801, 2
491804, 491803, 2
491804, 491806, 1
491804, 491805, 3
