404115, 404114, 2
404115, 404116, 1
404116, 404115, 2
404116, 404117, 1
404112, 404114, 1
404112, 404111, 2
404112, 404113, 0
404113, 404114, 2
404113, 404112, 2
404118, 404117, 2
404118, 404119, 1
404109, 404110, 3
404109, 404111, 1
404110, 404111, 2
404110, 404109, 2
404114, 404115, 1
404114, 404111, 2
404114, 404112, 2
404114, 404113, 2
404119, 404118, 2
404111, 404114, 2
404111, 404110, 2
404111, 404112, 1
404111, 404109, 2
404117, 404116, 2
404117, 404118, 1
