607879, 607882, 1
607879, 607880, 3
607881, 607882, 2
607881, 607880, 2
607880, 607879, 2
607880, 607881, 2
607880, 607882, 2
607883, 607882, 2
607882, 607879, 2
607882, 607881, 2
607882, 607880, 2
607882, 607883, 3
