488959, 488961, 2
488959, 488960, 1
488964, 488965, 2
488964, 488963, 2
488966, 488967, 1
488966, 488965, 2
488960, 488959, 2
488960, 488961, 1
488960, 488962, 2
488967, 488965, 2
488967, 488968, 0
488967, 488966, 2
488963, 488965, 1
488963, 488964, 3
488963, 488962, 2
488965, 488967, 2
488965, 488964, 2
488965, 488968, 2
488965, 488966, 1
488965, 488963, 2
488968, 488967, 2
488968, 488965, 2
488961, 488959, 2
488961, 488962, 1
488961, 488960, 2
488962, 488961, 2
488962, 488963, 1
488962, 488960, 2
