522627, 522628, 0
522627, 522629, 1
522627, 522625, 2
522627, 522626, 2
522622, 522621, 2
522622, 522623, 1
522635, 522636, 1
522635, 522634, 2
522635, 522637, 2
522637, 522639, 1
522637, 522636, 2
522637, 522638, 3
522637, 522635, 2
522637, 522640, 2
522632, 522629, 2
522632, 522633, 1
522632, 522630, 2
522632, 522631, 2
522626, 522629, 2
522626, 522627, 2
522626, 522625, 2
522626, 522631, 2
522641, 522639, 2
522641, 522638, 2
522641, 522642, 1
522641, 522640, 2
522629, 522628, 2
522629, 522627, 2
522629, 522630, 1
522629, 522632, 2
522629, 522631, 2
522629, 522633, 2
522629, 522626, 2
522625, 522624, 2
522625, 522627, 1
522625, 522623, 2
522625, 522628, 2
522625, 522626, 3
522630, 522632, 1
522630, 522633, 2
522630, 522629, 2
522630, 522631, 8
522636, 522635, 2
522636, 522637, 1
522639, 522641, 1
522639, 522640, 0
522639, 522638, 2
522639, 522637, 2
522640, 522641, 2
522640, 522639, 2
522640, 522637, 2
522628, 522623, 2
522628, 522629, 2
522628, 522627, 2
522628, 522625, 2
522638, 522641, 2
522638, 522639, 2
522638, 522637, 2
522623, 522628, 2
522623, 522622, 2
522623, 522625, 2
522623, 522624, 1
522642, 522641, 2
522624, 522623, 2
522624, 522625, 1
522621, 522620, 2
522621, 522622, 1
522620, 522621, 1
522631, 522632, 2
522631, 522629, 2
522631, 522630, 2
522631, 522626, 2
522633, 522632, 2
522633, 522634, 1
522633, 522629, 2
522633, 522630, 2
522634, 522633, 2
522634, 522635, 1
