495540, 495538, 2
495540, 495541, 2
495540, 495539, 2
495540, 495537, 2
495541, 495540, 2
495541, 495538, 2
495541, 495539, 2
495541, 495537, 2
495535, 495538, 2
495535, 495536, 1
495535, 495537, 2
495537, 495540, 2
495537, 495541, 1
495537, 495535, 2
495537, 495538, 8
495537, 495539, 2
495537, 495536, 2
495538, 495540, 2
495538, 495541, 2
495538, 495535, 2
495538, 495537, 2
495538, 495539, 1
495538, 495536, 2
495539, 495540, 1
495539, 495541, 2
495539, 495538, 2
495539, 495537, 2
495536, 495538, 2
495536, 495535, 2
495536, 495537, 1
