494206, 494207, 2
494206, 494208, 2
494206, 494209, 2
494206, 494205, 2
494207, 494206, 2
494207, 494208, 8
494207, 494209, 1
494207, 494205, 2
494209, 494206, 2
494209, 494207, 2
494209, 494208, 2
494209, 494205, 2
494208, 494206, 2
494208, 494207, 2
494208, 494209, 2
494205, 494206, 0
494205, 494207, 3
494205, 494209, 2
