624416, 624414, 2
624416, 624415, 2
624410, 624412, 1
624410, 624409, 2
624410, 624407, 2
624410, 624408, 2
624410, 624411, 0
624408, 624404, 2
624408, 624410, 2
624408, 624407, 2
624408, 624406, 2
624408, 624409, 2
624404, 624405, 1
624404, 624406, 2
624404, 624403, 2
624404, 624402, 2
624404, 624408, 2
624409, 624410, 2
624409, 624407, 2
624409, 624408, 2
624403, 624404, 2
624403, 624402, 2
624415, 624416, 3
624415, 624414, 2
624411, 624412, 2
624411, 624410, 2
624411, 624407, 2
624405, 624404, 2
624405, 624406, 1
624402, 624404, 1
624402, 624403, 0
624412, 624410, 2
624412, 624413, 1
624412, 624414, 2
624412, 624411, 2
624414, 624416, 2
624414, 624412, 2
624414, 624413, 2
624414, 624415, 1
624407, 624410, 1
624407, 624406, 2
624407, 624408, 3
624407, 624411, 2
624407, 624409, 8
624413, 624412, 2
624413, 624414, 1
624406, 624405, 2
624406, 624404, 2
624406, 624407, 1
624406, 624408, 2
