553731, 553732, 1
553731, 553730, 2
553727, 553729, 2
553727, 553728, 1
553732, 553731, 2
553728, 553727, 2
553728, 553729, 1
553730, 553731, 1
553730, 553729, 2
553729, 553727, 2
553729, 553730, 1
553729, 553728, 2
