623644, 623646, 2
623644, 623648, 2
623644, 623647, 2
623644, 623643, 2
623644, 623642, 2
623644, 623645, 2
623646, 623644, 2
623646, 623649, 2
623646, 623650, 1
623646, 623648, 3
623646, 623647, 6
623646, 623643, 2
623646, 623642, 2
623646, 623645, 2
623649, 623646, 2
623649, 623650, 2
623649, 623647, 2
623649, 623648, 2
623650, 623646, 2
623650, 623649, 2
623650, 623647, 2
623650, 623648, 2
623647, 623644, 2
623647, 623646, 2
623647, 623649, 2
623647, 623650, 2
623647, 623641, 2
623647, 623643, 2
623647, 623642, 2
623647, 623645, 2
623641, 623643, 2
623641, 623642, 1
623641, 623647, 2
623643, 623644, 1
623643, 623646, 2
623643, 623641, 2
623643, 623647, 2
623643, 623642, 2
623643, 623648, 2
623642, 623644, 2
623642, 623646, 1
623642, 623641, 2
623642, 623647, 2
623642, 623643, 3
623642, 623645, 8
623648, 623644, 2
623648, 623646, 2
623648, 623649, 1
623648, 623650, 2
623648, 623643, 2
623648, 623645, 2
623645, 623644, 2
623645, 623646, 2
623645, 623648, 2
623645, 623647, 2
623645, 623642, 2
