376542, 376543, 1
376542, 376540, 2
376542, 376541, 2
376552, 376551, 2
376552, 376550, 2
376545, 376544, 2
376545, 376543, 2
376545, 376546, 2
376536, 376537, 1
376536, 376535, 2
376536, 376538, 2
376538, 376536, 2
376538, 376539, 2
376538, 376537, 2
376546, 376544, 2
376546, 376545, 2
376546, 376547, 1
376551, 376552, 1
376551, 376550, 2
376548, 376549, 1
376548, 376547, 2
376549, 376548, 2
376549, 376550, 1
376532, 376534, 2
376532, 376531, 2
376532, 376533, 1
376540, 376542, 1
376540, 376539, 2
376540, 376541, 8
376547, 376548, 1
376547, 376546, 2
376543, 376542, 2
376543, 376545, 2
376543, 376541, 2
376543, 376544, 1
376530, 376531, 1
376530, 376529, 2
376531, 376532, 1
376531, 376530, 2
376550, 376551, 1
376550, 376552, 2
376550, 376549, 2
376544, 376543, 2
376544, 376545, 8
376544, 376546, 1
376539, 376540, 1
376539, 376537, 2
376539, 376538, 2
376529, 376530, 1
376534, 376532, 2
376534, 376535, 1
376534, 376533, 2
376541, 376542, 2
376541, 376540, 2
376541, 376543, 2
376537, 376539, 1
376537, 376536, 2
376537, 376538, 8
376535, 376534, 2
376535, 376536, 1
376533, 376534, 1
376533, 376532, 2
