592466, 592467, 1
592466, 592465, 2
592468, 592467, 2
592468, 592469, 1
592467, 592466, 2
592467, 592468, 1
592467, 592465, 2
592467, 592469, 2
592465, 592466, 1
592465, 592467, 2
592469, 592468, 2
592469, 592467, 2
