340362, 340364, 1
340362, 340363, 8
340363, 340362, 2
340363, 340364, 2
340363, 340365, 2
340366, 340367, 1
340366, 340364, 2
340366, 340365, 2
340367, 340366, 2
340364, 340362, 2
340364, 340363, 2
340364, 340366, 1
340364, 340365, 3
340365, 340364, 2
340365, 340363, 2
340365, 340366, 2
