450010, 450013, 1
450010, 450014, 2
450010, 450011, 3
450010, 450012, 0
450017, 450018, 1
450017, 450016, 2
450017, 450015, 2
450017, 450014, 2
450020, 450018, 2
450020, 450019, 2
450020, 450016, 2
450020, 450015, 2
450020, 450021, 1
450012, 450010, 2
450012, 450011, 2
450012, 450013, 2
450012, 450014, 2
450019, 450020, 1
450019, 450018, 2
450011, 450010, 2
450011, 450012, 2
450011, 450013, 2
450011, 450014, 2
450015, 450018, 2
450015, 450017, 2
450015, 450016, 3
450015, 450020, 2
450015, 450014, 2
450021, 450020, 2
450021, 450022, 1
450018, 450020, 2
450018, 450019, 1
450018, 450017, 2
450018, 450015, 2
450018, 450016, 2
450013, 450010, 2
450013, 450012, 2
450013, 450011, 2
450013, 450014, 1
450016, 450014, 2
450016, 450015, 2
450016, 450020, 2
450016, 450018, 2
450016, 450022, 2
450016, 450017, 2
450022, 450016, 2
450022, 450021, 2
450014, 450010, 2
450014, 450011, 2
450014, 450017, 1
450014, 450015, 3
450014, 450012, 2
450014, 450013, 2
450014, 450016, 2
