491874, 491875, 1
491874, 491873, 2
491867, 491866, 2
491867, 491870, 2
491867, 491868, 1
491859, 491860, 1
491859, 491857, 2
491859, 491858, 2
491859, 491861, 2
491861, 491860, 2
491861, 491859, 2
491861, 491862, 1
491869, 491871, 2
491869, 491870, 1
491869, 491868, 2
491869, 491872, 2
491875, 491874, 2
491875, 491876, 1
491873, 491874, 0
491873, 491877, 1
491873, 491872, 2
491877, 491873, 2
491877, 491872, 2
491877, 491876, 2
491866, 491864, 2
491866, 491867, 0
491866, 491865, 2
491866, 491870, 2
491866, 491863, 2
491860, 491859, 2
491860, 491861, 1
491857, 491856, 2
491857, 491858, 2
491857, 491859, 2
491870, 491871, 1
491870, 491866, 2
491870, 491869, 2
491870, 491868, 2
491870, 491867, 2
491856, 491857, 6
491856, 491858, 1
491865, 491864, 2
491865, 491866, 2
491865, 491863, 2
491865, 491872, 2
491858, 491856, 2
491858, 491857, 2
491858, 491859, 1
491876, 491875, 2
491876, 491877, 2
491862, 491864, 2
491862, 491863, 1
491862, 491861, 2
491864, 491863, 2
491864, 491866, 2
491864, 491865, 2
491864, 491862, 2
491864, 491872, 2
491872, 491864, 2
491872, 491873, 1
491872, 491869, 2
491872, 491868, 2
491872, 491871, 2
491872, 491877, 2
491872, 491865, 2
491871, 491869, 2
491871, 491868, 2
491871, 491870, 2
491871, 491872, 2
491868, 491871, 2
491868, 491867, 2
491868, 491870, 2
491868, 491869, 1
491868, 491872, 2
491863, 491864, 3
491863, 491866, 1
491863, 491865, 8
491863, 491862, 2
