450137, 450135, 2
450137, 450138, 1
450137, 450136, 2
450143, 450141, 2
450143, 450144, 1
450143, 450139, 2
450143, 450145, 2
450143, 450142, 2
450143, 450138, 2
450143, 450140, 2
450141, 450140, 2
450141, 450142, 1
450141, 450138, 2
450141, 450139, 2
450141, 450143, 2
450147, 450146, 2
450135, 450137, 1
450135, 450138, 2
450135, 450136, 3
450142, 450141, 2
450142, 450140, 2
450142, 450139, 2
450142, 450143, 1
450136, 450137, 2
450136, 450135, 2
450136, 450140, 2
450136, 450138, 2
450139, 450138, 2
450139, 450141, 2
450139, 450140, 2
450139, 450142, 2
450139, 450143, 2
450145, 450143, 2
450145, 450144, 2
450145, 450146, 2
450144, 450145, 3
450144, 450143, 2
450144, 450146, 1
450140, 450141, 2
450140, 450142, 2
450140, 450139, 2
450140, 450136, 2
450140, 450143, 2
450140, 450138, 2
450138, 450135, 2
450138, 450139, 0
450138, 450136, 2
450138, 450137, 2
450138, 450143, 2
450138, 450140, 3
450138, 450141, 1
450146, 450144, 2
450146, 450147, 0
450146, 450145, 2
