379610, 379611, 1
379610, 379609, 2
379612, 379611, 2
379612, 379613, 2
379613, 379614, 0
379613, 379612, 2
379613, 379611, 2
379607, 379609, 1
379607, 379608, 0
379614, 379613, 2
379611, 379610, 2
379611, 379612, 0
379611, 379613, 1
379609, 379607, 2
379609, 379610, 1
379609, 379608, 2
379608, 379607, 2
379608, 379609, 2
