455849, 455850, 1
455849, 455851, 2
455850, 455849, 2
455850, 455851, 1
455852, 455851, 2
455852, 455853, 1
455851, 455850, 2
455851, 455849, 2
455851, 455852, 1
455851, 455853, 2
455853, 455852, 2
455853, 455851, 2
