570999, 571001, 2
570999, 571002, 0
570999, 571000, 3
571004, 571001, 2
571004, 571003, 2
571004, 571007, 0
571004, 571006, 2
571004, 571002, 2
571004, 571005, 3
571012, 571014, 2
571012, 571006, 2
571012, 571010, 2
571012, 571013, 3
571012, 571011, 2
571012, 571015, 0
571002, 570999, 2
571002, 571001, 2
571002, 571003, 2
571002, 571000, 2
571002, 571004, 2
571011, 571010, 2
571011, 571006, 2
571011, 571012, 1
571014, 571013, 2
571014, 571012, 2
571014, 571015, 2
571015, 571013, 2
571015, 571014, 2
571015, 571012, 2
571001, 570999, 2
571001, 571004, 2
571001, 571003, 2
571001, 571000, 2
571001, 571002, 2
571001, 571005, 2
571003, 571004, 1
571003, 571002, 2
571003, 571001, 2
571000, 570999, 2
571000, 571001, 1
571000, 571002, 2
571007, 571008, 1
571007, 571004, 2
571007, 571005, 2
571007, 571006, 2
571006, 571004, 2
571006, 571007, 2
571006, 571012, 2
571006, 571010, 2
571006, 571008, 2
571006, 571011, 2
571006, 571005, 2
571006, 571013, 2
571010, 571011, 2
571010, 571012, 2
571010, 571009, 2
571010, 571006, 2
571008, 571009, 1
571008, 571007, 2
571008, 571006, 2
571009, 571010, 1
571009, 571008, 2
571005, 571004, 2
571005, 571001, 2
571005, 571007, 2
571005, 571006, 1
571013, 571006, 2
571013, 571014, 1
571013, 571012, 2
571013, 571015, 2
