421594, 421593, 2
421594, 421595, 1
421594, 421592, 2
421595, 421594, 2
421595, 421596, 1
421599, 421598, 2
421593, 421594, 2
421593, 421592, 2
421598, 421599, 1
421598, 421597, 2
421592, 421593, 0
421592, 421594, 1
421596, 421595, 2
421596, 421597, 1
421597, 421598, 1
421597, 421596, 2
