570319, 570320, 3
570319, 570322, 0
570319, 570323, 8
570319, 570321, 2
570327, 570324, 2
570327, 570326, 2
570327, 570325, 2
570325, 570324, 2
570325, 570327, 2
570325, 570326, 1
570325, 570323, 2
570323, 570319, 2
570323, 570324, 2
570323, 570325, 2
570323, 570322, 2
570323, 570321, 2
570320, 570319, 2
570320, 570322, 2
570320, 570321, 1
570321, 570320, 2
570321, 570319, 2
570321, 570324, 2
570321, 570322, 2
570321, 570323, 2
570324, 570322, 2
570324, 570327, 0
570324, 570325, 3
570324, 570323, 2
570324, 570326, 2
570324, 570321, 2
570322, 570320, 2
570322, 570319, 2
570322, 570324, 2
570322, 570323, 2
570322, 570321, 2
570326, 570324, 2
570326, 570327, 2
570326, 570325, 2
