456560, 456561, 1
456560, 456559, 2
456557, 456559, 1
456557, 456558, 3
456559, 456561, 2
456559, 456557, 2
456559, 456558, 2
456559, 456560, 1
456558, 456557, 2
456558, 456559, 2
456562, 456561, 2
456562, 456563, 1
456561, 456562, 1
456561, 456559, 2
456561, 456560, 2
456561, 456563, 2
456563, 456562, 2
456563, 456561, 2
