536853, 536851, 2
536853, 536852, 2
536853, 536850, 2
536849, 536851, 2
536849, 536852, 2
536849, 536850, 1
536851, 536853, 2
536851, 536849, 2
536851, 536852, 2
536851, 536850, 2
536852, 536853, 1
536852, 536849, 2
536852, 536851, 2
536852, 536850, 2
536850, 536853, 2
536850, 536849, 2
536850, 536852, 1
536850, 536851, 8
