417405, 417404, 2
417405, 417401, 2
417405, 417399, 2
417405, 417406, 1
417405, 417402, 2
417405, 417403, 2
417402, 417405, 2
417402, 417404, 1
417402, 417401, 2
417402, 417397, 2
417402, 417399, 2
417402, 417400, 2
417402, 417398, 2
417402, 417403, 3
417401, 417405, 2
417401, 417402, 2
417401, 417397, 2
417401, 417399, 2
417401, 417406, 2
417401, 417400, 2
417401, 417398, 2
417401, 417403, 2
417397, 417402, 2
417397, 417401, 2
417397, 417400, 1
417397, 417398, 2
417397, 417403, 2
417399, 417405, 2
417399, 417404, 2
417399, 417401, 2
417399, 417398, 2
417399, 417402, 2
417406, 417405, 2
417406, 417401, 2
417406, 417403, 2
417400, 417402, 2
417400, 417401, 1
417400, 417398, 2
417400, 417397, 2
417400, 417403, 2
417404, 417399, 2
417404, 417405, 1
417404, 417402, 2
417404, 417403, 2
417398, 417402, 1
417398, 417401, 2
417398, 417397, 4
417398, 417399, 6
417398, 417400, 2
417398, 417403, 2
417403, 417404, 2
417403, 417401, 2
417403, 417397, 2
417403, 417406, 2
417403, 417402, 2
417403, 417400, 2
417403, 417398, 2
417403, 417405, 2
