418016, 418018, 0
418016, 418014, 2
418016, 418017, 3
418016, 418015, 2
418016, 418019, 1
418026, 418025, 2
418026, 418029, 2
418026, 418027, 1
418024, 418025, 1
418024, 418023, 2
418027, 418026, 2
418027, 418028, 1
418023, 418025, 2
418023, 418024, 1
418023, 418022, 2
418023, 418021, 2
418014, 418016, 1
418014, 418015, 8
418017, 418016, 2
418017, 418018, 2
418017, 418015, 2
418017, 418019, 2
418015, 418016, 2
418015, 418014, 2
418015, 418017, 2
418028, 418029, 1
418028, 418027, 2
418018, 418016, 2
418018, 418017, 2
418018, 418019, 2
418022, 418019, 2
418022, 418020, 2
418022, 418023, 1
418022, 418021, 2
418020, 418022, 1
418020, 418021, 8
418020, 418019, 2
418029, 418026, 2
418029, 418031, 2
418029, 418028, 2
418029, 418030, 1
418021, 418022, 2
418021, 418023, 2
418021, 418020, 2
418021, 418019, 2
418019, 418016, 2
418019, 418018, 2
418019, 418022, 2
418019, 418021, 2
418019, 418017, 2
418019, 418020, 1
418025, 418026, 1
418025, 418024, 2
418025, 418023, 2
418030, 418031, 1
418030, 418029, 2
418031, 418029, 2
418031, 418030, 2
