590344, 590345, 1
590344, 590343, 2
590341, 590342, 1
590341, 590340, 2
590340, 590341, 1
590346, 590345, 2
590346, 590347, 1
590346, 590348, 2
590343, 590344, 1
590343, 590342, 2
590345, 590344, 2
590345, 590346, 1
590342, 590341, 2
590342, 590343, 1
590347, 590346, 2
590347, 590348, 1
590348, 590347, 2
590348, 590346, 2
