456340, 456339, 2
456340, 456341, 8
456340, 456342, 1
456338, 456339, 1
456339, 456342, 2
456339, 456340, 1
456339, 456341, 2
456339, 456338, 2
456341, 456339, 2
456341, 456340, 2
456341, 456343, 2
456341, 456342, 2
456343, 456341, 2
456343, 456342, 2
456342, 456339, 2
456342, 456340, 2
456342, 456341, 2
456342, 456343, 1
