421662, 421657, 2
421662, 421658, 2
421662, 421660, 2
421662, 421663, 3
421662, 421661, 2
421662, 421659, 2
421655, 421657, 2
421655, 421656, 1
421658, 421662, 2
421658, 421657, 2
421658, 421659, 2
421658, 421660, 1
421657, 421662, 1
421657, 421655, 2
421657, 421658, 3
421657, 421660, 2
421657, 421656, 2
421657, 421661, 2
421657, 421659, 0
421656, 421655, 2
421656, 421657, 1
421663, 421662, 2
421663, 421661, 2
421661, 421663, 2
421661, 421662, 2
421661, 421657, 2
421661, 421659, 2
421661, 421660, 2
421659, 421662, 2
421659, 421661, 2
421659, 421658, 2
421659, 421657, 2
421659, 421660, 2
421660, 421662, 2
421660, 421661, 1
421660, 421659, 2
421660, 421658, 2
421660, 421657, 2
