488803, 488804, 1
488803, 488802, 2
488800, 488799, 2
488800, 488801, 1
488805, 488806, 2
488805, 488804, 2
488805, 488802, 2
488807, 488806, 2
488802, 488803, 1
488802, 488805, 2
488802, 488801, 2
488806, 488805, 2
488806, 488807, 1
488806, 488804, 2
488799, 488800, 1
488801, 488800, 2
488801, 488802, 1
488804, 488803, 2
488804, 488806, 1
488804, 488805, 3
