537064, 537062, 2
537064, 537063, 2
537058, 537059, 3
537058, 537061, 1
537058, 537060, 0
537062, 537064, 0
537062, 537061, 2
537062, 537063, 3
537059, 537058, 2
537059, 537061, 2
537059, 537060, 2
537063, 537064, 2
537063, 537062, 2
537063, 537061, 2
537061, 537059, 2
537061, 537058, 2
537061, 537063, 2
537061, 537062, 1
537061, 537060, 2
537060, 537059, 2
537060, 537058, 2
537060, 537061, 2
