373915, 373914, 2
373913, 373911, 2
373913, 373914, 1
373913, 373912, 2
373914, 373915, 0
373914, 373913, 2
373914, 373912, 2
373914, 373911, 2
373908, 373909, 1
373908, 373907, 2
373907, 373909, 2
373907, 373908, 1
373911, 373913, 1
373911, 373909, 2
373911, 373910, 2
373911, 373912, 0
373911, 373914, 2
373909, 373911, 2
373909, 373910, 1
373909, 373908, 2
373909, 373907, 2
373910, 373911, 1
373910, 373909, 2
373912, 373911, 2
373912, 373914, 2
373912, 373913, 2
