335462, 335461, 2
335462, 335463, 1
335474, 335476, 1
335474, 335473, 2
335474, 335475, 3
335468, 335467, 2
335468, 335469, 1
335468, 335466, 2
335472, 335471, 2
335472, 335473, 2
335472, 335469, 2
335465, 335466, 1
335465, 335464, 2
335465, 335467, 2
335473, 335471, 2
335473, 335472, 2
335473, 335474, 1
335473, 335475, 2
335467, 335469, 2
335467, 335468, 2
335467, 335465, 2
335467, 335466, 2
335466, 335468, 1
335466, 335465, 2
335466, 335467, 8
335461, 335462, 1
335461, 335460, 2
335470, 335471, 1
335470, 335469, 2
335471, 335472, 3
335471, 335473, 1
335471, 335469, 2
335471, 335470, 2
335464, 335465, 1
335464, 335463, 2
335460, 335461, 1
335475, 335476, 2
335475, 335473, 2
335475, 335474, 2
335476, 335474, 2
335476, 335475, 2
335469, 335471, 2
335469, 335468, 2
335469, 335472, 2
335469, 335470, 1
335469, 335467, 2
335463, 335462, 2
335463, 335464, 1
