340948, 340947, 2
340948, 340949, 2
340948, 340951, 2
340953, 340952, 2
340953, 340950, 2
340953, 340954, 1
340952, 340953, 2
340952, 340951, 2
340952, 340950, 2
340947, 340948, 0
340947, 340949, 1
340947, 340950, 2
340950, 340953, 1
340950, 340952, 2
340950, 340949, 2
340950, 340947, 2
340950, 340951, 0
340954, 340953, 2
340949, 340948, 2
340949, 340947, 2
340949, 340950, 1
340949, 340951, 2
340951, 340948, 2
340951, 340950, 2
340951, 340952, 3
340951, 340949, 2
