515456, 515455, 2
515456, 515458, 1
515456, 515454, 2
515456, 515457, 8
515455, 515456, 1
515455, 515454, 2
515458, 515456, 2
515458, 515457, 2
515454, 515456, 2
515454, 515455, 1
515454, 515457, 2
515457, 515456, 2
515457, 515458, 2
515457, 515454, 2
