340400, 340399, 2
340400, 340401, 1
340401, 340403, 2
340401, 340400, 2
340401, 340402, 1
340399, 340400, 1
340399, 340398, 2
340399, 340397, 2
340397, 340399, 1
340397, 340398, 0
340398, 340399, 2
340398, 340397, 2
340403, 340401, 2
340403, 340402, 2
340402, 340403, 1
340402, 340401, 2
