450568, 450569, 1
450569, 450568, 2
450569, 450570, 1
450582, 450581, 2
450582, 450583, 2
450577, 450579, 2
450577, 450580, 2
450577, 450578, 1
450577, 450576, 2
450584, 450583, 2
450571, 450573, 2
450571, 450570, 2
450571, 450572, 1
450570, 450569, 2
450570, 450571, 1
450583, 450580, 2
450583, 450581, 2
450583, 450582, 2
450583, 450584, 1
450576, 450575, 2
450576, 450577, 1
450572, 450573, 1
450572, 450571, 2
450573, 450574, 1
450573, 450572, 2
450573, 450571, 2
450575, 450574, 2
450575, 450576, 1
450579, 450580, 2
450579, 450578, 2
450579, 450577, 2
450574, 450573, 2
450574, 450575, 1
450581, 450582, 0
450581, 450583, 1
450581, 450580, 2
450580, 450583, 2
450580, 450581, 1
450580, 450579, 2
450580, 450578, 2
450580, 450577, 2
450578, 450579, 3
450578, 450580, 1
450578, 450577, 2
