644163, 644164, 3
644163, 644165, 1
644163, 644166, 2
644166, 644164, 2
644166, 644163, 2
644166, 644168, 1
644166, 644165, 2
644166, 644167, 3
644165, 644164, 2
644165, 644163, 2
644165, 644166, 1
644164, 644167, 2
644164, 644163, 2
644164, 644166, 2
644164, 644165, 2
644168, 644169, 1
644168, 644166, 2
644168, 644167, 2
644169, 644168, 2
644167, 644164, 2
644167, 644166, 2
644167, 644168, 2
