536422, 536421, 2
536422, 536423, 1
536422, 536420, 2
536422, 536419, 2
536420, 536422, 1
536420, 536421, 8
536420, 536423, 2
536420, 536419, 2
536423, 536422, 2
536423, 536420, 2
536423, 536421, 2
536419, 536422, 2
536419, 536420, 1
536419, 536421, 2
536421, 536422, 2
536421, 536420, 2
536421, 536423, 2
536421, 536419, 2
