496007, 496003, 2
496007, 496005, 2
496007, 496011, 2
496007, 496010, 1
496007, 496006, 2
496007, 496004, 2
496007, 496008, 3
496007, 496009, 0
496003, 496006, 1
496003, 496004, 3
496003, 496005, 0
496003, 496009, 2
496003, 496007, 2
496005, 496007, 2
496005, 496003, 2
496005, 496009, 2
496005, 496004, 2
496005, 496006, 2
496011, 496007, 2
496011, 496009, 2
496011, 496010, 2
496011, 496008, 2
496010, 496007, 2
496010, 496009, 2
496010, 496011, 1
496010, 496008, 2
496006, 496007, 1
496006, 496003, 2
496006, 496005, 2
496006, 496004, 2
496006, 496008, 2
496006, 496009, 2
496004, 496007, 2
496004, 496003, 2
496004, 496005, 2
496004, 496008, 2
496004, 496006, 2
496008, 496007, 2
496008, 496009, 2
496008, 496011, 2
496008, 496010, 2
496008, 496006, 2
496008, 496004, 2
496009, 496007, 2
496009, 496003, 2
496009, 496005, 2
496009, 496011, 2
496009, 496010, 2
496009, 496006, 2
496009, 496008, 2
