404173, 404174, 1
404173, 404179, 2
404173, 404171, 2
404173, 404180, 2
404173, 404172, 2
404179, 404173, 2
404179, 404178, 2
404179, 404175, 2
404179, 404172, 2
404179, 404177, 2
404179, 404176, 2
404179, 404182, 2
404179, 404181, 1
404178, 404179, 4
404178, 404177, 2
404178, 404180, 6
404178, 404182, 1
404178, 404181, 2
404180, 404173, 2
404180, 404174, 2
404180, 404178, 2
404180, 404175, 2
404180, 404171, 2
404180, 404177, 2
404180, 404176, 2
404180, 404182, 2
404177, 404179, 2
404177, 404178, 1
404177, 404180, 2
404177, 404176, 2
404177, 404182, 2
404177, 404175, 2
404182, 404179, 2
404182, 404178, 2
404182, 404180, 2
404182, 404172, 2
404182, 404177, 2
404182, 404181, 2
404182, 404175, 2
404172, 404173, 2
404172, 404179, 2
404172, 404171, 2
404172, 404182, 2
404174, 404173, 2
404174, 404180, 2
404174, 404175, 1
404175, 404174, 2
404175, 404179, 2
404175, 404180, 2
404175, 404177, 2
404175, 404176, 1
404175, 404182, 2
404171, 404173, 1
404171, 404180, 2
404171, 404172, 3
404176, 404179, 2
404176, 404177, 1
404176, 404180, 2
404176, 404175, 2
404181, 404179, 2
404181, 404178, 2
404181, 404182, 2
