450418, 450417, 2
450418, 450420, 2
450418, 450426, 2
450418, 450422, 2
450418, 450419, 1
450418, 450421, 2
450420, 450422, 2
450420, 450423, 2
450420, 450418, 2
450420, 450419, 2
450420, 450421, 2
450424, 450423, 2
450424, 450427, 2
450424, 450426, 2
450424, 450425, 1
450429, 450427, 2
450429, 450431, 2
450429, 450430, 2
450429, 450426, 2
450429, 450428, 2
450425, 450427, 1
450425, 450424, 2
450425, 450426, 6
450425, 450423, 2
450419, 450423, 2
450419, 450418, 2
450419, 450422, 2
450419, 450420, 8
450419, 450421, 1
450431, 450426, 2
450431, 450429, 2
450431, 450430, 2
450427, 450424, 2
450427, 450426, 2
450427, 450425, 2
450427, 450429, 2
450427, 450430, 2
450427, 450428, 1
450417, 450418, 1
450426, 450418, 2
450426, 450424, 2
450426, 450429, 2
450426, 450425, 2
450426, 450423, 2
450426, 450422, 2
450426, 450427, 2
450426, 450430, 2
450426, 450428, 2
450426, 450431, 2
450422, 450418, 2
450422, 450420, 2
450422, 450426, 2
450422, 450423, 1
450422, 450419, 2
450422, 450421, 2
450423, 450420, 2
450423, 450424, 1
450423, 450426, 2
450423, 450425, 2
450423, 450422, 2
450423, 450419, 2
450423, 450421, 2
450428, 450427, 2
450428, 450426, 2
450428, 450429, 8
450428, 450430, 1
450430, 450427, 2
450430, 450431, 1
450430, 450426, 2
450430, 450429, 2
450430, 450428, 2
450421, 450423, 2
450421, 450418, 2
450421, 450419, 2
450421, 450420, 2
450421, 450422, 1
