405820, 405819, 2
405820, 405818, 2
405818, 405820, 2
405818, 405819, 1
405818, 405817, 2
405816, 405817, 1
405816, 405815, 2
405819, 405820, 1
405819, 405818, 2
405817, 405816, 2
405817, 405818, 1
405815, 405816, 1
