374435, 374437, 2
374435, 374434, 2
374435, 374433, 2
374435, 374436, 1
374431, 374429, 2
374431, 374430, 2
374431, 374433, 2
374431, 374432, 1
374430, 374431, 1
374430, 374429, 2
374436, 374435, 2
374436, 374438, 1
374436, 374437, 0
374428, 374429, 1
374432, 374431, 2
374432, 374433, 1
374438, 374437, 2
374438, 374439, 0
374438, 374436, 2
374439, 374438, 2
374429, 374431, 2
374429, 374430, 1
374429, 374428, 2
374434, 374435, 1
374434, 374433, 2
374433, 374435, 2
374433, 374431, 2
374433, 374434, 1
374433, 374432, 2
374437, 374435, 2
374437, 374438, 2
374437, 374436, 2
