644248, 644250, 2
644248, 644251, 2
644248, 644249, 2
644248, 644247, 2
644253, 644252, 2
644250, 644248, 2
644250, 644249, 2
644250, 644251, 1
644252, 644253, 1
644252, 644251, 2
644251, 644248, 2
644251, 644250, 2
644251, 644247, 2
644251, 644252, 1
644249, 644248, 2
644249, 644250, 1
644249, 644247, 2
644247, 644248, 0
644247, 644251, 2
644247, 644249, 1
