495209, 495211, 2
495209, 495210, 1
495209, 495208, 2
495211, 495209, 2
495211, 495212, 2
495211, 495210, 2
495211, 495213, 2
495208, 495209, 1
495208, 495207, 2
495213, 495210, 2
495213, 495212, 2
495213, 495211, 2
495212, 495213, 1
495212, 495211, 2
495212, 495210, 2
495210, 495209, 2
495210, 495212, 1
495210, 495211, 8
495210, 495213, 2
495207, 495208, 1
