494836, 494835, 2
494836, 494834, 2
494835, 494833, 2
494835, 494836, 2
494835, 494832, 2
494835, 494834, 2
494834, 494833, 2
494834, 494836, 0
494834, 494835, 3
494833, 494832, 2
494833, 494831, 2
494833, 494834, 1
494833, 494835, 2
494832, 494833, 2
494832, 494835, 2
494832, 494831, 2
494831, 494833, 1
494831, 494832, 3
