377829, 377827, 2
377829, 377828, 2
377829, 377830, 1
377830, 377829, 2
377830, 377827, 2
377830, 377828, 2
377827, 377829, 2
377827, 377830, 2
377827, 377828, 1
377828, 377829, 1
377828, 377827, 2
377828, 377830, 2
