375441, 375443, 2
375441, 375440, 2
375441, 375439, 2
375441, 375442, 2
375451, 375452, 2
375451, 375453, 2
375451, 375448, 2
375451, 375450, 2
375451, 375449, 2
375445, 375446, 1
375445, 375444, 2
375445, 375443, 2
375450, 375451, 8
375450, 375452, 1
375450, 375448, 2
375450, 375449, 2
375452, 375451, 2
375452, 375446, 2
375452, 375453, 1
375452, 375450, 2
375453, 375451, 2
375453, 375452, 2
375440, 375441, 8
375440, 375439, 2
375440, 375437, 2
375440, 375438, 2
375440, 375442, 1
375444, 375446, 2
375444, 375445, 2
375444, 375443, 2
375437, 375440, 2
375437, 375438, 1
375437, 375439, 2
375437, 375442, 2
375449, 375451, 2
375449, 375447, 2
375449, 375446, 2
375449, 375448, 2
375449, 375450, 1
375446, 375447, 1
375446, 375445, 2
375446, 375452, 2
375446, 375443, 2
375446, 375444, 2
375446, 375448, 2
375446, 375449, 2
375443, 375441, 2
375443, 375444, 0
375443, 375445, 1
375443, 375446, 2
375443, 375442, 2
375448, 375451, 2
375448, 375446, 2
375448, 375447, 2
375448, 375450, 2
375448, 375449, 2
375447, 375446, 2
375447, 375448, 8
375447, 375449, 1
375438, 375440, 1
375438, 375437, 2
375438, 375439, 8
375438, 375442, 2
375439, 375441, 2
375439, 375440, 2
375439, 375437, 2
375439, 375438, 2
375442, 375441, 2
375442, 375440, 2
375442, 375438, 2
375442, 375437, 2
375442, 375443, 1
