656929, 656928, 2
656929, 656926, 2
656929, 656927, 2
656929, 656930, 1
656930, 656929, 2
656930, 656931, 1
656927, 656929, 1
656927, 656926, 2
656927, 656928, 3
656923, 656920, 2
656923, 656924, 8
656923, 656921, 2
656923, 656922, 2
656923, 656925, 1
656928, 656929, 2
656928, 656926, 2
656928, 656927, 2
656922, 656923, 2
656922, 656920, 2
656922, 656921, 2
656922, 656919, 2
656921, 656923, 1
656921, 656920, 2
656921, 656922, 3
656918, 656920, 1
656918, 656919, 3
656918, 656917, 2
656932, 656931, 2
656924, 656923, 2
656924, 656925, 2
656931, 656930, 2
656931, 656932, 1
656916, 656917, 1
656917, 656916, 2
656917, 656918, 1
656926, 656929, 2
656926, 656928, 2
656926, 656925, 2
656926, 656927, 1
656920, 656923, 2
656920, 656922, 2
656920, 656921, 1
656920, 656919, 2
656920, 656918, 2
656919, 656920, 2
656919, 656922, 2
656919, 656918, 2
656925, 656923, 2
656925, 656926, 1
656925, 656924, 2
