335429, 335428, 2
335429, 335430, 1
335429, 335427, 2
335428, 335429, 1
335428, 335427, 2
335435, 335434, 2
335435, 335436, 1
335438, 335436, 2
335438, 335440, 2
335438, 335439, 1
335438, 335437, 2
335437, 335440, 2
335437, 335436, 2
335437, 335439, 2
335437, 335438, 1
335433, 335434, 1
335433, 335432, 2
335432, 335433, 1
335432, 335431, 2
335436, 335434, 2
335436, 335435, 2
335436, 335438, 2
335436, 335437, 1
335436, 335439, 2
335434, 335433, 2
335434, 335435, 1
335434, 335436, 2
335431, 335430, 2
335431, 335432, 1
335442, 335441, 2
335426, 335427, 1
335439, 335436, 2
335439, 335440, 1
335439, 335438, 2
335439, 335437, 2
335427, 335429, 2
335427, 335428, 1
335427, 335426, 2
335441, 335442, 3
335441, 335440, 2
335440, 335437, 2
335440, 335439, 2
335440, 335438, 2
335440, 335441, 1
335430, 335429, 2
335430, 335431, 1
