489452, 489455, 2
489452, 489454, 1
489452, 489451, 2
489452, 489453, 8
489451, 489452, 1
489451, 489453, 2
489451, 489450, 2
489451, 489454, 2
489450, 489451, 1
489450, 489449, 2
489450, 489448, 2
489448, 489449, 1
489448, 489450, 2
489458, 489455, 2
489458, 489457, 2
489458, 489456, 2
489455, 489452, 2
489455, 489456, 1
489455, 489458, 2
489455, 489453, 2
489455, 489457, 2
489455, 489454, 2
489454, 489455, 1
489454, 489452, 2
489454, 489451, 2
489454, 489453, 2
489457, 489455, 2
489457, 489458, 0
489457, 489456, 2
489449, 489450, 1
489449, 489448, 2
489453, 489455, 2
489453, 489452, 2
489453, 489451, 2
489453, 489454, 2
489456, 489455, 2
489456, 489458, 2
489456, 489457, 1
