523126, 523125, 2
523126, 523127, 1
523126, 523124, 2
523124, 523125, 3
523124, 523126, 1
523130, 523129, 2
523130, 523128, 2
523125, 523126, 2
523125, 523127, 2
523125, 523124, 2
523129, 523130, 1
523129, 523128, 2
523127, 523125, 2
523127, 523126, 2
523127, 523128, 1
523128, 523130, 2
523128, 523129, 1
523128, 523127, 2
