378499, 378500, 1
378499, 378498, 2
378500, 378499, 2
378500, 378498, 2
378500, 378502, 2
378500, 378501, 1
378498, 378499, 1
378498, 378500, 2
378498, 378501, 2
378502, 378501, 2
378502, 378500, 2
378501, 378500, 2
378501, 378498, 2
378501, 378502, 1
