450487, 450486, 2
450487, 450488, 1
450494, 450493, 2
450494, 450492, 2
450494, 450495, 2
450498, 450499, 1
450498, 450497, 2
450484, 450486, 2
450484, 450485, 1
450484, 450483, 2
450490, 450489, 2
450490, 450488, 2
450490, 450491, 1
450493, 450494, 1
450493, 450492, 2
450493, 450495, 2
450493, 450491, 2
450486, 450487, 1
450486, 450488, 2
450486, 450485, 2
450486, 450483, 2
450486, 450484, 2
450489, 450490, 1
450489, 450488, 2
450497, 450498, 1
450497, 450499, 2
450497, 450496, 2
450497, 450495, 2
450492, 450493, 3
450492, 450494, 2
450492, 450491, 2
450492, 450495, 1
450499, 450498, 2
450499, 450497, 2
450495, 450493, 2
450495, 450494, 2
450495, 450492, 2
450495, 450496, 1
450495, 450497, 2
450483, 450486, 1
450483, 450485, 2
450483, 450484, 3
450488, 450490, 2
450488, 450487, 2
450488, 450489, 1
450488, 450486, 2
450485, 450486, 2
450485, 450483, 2
450485, 450484, 2
450491, 450490, 2
450491, 450493, 2
450491, 450492, 1
450496, 450495, 2
450496, 450497, 1
