489797, 489795, 2
489797, 489798, 3
489797, 489796, 2
489797, 489794, 2
489792, 489793, 1
489792, 489791, 2
489792, 489795, 2
489792, 489789, 2
489792, 489790, 2
489793, 489795, 2
489793, 489794, 1
489793, 489792, 2
489798, 489795, 2
489798, 489797, 2
489798, 489799, 3
489796, 489795, 2
489796, 489794, 2
489796, 489797, 1
489789, 489791, 1
489789, 489788, 2
489789, 489792, 2
489789, 489790, 8
489790, 489791, 2
489790, 489788, 2
489790, 489789, 2
489790, 489792, 2
489795, 489794, 2
489795, 489792, 2
489795, 489797, 2
489795, 489793, 2
489795, 489798, 2
489795, 489796, 2
489795, 489799, 2
489791, 489788, 2
489791, 489789, 2
489791, 489792, 1
489791, 489790, 2
489788, 489791, 2
489788, 489789, 1
489788, 489790, 2
489794, 489793, 2
489794, 489795, 3
489794, 489797, 2
489794, 489796, 1
489799, 489795, 2
489799, 489798, 2
