431944, 431945, 1
431944, 431943, 2
431943, 431944, 1
431943, 431940, 2
431943, 431942, 2
431943, 431945, 2
431943, 431941, 2
431940, 431942, 1
431940, 431941, 3
431940, 431943, 2
431947, 431946, 2
431947, 431945, 2
431947, 431948, 1
431947, 431950, 2
431947, 431949, 2
431952, 431951, 2
431948, 431951, 2
431948, 431947, 2
431948, 431950, 2
431948, 431949, 1
431949, 431947, 2
431949, 431950, 1
431949, 431951, 2
431949, 431948, 2
431951, 431950, 2
431951, 431952, 1
431951, 431948, 2
431951, 431949, 2
431950, 431947, 2
431950, 431951, 1
431950, 431948, 2
431950, 431949, 2
431946, 431947, 1
431946, 431945, 2
431941, 431942, 2
431941, 431940, 2
431941, 431943, 2
431945, 431944, 2
431945, 431946, 1
431945, 431947, 2
431945, 431943, 2
431942, 431940, 2
431942, 431941, 2
431942, 431943, 1
