495359, 495360, 3
495359, 495355, 2
495359, 495358, 2
495359, 495357, 2
495359, 495356, 2
495359, 495354, 2
495358, 495359, 2
495358, 495357, 2
495358, 495360, 2
495358, 495356, 2
495360, 495359, 2
495360, 495358, 2
495355, 495359, 2
495355, 495357, 2
495355, 495354, 2
495355, 495356, 2
495357, 495355, 2
495357, 495359, 2
495357, 495358, 1
495357, 495356, 2
495357, 495354, 2
495356, 495358, 2
495356, 495359, 2
495356, 495355, 2
495356, 495357, 1
495354, 495359, 1
495354, 495355, 3
495354, 495357, 2
