535580, 535574, 2
535580, 535577, 2
535580, 535576, 2
535580, 535581, 2
535580, 535585, 2
535580, 535587, 2
535580, 535579, 2
535580, 535582, 2
535580, 535583, 2
535580, 535575, 2
535574, 535580, 2
535574, 535573, 2
535574, 535579, 2
535574, 535578, 2
535574, 535572, 2
535574, 535576, 2
535574, 535575, 1
535577, 535580, 2
535577, 535576, 4
535577, 535583, 2
535577, 535578, 6
535577, 535579, 2
535577, 535582, 2
535577, 535581, 1
535577, 535575, 2
535579, 535580, 1
535579, 535574, 2
535579, 535577, 2
535579, 535576, 2
535579, 535584, 2
535579, 535573, 2
535579, 535572, 2
535579, 535582, 2
535579, 535581, 2
535579, 535575, 2
535571, 535570, 2
535571, 535576, 2
535571, 535569, 2
535571, 535572, 2
535573, 535574, 1
535573, 535576, 2
535573, 535579, 2
535573, 535578, 2
535573, 535572, 2
535570, 535572, 1
535570, 535569, 2
535570, 535571, 3
535586, 535578, 2
535586, 535584, 2
535586, 535583, 2
535586, 535585, 2
535586, 535587, 3
535581, 535580, 2
535581, 535577, 2
535581, 535585, 2
535581, 535578, 2
535581, 535579, 2
535581, 535582, 3
535581, 535583, 2
535581, 535584, 1
535584, 535582, 2
535584, 535585, 3
535584, 535578, 2
535584, 535581, 2
535584, 535579, 2
535584, 535586, 1
535584, 535583, 7
535584, 535587, 2
535576, 535580, 2
535576, 535574, 2
535576, 535577, 2
535576, 535582, 2
535576, 535571, 2
535576, 535572, 2
535576, 535568, 2
535576, 535569, 2
535576, 535579, 1
535576, 535573, 2
535576, 535575, 2
535583, 535580, 2
535583, 535577, 2
535583, 535582, 2
535583, 535578, 2
535583, 535586, 2
535583, 535581, 2
535583, 535584, 2
535582, 535580, 2
535582, 535577, 2
535582, 535585, 2
535582, 535581, 2
535582, 535579, 2
535582, 535576, 2
535582, 535583, 2
535582, 535584, 2
535575, 535580, 2
535575, 535574, 2
535575, 535577, 1
535575, 535578, 2
535575, 535579, 2
535575, 535576, 2
535578, 535575, 2
535578, 535574, 2
535578, 535577, 2
535578, 535583, 2
535578, 535586, 2
535578, 535569, 2
535578, 535572, 2
535578, 535573, 2
535578, 535581, 2
535578, 535584, 2
535569, 535572, 2
535569, 535570, 1
535569, 535568, 2
535569, 535571, 2
535569, 535578, 2
535569, 535576, 2
535572, 535574, 2
535572, 535573, 1
535572, 535571, 2
535572, 535570, 2
535572, 535578, 2
535572, 535569, 2
535572, 535579, 2
535572, 535576, 2
535568, 535576, 2
535568, 535569, 1
535585, 535580, 2
535585, 535582, 2
535585, 535587, 2
535585, 535586, 2
535585, 535581, 2
535585, 535584, 2
535587, 535580, 2
535587, 535586, 2
535587, 535585, 2
535587, 535584, 2
