641856, 641853, 2
641856, 641855, 2
641856, 641854, 2
641856, 641857, 1
641854, 641853, 2
641854, 641855, 1
641854, 641852, 2
641854, 641856, 2
641852, 641853, 0
641852, 641850, 2
641852, 641851, 2
641852, 641854, 1
641851, 641852, 1
641851, 641850, 2
641851, 641849, 2
641857, 641858, 1
641857, 641856, 2
641849, 641850, 1
641849, 641848, 2
641849, 641851, 2
641853, 641852, 2
641853, 641855, 2
641853, 641854, 2
641853, 641850, 2
641853, 641856, 2
641855, 641853, 2
641855, 641856, 1
641855, 641854, 2
641848, 641847, 2
641848, 641849, 1
641850, 641852, 2
641850, 641853, 2
641850, 641851, 1
641850, 641849, 2
641847, 641848, 1
641858, 641857, 2
