432200, 432198, 2
432200, 432202, 2
432200, 432199, 2
432200, 432201, 1
432202, 432200, 2
432202, 432199, 2
432202, 432204, 2
432202, 432203, 1
432202, 432201, 2
432199, 432200, 2
432199, 432202, 2
432199, 432198, 2
432199, 432197, 2
432199, 432196, 2
432199, 432201, 2
432190, 432192, 2
432190, 432191, 2
432190, 432193, 2
432190, 432189, 2
432195, 432194, 2
432195, 432196, 3
432195, 432197, 1
432195, 432193, 2
432197, 432198, 1
432197, 432199, 2
432197, 432195, 2
432197, 432196, 2
432198, 432197, 2
432198, 432200, 1
432198, 432199, 3
432198, 432196, 2
432191, 432192, 1
432191, 432193, 2
432191, 432189, 2
432191, 432190, 2
432192, 432194, 1
432192, 432191, 2
432192, 432193, 3
432192, 432189, 2
432192, 432190, 2
432204, 432202, 2
432204, 432203, 2
432189, 432192, 2
432189, 432194, 2
432189, 432191, 1
432189, 432193, 2
432189, 432190, 3
432196, 432194, 2
432196, 432199, 2
432196, 432195, 2
432196, 432197, 2
432196, 432198, 2
432196, 432193, 2
432194, 432192, 2
432194, 432196, 2
432194, 432189, 2
432194, 432193, 2
432194, 432195, 1
432203, 432202, 2
432203, 432204, 1
432201, 432200, 2
432201, 432202, 1
432201, 432199, 2
432193, 432192, 2
432193, 432195, 2
432193, 432189, 2
432193, 432190, 2
432193, 432194, 2
432193, 432196, 2
432193, 432191, 2
