333684, 333683, 2
333684, 333687, 2
333684, 333685, 1
333684, 333682, 2
333684, 333686, 2
333677, 333676, 2
333677, 333678, 1
333683, 333684, 2
333683, 333682, 2
333678, 333677, 2
333678, 333679, 1
333682, 333683, 3
333682, 333684, 1
333682, 333681, 2
333687, 333684, 2
333687, 333685, 2
333687, 333686, 2
333686, 333687, 2
333686, 333685, 2
333686, 333684, 2
333679, 333678, 2
333679, 333680, 1
333679, 333681, 2
333681, 333682, 1
333681, 333679, 2
333681, 333680, 2
333685, 333687, 1
333685, 333684, 2
333685, 333686, 3
333676, 333677, 1
333680, 333679, 2
333680, 333681, 1
