607090, 607086, 2
607090, 607091, 1
607090, 607089, 2
607081, 607078, 2
607081, 607080, 2
607081, 607082, 1
607078, 607081, 2
607078, 607079, 1
607087, 607086, 2
607087, 607088, 1
607083, 607084, 1
607083, 607082, 2
607092, 607091, 2
607092, 607093, 2
607088, 607086, 2
607088, 607087, 2
607088, 607089, 1
607080, 607081, 1
607080, 607079, 2
607082, 607081, 2
607082, 607083, 1
607093, 607091, 2
607093, 607092, 2
607091, 607090, 2
607091, 607092, 3
607091, 607093, 1
607079, 607078, 2
607079, 607080, 1
607089, 607088, 2
607089, 607090, 1
607086, 607084, 2
607086, 607088, 2
607086, 607085, 2
607086, 607090, 2
607086, 607087, 1
607085, 607086, 2
607085, 607084, 2
607084, 607086, 1
607084, 607085, 3
607084, 607083, 2
