421369, 421371, 2
421369, 421370, 2
421369, 421367, 2
421369, 421368, 2
421370, 421369, 2
421370, 421371, 1
421370, 421368, 2
421371, 421369, 2
421371, 421370, 2
421371, 421373, 2
421371, 421372, 1
421371, 421368, 2
421373, 421371, 2
421373, 421372, 2
421367, 421369, 2
421367, 421368, 1
421372, 421371, 2
421372, 421373, 1
421368, 421369, 8
421368, 421371, 2
421368, 421370, 1
421368, 421367, 2
