550747, 550746, 2
550732, 550741, 2
550732, 550738, 2
550732, 550735, 2
550732, 550730, 2
550732, 550737, 2
550732, 550736, 2
550732, 550734, 2
550732, 550740, 2
550732, 550739, 2
550732, 550733, 2
550732, 550731, 2
550739, 550741, 2
550739, 550732, 2
550739, 550733, 2
550739, 550737, 2
550739, 550736, 2
550739, 550738, 2
550739, 550742, 2
550731, 550732, 2
550731, 550730, 2
550746, 550747, 1
550746, 550745, 2
550740, 550741, 2
550740, 550732, 2
550740, 550733, 2
550740, 550737, 2
550740, 550736, 2
550740, 550738, 2
550740, 550742, 2
550741, 550735, 2
550741, 550737, 2
550741, 550736, 2
550741, 550734, 2
550741, 550740, 2
550741, 550732, 2
550741, 550739, 2
550741, 550738, 2
550741, 550742, 2
550743, 550744, 1
550743, 550742, 2
550744, 550743, 2
550744, 550745, 1
550744, 550742, 2
550730, 550732, 2
550730, 550731, 1
550737, 550741, 2
550737, 550742, 2
550737, 550732, 2
550737, 550733, 2
550737, 550734, 2
550737, 550735, 2
550737, 550739, 2
550737, 550738, 2
550737, 550740, 2
550736, 550741, 2
550736, 550735, 2
550736, 550733, 2
550736, 550734, 2
550736, 550732, 2
550736, 550742, 2
550736, 550739, 2
550736, 550738, 2
550736, 550740, 2
550734, 550741, 2
550734, 550732, 2
550734, 550738, 2
550734, 550737, 2
550734, 550736, 2
550734, 550733, 2
550734, 550742, 2
550745, 550744, 2
550745, 550746, 1
550745, 550742, 2
550742, 550735, 2
550742, 550745, 2
550742, 550739, 2
550742, 550741, 2
550742, 550743, 2
550742, 550744, 2
550742, 550738, 2
550742, 550737, 2
550742, 550736, 2
550742, 550734, 2
550742, 550740, 2
550742, 550733, 2
550735, 550741, 2
550735, 550732, 2
550735, 550738, 2
550735, 550737, 2
550735, 550736, 2
550735, 550733, 2
550735, 550742, 2
550738, 550741, 2
550738, 550735, 2
550738, 550737, 2
550738, 550736, 2
550738, 550734, 2
550738, 550742, 2
550738, 550732, 2
550738, 550739, 2
550738, 550733, 2
550738, 550740, 2
550733, 550735, 2
550733, 550737, 2
550733, 550736, 2
550733, 550734, 2
550733, 550742, 2
550733, 550732, 2
550733, 550739, 2
550733, 550738, 2
550733, 550740, 2
