644183, 644182, 2
644179, 644180, 8
644179, 644178, 2
644179, 644181, 1
644179, 644182, 2
644182, 644183, 1
644182, 644179, 2
644182, 644181, 2
644180, 644178, 2
644180, 644179, 2
644180, 644181, 2
644178, 644180, 2
644178, 644179, 1
644178, 644177, 2
644178, 644181, 2
644177, 644178, 1
644181, 644178, 2
644181, 644180, 2
644181, 644179, 2
644181, 644182, 1
