593246, 593245, 2
593246, 593244, 2
593241, 593242, 8
593241, 593243, 1
593241, 593240, 2
593245, 593246, 1
593245, 593243, 2
593245, 593240, 2
593245, 593244, 2
593239, 593240, 1
593244, 593246, 2
593244, 593242, 2
593244, 593245, 2
593244, 593243, 2
593242, 593241, 2
593242, 593243, 2
593242, 593240, 2
593242, 593244, 2
593243, 593241, 2
593243, 593245, 1
593243, 593242, 2
593243, 593240, 2
593243, 593244, 8
593240, 593241, 1
593240, 593245, 2
593240, 593239, 2
593240, 593243, 2
593240, 593242, 2
