553919, 553920, 1
553919, 553918, 2
553917, 553916, 2
553917, 553918, 2
553917, 553915, 2
553918, 553916, 2
553918, 553919, 1
553918, 553917, 2
553918, 553920, 2
553916, 553917, 3
553916, 553918, 1
553916, 553915, 2
553920, 553919, 2
553920, 553918, 2
553915, 553916, 1
553915, 553917, 2
