404329, 404327, 2
404329, 404328, 2
404327, 404326, 2
404327, 404329, 2
404327, 404325, 2
404327, 404328, 1
404325, 404322, 2
404325, 404327, 1
404325, 404323, 2
404325, 404326, 3
404325, 404324, 2
404322, 404324, 2
404322, 404325, 2
404322, 404320, 2
404322, 404321, 2
404322, 404323, 1
404318, 404317, 2
404318, 404319, 3
404318, 404316, 2
404318, 404320, 1
404324, 404322, 2
404324, 404325, 1
404324, 404323, 2
404326, 404327, 2
404326, 404325, 2
404320, 404318, 2
404320, 404322, 2
404320, 404321, 1
404320, 404319, 2
404316, 404317, 1
404316, 404318, 2
404317, 404318, 1
404317, 404316, 2
404321, 404322, 1
404321, 404320, 2
404323, 404322, 2
404323, 404325, 2
404323, 404324, 1
404328, 404329, 1
404328, 404327, 2
404319, 404318, 2
404319, 404320, 2
