553685, 553687, 3
553685, 553688, 1
553685, 553686, 6
553689, 553688, 2
553687, 553685, 2
553687, 553688, 2
553688, 553685, 2
553688, 553689, 3
553688, 553687, 2
553688, 553686, 2
553686, 553685, 2
553686, 553688, 2
