644071, 644068, 2
644071, 644070, 2
644071, 644072, 3
644071, 644069, 2
644067, 644068, 0
644067, 644070, 2
644067, 644069, 1
644068, 644069, 2
644068, 644071, 2
644068, 644067, 2
644070, 644069, 2
644070, 644071, 2
644070, 644072, 2
644070, 644067, 2
644072, 644071, 2
644072, 644070, 2
644072, 644069, 2
644069, 644071, 0
644069, 644068, 2
644069, 644070, 3
644069, 644072, 2
644069, 644067, 2
