449457, 449454, 2
449457, 449455, 2
449457, 449456, 2
449451, 449449, 2
449451, 449447, 2
449451, 449448, 2
449451, 449452, 2
449451, 449450, 2
449451, 449453, 2
449455, 449453, 2
449455, 449452, 2
449455, 449457, 2
449455, 449456, 2
449455, 449454, 2
449447, 449448, 1
449447, 449450, 2
449447, 449451, 2
449447, 449449, 2
449453, 449452, 2
449453, 449450, 2
449453, 449451, 2
449453, 449455, 2
449453, 449454, 2
449454, 449453, 2
449454, 449452, 2
449454, 449457, 2
449454, 449455, 8
449454, 449456, 1
449448, 449450, 2
449448, 449451, 2
449448, 449447, 2
449448, 449449, 1
449450, 449451, 8
449450, 449447, 2
449450, 449453, 2
449450, 449448, 2
449450, 449452, 1
449450, 449449, 2
449456, 449457, 1
449456, 449455, 2
449456, 449454, 2
449449, 449448, 2
449449, 449450, 1
449449, 449451, 2
449449, 449447, 2
449452, 449454, 1
449452, 449450, 2
449452, 449451, 2
449452, 449455, 2
449452, 449453, 8
