456486, 456485, 2
456486, 456484, 2
456480, 456482, 2
456480, 456481, 1
456484, 456486, 2
456484, 456485, 2
456484, 456483, 2
456483, 456484, 8
456483, 456482, 2
456483, 456485, 1
456485, 456486, 1
456485, 456482, 2
456485, 456484, 2
456485, 456483, 2
456482, 456481, 2
456482, 456485, 2
456482, 456483, 1
456482, 456480, 2
456481, 456480, 2
456481, 456482, 1
