552208, 552206, 2
552208, 552210, 2
552208, 552209, 2
552208, 552205, 2
552208, 552207, 2
552228, 552227, 2
552228, 552229, 2
552228, 552226, 2
552228, 552224, 2
552228, 552225, 2
552203, 552201, 2
552203, 552204, 1
552203, 552202, 2
552203, 552205, 2
552211, 552210, 2
552211, 552212, 1
552210, 552208, 2
552210, 552209, 2
552210, 552211, 1
552210, 552212, 2
552210, 552213, 2
552210, 552207, 2
552219, 552220, 2
552219, 552218, 2
552207, 552208, 3
552207, 552209, 0
552207, 552205, 2
552207, 552206, 2
552207, 552210, 1
552207, 552204, 2
552216, 552217, 1
552216, 552215, 2
552224, 552228, 2
552224, 552229, 1
552224, 552226, 0
552224, 552221, 2
552224, 552225, 3
552224, 552227, 2
552224, 552223, 2
552224, 552222, 2
552206, 552208, 2
552206, 552205, 2
552206, 552207, 2
552202, 552201, 2
552202, 552203, 2
552201, 552203, 1
552201, 552202, 3
552226, 552227, 1
552226, 552228, 2
552226, 552224, 2
552226, 552229, 2
552226, 552225, 2
552220, 552219, 2
552220, 552221, 1
552220, 552222, 2
552220, 552218, 2
552222, 552221, 2
552222, 552220, 2
552222, 552224, 2
552222, 552223, 2
552222, 552225, 2
552218, 552217, 2
552218, 552219, 3
552218, 552220, 1
552209, 552208, 2
552209, 552210, 2
552209, 552207, 2
552221, 552220, 2
552221, 552224, 1
552221, 552222, 3
552213, 552210, 2
552213, 552214, 1
552213, 552212, 2
552217, 552218, 1
552217, 552216, 2
552225, 552228, 2
552225, 552224, 2
552225, 552226, 2
552225, 552229, 2
552225, 552227, 2
552225, 552223, 2
552225, 552222, 2
552214, 552215, 1
552214, 552213, 2
552229, 552227, 2
552229, 552228, 2
552229, 552224, 2
552229, 552226, 2
552229, 552225, 2
552215, 552214, 2
552215, 552216, 1
552205, 552208, 2
552205, 552204, 2
552205, 552206, 2
552205, 552203, 2
552205, 552207, 2
552212, 552210, 2
552212, 552213, 1
552212, 552211, 2
552227, 552228, 1
552227, 552229, 2
552227, 552226, 2
552227, 552224, 2
552227, 552225, 2
552223, 552224, 2
552223, 552222, 2
552223, 552225, 2
552204, 552203, 2
552204, 552205, 3
552204, 552207, 1
