488714, 488713, 1
488714, 488715, 2
488714, 488712, 2
488717, 488716, 2
488717, 488718, 1
488715, 488714, 2
488715, 488716, 1
488712, 488714, 1
488712, 488713, 2
488712, 488711, 2
488710, 488711, 2
488710, 488709, 2
488713, 488714, 2
488713, 488712, 2
488718, 488717, 2
488716, 488715, 2
488716, 488717, 1
488711, 488712, 1
488711, 488710, 2
488711, 488709, 2
488709, 488710, 3
488709, 488711, 1
