515522, 515523, 1
515522, 515524, 2
515528, 515525, 2
515528, 515527, 2
515525, 515528, 2
515525, 515527, 2
515525, 515524, 2
515525, 515526, 2
515523, 515522, 2
515523, 515524, 1
515527, 515525, 2
515527, 515528, 0
515527, 515526, 2
515524, 515525, 0
515524, 515523, 2
515524, 515522, 2
515524, 515526, 1
515526, 515525, 2
515526, 515524, 2
515526, 515527, 1
