421312, 421313, 1
421312, 421311, 2
421313, 421314, 1
421313, 421312, 2
421311, 421312, 1
421311, 421310, 2
421314, 421313, 2
421309, 421310, 1
421309, 421308, 2
421308, 421309, 1
421308, 421310, 2
421310, 421309, 2
421310, 421308, 2
421310, 421311, 1
