495386, 495384, 2
495386, 495387, 1
495386, 495383, 2
495386, 495388, 2
495386, 495382, 2
495386, 495385, 2
495384, 495383, 2
495384, 495386, 1
495384, 495388, 2
495384, 495382, 2
495384, 495385, 8
495387, 495383, 2
495387, 495386, 2
495387, 495388, 1
495387, 495382, 2
495383, 495386, 2
495383, 495384, 2
495383, 495387, 2
495383, 495388, 2
495383, 495382, 2
495383, 495385, 2
495388, 495386, 2
495388, 495384, 2
495388, 495387, 2
495388, 495383, 2
495388, 495382, 2
495388, 495385, 2
495382, 495383, 0
495382, 495384, 3
495382, 495386, 2
495382, 495388, 2
495382, 495387, 2
495385, 495383, 2
495385, 495384, 2
495385, 495386, 2
495385, 495388, 2
