404518, 404517, 2
404518, 404515, 2
404518, 404522, 2
404518, 404519, 1
404515, 404517, 2
404515, 404518, 2
404515, 404514, 2
404515, 404516, 2
404514, 404516, 1
404514, 404515, 3
404530, 404529, 2
404530, 404528, 2
404524, 404523, 2
404524, 404526, 2
404524, 404525, 1
404521, 404520, 2
404521, 404522, 2
404521, 404519, 2
404526, 404528, 2
404526, 404522, 2
404526, 404524, 2
404526, 404523, 2
404526, 404527, 1
404526, 404525, 2
404529, 404530, 1
404529, 404528, 2
404529, 404527, 2
404528, 404530, 2
404528, 404529, 2
404528, 404526, 2
404528, 404527, 2
404522, 404518, 2
404522, 404523, 1
404522, 404520, 2
404522, 404521, 2
404522, 404526, 2
404522, 404519, 2
404517, 404518, 1
404517, 404515, 2
404517, 404516, 2
404527, 404529, 1
404527, 404528, 3
404527, 404526, 2
404516, 404517, 1
404516, 404515, 2
404516, 404514, 2
404523, 404522, 2
404523, 404526, 1
404523, 404525, 2
404523, 404524, 0
404520, 404522, 2
404520, 404521, 1
404520, 404519, 2
404519, 404518, 2
404519, 404522, 1
404519, 404521, 2
404519, 404520, 0
404525, 404523, 2
404525, 404526, 2
404525, 404524, 2
