572772, 572771, 2
572769, 572770, 1
572769, 572768, 2
572769, 572767, 2
572768, 572769, 1
572768, 572770, 2
572768, 572767, 2
572771, 572772, 1
572771, 572770, 2
572771, 572767, 2
572770, 572771, 2
572770, 572769, 2
572770, 572768, 2
572770, 572767, 2
572767, 572771, 1
572767, 572769, 2
572767, 572770, 2
572767, 572768, 3
