406330, 406329, 2
406330, 406328, 2
406330, 406332, 2
406330, 406331, 1
406333, 406335, 2
406333, 406332, 2
406333, 406336, 2
406333, 406328, 2
406333, 406334, 1
406333, 406331, 2
406335, 406333, 2
406335, 406332, 2
406335, 406334, 2
406335, 406336, 2
406332, 406330, 2
406332, 406333, 2
406332, 406335, 2
406332, 406331, 2
406332, 406329, 2
406332, 406328, 2
406336, 406333, 2
406336, 406335, 2
406336, 406334, 2
406329, 406330, 2
406329, 406328, 2
406329, 406332, 2
406329, 406331, 2
406328, 406330, 1
406328, 406329, 3
406328, 406333, 2
406328, 406331, 2
406328, 406332, 2
406334, 406333, 2
406334, 406335, 3
406334, 406336, 1
406331, 406330, 2
406331, 406333, 1
406331, 406332, 3
406331, 406329, 2
406331, 406328, 2
