493225, 493223, 2
493225, 493226, 3
493225, 493224, 2
493225, 493227, 2
493217, 493218, 3
493217, 493219, 1
493236, 493237, 3
493236, 493235, 2
493236, 493238, 1
493226, 493225, 2
493226, 493227, 2
493229, 493228, 2
493229, 493230, 2
493230, 493231, 1
493230, 493228, 2
493230, 493229, 2
493230, 493227, 2
493238, 493237, 2
493238, 493236, 2
493238, 493239, 1
493238, 493235, 2
493223, 493225, 2
493223, 493224, 1
493223, 493222, 2
493223, 493220, 2
493223, 493221, 2
493242, 493244, 2
493242, 493241, 2
493242, 493240, 2
493242, 493243, 1
493240, 493241, 3
493240, 493239, 2
493240, 493242, 1
493228, 493227, 2
493228, 493229, 3
493228, 493230, 1
493231, 493233, 2
493231, 493232, 1
493231, 493230, 2
493232, 493231, 2
493232, 493233, 3
493232, 493235, 1
493243, 493244, 1
493243, 493242, 2
493233, 493231, 2
493233, 493234, 3
493233, 493235, 2
493233, 493232, 2
493246, 493248, 2
493246, 493247, 1
493246, 493245, 2
493246, 493244, 2
493253, 493252, 2
493253, 493250, 2
493253, 493251, 2
493247, 493248, 3
493247, 493250, 1
493247, 493246, 2
493234, 493233, 2
493234, 493235, 2
493224, 493225, 3
493224, 493223, 2
493224, 493227, 1
493250, 493248, 2
493250, 493247, 2
493250, 493249, 2
493250, 493251, 1
493250, 493253, 2
493237, 493236, 2
493237, 493238, 2
493244, 493246, 2
493244, 493242, 2
493244, 493245, 1
493244, 493243, 2
493222, 493223, 1
493222, 493219, 2
493222, 493220, 2
493222, 493221, 2
493235, 493236, 1
493235, 493233, 2
493235, 493234, 2
493235, 493232, 2
493235, 493238, 2
493248, 493247, 2
493248, 493246, 2
493248, 493250, 2
493248, 493249, 3
493249, 493248, 2
493249, 493250, 2
493251, 493252, 3
493251, 493250, 2
493251, 493253, 1
493218, 493217, 2
493218, 493219, 2
493245, 493246, 1
493245, 493244, 2
493220, 493223, 2
493220, 493222, 2
493220, 493221, 1
493220, 493219, 2
493227, 493225, 2
493227, 493226, 2
493227, 493224, 2
493227, 493228, 1
493227, 493230, 2
493241, 493240, 2
493241, 493242, 2
493252, 493251, 2
493252, 493253, 2
493219, 493217, 2
493219, 493218, 2
493219, 493222, 2
493219, 493220, 1
493219, 493221, 2
493221, 493223, 2
493221, 493222, 1
493221, 493220, 2
493221, 493219, 2
493239, 493240, 1
493239, 493238, 2
