571127, 571128, 2
571127, 571126, 2
571127, 571125, 2
571116, 571118, 2
571116, 571114, 2
571116, 571115, 2
571116, 571120, 2
571116, 571117, 1
571122, 571123, 2
571122, 571124, 2
571122, 571121, 2
571122, 571120, 2
571122, 571125, 2
571112, 571114, 2
571112, 571110, 2
571112, 571113, 2
571112, 571115, 2
571112, 571111, 2
571128, 571127, 2
571128, 571126, 2
571128, 571125, 2
571124, 571123, 2
571124, 571126, 2
571124, 571120, 2
571124, 571122, 2
571124, 571125, 2
571121, 571123, 2
571121, 571119, 2
571121, 571120, 2
571121, 571122, 1
571111, 571110, 2
571111, 571113, 2
571111, 571112, 1
571125, 571127, 2
571125, 571126, 3
571125, 571122, 2
571125, 571128, 0
571125, 571123, 2
571125, 571124, 2
571110, 571114, 8
571110, 571111, 3
571110, 571113, 0
571110, 571112, 2
571126, 571128, 2
571126, 571127, 1
571126, 571124, 2
571126, 571125, 2
571119, 571118, 2
571119, 571121, 2
571119, 571115, 2
571119, 571120, 2
571119, 571117, 2
571114, 571110, 2
571114, 571113, 2
571114, 571116, 2
571114, 571115, 2
571114, 571112, 2
571118, 571117, 2
571118, 571116, 2
571118, 571115, 2
571118, 571119, 2
571118, 571120, 2
571123, 571124, 2
571123, 571121, 2
571123, 571120, 2
571123, 571122, 2
571123, 571125, 2
571113, 571111, 2
571113, 571110, 2
571113, 571114, 2
571113, 571115, 2
571113, 571112, 2
571115, 571116, 3
571115, 571119, 8
571115, 571114, 2
571115, 571118, 0
571115, 571112, 2
571115, 571113, 2
571115, 571120, 1
571115, 571117, 2
571120, 571116, 2
571120, 571122, 2
571120, 571118, 2
571120, 571123, 0
571120, 571124, 8
571120, 571121, 3
571120, 571115, 2
571120, 571119, 2
571120, 571117, 2
571117, 571118, 2
571117, 571116, 2
571117, 571115, 2
571117, 571119, 2
571117, 571120, 2
