373979, 373978, 2
373979, 373980, 1
373985, 373986, 1
373985, 373984, 2
373978, 373979, 1
373978, 373977, 2
373986, 373985, 2
373980, 373979, 2
373980, 373981, 1
373982, 373983, 3
373982, 373981, 2
373982, 373984, 1
373981, 373982, 1
373981, 373980, 2
373984, 373982, 2
373984, 373983, 2
373984, 373985, 1
373983, 373982, 2
373983, 373984, 2
373977, 373978, 1
