431971, 431967, 2
431971, 431973, 1
431971, 431972, 0
431971, 431970, 2
431974, 431975, 1
431974, 431973, 2
431974, 431972, 2
431974, 431976, 2
431966, 431967, 3
431966, 431968, 1
431966, 431972, 2
431967, 431971, 2
431967, 431968, 2
431967, 431970, 2
431967, 431969, 2
431967, 431966, 2
431977, 431975, 2
431977, 431978, 1
431977, 431976, 2
431978, 431975, 2
431978, 431977, 2
431978, 431972, 2
431978, 431976, 2
431970, 431967, 2
431970, 431972, 2
431970, 431968, 2
431970, 431969, 2
431970, 431971, 1
431969, 431967, 2
431969, 431968, 2
431969, 431970, 1
431969, 431972, 2
431976, 431977, 1
431976, 431978, 2
431976, 431974, 2
431976, 431975, 2
431976, 431973, 2
431976, 431972, 2
431975, 431977, 2
431975, 431978, 2
431975, 431972, 2
431975, 431976, 0
431975, 431974, 2
431973, 431971, 2
431973, 431976, 2
431973, 431972, 2
431973, 431974, 1
431972, 431971, 2
431972, 431973, 2
431972, 431978, 2
431972, 431968, 2
431972, 431969, 2
431972, 431976, 2
431972, 431966, 2
431972, 431975, 2
431972, 431974, 2
431972, 431970, 2
431968, 431967, 2
431968, 431970, 2
431968, 431972, 2
431968, 431969, 1
431968, 431966, 2
