378773, 378772, 2
378773, 378775, 2
378773, 378771, 2
378773, 378774, 1
378771, 378773, 2
378771, 378772, 1
378771, 378769, 2
378771, 378770, 2
378769, 378771, 2
378769, 378770, 1
378770, 378771, 1
378770, 378769, 2
378772, 378773, 1
378772, 378771, 2
378775, 378773, 2
378775, 378774, 2
378774, 378773, 2
378774, 378775, 1
