432181, 432182, 1
432181, 432180, 2
432187, 432186, 2
432179, 432178, 2
432179, 432173, 2
432179, 432175, 2
432179, 432180, 1
432182, 432181, 2
432182, 432183, 1
432174, 432173, 2
432174, 432176, 2
432174, 432175, 1
432174, 432177, 2
432186, 432184, 2
432186, 432175, 2
432186, 432187, 1
432186, 432185, 2
432173, 432176, 1
432173, 432174, 0
432173, 432177, 2
432173, 432175, 2
432173, 432179, 2
432184, 432186, 2
432184, 432185, 1
432184, 432183, 2
432185, 432184, 2
432185, 432186, 1
432178, 432175, 2
432178, 432177, 2
432178, 432179, 1
432176, 432173, 2
432176, 432174, 2
432176, 432177, 1
432176, 432175, 2
432175, 432173, 2
432175, 432179, 2
432175, 432178, 2
432175, 432176, 2
432175, 432174, 2
432175, 432186, 2
432175, 432177, 2
432180, 432179, 2
432180, 432181, 1
432177, 432173, 2
432177, 432178, 1
432177, 432174, 2
432177, 432175, 2
432177, 432176, 2
432183, 432182, 2
432183, 432184, 1
