455664, 455666, 1
455664, 455665, 3
455666, 455664, 2
455666, 455667, 1
455666, 455668, 2
455666, 455665, 2
455667, 455666, 2
455667, 455668, 1
455668, 455666, 2
455668, 455667, 2
455665, 455664, 2
455665, 455666, 2
