375222, 375224, 2
375222, 375220, 2
375222, 375225, 2
375222, 375219, 2
375222, 375221, 2
375222, 375223, 1
375226, 375229, 2
375226, 375225, 2
375226, 375224, 2
375226, 375227, 1
375226, 375228, 2
375229, 375230, 2
375229, 375226, 2
375229, 375224, 2
375229, 375220, 2
375229, 375231, 2
375229, 375228, 2
375229, 375219, 2
375229, 375233, 2
375231, 375230, 2
375231, 375229, 2
375231, 375233, 2
375231, 375225, 2
375231, 375232, 1
375228, 375230, 1
375228, 375229, 8
375228, 375226, 2
375228, 375224, 2
375228, 375227, 2
375228, 375225, 2
375223, 375222, 2
375223, 375225, 2
375223, 375224, 1
375230, 375231, 1
375230, 375229, 2
375230, 375228, 2
375230, 375225, 2
375233, 375231, 2
375233, 375229, 2
375233, 375225, 2
375233, 375232, 2
375224, 375229, 2
375224, 375226, 1
375224, 375227, 2
375224, 375222, 2
375224, 375225, 6
375224, 375228, 2
375224, 375223, 2
375220, 375229, 2
375220, 375219, 2
375220, 375221, 1
375220, 375222, 2
375232, 375231, 2
375232, 375233, 1
375232, 375225, 2
375225, 375230, 2
375225, 375222, 2
375225, 375226, 2
375225, 375224, 2
375225, 375227, 2
375225, 375231, 2
375225, 375232, 2
375225, 375228, 2
375225, 375223, 2
375225, 375233, 2
375219, 375222, 2
375219, 375220, 1
375219, 375229, 2
375221, 375222, 1
375221, 375220, 2
375227, 375225, 2
375227, 375224, 2
375227, 375226, 2
375227, 375228, 1
