433345, 433347, 1
433345, 433343, 2
433345, 433344, 2
433345, 433346, 8
433343, 433341, 2
433343, 433345, 2
433343, 433346, 2
433343, 433344, 1
433343, 433342, 2
433346, 433345, 2
433346, 433347, 2
433346, 433343, 2
433341, 433343, 1
433341, 433342, 8
433347, 433345, 2
433347, 433346, 2
433342, 433341, 2
433342, 433343, 2
433344, 433345, 1
433344, 433343, 2
