537345, 537347, 1
537345, 537346, 3
537347, 537345, 2
537347, 537348, 1
537347, 537349, 2
537347, 537351, 2
537347, 537346, 2
537347, 537352, 2
537349, 537348, 2
537349, 537347, 2
537349, 537350, 1
537349, 537352, 2
537351, 537348, 2
537351, 537347, 2
537351, 537350, 2
537351, 537352, 2
537346, 537345, 2
537346, 537347, 2
537350, 537348, 2
537350, 537349, 2
537350, 537351, 1
537350, 537352, 2
537348, 537347, 2
537348, 537349, 3
537348, 537351, 2
537348, 537350, 2
537348, 537352, 1
537352, 537348, 2
537352, 537347, 2
537352, 537349, 2
537352, 537351, 2
537352, 537350, 2
