644354, 644355, 1
644354, 644352, 2
644354, 644353, 2
644355, 644353, 2
644355, 644357, 1
644355, 644354, 2
644355, 644356, 3
644357, 644355, 2
644357, 644358, 3
644357, 644356, 2
644356, 644355, 2
644356, 644357, 2
644353, 644355, 2
644353, 644354, 2
644353, 644352, 2
644352, 644354, 1
644352, 644353, 3
644358, 644357, 2
