608513, 608511, 2
608513, 608510, 2
608513, 608512, 2
608513, 608514, 2
608513, 608508, 2
608513, 608509, 2
608511, 608513, 2
608511, 608510, 2
608511, 608512, 1
608510, 608513, 2
608510, 608511, 1
608510, 608509, 2
608509, 608508, 2
608509, 608513, 2
608509, 608510, 1
608514, 608513, 2
608514, 608512, 2
608514, 608515, 1
608508, 608513, 2
608508, 608509, 1
608516, 608515, 2
608515, 608516, 1
608515, 608514, 2
608512, 608513, 6
608512, 608511, 2
608512, 608514, 1
