489046, 489048, 2
489046, 489047, 2
489046, 489045, 2
489043, 489042, 2
489043, 489045, 2
489043, 489044, 1
489042, 489043, 1
489042, 489041, 2
489040, 489044, 2
489040, 489041, 1
489044, 489040, 2
489044, 489043, 2
489044, 489045, 1
489044, 489041, 2
489049, 489047, 2
489049, 489048, 2
489045, 489046, 0
489045, 489043, 2
489045, 489047, 3
489045, 489048, 1
489045, 489044, 2
489047, 489046, 2
489047, 489049, 2
489047, 489045, 2
489047, 489048, 2
489041, 489042, 1
489041, 489040, 2
489041, 489044, 2
489048, 489046, 2
489048, 489049, 3
489048, 489047, 2
489048, 489045, 2
