340908, 340911, 2
340908, 340909, 1
340908, 340907, 2
340909, 340911, 1
340909, 340910, 3
340909, 340908, 2
340914, 340913, 2
340913, 340912, 2
340913, 340914, 1
340911, 340910, 2
340911, 340908, 2
340911, 340909, 2
340911, 340912, 1
340910, 340911, 2
340910, 340909, 2
340907, 340908, 1
340912, 340913, 1
340912, 340911, 2
