376250, 376251, 1
376250, 376249, 2
376264, 376263, 2
376264, 376265, 1
376259, 376258, 2
376259, 376257, 2
376259, 376260, 1
376252, 376251, 2
376252, 376253, 1
376266, 376265, 2
376266, 376267, 1
376262, 376261, 2
376262, 376263, 1
376258, 376257, 2
376258, 376259, 2
376258, 376256, 2
376263, 376265, 2
376263, 376264, 1
376263, 376261, 2
376263, 376262, 2
376268, 376269, 1
376268, 376267, 2
376248, 376249, 1
376261, 376263, 2
376261, 376260, 2
376261, 376262, 1
376257, 376258, 0
376257, 376259, 1
376257, 376256, 2
376249, 376250, 1
376249, 376251, 2
376249, 376248, 2
376253, 376255, 2
376253, 376252, 2
376253, 376254, 1
376255, 376253, 2
376255, 376256, 1
376255, 376254, 2
376269, 376267, 2
376269, 376268, 2
376265, 376263, 2
376265, 376264, 2
376265, 376266, 1
376267, 376269, 2
376267, 376266, 2
376267, 376268, 1
376251, 376250, 2
376251, 376252, 1
376251, 376249, 2
376260, 376261, 1
376260, 376259, 2
376256, 376258, 2
376256, 376257, 1
376256, 376255, 2
376254, 376255, 1
376254, 376253, 2
