523196, 523195, 2
523196, 523194, 2
523196, 523197, 1
523195, 523196, 1
523195, 523194, 2
523194, 523196, 2
523194, 523195, 3
523197, 523198, 1
523197, 523199, 2
523197, 523196, 2
523198, 523200, 1
523198, 523197, 2
523198, 523199, 3
523200, 523198, 2
523200, 523199, 2
523199, 523198, 2
523199, 523197, 2
523199, 523200, 2
