515393, 515395, 1
515393, 515394, 0
515393, 515396, 2
515396, 515393, 2
515396, 515394, 2
515396, 515395, 2
515394, 515393, 2
515394, 515396, 2
515394, 515395, 2
515395, 515393, 2
515395, 515394, 2
515395, 515396, 1
