374736, 374737, 1
374736, 374738, 2
374736, 374734, 2
374736, 374735, 2
374745, 374743, 2
374745, 374744, 2
374745, 374746, 1
374740, 374739, 2
374740, 374741, 2
374740, 374738, 2
374740, 374742, 1
374741, 374740, 2
374741, 374734, 2
374741, 374742, 2
374738, 374740, 2
374738, 374737, 2
374738, 374736, 2
374738, 374739, 1
374735, 374736, 1
374735, 374734, 2
374744, 374743, 2
374744, 374745, 2
374744, 374746, 2
374744, 374742, 2
374739, 374740, 1
374739, 374738, 2
374746, 374745, 2
374746, 374744, 2
374743, 374745, 1
374743, 374744, 8
374743, 374742, 2
374733, 374734, 1
374734, 374736, 2
374734, 374733, 2
374734, 374741, 2
374734, 374735, 1
374737, 374736, 2
374737, 374738, 1
374742, 374740, 2
374742, 374741, 2
374742, 374743, 1
374742, 374744, 2
