451107, 451106, 2
451107, 451108, 1
451107, 451109, 2
451107, 451105, 2
451116, 451113, 2
451116, 451117, 3
451116, 451114, 2
451116, 451115, 2
451116, 451118, 1
451116, 451112, 2
451108, 451107, 2
451108, 451109, 1
451120, 451119, 2
451120, 451118, 2
451120, 451122, 2
451120, 451123, 2
451120, 451121, 2
451109, 451113, 2
451109, 451107, 2
451109, 451114, 2
451109, 451111, 2
451109, 451108, 2
451109, 451115, 2
451109, 451110, 1
451115, 451116, 2
451115, 451114, 2
451115, 451109, 2
451115, 451111, 2
451115, 451118, 2
451115, 451112, 2
451115, 451110, 2
451122, 451123, 2
451122, 451121, 2
451122, 451120, 2
451118, 451119, 1
451118, 451117, 2
451118, 451116, 2
451118, 451114, 2
451118, 451120, 2
451118, 451115, 2
451118, 451112, 2
451118, 451121, 2
451112, 451113, 2
451112, 451117, 2
451112, 451116, 2
451112, 451114, 2
451112, 451111, 2
451112, 451118, 2
451112, 451115, 2
451110, 451111, 1
451110, 451114, 2
451110, 451109, 2
451110, 451115, 2
451119, 451118, 2
451119, 451121, 1
451119, 451120, 8
451113, 451116, 2
451113, 451112, 2
451113, 451114, 2
451113, 451109, 2
451113, 451111, 2
451117, 451118, 2
451117, 451116, 2
451117, 451112, 2
451105, 451107, 1
451105, 451106, 3
451114, 451113, 4
451114, 451116, 2
451114, 451109, 2
451114, 451115, 6
451114, 451118, 2
451114, 451112, 2
451114, 451110, 2
451114, 451111, 2
451106, 451107, 2
451106, 451105, 2
451123, 451122, 2
451123, 451121, 2
451123, 451120, 2
451121, 451122, 3
451121, 451119, 2
451121, 451123, 1
451121, 451120, 2
451121, 451118, 2
451111, 451113, 2
451111, 451114, 0
451111, 451109, 2
451111, 451115, 2
451111, 451112, 3
451111, 451110, 2
