537142, 537144, 0
537142, 537143, 3
537142, 537145, 1
537144, 537142, 2
537144, 537148, 2
537144, 537143, 2
537144, 537145, 2
537143, 537142, 2
537143, 537144, 2
537143, 537145, 2
537143, 537147, 2
537148, 537144, 2
537148, 537146, 2
537148, 537145, 2
537148, 537147, 2
537147, 537145, 2
537147, 537146, 2
537147, 537143, 2
537147, 537148, 2
537146, 537145, 2
537146, 537148, 0
537146, 537147, 3
537145, 537142, 2
537145, 537144, 2
537145, 537143, 2
537145, 537148, 2
537145, 537147, 2
537145, 537146, 1
