572950, 572952, 2
572950, 572951, 1
572954, 572956, 2
572954, 572952, 2
572954, 572955, 1
572954, 572953, 2
572953, 572956, 2
572953, 572952, 2
572953, 572954, 1
572953, 572955, 2
572956, 572952, 2
572956, 572953, 2
572956, 572954, 2
572956, 572955, 2
572952, 572950, 2
572952, 572954, 2
572952, 572953, 8
572952, 572956, 1
572952, 572951, 2
572952, 572955, 2
572951, 572950, 2
572951, 572952, 1
572955, 572956, 2
572955, 572952, 2
572955, 572954, 2
572955, 572953, 2
