642545, 642549, 1
642545, 642544, 2
642545, 642546, 3
642545, 642547, 0
642545, 642548, 2
642552, 642551, 2
642552, 642556, 2
642552, 642555, 2
642552, 642553, 2
642552, 642554, 2
642558, 642559, 2
642558, 642555, 2
642558, 642556, 2
642558, 642557, 2
642543, 642544, 1
642555, 642556, 8
642555, 642553, 2
642555, 642558, 2
642555, 642559, 1
642555, 642557, 2
642555, 642552, 2
642555, 642554, 2
642557, 642556, 2
642557, 642555, 2
642557, 642559, 2
642557, 642558, 1
642547, 642549, 2
642547, 642544, 2
642547, 642545, 2
642547, 642546, 2
642547, 642548, 1
642544, 642545, 1
642544, 642546, 2
642544, 642549, 2
642544, 642543, 2
642544, 642547, 2
642544, 642548, 2
642546, 642549, 2
642546, 642544, 2
642546, 642545, 2
642546, 642547, 2
642546, 642548, 2
642550, 642549, 2
642550, 642551, 1
642554, 642556, 2
642554, 642555, 1
642554, 642553, 2
642554, 642552, 2
642551, 642556, 2
642551, 642550, 2
642551, 642552, 8
642551, 642553, 1
642549, 642544, 2
642549, 642545, 2
642549, 642546, 2
642549, 642548, 2
642549, 642547, 2
642549, 642550, 1
642559, 642556, 2
642559, 642555, 2
642559, 642557, 2
642559, 642558, 2
642556, 642553, 2
642556, 642558, 2
642556, 642551, 2
642556, 642559, 2
642556, 642555, 2
642556, 642557, 1
642556, 642552, 2
642556, 642554, 2
642548, 642549, 2
642548, 642544, 2
642548, 642545, 2
642548, 642547, 2
642548, 642546, 2
642553, 642551, 2
642553, 642556, 2
642553, 642555, 2
642553, 642554, 1
642553, 642552, 2
