495563, 495560, 2
495563, 495562, 2
495563, 495565, 2
495563, 495561, 2
495563, 495564, 1
495564, 495560, 2
495564, 495562, 2
495564, 495561, 2
495564, 495563, 2
495564, 495565, 1
495560, 495562, 0
495560, 495564, 2
495560, 495559, 2
495560, 495561, 3
495560, 495563, 1
495562, 495563, 2
495562, 495564, 2
495562, 495560, 2
495562, 495561, 2
495562, 495565, 2
495562, 495559, 2
495565, 495562, 2
495565, 495561, 2
495565, 495563, 2
495565, 495564, 2
495561, 495563, 2
495561, 495564, 2
495561, 495560, 2
495561, 495562, 2
495561, 495565, 2
495561, 495559, 2
495559, 495560, 1
495559, 495562, 2
495559, 495561, 2
