625474, 625477, 2
625474, 625475, 1
625478, 625476, 2
625478, 625477, 2
625476, 625478, 2
625476, 625477, 2
625476, 625475, 2
625477, 625474, 2
625477, 625478, 1
625477, 625476, 2
625477, 625475, 2
625475, 625474, 2
625475, 625476, 8
625475, 625477, 1
