456179, 456180, 1
456179, 456177, 2
456179, 456178, 2
456180, 456179, 2
456180, 456181, 1
456176, 456177, 1
456181, 456180, 2
456177, 456179, 2
456177, 456176, 2
456177, 456178, 1
456178, 456179, 1
456178, 456177, 2
