421291, 421292, 2
421291, 421293, 2
421291, 421288, 2
421291, 421290, 2
421291, 421289, 2
421290, 421291, 3
421290, 421287, 2
421290, 421292, 8
421290, 421293, 1
421290, 421288, 2
421290, 421289, 2
421293, 421291, 2
421293, 421292, 2
421293, 421290, 2
421292, 421291, 2
421292, 421293, 2
421292, 421290, 2
421287, 421288, 3
421287, 421290, 1
421287, 421289, 8
421288, 421291, 2
421288, 421290, 2
421288, 421287, 2
421288, 421289, 2
421289, 421291, 2
421289, 421287, 2
421289, 421288, 2
421289, 421290, 2
