553842, 553841, 2
553842, 553843, 1
553841, 553842, 1
553841, 553843, 2
553846, 553844, 2
553846, 553845, 2
553843, 553842, 2
553843, 553841, 2
553843, 553844, 1
553844, 553846, 2
553844, 553843, 2
553844, 553845, 1
553845, 553846, 1
553845, 553844, 2
