433378, 433375, 2
433378, 433376, 2
433378, 433377, 2
433378, 433379, 3
433379, 433374, 2
433379, 433378, 2
433379, 433377, 2
433379, 433375, 2
433374, 433375, 2
433374, 433373, 2
433374, 433379, 2
433374, 433377, 2
433375, 433378, 2
433375, 433379, 2
433375, 433374, 2
433375, 433376, 0
433375, 433373, 2
433375, 433377, 1
433376, 433378, 2
433376, 433375, 2
433376, 433373, 2
433376, 433377, 2
433373, 433374, 8
433373, 433375, 1
433373, 433376, 2
433377, 433374, 2
433377, 433378, 1
433377, 433376, 2
433377, 433379, 2
433377, 433375, 2
