658266, 658264, 2
658266, 658265, 2
658266, 658267, 1
658267, 658265, 2
658267, 658266, 2
658264, 658263, 2
658264, 658265, 3
658264, 658266, 1
658264, 658262, 2
658262, 658264, 2
658262, 658265, 2
658262, 658263, 1
658265, 658264, 2
658265, 658263, 2
658265, 658266, 2
658265, 658267, 2
658265, 658262, 2
658263, 658264, 1
658263, 658262, 2
658263, 658265, 2
