641449, 641455, 2
641449, 641453, 2
641449, 641451, 1
641449, 641454, 2
641449, 641450, 0
641457, 641458, 1
641457, 641456, 2
641455, 641450, 2
641455, 641453, 2
641455, 641451, 2
641455, 641456, 2
641455, 641452, 2
641455, 641454, 2
641455, 641449, 2
641450, 641455, 2
641450, 641451, 2
641450, 641456, 2
641450, 641452, 2
641450, 641454, 2
641450, 641449, 2
641456, 641457, 1
641456, 641453, 2
641456, 641450, 2
641456, 641455, 2
641456, 641452, 2
641456, 641454, 2
641453, 641455, 2
641453, 641451, 2
641453, 641456, 2
641453, 641452, 2
641453, 641454, 2
641453, 641449, 2
641452, 641455, 2
641452, 641450, 2
641452, 641453, 3
641452, 641451, 2
641452, 641454, 0
641452, 641456, 1
641458, 641457, 2
641454, 641453, 2
641454, 641450, 2
641454, 641456, 2
641454, 641455, 1
641454, 641452, 2
641454, 641451, 2
641454, 641449, 2
641451, 641453, 2
641451, 641450, 2
641451, 641455, 2
641451, 641452, 1
641451, 641454, 2
641451, 641449, 2
