490162, 490160, 2
490162, 490161, 2
490151, 490153, 1
490151, 490149, 2
490151, 490152, 3
490151, 490150, 2
490161, 490162, 2
490161, 490160, 2
490161, 490159, 2
490161, 490153, 2
490161, 490158, 2
490161, 490155, 2
490161, 490156, 2
490153, 490151, 2
490153, 490152, 2
490153, 490154, 2
490153, 490161, 2
490153, 490157, 2
490153, 490155, 1
490152, 490153, 2
490152, 490151, 2
490155, 490156, 1
490155, 490157, 2
490155, 490161, 2
490155, 490153, 2
490155, 490154, 6
490155, 490158, 2
490156, 490154, 2
490156, 490158, 1
490156, 490157, 2
490156, 490155, 2
490156, 490161, 2
490157, 490156, 2
490157, 490160, 2
490157, 490159, 2
490157, 490153, 2
490157, 490154, 2
490157, 490158, 2
490157, 490155, 2
490159, 490157, 2
490159, 490158, 2
490159, 490160, 1
490159, 490161, 2
490149, 490151, 2
490149, 490150, 1
490149, 490154, 2
490154, 490156, 2
490154, 490157, 2
490154, 490160, 2
490154, 490153, 2
490154, 490149, 2
490154, 490158, 2
490154, 490155, 2
490150, 490149, 2
490150, 490151, 1
490158, 490156, 2
490158, 490157, 6
490158, 490160, 2
490158, 490159, 1
490158, 490154, 2
490158, 490161, 2
490158, 490155, 2
490160, 490162, 0
490160, 490157, 2
490160, 490159, 2
490160, 490154, 2
490160, 490161, 3
490160, 490158, 2
