336753, 336752, 2
336753, 336751, 2
336753, 336755, 2
336753, 336754, 1
336753, 336750, 2
336740, 336741, 1
336747, 336745, 2
336747, 336748, 1
336747, 336746, 2
336756, 336755, 2
336756, 336757, 1
336748, 336747, 2
336748, 336749, 1
336750, 336753, 2
336750, 336749, 2
336750, 336752, 1
336750, 336751, 8
336749, 336751, 2
336749, 336748, 2
336749, 336750, 1
336755, 336753, 2
336755, 336754, 2
336755, 336756, 1
336761, 336762, 1
336761, 336760, 2
336761, 336759, 2
336758, 336759, 1
336758, 336757, 2
336752, 336753, 1
336752, 336751, 2
336752, 336750, 2
336762, 336763, 1
336762, 336761, 2
336760, 336759, 2
336760, 336763, 2
336760, 336761, 0
336743, 336744, 2
336743, 336742, 2
336743, 336741, 2
336743, 336745, 2
336751, 336753, 2
336751, 336752, 2
336751, 336749, 2
336751, 336750, 2
336763, 336762, 2
336763, 336760, 2
336744, 336741, 2
336744, 336742, 2
336744, 336743, 2
336744, 336745, 8
336744, 336746, 1
336745, 336747, 2
336745, 336744, 2
336745, 336742, 2
336745, 336743, 2
336745, 336746, 2
336757, 336758, 1
336757, 336756, 2
336746, 336747, 1
336746, 336744, 2
336746, 336741, 2
336746, 336745, 2
336754, 336753, 2
336754, 336755, 1
336741, 336744, 2
336741, 336746, 2
336741, 336742, 1
336741, 336743, 2
336741, 336740, 2
336742, 336744, 1
336742, 336741, 2
336742, 336743, 8
336742, 336745, 2
336759, 336758, 2
336759, 336760, 1
336759, 336761, 2
