373929, 373930, 1
373929, 373928, 2
373931, 373932, 2
373931, 373930, 2
373932, 373931, 2
373932, 373933, 1
373932, 373930, 2
373932, 373934, 2
373927, 373928, 1
373934, 373932, 2
373934, 373933, 2
373934, 373935, 1
373933, 373932, 2
373933, 373935, 2
373933, 373934, 1
373935, 373933, 2
373935, 373934, 2
373930, 373932, 1
373930, 373928, 2
373930, 373929, 2
373930, 373931, 0
373928, 373927, 2
373928, 373930, 2
373928, 373929, 1
