551038, 551037, 2
551038, 551039, 1
551022, 551023, 1
551022, 551024, 2
551030, 551028, 2
551030, 551029, 2
551030, 551031, 1
551040, 551041, 1
551040, 551039, 2
551033, 551032, 2
551033, 551034, 1
551028, 551030, 2
551028, 551029, 1
551028, 551026, 2
551028, 551027, 2
551032, 551031, 2
551032, 551034, 2
551032, 551033, 1
551029, 551028, 2
551029, 551030, 1
551027, 551028, 1
551027, 551026, 2
551036, 551037, 1
551036, 551035, 2
551037, 551038, 1
551037, 551036, 2
551026, 551025, 2
551026, 551027, 1
551026, 551028, 2
551025, 551024, 2
551025, 551026, 1
551034, 551032, 2
551034, 551035, 1
551034, 551033, 2
551035, 551034, 2
551035, 551036, 1
551031, 551032, 1
551031, 551030, 2
551041, 551040, 2
551023, 551022, 2
551023, 551024, 1
551039, 551038, 2
551039, 551040, 1
551024, 551023, 2
551024, 551022, 2
551024, 551025, 1
