657259, 657258, 2
657259, 657260, 1
657271, 657270, 2
657271, 657272, 1
657274, 657273, 2
657274, 657272, 2
657268, 657267, 2
657268, 657269, 1
657269, 657268, 2
657269, 657270, 1
657269, 657267, 2
657261, 657263, 2
657261, 657262, 1
657261, 657260, 2
657265, 657266, 1
657265, 657264, 2
657257, 657256, 2
657257, 657258, 1
657266, 657265, 2
657266, 657267, 1
657255, 657256, 1
657255, 657254, 2
657256, 657255, 2
657256, 657257, 1
657258, 657259, 1
657258, 657257, 2
657253, 657254, 1
657263, 657261, 2
657263, 657264, 1
657263, 657262, 2
657264, 657265, 1
657264, 657262, 2
657264, 657263, 2
657260, 657259, 2
657260, 657261, 1
657254, 657253, 2
657254, 657255, 1
657267, 657266, 2
657267, 657268, 1
657267, 657269, 2
657267, 657270, 2
657272, 657273, 1
657272, 657271, 2
657272, 657274, 2
657273, 657274, 1
657273, 657272, 2
657262, 657261, 2
657262, 657264, 2
657262, 657263, 1
657270, 657271, 1
657270, 657267, 2
657270, 657269, 2
