495028, 495030, 2
495028, 495027, 2
495028, 495029, 1
495030, 495028, 2
495030, 495029, 2
495025, 495026, 1
495026, 495025, 2
495026, 495027, 1
495029, 495028, 2
495029, 495030, 1
495027, 495028, 1
495027, 495026, 2
