534807, 534808, 2
534807, 534806, 2
534807, 534805, 2
534802, 534801, 2
534802, 534803, 1
534797, 534796, 2
534797, 534798, 3
534797, 534799, 1
534808, 534807, 2
534808, 534806, 2
534808, 534805, 2
534796, 534794, 2
534796, 534795, 2
534796, 534798, 2
534796, 534799, 2
534796, 534797, 1
534795, 534796, 2
534795, 534794, 2
534798, 534796, 2
534798, 534799, 2
534798, 534797, 2
534804, 534803, 2
534804, 534800, 2
534804, 534805, 2
534800, 534799, 2
534800, 534801, 1
534800, 534803, 2
534800, 534804, 2
534800, 534805, 2
534801, 534805, 1
534801, 534803, 2
534801, 534802, 3
534801, 534800, 2
534803, 534804, 1
534803, 534801, 2
534803, 534800, 2
534803, 534802, 2
534803, 534805, 2
534805, 534807, 2
534805, 534801, 2
534805, 534803, 2
534805, 534808, 2
534805, 534806, 1
534805, 534800, 2
534805, 534804, 2
534799, 534796, 2
534799, 534798, 2
534799, 534800, 1
534799, 534797, 2
534794, 534796, 1
534794, 534795, 3
534806, 534807, 3
534806, 534808, 1
534806, 534805, 2
