489296, 489297, 2
489296, 489294, 2
489296, 489295, 2
489301, 489300, 2
489301, 489302, 1
489295, 489297, 1
489295, 489296, 3
489295, 489294, 2
489297, 489296, 2
489297, 489298, 1
489297, 489295, 2
489293, 489294, 1
489294, 489293, 2
489294, 489296, 2
489294, 489295, 1
489300, 489299, 2
489300, 489301, 1
489302, 489301, 2
489298, 489297, 2
489298, 489299, 1
489299, 489298, 2
489299, 489300, 1
