404066, 404067, 1
404066, 404065, 2
404072, 404070, 2
404072, 404071, 2
404062, 404063, 1
404062, 404061, 2
404069, 404070, 8
404069, 404068, 2
404069, 404071, 1
404067, 404066, 2
404067, 404068, 1
404067, 404065, 2
404065, 404067, 2
404065, 404066, 1
404065, 404064, 2
404061, 404062, 1
404070, 404069, 2
404070, 404072, 2
404070, 404071, 2
404064, 404065, 1
404064, 404063, 2
404071, 404069, 2
404071, 404070, 2
404071, 404068, 2
404071, 404072, 1
404063, 404064, 1
404063, 404062, 2
404068, 404069, 1
404068, 404067, 2
404068, 404071, 2
