495785, 495786, 1
495785, 495787, 2
495785, 495784, 2
495785, 495783, 2
495788, 495786, 2
495788, 495787, 2
495788, 495789, 1
495788, 495783, 2
495787, 495788, 2
495787, 495785, 2
495787, 495789, 2
495787, 495790, 2
495787, 495786, 2
495787, 495784, 2
495784, 495785, 2
495784, 495787, 2
495784, 495783, 2
495783, 495785, 1
495783, 495788, 2
495783, 495786, 2
495783, 495784, 3
495790, 495787, 2
495790, 495789, 2
495786, 495785, 2
495786, 495788, 0
495786, 495787, 3
495786, 495783, 2
495789, 495788, 2
495789, 495787, 2
495789, 495790, 1
