537219, 537220, 1
537224, 537222, 2
537224, 537223, 2
537222, 537223, 1
537222, 537224, 2
537222, 537221, 2
537223, 537222, 2
537223, 537224, 1
537221, 537222, 1
537221, 537220, 2
537220, 537221, 1
537220, 537219, 2
