375505, 375504, 2
375505, 375503, 2
375505, 375506, 1
375504, 375505, 2
375504, 375503, 2
375504, 375506, 2
375494, 375497, 2
375494, 375493, 2
375494, 375492, 2
375494, 375495, 8
375494, 375496, 1
375503, 375501, 2
375503, 375505, 1
375503, 375504, 8
375503, 375506, 2
375503, 375502, 2
375490, 375491, 1
375498, 375497, 2
375498, 375499, 1
375492, 375491, 2
375492, 375493, 8
375492, 375494, 1
375492, 375497, 2
375491, 375493, 2
375491, 375490, 2
375491, 375492, 1
375493, 375494, 2
375493, 375491, 2
375493, 375492, 2
375493, 375495, 2
375506, 375505, 2
375506, 375504, 2
375506, 375503, 2
375501, 375502, 8
375501, 375500, 2
375501, 375503, 1
375502, 375501, 2
375502, 375500, 2
375502, 375503, 2
375500, 375501, 1
375500, 375502, 2
375500, 375499, 2
375497, 375495, 2
375497, 375494, 2
375497, 375492, 2
375497, 375498, 1
375497, 375496, 2
375499, 375500, 1
375499, 375498, 2
375495, 375497, 2
375495, 375493, 2
375495, 375494, 2
375495, 375496, 2
375496, 375494, 2
375496, 375495, 2
375496, 375497, 1
