623740, 623730, 2
623740, 623738, 2
623740, 623739, 2
623734, 623733, 2
623734, 623729, 2
623734, 623735, 1
623736, 623737, 1
623736, 623735, 2
623733, 623732, 2
623733, 623734, 1
623732, 623730, 2
623732, 623731, 2
623732, 623733, 1
623732, 623729, 2
623735, 623737, 2
623735, 623734, 2
623735, 623736, 1
623730, 623731, 2
623730, 623729, 2
623730, 623732, 2
623730, 623740, 2
623729, 623730, 3
623729, 623731, 1
623729, 623734, 2
623729, 623732, 2
623737, 623738, 1
623737, 623736, 2
623737, 623735, 2
623738, 623740, 2
623738, 623737, 2
623738, 623739, 1
623731, 623730, 2
623731, 623729, 2
623731, 623732, 1
623739, 623738, 2
623739, 623740, 1
