657857, 657859, 2
657857, 657856, 2
657857, 657858, 1
657859, 657857, 2
657859, 657858, 2
657859, 657856, 2
657856, 657857, 1
657856, 657859, 2
657856, 657858, 2
657858, 657857, 2
657858, 657859, 3
657858, 657856, 2
