658032, 658030, 2
658032, 658033, 1
658032, 658034, 2
658032, 658031, 2
658030, 658032, 1
658030, 658031, 3
658031, 658032, 2
658031, 658030, 2
658034, 658032, 2
658034, 658033, 2
658033, 658032, 2
658033, 658034, 1
