554095, 554090, 2
554095, 554094, 2
554095, 554093, 2
554094, 554090, 2
554094, 554092, 2
554094, 554095, 2
554094, 554091, 2
554094, 554093, 2
554093, 554090, 2
554093, 554095, 0
554093, 554091, 2
554093, 554094, 3
554093, 554092, 2
554090, 554092, 1
554090, 554095, 2
554090, 554091, 3
554090, 554094, 2
554090, 554093, 2
554091, 554090, 2
554091, 554092, 2
554091, 554094, 2
554091, 554093, 2
554092, 554090, 2
554092, 554091, 2
554092, 554094, 2
554092, 554093, 1
