553619, 553620, 1
553621, 553620, 2
553621, 553622, 1
553623, 553624, 1
553623, 553622, 2
553622, 553620, 2
553622, 553624, 2
553622, 553621, 2
553622, 553623, 1
553624, 553623, 2
553624, 553622, 2
553620, 553619, 2
553620, 553621, 1
553620, 553622, 2
