494741, 494742, 1
494741, 494743, 2
494746, 494744, 2
494746, 494745, 2
494742, 494744, 1
494742, 494741, 2
494742, 494743, 3
494745, 494744, 2
494745, 494746, 2
494743, 494742, 2
494743, 494741, 2
494743, 494744, 2
494744, 494743, 2
494744, 494746, 3
494744, 494745, 0
494744, 494742, 2
