608330, 608328, 2
608330, 608332, 2
608330, 608331, 2
608330, 608329, 2
608326, 608327, 1
608326, 608325, 2
608329, 608328, 2
608329, 608330, 8
608329, 608331, 1
608328, 608330, 2
608328, 608327, 2
608328, 608329, 1
608327, 608328, 1
608327, 608326, 2
608325, 608326, 1
608332, 608330, 2
608332, 608331, 2
608331, 608330, 2
608331, 608332, 1
608331, 608329, 2
