570489, 570488, 2
570489, 570487, 2
570489, 570490, 2
570489, 570491, 2
570484, 570487, 2
570484, 570483, 2
570484, 570485, 1
570484, 570488, 2
570483, 570487, 1
570483, 570484, 0
570483, 570485, 2
570483, 570488, 2
570483, 570486, 2
570487, 570489, 2
570487, 570484, 2
570487, 570483, 2
570487, 570486, 2
570487, 570488, 1
570492, 570488, 2
570492, 570491, 2
570488, 570489, 0
570488, 570484, 2
570488, 570483, 2
570488, 570487, 2
570488, 570492, 2
570488, 570490, 1
570488, 570491, 2
570491, 570489, 2
570491, 570488, 2
570491, 570492, 1
570491, 570490, 2
570485, 570484, 2
570485, 570483, 2
570485, 570486, 1
570490, 570489, 2
570490, 570488, 2
570490, 570491, 1
570486, 570485, 2
570486, 570483, 2
570486, 570487, 2
