590483, 590485, 2
590483, 590484, 1
590483, 590482, 2
590481, 590482, 1
590481, 590480, 2
590484, 590483, 2
590484, 590485, 1
590490, 590489, 2
590489, 590490, 1
590489, 590488, 2
590488, 590489, 1
590488, 590487, 2
590485, 590483, 2
590485, 590484, 2
590485, 590486, 1
590485, 590487, 2
590482, 590483, 1
590482, 590481, 2
590482, 590480, 2
590486, 590485, 2
590486, 590487, 1
590480, 590481, 1
590480, 590482, 2
590487, 590485, 2
590487, 590486, 2
590487, 590488, 1
