379868, 379871, 2
379868, 379869, 8
379868, 379870, 1
379868, 379867, 2
379871, 379868, 2
379871, 379872, 2
379871, 379874, 2
379871, 379873, 2
379871, 379869, 2
379871, 379870, 2
379872, 379873, 1
379872, 379870, 2
379872, 379871, 2
379872, 379874, 2
379874, 379873, 2
379874, 379870, 2
379874, 379871, 2
379874, 379872, 2
379873, 379872, 2
379873, 379870, 2
379873, 379871, 2
379873, 379874, 1
379869, 379870, 2
379869, 379868, 2
379869, 379871, 2
379869, 379867, 2
379870, 379868, 2
379870, 379871, 8
379870, 379872, 1
379870, 379874, 2
379870, 379873, 2
379870, 379869, 2
379867, 379868, 1
379867, 379869, 2
