534391, 534390, 2
534391, 534393, 2
534391, 534392, 3
534391, 534395, 1
534396, 534398, 1
534396, 534397, 3
534396, 534395, 2
534394, 534393, 2
534394, 534390, 2
534394, 534395, 2
534392, 534391, 2
534392, 534393, 1
534395, 534390, 2
534395, 534391, 2
534395, 534396, 1
534395, 534394, 2
534395, 534398, 2
534395, 534393, 2
534395, 534397, 2
534388, 534390, 1
534388, 534389, 3
534390, 534391, 1
534390, 534394, 2
534390, 534395, 2
534390, 534388, 2
534390, 534393, 2
534390, 534389, 2
534398, 534396, 2
534398, 534397, 2
534398, 534395, 2
534389, 534388, 2
534389, 534390, 2
534393, 534391, 2
534393, 534390, 2
534393, 534394, 1
534393, 534392, 2
534393, 534395, 2
534397, 534398, 2
534397, 534396, 2
534397, 534395, 2
