332959, 332961, 3
332959, 332960, 6
332959, 332962, 1
332962, 332959, 2
332962, 332964, 2
332962, 332963, 1
332962, 332961, 2
332962, 332960, 2
332963, 332964, 1
332963, 332962, 2
332965, 332964, 2
332965, 332966, 1
332965, 332967, 2
332960, 332959, 2
332960, 332961, 2
332960, 332962, 2
332966, 332965, 2
332966, 332967, 1
332964, 332963, 2
332964, 332965, 1
332964, 332962, 2
332967, 332968, 1
332967, 332965, 2
332967, 332966, 2
332968, 332967, 2
332961, 332959, 2
332961, 332960, 2
332961, 332962, 2
