570751, 570749, 2
570751, 570750, 2
570751, 570752, 1
570749, 570751, 2
570749, 570750, 1
570749, 570754, 2
570754, 570758, 2
570754, 570749, 2
570754, 570756, 2
570754, 570755, 2
570754, 570753, 2
570754, 570757, 2
570760, 570759, 2
570760, 570761, 1
570750, 570751, 1
570750, 570749, 2
570758, 570757, 2
570758, 570759, 2
570758, 570754, 2
570755, 570756, 1
570755, 570753, 2
570755, 570754, 2
570759, 570760, 1
570759, 570758, 2
570759, 570757, 2
570756, 570755, 2
570756, 570757, 1
570756, 570754, 2
570761, 570760, 2
570752, 570751, 2
570752, 570753, 1
570753, 570755, 1
570753, 570752, 2
570753, 570754, 8
570757, 570758, 8
570757, 570759, 1
570757, 570756, 2
570757, 570754, 2
