537329, 537330, 1
537329, 537331, 2
537329, 537333, 2
537333, 537332, 2
537333, 537329, 2
537333, 537334, 2
537333, 537331, 2
537335, 537334, 2
537332, 537331, 2
537332, 537333, 3
537332, 537334, 1
537330, 537329, 2
537330, 537331, 1
537334, 537332, 2
537334, 537333, 2
537334, 537335, 3
537331, 537332, 1
537331, 537330, 2
537331, 537329, 2
537331, 537333, 2
