374370, 374369, 2
374370, 374373, 2
374370, 374368, 2
374370, 374371, 2
374376, 374377, 2
374376, 374375, 2
374376, 374373, 2
374376, 374374, 2
374373, 374370, 2
374373, 374376, 2
374373, 374372, 2
374373, 374374, 2
374373, 374371, 2
374368, 374370, 8
374368, 374369, 0
374368, 374371, 1
374371, 374370, 2
374371, 374373, 8
374371, 374368, 2
374371, 374369, 2
374371, 374374, 1
374371, 374372, 0
374377, 374378, 0
374377, 374375, 2
374377, 374376, 2
374377, 374374, 2
374378, 374377, 2
374369, 374370, 2
374369, 374368, 2
374369, 374371, 2
374375, 374377, 2
374375, 374376, 2
374375, 374374, 2
374374, 374376, 8
374374, 374373, 2
374374, 374371, 2
374374, 374377, 1
374374, 374375, 0
374374, 374372, 2
374372, 374373, 2
374372, 374374, 2
374372, 374371, 2
