536797, 536799, 2
536797, 536796, 2
536797, 536795, 2
536797, 536798, 2
536799, 536797, 2
536799, 536798, 2
536799, 536800, 3
536799, 536796, 2
536799, 536795, 2
536798, 536797, 2
536798, 536799, 1
536798, 536796, 2
536798, 536800, 2
536798, 536795, 2
536795, 536797, 0
536795, 536799, 2
536795, 536798, 1
536795, 536800, 2
536795, 536796, 3
536796, 536797, 2
536796, 536799, 2
536796, 536798, 2
536796, 536800, 2
536796, 536795, 2
536800, 536799, 2
536800, 536798, 2
536800, 536795, 2
536800, 536796, 2
