374265, 374268, 2
374265, 374266, 1
374265, 374264, 2
374265, 374263, 2
374266, 374265, 2
374266, 374267, 3
374266, 374268, 1
374261, 374263, 6
374261, 374262, 4
374261, 374264, 1
374270, 374269, 2
374267, 374268, 2
374267, 374266, 2
374267, 374262, 2
374269, 374268, 2
374269, 374270, 1
374268, 374265, 2
374268, 374267, 2
374268, 374269, 1
374268, 374266, 2
374264, 374265, 1
374264, 374261, 2
374264, 374262, 2
374264, 374263, 2
374262, 374267, 2
374262, 374261, 2
374262, 374264, 2
374263, 374265, 2
374263, 374261, 2
374263, 374264, 2
