378526, 378525, 2
378526, 378527, 1
378526, 378524, 2
378524, 378525, 8
378524, 378526, 1
378524, 378527, 2
378524, 378523, 2
378525, 378526, 2
378525, 378523, 2
378525, 378524, 2
378522, 378523, 1
378527, 378526, 2
378527, 378524, 2
378523, 378522, 2
378523, 378524, 1
378523, 378525, 2
