405834, 405835, 1
405834, 405833, 2
405834, 405837, 2
405835, 405834, 2
405835, 405837, 1
405835, 405836, 8
405838, 405836, 2
405838, 405837, 2
405833, 405834, 1
405837, 405834, 2
405837, 405835, 2
405837, 405838, 1
405837, 405836, 2
405836, 405835, 2
405836, 405838, 2
405836, 405837, 2
