642946, 642963, 2
642946, 642964, 2
642946, 642947, 1
642951, 642952, 1
642951, 642953, 2
642951, 642948, 2
642951, 642950, 2
642951, 642949, 2
642951, 642947, 2
642959, 642958, 2
642959, 642957, 2
642959, 642960, 2
642959, 642961, 2
642960, 642959, 2
642960, 642961, 2
642960, 642962, 2
642957, 642958, 2
642957, 642959, 2
642957, 642956, 2
642947, 642946, 2
642947, 642951, 2
642947, 642953, 2
642947, 642964, 2
642947, 642948, 1
642947, 642963, 2
642947, 642949, 2
642963, 642958, 2
642963, 642946, 2
642963, 642953, 2
642963, 642964, 1
642963, 642948, 2
642963, 642961, 2
642963, 642965, 2
642963, 642962, 2
642963, 642947, 2
642954, 642952, 2
642954, 642953, 2
642954, 642956, 2
642954, 642955, 1
642950, 642951, 1
642950, 642949, 2
642950, 642953, 2
642950, 642952, 2
642965, 642961, 2
642965, 642963, 2
642965, 642964, 2
642965, 642962, 2
642949, 642951, 2
642949, 642953, 2
642949, 642948, 2
642949, 642947, 2
642949, 642950, 2
642962, 642963, 2
642962, 642965, 2
642962, 642960, 2
642962, 642961, 2
642962, 642964, 2
642952, 642954, 2
642952, 642951, 2
642952, 642953, 2
642952, 642950, 2
642953, 642958, 1
642953, 642951, 2
642953, 642948, 2
642953, 642963, 2
642953, 642954, 3
642953, 642950, 2
642953, 642949, 2
642953, 642952, 2
642953, 642964, 2
642953, 642955, 2
642953, 642956, 2
642953, 642947, 2
642961, 642958, 2
642961, 642963, 0
642961, 642959, 2
642961, 642960, 2
642961, 642964, 2
642961, 642965, 1
642961, 642962, 3
642955, 642954, 2
642955, 642953, 2
642955, 642956, 1
642958, 642963, 2
642958, 642959, 3
642958, 642953, 2
642958, 642961, 1
642958, 642964, 2
642958, 642957, 2
642958, 642956, 2
642964, 642958, 2
642964, 642963, 2
642964, 642953, 2
642964, 642961, 2
642964, 642948, 2
642964, 642946, 2
642964, 642965, 2
642964, 642962, 2
642964, 642947, 2
642956, 642954, 2
642956, 642958, 2
642956, 642953, 2
642956, 642957, 2
642956, 642955, 2
642948, 642951, 2
642948, 642953, 1
642948, 642964, 2
642948, 642947, 2
642948, 642963, 2
642948, 642949, 3
