623876, 623874, 2
623876, 623879, 2
623876, 623877, 1
623876, 623875, 2
623876, 623878, 2
623876, 623873, 2
623874, 623876, 2
623874, 623877, 2
623874, 623875, 2
623874, 623879, 2
623874, 623873, 2
623878, 623876, 2
623878, 623877, 2
623878, 623879, 1
623881, 623880, 2
623881, 623882, 2
623881, 623883, 2
623881, 623879, 2
623880, 623879, 2
623880, 623881, 8
623880, 623882, 1
623877, 623876, 2
623877, 623874, 2
623877, 623878, 1
623875, 623876, 1
623875, 623874, 2
623875, 623873, 2
623884, 623882, 2
623884, 623883, 2
623882, 623880, 2
623882, 623884, 1
623882, 623883, 3
623882, 623881, 2
623883, 623884, 2
623883, 623882, 2
623883, 623881, 2
623879, 623876, 2
623879, 623874, 2
623879, 623878, 2
623879, 623881, 2
623879, 623880, 1
623873, 623876, 2
623873, 623874, 3
623873, 623875, 1
