551494, 551495, 2
551494, 551496, 2
551494, 551493, 2
551486, 551484, 2
551486, 551485, 2
551486, 551487, 1
551486, 551483, 2
551473, 551472, 2
551473, 551474, 1
551476, 551477, 2
551476, 551475, 2
551476, 551474, 2
551489, 551490, 1
551489, 551488, 2
551489, 551487, 2
551489, 551484, 2
551472, 551473, 1
551478, 551477, 2
551478, 551479, 1
551481, 551482, 1
551481, 551480, 2
551483, 551487, 2
551483, 551482, 2
551483, 551484, 1
551483, 551486, 2
551483, 551485, 2
551477, 551475, 2
551477, 551474, 2
551477, 551478, 1
551477, 551476, 2
551490, 551495, 2
551490, 551488, 2
551490, 551489, 2
551490, 551491, 1
551490, 551492, 2
551475, 551477, 1
551475, 551474, 2
551475, 551476, 3
551491, 551490, 2
551491, 551492, 0
551491, 551495, 1
551491, 551496, 2
551491, 551493, 2
551496, 551495, 2
551496, 551494, 2
551496, 551491, 2
551479, 551478, 2
551479, 551480, 1
551487, 551489, 2
551487, 551486, 2
551487, 551483, 2
551487, 551488, 1
551487, 551485, 2
551487, 551484, 2
551493, 551495, 2
551493, 551494, 1
551493, 551491, 2
551493, 551488, 2
551493, 551492, 2
551488, 551490, 2
551488, 551489, 2
551488, 551487, 2
551488, 551493, 2
551485, 551487, 2
551485, 551482, 2
551485, 551484, 2
551485, 551486, 1
551485, 551483, 2
551484, 551486, 2
551484, 551487, 2
551484, 551483, 2
551484, 551485, 0
551484, 551489, 1
551484, 551482, 2
551480, 551479, 2
551480, 551481, 1
551492, 551490, 2
551492, 551491, 2
551492, 551493, 1
551495, 551490, 2
551495, 551494, 2
551495, 551491, 2
551495, 551496, 1
551495, 551493, 2
551482, 551485, 2
551482, 551484, 2
551482, 551481, 2
551482, 551483, 1
551474, 551477, 2
551474, 551475, 1
551474, 551473, 2
551474, 551476, 2
