404423, 404422, 2
404423, 404424, 1
404423, 404421, 2
404417, 404418, 1
404419, 404418, 2
404419, 404420, 3
404419, 404421, 1
404431, 404429, 2
404431, 404430, 2
404427, 404428, 1
404427, 404425, 2
404427, 404429, 2
404427, 404426, 2
404418, 404417, 2
404418, 404419, 1
404418, 404420, 2
404426, 404427, 2
404426, 404425, 2
404426, 404424, 2
404428, 404427, 2
404428, 404429, 1
404425, 404427, 1
404425, 404424, 2
404425, 404426, 3
404420, 404418, 2
404420, 404419, 2
404420, 404421, 2
404430, 404429, 2
404430, 404431, 1
404422, 404423, 1
404422, 404421, 2
404424, 404423, 2
404424, 404425, 1
404424, 404426, 2
404429, 404427, 2
404429, 404428, 2
404429, 404430, 1
404429, 404431, 2
404421, 404423, 2
404421, 404422, 1
404421, 404420, 2
404421, 404419, 2
