593082, 593084, 2
593082, 593079, 2
593082, 593083, 1
593082, 593081, 2
593084, 593082, 2
593084, 593079, 2
593084, 593083, 2
593081, 593082, 1
593081, 593078, 2
593081, 593079, 2
593081, 593080, 2
593081, 593083, 2
593083, 593082, 2
593083, 593084, 1
593083, 593079, 2
593083, 593081, 2
593077, 593079, 2
593077, 593078, 1
593077, 593080, 2
593079, 593082, 2
593079, 593084, 2
593079, 593081, 2
593079, 593083, 2
593079, 593077, 2
593079, 593078, 2
593079, 593080, 2
593080, 593077, 2
593080, 593079, 2
593080, 593078, 2
593080, 593081, 1
593078, 593077, 2
593078, 593081, 2
593078, 593079, 3
593078, 593080, 1
