515666, 515664, 2
515666, 515667, 1
515666, 515665, 2
515669, 515670, 1
515669, 515668, 2
515664, 515666, 2
515664, 515665, 1
515667, 515666, 2
515667, 515668, 1
515670, 515669, 2
515670, 515671, 1
515671, 515670, 2
515668, 515669, 1
515668, 515667, 2
515665, 515666, 1
515665, 515664, 2
