457067, 457066, 2
457067, 457068, 1
457069, 457065, 2
457069, 457068, 2
457069, 457070, 1
457064, 457065, 1
457065, 457069, 2
457065, 457066, 1
457065, 457064, 2
457071, 457070, 2
457071, 457072, 1
457066, 457067, 1
457066, 457065, 2
457068, 457067, 2
457068, 457069, 1
457070, 457069, 2
457070, 457071, 1
457072, 457071, 2
