592552, 592551, 2
592552, 592553, 3
592552, 592554, 1
592552, 592550, 2
592551, 592550, 2
592551, 592552, 1
592553, 592550, 2
592553, 592554, 2
592553, 592552, 2
592554, 592553, 2
592554, 592552, 2
592550, 592551, 1
592550, 592553, 2
592550, 592552, 2
