494434, 494433, 2
494434, 494435, 1
494450, 494449, 2
494450, 494451, 1
494441, 494442, 1
494441, 494440, 2
494459, 494462, 2
494459, 494458, 2
494459, 494460, 1
494455, 494454, 2
494455, 494457, 2
494455, 494456, 1
494426, 494425, 2
494426, 494427, 3
494426, 494428, 1
494437, 494436, 2
494437, 494439, 1
494437, 494438, 3
494461, 494462, 3
494461, 494463, 1
494461, 494460, 2
494433, 494434, 1
494433, 494432, 2
494433, 494431, 2
494415, 494416, 3
494415, 494417, 0
494415, 494418, 1
494460, 494459, 2
494460, 494461, 1
494431, 494433, 1
494431, 494432, 3
494431, 494430, 2
494449, 494450, 1
494449, 494448, 2
494449, 494451, 2
494447, 494448, 2
494447, 494445, 2
494447, 494444, 2
494447, 494446, 2
494422, 494423, 1
494422, 494419, 2
494422, 494421, 2
494422, 494420, 2
494452, 494453, 1
494452, 494451, 2
494446, 494444, 2
494446, 494448, 2
494446, 494445, 2
494446, 494447, 2
494420, 494423, 2
494420, 494422, 2
494420, 494419, 2
494420, 494421, 1
494430, 494431, 1
494430, 494429, 2
494454, 494453, 2
494454, 494455, 1
494427, 494425, 2
494427, 494428, 2
494427, 494426, 2
494445, 494444, 2
494445, 494448, 1
494445, 494447, 0
494445, 494446, 3
494418, 494415, 2
494418, 494416, 2
494418, 494417, 2
494418, 494419, 1
494419, 494420, 1
494419, 494422, 2
494419, 494418, 2
494419, 494421, 2
494442, 494444, 1
494442, 494441, 2
494442, 494443, 3
494417, 494415, 2
494417, 494416, 2
494417, 494418, 2
494448, 494449, 1
494448, 494445, 2
494448, 494447, 2
494448, 494446, 2
494439, 494438, 2
494439, 494437, 2
494439, 494440, 1
494429, 494430, 1
494429, 494428, 2
494458, 494459, 1
494458, 494457, 2
494458, 494456, 2
494451, 494449, 2
494451, 494450, 2
494451, 494452, 1
494451, 494453, 2
494432, 494433, 2
494432, 494431, 2
494423, 494420, 2
494423, 494422, 2
494423, 494424, 1
494423, 494421, 2
494436, 494438, 2
494436, 494437, 1
494436, 494435, 2
494416, 494415, 2
494416, 494418, 2
494416, 494417, 2
494456, 494458, 1
494456, 494455, 2
494456, 494457, 3
494462, 494461, 2
494462, 494459, 2
494462, 494463, 2
494453, 494454, 1
494453, 494452, 2
494453, 494451, 2
494438, 494436, 2
494438, 494439, 2
494438, 494437, 2
494457, 494458, 2
494457, 494455, 2
494457, 494456, 2
494425, 494427, 2
494425, 494424, 2
494425, 494426, 1
494444, 494445, 1
494444, 494447, 2
494444, 494443, 2
494444, 494442, 2
494444, 494446, 2
494443, 494442, 2
494443, 494444, 2
494443, 494440, 2
494421, 494420, 2
494421, 494422, 1
494421, 494419, 2
494421, 494423, 2
494463, 494461, 2
494463, 494462, 2
494424, 494425, 1
494424, 494423, 2
494428, 494427, 2
494428, 494426, 2
494428, 494429, 1
494435, 494434, 2
494435, 494436, 1
494440, 494439, 2
494440, 494441, 1
494440, 494443, 2
