549103, 549102, 2
549103, 549104, 1
549106, 549107, 3
549106, 549104, 2
549106, 549105, 2
549104, 549103, 2
549104, 549106, 1
549104, 549105, 3
549104, 549102, 2
549101, 549100, 2
549101, 549102, 1
549107, 549106, 2
549100, 549101, 1
549100, 549099, 2
549102, 549103, 1
549102, 549104, 2
549102, 549101, 2
549105, 549106, 2
549105, 549104, 2
549099, 549100, 1
