456849, 456848, 2
456849, 456850, 1
456848, 456849, 1
456851, 456853, 2
456851, 456852, 1
456851, 456850, 2
456852, 456853, 1
456852, 456851, 2
456853, 456854, 1
456853, 456855, 2
456853, 456851, 2
456853, 456852, 2
456855, 456853, 2
456855, 456854, 2
456850, 456851, 1
456850, 456849, 2
456854, 456853, 2
456854, 456855, 1
