403894, 403895, 3
403894, 403896, 1
403894, 403892, 2
403894, 403891, 2
403894, 403893, 2
403894, 403897, 2
403899, 403900, 0
403899, 403898, 2
403899, 403897, 2
403892, 403894, 2
403892, 403895, 2
403892, 403893, 2
403892, 403891, 2
403896, 403894, 2
403896, 403895, 2
403896, 403897, 1
403896, 403898, 2
403893, 403894, 2
403893, 403892, 2
403893, 403895, 2
403893, 403891, 2
403900, 403899, 2
403895, 403894, 2
403895, 403892, 2
403895, 403896, 2
403895, 403893, 2
403895, 403897, 2
403895, 403898, 2
403891, 403894, 1
403891, 403892, 3
403891, 403893, 8
403897, 403894, 2
403897, 403899, 1
403897, 403895, 2
403897, 403896, 2
403897, 403898, 3
403898, 403899, 2
403898, 403895, 2
403898, 403897, 2
403898, 403896, 2
