554249, 554248, 2
554249, 554251, 2
554249, 554250, 2
554255, 554254, 2
554255, 554251, 2
554255, 554252, 2
554255, 554253, 2
554250, 554248, 2
554250, 554249, 2
554250, 554251, 2
554253, 554254, 2
554253, 554255, 2
554253, 554252, 2
554253, 554251, 2
554248, 554249, 3
554248, 554251, 2
554248, 554250, 1
554252, 554253, 2
554252, 554255, 2
554252, 554251, 2
554254, 554253, 2
554254, 554255, 2
554254, 554251, 2
554251, 554249, 2
554251, 554255, 2
554251, 554253, 2
554251, 554248, 2
554251, 554252, 2
554251, 554254, 2
554251, 554250, 2
