451098, 451094, 2
451098, 451100, 2
451098, 451101, 2
451098, 451099, 2
451098, 451102, 2
451098, 451096, 4
451098, 451097, 2
451098, 451103, 1
451098, 451095, 2
451089, 451092, 2
451089, 451096, 2
451089, 451090, 1
451089, 451091, 2
451089, 451087, 2
451089, 451088, 2
451097, 451099, 1
451097, 451098, 2
451097, 451095, 2
451097, 451094, 2
451097, 451096, 2
451090, 451091, 1
451090, 451089, 2
451090, 451092, 2
451099, 451098, 2
451099, 451103, 2
451099, 451096, 2
451099, 451101, 1
451099, 451104, 2
451099, 451097, 2
451099, 451100, 3
451099, 451095, 2
451102, 451104, 2
451102, 451098, 2
451102, 451103, 2
451102, 451101, 2
451091, 451090, 2
451091, 451089, 2
451091, 451092, 1
451091, 451096, 2
451087, 451086, 2
451087, 451089, 2
451087, 451088, 1
451088, 451086, 2
451088, 451087, 2
451088, 451089, 1
451103, 451098, 2
451103, 451096, 2
451103, 451099, 2
451103, 451102, 2
451103, 451101, 2
451103, 451100, 2
451103, 451104, 3
451095, 451094, 2
451095, 451098, 1
451095, 451096, 2
451095, 451099, 2
451095, 451097, 2
451095, 451101, 2
451085, 451086, 1
451085, 451096, 2
451094, 451097, 2
451094, 451098, 2
451094, 451093, 2
451094, 451096, 2
451094, 451095, 1
451104, 451099, 2
451104, 451102, 2
451104, 451103, 2
451104, 451101, 2
451100, 451099, 2
451100, 451098, 2
451100, 451103, 2
451100, 451101, 2
451092, 451090, 2
451092, 451093, 1
451092, 451089, 2
451092, 451096, 2
451092, 451091, 2
451096, 451085, 2
451096, 451094, 2
451096, 451098, 2
451096, 451089, 2
451096, 451092, 2
451096, 451097, 1
451096, 451086, 2
451096, 451099, 2
451096, 451091, 2
451096, 451103, 2
451096, 451095, 2
451086, 451085, 2
451086, 451087, 1
451086, 451088, 2
451086, 451096, 2
451093, 451094, 1
451093, 451092, 2
451101, 451098, 2
451101, 451100, 2
451101, 451099, 2
451101, 451102, 1
451101, 451104, 2
451101, 451103, 2
451101, 451095, 2
