378393, 378391, 2
378393, 378394, 2
378393, 378392, 2
378392, 378393, 8
378392, 378394, 1
378392, 378391, 2
378390, 378391, 1
378391, 378393, 2
378391, 378394, 2
378391, 378392, 1
378391, 378390, 2
378394, 378393, 2
378394, 378395, 1
378394, 378392, 2
378394, 378391, 2
378395, 378394, 2
