406073, 406074, 1
406074, 406075, 3
406074, 406073, 2
406074, 406076, 1
406075, 406074, 2
406075, 406076, 2
406079, 406077, 2
406079, 406078, 2
406079, 406076, 2
406077, 406079, 1
406077, 406078, 3
406077, 406076, 2
406078, 406079, 2
406078, 406077, 2
406076, 406075, 2
406076, 406079, 2
406076, 406077, 1
406076, 406074, 2
