379434, 379435, 1
379434, 379433, 2
379432, 379433, 1
379432, 379431, 2
379433, 379434, 1
379433, 379432, 2
379433, 379431, 2
379435, 379434, 2
379435, 379436, 4
379435, 379437, 1
379436, 379435, 2
379436, 379437, 2
379431, 379432, 1
379431, 379433, 2
379437, 379435, 2
379437, 379436, 2
