379937, 379936, 2
379937, 379938, 2
379933, 379935, 2
379933, 379932, 2
379933, 379930, 2
379933, 379931, 2
379933, 379934, 1
379938, 379937, 2
379938, 379936, 2
379932, 379933, 2
379932, 379931, 2
379936, 379937, 3
379936, 379938, 1
379936, 379935, 2
379935, 379936, 1
379935, 379933, 2
379935, 379934, 2
379930, 379933, 2
379930, 379931, 1
379931, 379933, 1
379931, 379932, 3
379931, 379930, 2
379934, 379933, 2
379934, 379935, 1
