405271, 405272, 1
405271, 405274, 2
405271, 405273, 2
405272, 405271, 2
405272, 405274, 1
405272, 405273, 2
405274, 405271, 2
405274, 405272, 2
405274, 405273, 6
405273, 405271, 2
405273, 405272, 2
405273, 405274, 2
