420675, 420673, 2
420675, 420674, 2
420673, 420675, 2
420673, 420672, 2
420673, 420671, 2
420673, 420674, 1
420672, 420673, 1
420672, 420671, 2
420672, 420674, 2
420671, 420673, 2
420671, 420672, 1
420671, 420674, 2
420674, 420675, 1
420674, 420673, 2
420674, 420672, 2
420674, 420671, 2
