592615, 592616, 1
592615, 592614, 2
592616, 592615, 2
592616, 592617, 1
592617, 592616, 2
592612, 592614, 2
592612, 592613, 1
592613, 592612, 2
592613, 592614, 1
592614, 592612, 2
592614, 592615, 1
592614, 592613, 2
