625936, 625935, 2
625936, 625934, 2
625936, 625937, 2
625936, 625933, 2
625935, 625936, 3
625935, 625934, 2
625935, 625937, 1
625935, 625933, 2
625937, 625936, 2
625937, 625935, 2
625933, 625936, 2
625933, 625935, 1
625933, 625934, 8
625933, 625932, 2
625931, 625932, 1
625934, 625936, 2
625934, 625935, 2
625934, 625932, 2
625934, 625933, 2
625932, 625931, 2
625932, 625934, 2
625932, 625933, 1
