608437, 608438, 1
608441, 608442, 8
608441, 608439, 2
608441, 608440, 2
608441, 608443, 1
608439, 608441, 1
608439, 608438, 2
608439, 608440, 8
608438, 608437, 2
608438, 608439, 1
608438, 608440, 2
608442, 608441, 2
608442, 608443, 2
608442, 608440, 2
608442, 608444, 2
608443, 608442, 2
608443, 608441, 2
608443, 608444, 1
608440, 608442, 2
608440, 608441, 2
608440, 608439, 2
608440, 608438, 2
608444, 608442, 2
608444, 608443, 2
