340490, 340489, 2
340490, 340491, 1
340490, 340488, 2
340492, 340489, 2
340492, 340491, 2
340492, 340493, 1
340489, 340490, 1
340489, 340491, 2
340489, 340492, 2
340489, 340488, 2
340491, 340490, 2
340491, 340489, 2
340491, 340492, 1
340488, 340490, 2
340488, 340489, 1
340494, 340493, 2
340493, 340492, 2
340493, 340494, 1
