432333, 432337, 2
432333, 432334, 1
432333, 432332, 2
432330, 432328, 2
432330, 432329, 2
432330, 432331, 1
432328, 432330, 1
432328, 432331, 2
432328, 432325, 2
432328, 432329, 3
432328, 432327, 2
432328, 432326, 2
432340, 432337, 2
432340, 432339, 2
432340, 432341, 1
432340, 432342, 2
432331, 432330, 2
432331, 432328, 2
432331, 432329, 2
432331, 432332, 1
432342, 432343, 1
432342, 432344, 2
432342, 432340, 2
432342, 432341, 2
432342, 432337, 2
432343, 432344, 1
432343, 432342, 2
432325, 432328, 2
432325, 432329, 2
432325, 432326, 1
432329, 432330, 2
432329, 432328, 2
432329, 432327, 2
432329, 432331, 2
432329, 432325, 2
432329, 432332, 2
432329, 432326, 2
432332, 432333, 1
432332, 432337, 2
432332, 432329, 2
432332, 432331, 2
432334, 432333, 2
432334, 432337, 2
432334, 432336, 2
432334, 432335, 1
432335, 432337, 2
432335, 432334, 2
432335, 432336, 1
432327, 432328, 1
432327, 432329, 2
432327, 432326, 2
432341, 432340, 2
432341, 432342, 1
432338, 432337, 6
432338, 432336, 2
432338, 432339, 1
432337, 432333, 2
432337, 432334, 2
432337, 432335, 2
432337, 432332, 2
432337, 432338, 2
432337, 432344, 2
432337, 432342, 2
432337, 432340, 2
432337, 432336, 2
432337, 432339, 2
432344, 432337, 2
432344, 432343, 2
432344, 432342, 2
432339, 432337, 2
432339, 432340, 1
432339, 432338, 2
432336, 432337, 2
432336, 432334, 2
432336, 432335, 2
432336, 432338, 1
432326, 432325, 2
432326, 432328, 2
432326, 432329, 2
432326, 432327, 1
