554256, 554258, 2
554256, 554259, 2
554256, 554257, 1
554257, 554258, 1
554257, 554256, 2
554257, 554259, 2
554261, 554258, 2
554261, 554260, 2
554261, 554262, 1
554261, 554259, 2
554258, 554256, 2
554258, 554257, 2
554258, 554261, 2
554258, 554259, 0
554258, 554260, 1
554258, 554262, 2
554259, 554260, 2
554259, 554257, 2
554259, 554261, 2
554259, 554258, 2
554259, 554262, 2
554259, 554256, 2
554260, 554261, 0
554260, 554258, 2
554260, 554259, 2
554260, 554262, 2
554262, 554261, 2
554262, 554258, 2
554262, 554259, 2
554262, 554260, 2
