378692, 378691, 2
378692, 378693, 1
378692, 378690, 2
378690, 378692, 1
378690, 378691, 0
378695, 378694, 2
378694, 378695, 1
378694, 378693, 2
378693, 378692, 2
378693, 378694, 1
378691, 378692, 2
378691, 378690, 2
