375172, 375173, 1
375172, 375171, 2
375171, 375172, 1
375174, 375173, 2
375174, 375175, 1
375182, 375181, 2
375182, 375183, 1
375173, 375172, 2
375173, 375174, 1
375175, 375176, 1
375175, 375174, 2
375177, 375176, 2
375177, 375178, 1
375180, 375181, 1
375180, 375179, 2
375179, 375180, 1
375179, 375181, 2
375179, 375178, 2
375178, 375179, 1
375178, 375177, 2
375183, 375182, 2
375183, 375184, 1
375176, 375177, 1
375176, 375175, 2
375185, 375184, 2
375181, 375182, 1
375181, 375180, 2
375181, 375179, 2
375184, 375185, 1
375184, 375183, 2
