553590, 553591, 1
553590, 553589, 2
553592, 553591, 2
553592, 553593, 1
553593, 553592, 2
553593, 553594, 1
553589, 553590, 1
553589, 553591, 2
553591, 553590, 2
553591, 553592, 1
553591, 553589, 2
553594, 553593, 2
