553863, 553864, 4
553863, 553862, 2
553863, 553865, 1
553859, 553860, 1
553859, 553862, 2
553859, 553861, 2
553862, 553863, 1
553862, 553859, 2
553862, 553861, 2
553865, 553863, 2
553865, 553864, 2
553864, 553863, 2
553864, 553865, 2
553860, 553859, 2
553860, 553861, 1
553861, 553859, 2
553861, 553862, 1
553861, 553860, 2
