433276, 433277, 1
433276, 433275, 2
433274, 433275, 1
433277, 433276, 2
433277, 433279, 2
433277, 433278, 1
433279, 433277, 2
433279, 433278, 2
433278, 433277, 2
433278, 433279, 3
433275, 433276, 1
433275, 433274, 2
