656726, 656727, 3
656726, 656729, 2
656726, 656728, 1
656736, 656737, 1
656736, 656735, 2
656730, 656731, 1
656730, 656727, 2
656730, 656729, 2
656737, 656736, 2
656737, 656738, 1
656737, 656739, 2
656729, 656726, 2
656729, 656727, 2
656729, 656730, 1
656729, 656728, 2
656732, 656734, 2
656732, 656731, 2
656732, 656733, 1
656728, 656726, 2
656728, 656727, 2
656728, 656729, 1
656731, 656732, 1
656731, 656730, 2
656727, 656726, 2
656727, 656730, 2
656727, 656729, 2
656727, 656728, 2
656733, 656734, 1
656733, 656732, 2
656734, 656732, 2
656734, 656733, 2
656734, 656735, 1
656739, 656738, 2
656739, 656737, 2
656738, 656737, 2
656738, 656739, 1
656735, 656734, 2
656735, 656736, 1
