419834, 419842, 1
419834, 419835, 4
419834, 419837, 2
419834, 419836, 6
419834, 419841, 2
419834, 419838, 2
419834, 419833, 2
419834, 419839, 2
419834, 419840, 2
419861, 419860, 2
419861, 419862, 1
419861, 419865, 2
419861, 419859, 2
419861, 419855, 2
419823, 419822, 2
419823, 419825, 1
419823, 419824, 8
419824, 419822, 2
419824, 419825, 2
419824, 419826, 2
419824, 419823, 2
419824, 419829, 2
419863, 419862, 2
419863, 419864, 1
419863, 419859, 2
419863, 419865, 2
419841, 419834, 2
419841, 419838, 2
419841, 419842, 2
419841, 419833, 2
419821, 419822, 2
419821, 419829, 2
419821, 419820, 2
419849, 419850, 1
419849, 419846, 2
419849, 419843, 2
419835, 419834, 2
419835, 419838, 1
419835, 419842, 2
419835, 419833, 2
419846, 419849, 0
419846, 419842, 2
419846, 419843, 2
419856, 419848, 2
419856, 419845, 2
419856, 419842, 2
419856, 419843, 2
419856, 419852, 2
419856, 419855, 2
419856, 419847, 2
419856, 419857, 1
419856, 419853, 2
419856, 419851, 2
419826, 419827, 2
419826, 419825, 2
419826, 419832, 2
419826, 419824, 2
419826, 419829, 2
419857, 419858, 1
419857, 419856, 2
419857, 419855, 2
419857, 419853, 2
419862, 419855, 2
419862, 419861, 2
419862, 419859, 2
419862, 419863, 1
419847, 419856, 2
419847, 419845, 2
419847, 419848, 1
419847, 419843, 2
419830, 419831, 6
419830, 419828, 2
419830, 419827, 2
419830, 419829, 4
419830, 419832, 2
419830, 419833, 1
419848, 419856, 2
419848, 419843, 2
419848, 419851, 1
419848, 419847, 2
419820, 419822, 1
419820, 419831, 2
419820, 419821, 3
419831, 419830, 2
419831, 419820, 2
419831, 419828, 2
419831, 419827, 2
419831, 419822, 2
419831, 419825, 2
419831, 419833, 2
419837, 419834, 2
419837, 419842, 2
419837, 419833, 2
419837, 419839, 1
419837, 419836, 2
419853, 419857, 2
419853, 419856, 2
419853, 419852, 2
419853, 419858, 2
419853, 419843, 2
419827, 419830, 2
419827, 419825, 2
419827, 419828, 1
419827, 419831, 2
419827, 419826, 2
419827, 419832, 2
419827, 419833, 2
419827, 419829, 2
419845, 419856, 2
419845, 419843, 2
419845, 419842, 2
419845, 419844, 2
419845, 419847, 1
419842, 419834, 2
419842, 419844, 2
419842, 419841, 2
419842, 419843, 1
419842, 419840, 2
419842, 419839, 2
419842, 419833, 2
419842, 419845, 2
419842, 419835, 2
419842, 419837, 2
419842, 419846, 2
419842, 419836, 2
419842, 419854, 2
419842, 419855, 2
419842, 419838, 2
419842, 419856, 2
419842, 419851, 2
419865, 419858, 2
419865, 419860, 2
419865, 419864, 2
419865, 419859, 2
419865, 419863, 2
419865, 419861, 2
419843, 419849, 2
419843, 419844, 6
419843, 419856, 1
419843, 419852, 2
419843, 419848, 2
419843, 419854, 2
419843, 419851, 2
419843, 419858, 2
419843, 419845, 2
419843, 419842, 2
419843, 419846, 4
419843, 419850, 2
419843, 419855, 2
419843, 419853, 2
419843, 419847, 2
419855, 419858, 2
419855, 419860, 2
419855, 419862, 2
419855, 419842, 2
419855, 419843, 2
419855, 419861, 2
419855, 419856, 2
419855, 419857, 2
419855, 419854, 2
419825, 419831, 2
419825, 419823, 2
419825, 419824, 2
419825, 419827, 1
419825, 419822, 2
419825, 419826, 3
419832, 419830, 2
419832, 419826, 2
419832, 419828, 2
419832, 419827, 2
419832, 419829, 2
419832, 419833, 2
419844, 419845, 1
419844, 419842, 2
419844, 419843, 2
419822, 419831, 2
419822, 419820, 2
419822, 419823, 1
419822, 419824, 2
419822, 419821, 2
419822, 419829, 2
419822, 419825, 2
419833, 419830, 2
419833, 419834, 1
419833, 419827, 2
419833, 419837, 2
419833, 419829, 2
419833, 419840, 2
419833, 419836, 2
419833, 419831, 2
419833, 419842, 2
419833, 419828, 2
419833, 419841, 2
419833, 419835, 2
419833, 419838, 2
419833, 419832, 2
419839, 419837, 2
419839, 419834, 2
419839, 419842, 2
419839, 419840, 1
419839, 419836, 2
419858, 419860, 2
419858, 419865, 2
419858, 419859, 1
419858, 419843, 2
419858, 419855, 2
419858, 419857, 2
419858, 419853, 2
419859, 419858, 2
419859, 419860, 0
419859, 419862, 2
419859, 419861, 2
419859, 419865, 1
419859, 419863, 2
419836, 419834, 2
419836, 419842, 2
419836, 419837, 0
419836, 419833, 2
419836, 419839, 2
419836, 419840, 2
419851, 419856, 2
419851, 419842, 2
419851, 419848, 2
419851, 419854, 1
419851, 419843, 2
419860, 419858, 2
419860, 419855, 2
419860, 419861, 1
419860, 419865, 2
419860, 419859, 2
419829, 419830, 2
419829, 419824, 2
419829, 419828, 2
419829, 419827, 2
419829, 419822, 2
419829, 419821, 2
419829, 419826, 2
419829, 419832, 0
419829, 419833, 2
419852, 419856, 2
419852, 419850, 2
419852, 419853, 1
419852, 419843, 2
419840, 419834, 2
419840, 419842, 2
419840, 419833, 2
419840, 419839, 2
419840, 419836, 2
419854, 419855, 1
419854, 419842, 2
419854, 419851, 2
419854, 419843, 2
419850, 419849, 2
419850, 419852, 1
419850, 419843, 2
419828, 419830, 1
419828, 419831, 2
419828, 419827, 2
419828, 419829, 2
419828, 419832, 2
419828, 419833, 2
419864, 419865, 2
419864, 419863, 2
419838, 419841, 1
419838, 419834, 2
419838, 419842, 2
419838, 419833, 2
419838, 419835, 2
