457049, 457050, 1
457049, 457048, 2
457054, 457053, 2
457053, 457054, 1
457053, 457052, 2
457047, 457046, 2
457047, 457048, 1
457046, 457051, 2
457046, 457047, 1
457046, 457048, 2
457051, 457046, 2
457051, 457050, 2
457051, 457052, 1
457048, 457049, 1
457048, 457046, 2
457048, 457047, 2
457050, 457049, 2
457050, 457051, 1
457052, 457053, 1
457052, 457051, 2
