431737, 431736, 2
431737, 431735, 2
431737, 431738, 1
431737, 431734, 2
431733, 431735, 2
431733, 431736, 2
431733, 431730, 2
431733, 431734, 2
431733, 431732, 2
431736, 431733, 2
431736, 431738, 2
431736, 431732, 2
431736, 431735, 2
431736, 431734, 2
431736, 431737, 2
431732, 431733, 2
431732, 431736, 2
431732, 431735, 2
431732, 431734, 2
431732, 431731, 2
431732, 431730, 2
431738, 431736, 2
431738, 431734, 2
431738, 431737, 2
431735, 431733, 2
431735, 431737, 2
431735, 431736, 1
431735, 431734, 2
431735, 431732, 2
431734, 431733, 2
431734, 431736, 2
431734, 431732, 2
431734, 431738, 2
431734, 431735, 3
431734, 431730, 2
431734, 431731, 2
431734, 431737, 1
431731, 431730, 2
431731, 431734, 2
431731, 431732, 1
431730, 431733, 8
431730, 431734, 1
431730, 431731, 3
431730, 431732, 2
