453721, 453722, 1
453721, 453720, 2
453739, 453740, 1
453739, 453738, 2
453724, 453725, 1
453724, 453722, 2
453724, 453723, 2
453726, 453725, 2
453726, 453727, 8
453726, 453728, 1
453714, 453716, 2
453714, 453715, 1
453732, 453734, 2
453732, 453735, 2
453732, 453730, 2
453732, 453733, 1
453732, 453729, 2
453732, 453731, 2
453732, 453728, 2
453738, 453739, 1
453738, 453742, 2
453738, 453737, 2
453738, 453729, 2
453744, 453743, 2
453744, 453746, 2
453744, 453729, 2
453744, 453742, 2
453744, 453741, 2
453744, 453745, 1
453744, 453748, 2
453743, 453740, 2
453743, 453742, 2
453743, 453744, 2
453743, 453741, 2
453750, 453729, 2
453750, 453742, 2
453750, 453749, 2
453720, 453721, 1
453720, 453718, 2
453720, 453719, 2
453718, 453716, 2
453718, 453719, 2
453718, 453720, 2
453718, 453717, 2
453723, 453725, 2
453723, 453724, 1
453723, 453722, 2
453723, 453728, 2
453715, 453716, 1
453715, 453714, 2
453736, 453734, 2
453736, 453737, 1
453736, 453735, 2
453740, 453739, 2
453740, 453743, 2
453740, 453734, 2
453740, 453729, 2
453740, 453742, 2
453740, 453741, 1
453728, 453734, 2
453728, 453723, 2
453728, 453727, 2
453728, 453732, 2
453728, 453733, 2
453728, 453729, 3
453728, 453742, 2
453728, 453725, 2
453728, 453726, 2
453728, 453730, 1
453716, 453718, 2
453716, 453717, 1
453716, 453715, 2
453716, 453714, 2
453716, 453719, 2
453737, 453734, 2
453737, 453742, 2
453737, 453738, 1
453737, 453736, 2
453719, 453718, 2
453719, 453716, 2
453719, 453720, 1
453719, 453717, 2
453731, 453734, 2
453731, 453735, 2
453731, 453730, 2
453731, 453732, 1
453731, 453733, 2
453735, 453734, 2
453735, 453729, 2
453735, 453732, 2
453735, 453736, 1
453735, 453733, 2
453735, 453742, 2
453735, 453731, 2
453734, 453737, 2
453734, 453732, 2
453734, 453741, 2
453734, 453735, 2
453734, 453730, 2
453734, 453733, 2
453734, 453740, 2
453734, 453736, 2
453734, 453742, 2
453734, 453731, 2
453734, 453728, 2
453734, 453749, 2
453742, 453734, 2
453742, 453743, 2
453742, 453737, 2
453742, 453746, 2
453742, 453738, 2
453742, 453744, 2
453742, 453741, 2
453742, 453750, 2
453742, 453745, 2
453742, 453730, 2
453742, 453740, 2
453742, 453728, 2
453742, 453747, 2
453742, 453748, 2
453742, 453735, 2
453742, 453749, 2
453746, 453742, 2
453746, 453744, 2
453746, 453747, 1
453746, 453745, 2
453746, 453748, 2
453717, 453718, 8
453717, 453716, 2
453717, 453719, 1
453729, 453750, 2
453729, 453738, 2
453729, 453730, 2
453729, 453732, 2
453729, 453733, 2
453729, 453740, 2
453729, 453728, 2
453729, 453744, 2
453729, 453735, 2
453729, 453749, 2
453722, 453721, 2
453722, 453724, 2
453722, 453723, 1
453749, 453734, 2
453749, 453747, 2
453749, 453729, 2
453749, 453742, 2
453749, 453748, 2
453749, 453750, 1
453748, 453747, 2
453748, 453749, 1
453748, 453746, 2
453748, 453742, 2
453748, 453744, 2
453748, 453745, 2
453725, 453723, 2
453725, 453724, 2
453725, 453726, 1
453725, 453727, 2
453725, 453728, 2
453741, 453740, 2
453741, 453734, 2
453741, 453743, 3
453741, 453744, 1
453741, 453742, 6
453730, 453734, 2
453730, 453729, 2
453730, 453732, 2
453730, 453728, 2
453730, 453733, 2
453730, 453742, 2
453730, 453731, 1
453733, 453734, 6
453733, 453730, 2
453733, 453732, 2
453733, 453729, 2
453733, 453728, 2
453733, 453731, 2
453733, 453735, 1
453747, 453749, 2
453747, 453742, 2
453747, 453748, 2
453747, 453746, 2
453747, 453745, 2
453745, 453742, 2
453745, 453744, 2
453745, 453747, 2
453745, 453746, 8
453745, 453748, 1
453727, 453728, 2
453727, 453726, 2
453727, 453725, 2
