456590, 456591, 1
456590, 456589, 2
456586, 456587, 2
456586, 456585, 2
456588, 456589, 1
456588, 456587, 2
456585, 456586, 3
456585, 456587, 1
456589, 456590, 1
456589, 456591, 2
456589, 456588, 2
456589, 456587, 2
456591, 456590, 2
456591, 456589, 2
456587, 456586, 2
456587, 456589, 2
456587, 456588, 1
456587, 456585, 2
