490133, 490132, 2
490133, 490131, 2
490122, 490123, 1
490122, 490121, 2
490132, 490133, 3
490132, 490126, 2
490132, 490127, 2
490132, 490129, 2
490132, 490131, 2
490127, 490126, 2
490127, 490128, 1
490127, 490132, 2
490126, 490129, 2
490126, 490131, 2
490126, 490132, 1
490126, 490127, 3
490126, 490125, 2
490126, 490128, 2
490126, 490124, 2
490125, 490126, 1
490125, 490121, 2
490125, 490124, 2
490128, 490127, 2
490128, 490126, 2
490128, 490129, 1
490124, 490126, 2
490124, 490125, 2
490124, 490123, 2
490131, 490130, 2
490131, 490133, 2
490131, 490126, 2
490131, 490132, 2
490131, 490129, 2
490130, 490129, 2
490130, 490131, 1
490123, 490122, 2
490123, 490124, 1
490121, 490122, 0
490121, 490125, 1
490129, 490130, 1
490129, 490126, 2
490129, 490128, 2
490129, 490132, 2
490129, 490131, 2
