644138, 644141, 2
644138, 644137, 2
644138, 644140, 2
644138, 644139, 1
644138, 644136, 2
644139, 644141, 1
644139, 644138, 2
644139, 644140, 0
644140, 644141, 2
644140, 644138, 2
644140, 644139, 2
644135, 644137, 2
644135, 644136, 1
644141, 644138, 2
644141, 644139, 2
644141, 644140, 2
644137, 644138, 1
644137, 644135, 2
644137, 644136, 2
644136, 644138, 2
644136, 644137, 1
644136, 644135, 2
