592944, 592945, 1
592944, 592942, 2
592944, 592943, 2
592943, 592944, 1
592943, 592942, 2
592947, 592945, 2
592947, 592946, 2
592947, 592948, 1
592945, 592944, 2
592945, 592946, 1
592945, 592947, 2
592942, 592944, 2
592942, 592943, 1
592946, 592945, 2
592946, 592947, 1
592948, 592947, 2
