658006, 658007, 1
658006, 658005, 2
658006, 658008, 2
658005, 658006, 1
658005, 658008, 2
658005, 658007, 2
658007, 658006, 2
658007, 658008, 3
658007, 658005, 2
658008, 658006, 2
658008, 658005, 2
658008, 658007, 2
