570380, 570379, 2
570380, 570381, 1
570382, 570383, 2
570382, 570381, 2
570373, 570375, 1
570373, 570374, 0
570376, 570375, 2
570376, 570379, 1
570376, 570378, 0
570376, 570377, 3
570374, 570375, 2
570374, 570373, 2
570375, 570376, 1
570375, 570373, 2
570375, 570374, 2
570379, 570380, 1
570379, 570378, 2
570379, 570376, 2
570379, 570381, 2
570379, 570377, 2
570378, 570379, 2
570378, 570376, 2
570378, 570377, 2
570377, 570379, 2
570377, 570378, 2
570377, 570376, 2
570381, 570380, 2
570381, 570382, 3
570381, 570379, 2
570381, 570383, 1
570383, 570382, 2
570383, 570381, 2
