552554, 552555, 2
552554, 552553, 2
552554, 552556, 2
552555, 552554, 2
552555, 552553, 2
552555, 552556, 1
552553, 552554, 3
552553, 552555, 1
552553, 552556, 2
552556, 552554, 2
552556, 552555, 2
552556, 552553, 2
