593095, 593096, 1
593095, 593094, 2
593100, 593099, 2
593099, 593097, 2
593099, 593100, 1
593099, 593098, 2
593094, 593095, 1
593094, 593093, 2
593093, 593094, 1
593097, 593099, 2
593097, 593096, 2
593097, 593098, 1
593096, 593095, 2
593096, 593097, 1
593098, 593097, 2
593098, 593099, 1
