375122, 375123, 1
375122, 375121, 2
375123, 375122, 2
375123, 375121, 2
375114, 375113, 2
375114, 375115, 2
375114, 375117, 2
375114, 375112, 2
375111, 375109, 2
375111, 375110, 2
375111, 375112, 1
375116, 375115, 2
375116, 375117, 2
375120, 375119, 2
375120, 375121, 1
375117, 375118, 3
375117, 375114, 2
375117, 375116, 2
375117, 375119, 1
375117, 375115, 2
375117, 375112, 2
375118, 375119, 2
375118, 375117, 2
375113, 375114, 3
375113, 375115, 1
375113, 375112, 2
375121, 375122, 1
375121, 375123, 2
375121, 375119, 2
375121, 375120, 2
375110, 375112, 2
375110, 375111, 1
375110, 375109, 2
375119, 375120, 1
375119, 375118, 2
375119, 375121, 2
375119, 375117, 2
375112, 375117, 1
375112, 375114, 2
375112, 375111, 2
375112, 375110, 2
375112, 375113, 0
375112, 375109, 2
375115, 375114, 2
375115, 375113, 2
375115, 375117, 2
375115, 375116, 1
375109, 375112, 2
375109, 375111, 2
375109, 375110, 1
