491768, 491769, 1
491768, 491771, 2
491768, 491767, 2
491768, 491770, 2
491773, 491774, 1
491773, 491769, 2
491773, 491778, 2
491773, 491775, 2
491773, 491772, 2
491773, 491770, 2
491773, 491771, 2
491773, 491781, 2
491776, 491775, 2
491776, 491778, 2
491776, 491777, 2
491778, 491776, 2
491778, 491773, 2
491778, 491779, 1
491778, 491770, 2
491778, 491775, 2
491778, 491777, 2
491778, 491781, 2
491777, 491778, 2
491777, 491776, 2
491777, 491779, 2
491769, 491768, 2
491769, 491772, 1
491769, 491773, 2
491769, 491771, 8
491769, 491770, 6
491785, 491786, 1
491785, 491784, 2
491771, 491770, 2
491771, 491768, 2
491771, 491772, 2
491771, 491773, 2
491771, 491769, 2
491781, 491780, 2
491781, 491773, 2
491781, 491779, 2
491781, 491770, 2
491781, 491778, 2
491781, 491782, 2
491781, 491783, 2
491781, 491784, 2
491784, 491780, 2
491784, 491783, 2
491784, 491782, 2
491784, 491786, 2
491784, 491785, 1
491784, 491781, 2
491780, 491779, 2
491780, 491783, 1
491780, 491784, 2
491780, 491781, 6
491780, 491782, 8
491774, 491775, 1
491774, 491773, 2
491783, 491780, 2
491783, 491782, 2
491783, 491784, 1
491783, 491781, 2
491779, 491780, 1
491779, 491770, 2
491779, 491778, 2
491779, 491777, 2
491779, 491782, 2
491779, 491781, 2
491767, 491768, 1
491767, 491770, 2
491770, 491768, 2
491770, 491773, 2
491770, 491779, 2
491770, 491767, 2
491770, 491769, 2
491770, 491778, 2
491770, 491772, 2
491770, 491771, 2
491770, 491781, 2
491775, 491778, 1
491775, 491776, 3
491775, 491773, 2
491775, 491774, 2
491782, 491780, 2
491782, 491783, 2
491782, 491779, 2
491782, 491781, 2
491782, 491784, 2
491786, 491785, 2
491786, 491784, 2
491786, 491787, 3
491772, 491770, 2
491772, 491773, 1
491772, 491771, 2
491772, 491769, 2
491787, 491786, 2
