340476, 340477, 1
340476, 340475, 2
340480, 340479, 2
340480, 340478, 2
340479, 340480, 2
340479, 340478, 2
340475, 340476, 1
340475, 340474, 2
340478, 340477, 2
340478, 340480, 1
340478, 340479, 0
340477, 340476, 2
340477, 340478, 1
340474, 340475, 1
