489757, 489758, 1
489757, 489756, 2
489757, 489759, 2
489757, 489755, 2
489752, 489753, 1
489752, 489751, 2
489753, 489752, 2
489753, 489754, 1
489749, 489750, 1
489749, 489751, 2
489756, 489757, 1
489756, 489755, 2
489754, 489753, 2
489754, 489755, 1
489750, 489749, 2
489750, 489751, 1
489758, 489757, 2
489758, 489759, 1
489759, 489758, 2
489759, 489761, 2
489759, 489760, 1
489759, 489757, 2
489755, 489757, 2
489755, 489756, 1
489755, 489754, 2
489761, 489759, 2
489761, 489760, 2
489760, 489761, 1
489760, 489759, 2
489751, 489752, 1
489751, 489749, 2
489751, 489750, 2
