592971, 592972, 1
592971, 592973, 2
592971, 592970, 2
592971, 592974, 2
592973, 592971, 2
592973, 592972, 2
592973, 592974, 2
592970, 592971, 1
592976, 592975, 2
592972, 592971, 2
592972, 592973, 8
592972, 592975, 2
592972, 592974, 1
592975, 592972, 2
592975, 592976, 1
592975, 592974, 2
592974, 592971, 2
592974, 592973, 2
592974, 592972, 2
592974, 592975, 1
