494547, 494545, 2
494547, 494543, 2
494547, 494544, 2
494547, 494546, 2
494544, 494545, 2
494544, 494543, 2
494544, 494547, 2
494546, 494545, 2
494546, 494548, 3
494546, 494547, 6
494546, 494543, 2
494545, 494543, 2
494545, 494547, 2
494545, 494544, 2
494545, 494546, 1
494543, 494545, 1
494543, 494547, 2
494543, 494544, 3
494543, 494546, 2
494548, 494546, 2
