570119, 570121, 1
570119, 570120, 3
570120, 570119, 2
570120, 570121, 2
570125, 570127, 2
570125, 570126, 3
570125, 570122, 2
570125, 570123, 2
570125, 570124, 2
570121, 570119, 2
570121, 570120, 2
570121, 570122, 3
570121, 570123, 1
570126, 570125, 2
570126, 570122, 2
570126, 570123, 2
570126, 570127, 1
570122, 570121, 2
570122, 570124, 2
570122, 570126, 2
570122, 570123, 2
570122, 570125, 2
570127, 570125, 2
570127, 570126, 2
570123, 570121, 2
570123, 570122, 2
570123, 570126, 2
570123, 570124, 1
570123, 570125, 2
570124, 570125, 1
570124, 570122, 2
570124, 570123, 2
