490983, 490982, 2
490983, 490984, 1
490978, 490979, 2
490978, 490977, 2
490978, 490980, 1
490978, 490981, 2
490977, 490978, 1
490977, 490976, 2
490976, 490979, 2
490976, 490977, 1
490976, 490975, 2
490971, 490972, 2
490971, 490969, 2
490971, 490970, 2
490979, 490978, 2
490979, 490980, 2
490979, 490969, 2
490979, 490972, 2
490979, 490974, 2
490979, 490976, 2
490979, 490982, 2
490979, 490981, 2
490969, 490979, 2
490969, 490970, 1
490969, 490971, 2
490970, 490972, 1
490970, 490969, 2
490970, 490971, 3
490974, 490979, 2
490974, 490972, 2
490974, 490973, 2
490974, 490975, 1
490973, 490972, 2
490973, 490974, 1
490982, 490983, 3
490982, 490979, 2
490982, 490984, 2
490982, 490985, 2
490982, 490981, 2
490982, 490980, 2
490980, 490978, 2
490980, 490982, 1
490980, 490981, 3
490980, 490979, 6
490984, 490983, 2
490984, 490982, 2
490984, 490985, 1
490985, 490986, 1
490985, 490982, 2
490985, 490984, 2
490986, 490985, 2
490972, 490979, 2
490972, 490970, 2
490972, 490974, 2
490972, 490973, 1
490972, 490971, 2
490981, 490979, 2
490981, 490982, 2
490981, 490980, 2
490981, 490978, 2
490975, 490974, 2
490975, 490976, 1
