549368, 549367, 2
549368, 549366, 2
549360, 549361, 3
549360, 549364, 2
549360, 549363, 1
549360, 549359, 2
549364, 549360, 2
549364, 549365, 1
549364, 549363, 2
549365, 549364, 2
549365, 549366, 1
549362, 549361, 2
549362, 549363, 2
549359, 549361, 2
549359, 549360, 1
549359, 549358, 2
549361, 549358, 2
549361, 549363, 2
549361, 549360, 2
549361, 549362, 2
549361, 549359, 2
549367, 549368, 1
549367, 549366, 2
549358, 549361, 2
549358, 549359, 1
549366, 549368, 2
549366, 549367, 1
549366, 549365, 2
549363, 549361, 2
549363, 549360, 2
549363, 549364, 1
549363, 549362, 2
