379650, 379651, 2
379650, 379649, 2
379650, 379652, 2
379650, 379648, 2
379647, 379648, 1
379652, 379650, 2
379652, 379653, 2
379652, 379654, 2
379652, 379651, 2
379648, 379650, 2
379648, 379647, 2
379648, 379649, 1
379651, 379650, 2
379651, 379649, 2
379651, 379652, 8
379651, 379653, 1
379651, 379654, 2
379653, 379651, 2
379653, 379652, 2
379653, 379654, 1
379649, 379650, 8
379649, 379654, 2
379649, 379648, 2
379649, 379651, 1
379654, 379651, 2
379654, 379649, 2
379654, 379652, 2
379654, 379653, 2
