375426, 375427, 1
375426, 375423, 2
375426, 375428, 2
375426, 375424, 2
375426, 375425, 2
375434, 375432, 2
375434, 375436, 2
375434, 375433, 2
375434, 375435, 1
375436, 375434, 2
375436, 375435, 2
375423, 375421, 2
375423, 375426, 2
375423, 375424, 1
375423, 375422, 2
375423, 375425, 2
375424, 375423, 2
375424, 375426, 1
375424, 375425, 3
375421, 375423, 2
375421, 375420, 2
375421, 375422, 1
375432, 375431, 2
375432, 375434, 2
375432, 375433, 1
375430, 375431, 2
375430, 375429, 2
375435, 375434, 2
375435, 375436, 1
375420, 375421, 1
375428, 375427, 2
375428, 375426, 2
375428, 375429, 1
375422, 375423, 1
375422, 375421, 2
375425, 375423, 2
375425, 375426, 2
375425, 375424, 2
375431, 375430, 2
375431, 375429, 2
375431, 375433, 2
375431, 375432, 1
375429, 375431, 1
375429, 375428, 2
375429, 375430, 3
375433, 375431, 2
375433, 375434, 1
375433, 375432, 2
375427, 375426, 2
375427, 375428, 1
