496109, 496107, 2
496109, 496108, 2
496109, 496110, 1
496105, 496104, 2
496105, 496108, 2
496105, 496106, 2
496105, 496107, 2
496102, 496104, 2
496102, 496103, 1
496108, 496109, 2
496108, 496105, 2
496108, 496110, 2
496108, 496107, 2
496110, 496109, 2
496110, 496107, 2
496110, 496108, 2
496107, 496109, 1
496107, 496105, 2
496107, 496110, 2
496107, 496104, 2
496107, 496108, 3
496107, 496106, 2
496104, 496105, 3
496104, 496102, 2
496104, 496103, 2
496104, 496106, 1
496104, 496107, 2
496103, 496104, 1
496103, 496102, 2
496106, 496107, 1
496106, 496104, 2
496106, 496105, 2
