592633, 592632, 2
592633, 592635, 2
592633, 592634, 1
592630, 592632, 1
592630, 592631, 0
592631, 592632, 2
592631, 592630, 2
592634, 592633, 2
592634, 592635, 1
592632, 592633, 1
592632, 592630, 2
592632, 592631, 2
592635, 592633, 2
592635, 592634, 2
