656446, 656445, 2
656446, 656447, 1
656443, 656442, 2
656443, 656441, 2
656443, 656444, 2
656442, 656443, 8
656442, 656441, 2
656442, 656445, 2
656442, 656444, 1
656439, 656440, 1
656444, 656443, 2
656444, 656442, 2
656444, 656441, 2
656444, 656445, 1
656445, 656446, 1
656445, 656442, 2
656445, 656444, 2
656447, 656446, 2
656447, 656449, 2
656447, 656448, 1
656448, 656447, 2
656448, 656449, 1
656441, 656443, 2
656441, 656444, 2
656441, 656442, 1
656441, 656440, 2
656449, 656447, 2
656449, 656448, 2
656440, 656441, 1
656440, 656439, 2
