431786, 431780, 2
431786, 431781, 2
431786, 431788, 2
431786, 431785, 2
431786, 431787, 1
431781, 431786, 2
431781, 431785, 2
431781, 431784, 2
431781, 431783, 2
431781, 431780, 2
431781, 431782, 2
431788, 431786, 2
431788, 431789, 1
431788, 431787, 2
431785, 431786, 1
431785, 431781, 2
431785, 431780, 2
431785, 431784, 2
431787, 431786, 2
431787, 431788, 1
431784, 431781, 2
431784, 431783, 2
431784, 431785, 1
431783, 431784, 1
431783, 431781, 2
431783, 431780, 2
431783, 431782, 2
431780, 431786, 2
431780, 431781, 0
431780, 431783, 2
431780, 431785, 2
431780, 431782, 1
431782, 431781, 2
431782, 431783, 1
431782, 431780, 2
431789, 431788, 2
