456937, 456936, 2
456937, 456934, 2
456937, 456935, 2
456933, 456932, 2
456933, 456934, 1
456933, 456935, 2
456931, 456932, 1
456931, 456930, 2
456935, 456937, 2
456935, 456936, 2
456935, 456934, 2
456935, 456933, 2
456932, 456934, 2
456932, 456933, 1
456932, 456931, 2
456932, 456930, 2
456936, 456937, 1
456936, 456934, 2
456936, 456935, 2
456934, 456937, 2
456934, 456932, 2
456934, 456936, 1
456934, 456933, 2
456934, 456935, 3
456929, 456930, 1
456930, 456932, 2
456930, 456931, 1
456930, 456929, 2
