641587, 641586, 2
641587, 641588, 1
641587, 641589, 2
641594, 641590, 2
641594, 641593, 2
641594, 641591, 2
641594, 641592, 2
641591, 641594, 2
641591, 641590, 2
641591, 641592, 1
641591, 641589, 2
641588, 641587, 2
641588, 641589, 1
641584, 641585, 1
641592, 641590, 2
641592, 641594, 2
641592, 641591, 2
641592, 641593, 1
641590, 641594, 2
641590, 641591, 2
641590, 641592, 2
641590, 641589, 2
641593, 641594, 1
641593, 641592, 2
641589, 641587, 2
641589, 641590, 0
641589, 641588, 2
641589, 641591, 1
641585, 641586, 1
641585, 641584, 2
641586, 641587, 1
641586, 641585, 2
