405755, 405756, 1
405756, 405755, 2
405756, 405757, 1
405760, 405757, 2
405760, 405759, 2
405760, 405758, 2
405757, 405760, 2
405757, 405756, 2
405757, 405759, 1
405757, 405758, 0
405759, 405757, 2
405759, 405758, 2
405759, 405760, 1
405758, 405757, 2
405758, 405759, 2
405758, 405760, 2
