455446, 455447, 2
455446, 455448, 2
455446, 455445, 2
455446, 455444, 2
455447, 455446, 2
455447, 455448, 1
455447, 455445, 2
455447, 455444, 2
455448, 455446, 2
455448, 455447, 2
455445, 455446, 8
455445, 455447, 1
455445, 455444, 2
455444, 455446, 2
455444, 455447, 2
455444, 455445, 1
