624419, 624423, 2
624419, 624418, 2
624419, 624421, 2
624419, 624420, 2
624419, 624424, 2
624419, 624422, 1
624419, 624425, 2
624421, 624420, 2
624421, 624419, 2
624421, 624424, 1
624421, 624422, 2
624421, 624425, 2
624424, 624419, 2
624424, 624428, 2
624424, 624421, 2
624424, 624420, 2
624424, 624432, 2
624424, 624423, 2
624424, 624425, 2
624424, 624422, 2
624422, 624419, 2
624422, 624418, 2
624422, 624421, 2
624422, 624420, 4
624422, 624424, 2
624422, 624423, 6
624422, 624425, 1
624429, 624430, 2
624429, 624426, 2
624429, 624423, 2
624429, 624427, 2
624429, 624428, 2
624423, 624429, 2
624423, 624419, 2
624423, 624418, 2
624423, 624420, 2
624423, 624426, 2
624423, 624430, 2
624423, 624424, 2
624423, 624422, 2
624423, 624425, 2
624423, 624431, 2
624418, 624420, 2
624418, 624419, 1
624418, 624423, 2
624418, 624422, 2
624428, 624429, 0
624428, 624426, 2
624428, 624424, 2
624428, 624427, 2
624427, 624429, 2
624427, 624426, 2
624427, 624428, 3
624432, 624430, 2
624432, 624424, 2
624432, 624431, 2
624420, 624419, 2
624420, 624418, 2
624420, 624421, 1
624420, 624424, 2
624420, 624423, 2
624420, 624425, 2
624420, 624422, 2
624430, 624429, 2
624430, 624423, 2
624430, 624431, 0
624430, 624432, 1
624426, 624429, 2
624426, 624423, 2
624426, 624428, 2
624426, 624425, 2
624426, 624427, 1
624425, 624419, 2
624425, 624424, 2
624425, 624421, 2
624425, 624420, 2
624425, 624426, 1
624425, 624423, 2
624425, 624422, 2
624431, 624423, 2
624431, 624430, 2
624431, 624432, 2
