644612, 644610, 2
644612, 644611, 2
644612, 644617, 2
644612, 644613, 1
644616, 644610, 2
644616, 644615, 2
644616, 644618, 3
644616, 644617, 6
644616, 644614, 2
644611, 644610, 2
644611, 644612, 2
644611, 644614, 2
644611, 644613, 2
644617, 644612, 2
644617, 644618, 2
644617, 644616, 2
644617, 644613, 2
644617, 644610, 2
644617, 644615, 2
644613, 644612, 2
644613, 644611, 2
644613, 644617, 2
644613, 644610, 2
644613, 644615, 1
644613, 644614, 3
644618, 644616, 2
644618, 644617, 2
644618, 644614, 2
644610, 644612, 1
644610, 644616, 2
644610, 644611, 3
644610, 644617, 2
644610, 644613, 2
644610, 644615, 2
644615, 644610, 2
644615, 644616, 1
644615, 644617, 2
644615, 644614, 2
644615, 644613, 2
644614, 644616, 2
644614, 644615, 2
644614, 644618, 2
644614, 644611, 2
644614, 644613, 2
