378468, 378469, 6
378468, 378471, 1
378468, 378470, 3
378469, 378468, 2
378469, 378473, 2
378469, 378471, 2
378470, 378468, 2
378470, 378471, 2
378473, 378469, 2
378473, 378471, 2
378473, 378472, 2
378471, 378468, 2
378471, 378469, 2
378471, 378472, 1
378471, 378470, 2
378471, 378473, 2
378472, 378473, 1
378472, 378471, 2
