377207, 377208, 2
377207, 377205, 2
377207, 377206, 2
377207, 377209, 2
377197, 377198, 1
377197, 377193, 2
377197, 377194, 2
377197, 377195, 2
377197, 377196, 2
377191, 377187, 2
377191, 377190, 2
377191, 377188, 2
377191, 377192, 2
377191, 377189, 2
377199, 377198, 2
377199, 377201, 2
377199, 377200, 1
377199, 377202, 2
377179, 377180, 2
377179, 377178, 2
377179, 377182, 2
377179, 377177, 2
377193, 377194, 1
377193, 377192, 2
377193, 377195, 2
377193, 377197, 2
377203, 377201, 2
377203, 377200, 2
377203, 377202, 2
377203, 377204, 1
377174, 377175, 1
377177, 377178, 2
377177, 377179, 2
377177, 377175, 2
377177, 377176, 2
377198, 377199, 1
377198, 377201, 2
377198, 377194, 2
377198, 377202, 2
377198, 377196, 2
377198, 377197, 2
377184, 377187, 2
377184, 377183, 2
377184, 377185, 2
377184, 377182, 2
377184, 377186, 2
377201, 377198, 2
377201, 377202, 2
377201, 377203, 2
377201, 377199, 2
377201, 377200, 2
377194, 377198, 2
377194, 377193, 2
377194, 377197, 1
377194, 377195, 3
377182, 377183, 2
377182, 377184, 2
377182, 377179, 2
377182, 377181, 2
377190, 377187, 2
377190, 377189, 2
377190, 377188, 2
377190, 377191, 2
377190, 377192, 2
377204, 377208, 2
377204, 377205, 1
377204, 377206, 2
377204, 377203, 2
377175, 377176, 1
377175, 377178, 2
377175, 377174, 2
377175, 377177, 2
377180, 377178, 2
377180, 377179, 2
377180, 377181, 1
377178, 377180, 1
377178, 377176, 2
377178, 377179, 3
377178, 377175, 2
377178, 377177, 2
377183, 377184, 3
377183, 377186, 1
377183, 377182, 2
377183, 377187, 2
377183, 377181, 2
377183, 377185, 8
377186, 377187, 1
377186, 377184, 2
377186, 377183, 2
377186, 377185, 2
377195, 377193, 2
377195, 377197, 2
377195, 377194, 2
377195, 377196, 2
377196, 377198, 2
377196, 377197, 2
377196, 377195, 2
377187, 377189, 2
377187, 377184, 2
377187, 377183, 2
377187, 377191, 2
377187, 377185, 2
377187, 377190, 2
377187, 377188, 1
377187, 377186, 2
377205, 377207, 8
377205, 377208, 1
377205, 377206, 3
377205, 377209, 2
377205, 377204, 2
377188, 377187, 2
377188, 377190, 2
377188, 377191, 2
377188, 377189, 1
377181, 377180, 2
377181, 377183, 1
377181, 377182, 3
377209, 377207, 2
377209, 377205, 2
377209, 377206, 2
377209, 377208, 2
377189, 377187, 2
377189, 377190, 0
377189, 377188, 2
377189, 377191, 3
377189, 377192, 1
377208, 377207, 2
377208, 377205, 2
377208, 377206, 2
377208, 377209, 1
377208, 377204, 2
377192, 377190, 2
377192, 377193, 1
377192, 377191, 2
377192, 377189, 2
377202, 377198, 2
377202, 377201, 2
377202, 377203, 2
377202, 377199, 2
377202, 377200, 2
377176, 377178, 1
377176, 377175, 2
377176, 377177, 3
377206, 377207, 2
377206, 377205, 2
377206, 377204, 2
377206, 377209, 2
377206, 377208, 2
377185, 377187, 2
377185, 377184, 2
377185, 377183, 2
377185, 377186, 2
377200, 377202, 0
377200, 377201, 3
377200, 377203, 1
377200, 377199, 2
