406210, 406212, 2
406210, 406211, 1
406210, 406209, 2
406210, 406213, 2
406214, 406215, 1
406214, 406213, 2
406215, 406216, 1
406215, 406214, 2
406212, 406210, 2
406212, 406211, 2
406212, 406213, 2
406216, 406215, 2
406211, 406210, 2
406211, 406213, 1
406211, 406212, 3
406209, 406210, 1
406213, 406212, 2
406213, 406214, 1
406213, 406211, 2
406213, 406210, 2
