590392, 590393, 0
590392, 590394, 1
590393, 590392, 2
590393, 590394, 2
590394, 590392, 2
590394, 590393, 2
590394, 590395, 1
590395, 590397, 2
590395, 590394, 2
590395, 590396, 1
590396, 590397, 1
590396, 590395, 2
590398, 590397, 2
590398, 590399, 1
590400, 590402, 2
590400, 590399, 2
590400, 590401, 1
590402, 590400, 2
590402, 590401, 2
590399, 590398, 2
590399, 590397, 2
590399, 590400, 1
590397, 590398, 1
590397, 590399, 2
590397, 590395, 2
590397, 590396, 2
590401, 590402, 1
590401, 590400, 2
