658295, 658297, 2
658295, 658293, 2
658295, 658296, 2
658295, 658294, 2
658295, 658292, 2
658290, 658291, 1
658297, 658295, 2
658297, 658292, 2
658297, 658296, 2
658297, 658294, 2
658296, 658295, 2
658296, 658297, 1
658296, 658294, 2
658294, 658295, 8
658294, 658292, 2
658294, 658293, 2
658294, 658296, 1
658294, 658297, 2
658292, 658295, 2
658292, 658293, 8
658292, 658297, 2
658292, 658294, 1
658292, 658291, 2
658293, 658295, 2
658293, 658292, 2
658293, 658291, 2
658293, 658294, 2
658291, 658290, 2
658291, 658293, 2
658291, 658292, 1
