378727, 378728, 1
378727, 378726, 2
378728, 378727, 2
378728, 378729, 1
378728, 378726, 2
378731, 378730, 2
378729, 378730, 1
378729, 378728, 2
378730, 378731, 1
378730, 378729, 2
378726, 378727, 1
378726, 378728, 2
