658545, 658544, 2
658545, 658543, 2
658544, 658545, 2
658544, 658540, 2
658544, 658543, 2
658544, 658541, 2
658544, 658538, 2
658544, 658542, 2
658539, 658541, 1
658539, 658542, 2
658539, 658538, 2
658539, 658540, 8
658540, 658541, 2
658540, 658544, 2
658540, 658539, 2
658540, 658538, 2
658543, 658545, 0
658543, 658544, 3
658543, 658541, 2
658543, 658542, 2
658541, 658544, 2
658541, 658539, 2
658541, 658540, 2
658541, 658543, 2
658541, 658538, 2
658541, 658542, 2
658538, 658541, 2
658538, 658544, 2
658538, 658542, 1
658538, 658539, 3
658538, 658540, 2
658542, 658541, 2
658542, 658544, 2
658542, 658539, 2
658542, 658538, 2
658542, 658543, 1
