641960, 641961, 0
641960, 641962, 1
641960, 641963, 2
641963, 641960, 2
641963, 641961, 2
641963, 641964, 3
641963, 641962, 2
641963, 641965, 1
641963, 641967, 2
641968, 641965, 2
641968, 641967, 2
641968, 641969, 2
641968, 641966, 2
641962, 641961, 2
641962, 641960, 2
641962, 641963, 1
641971, 641970, 2
641971, 641972, 3
641970, 641969, 2
641970, 641971, 1
641972, 641971, 2
641965, 641963, 2
641965, 641966, 1
641965, 641968, 2
641965, 641964, 2
641965, 641967, 2
641965, 641969, 2
641966, 641968, 2
641966, 641965, 2
641966, 641967, 1
641966, 641969, 2
641961, 641960, 2
641961, 641962, 2
641961, 641963, 2
641969, 641968, 2
641969, 641970, 1
641969, 641965, 2
641969, 641967, 2
641969, 641966, 2
641967, 641968, 3
641967, 641965, 2
641967, 641963, 2
641967, 641969, 1
641967, 641966, 2
641964, 641965, 2
641964, 641963, 2
