496093, 496095, 1
496093, 496094, 0
496093, 496096, 2
496095, 496093, 2
496095, 496096, 1
496095, 496094, 2
496101, 496100, 2
496094, 496093, 2
496094, 496095, 2
496094, 496096, 2
496100, 496101, 1
496100, 496099, 2
496097, 496096, 2
496097, 496098, 1
496097, 496099, 2
496098, 496097, 2
496098, 496099, 1
496096, 496093, 2
496096, 496095, 2
496096, 496097, 1
496096, 496094, 2
496099, 496097, 2
496099, 496098, 2
496099, 496100, 1
