451387, 451385, 2
451387, 451388, 1
451387, 451386, 2
451387, 451390, 2
451400, 451402, 2
451400, 451403, 2
451400, 451401, 1
451400, 451399, 2
451392, 451396, 2
451392, 451394, 1
451392, 451393, 8
451392, 451391, 2
451392, 451390, 2
451401, 451402, 1
451401, 451399, 2
451401, 451400, 2
451397, 451398, 1
451397, 451396, 2
451404, 451402, 2
451404, 451403, 2
451404, 451405, 2
451398, 451397, 2
451398, 451399, 1
451398, 451396, 2
451395, 451394, 2
451395, 451396, 1
451407, 451406, 2
451407, 451405, 2
451391, 451392, 1
451391, 451390, 2
451399, 451402, 2
451399, 451401, 2
451399, 451398, 2
451399, 451400, 1
451385, 451384, 2
451385, 451386, 1
451385, 451387, 2
451393, 451392, 2
451393, 451394, 2
451389, 451388, 2
451389, 451390, 1
451406, 451407, 1
451406, 451405, 2
451384, 451385, 1
451390, 451388, 2
451390, 451392, 2
451390, 451387, 2
451390, 451391, 1
451390, 451389, 2
451386, 451385, 2
451386, 451387, 1
451402, 451403, 3
451402, 451399, 2
451402, 451400, 2
451402, 451401, 2
451402, 451404, 2
451402, 451405, 1
451403, 451402, 2
451403, 451404, 1
451403, 451400, 2
451394, 451395, 1
451394, 451392, 2
451394, 451396, 2
451394, 451393, 2
451388, 451387, 2
451388, 451389, 1
451388, 451390, 2
451396, 451395, 2
451396, 451392, 2
451396, 451397, 1
451396, 451398, 2
451396, 451394, 2
451405, 451402, 2
451405, 451406, 1
451405, 451407, 2
451405, 451404, 2
