420398, 420406, 2
420398, 420396, 2
420398, 420397, 2
420398, 420395, 2
420398, 420394, 2
420398, 420400, 1
420380, 420384, 2
420380, 420378, 2
420380, 420383, 2
420380, 420382, 2
420380, 420375, 2
420380, 420392, 2
420380, 420373, 2
420380, 420377, 2
420380, 420393, 2
420380, 420372, 2
420380, 420379, 2
420380, 420376, 2
420380, 420389, 2
420380, 420385, 2
420380, 420386, 2
420380, 420387, 2
420380, 420397, 2
420380, 420371, 2
420380, 420374, 2
420380, 420391, 2
420380, 420381, 1
420380, 420394, 2
420397, 420398, 1
420397, 420396, 2
420397, 420380, 2
420397, 420391, 2
420397, 420395, 2
420397, 420394, 2
420387, 420390, 1
420387, 420393, 2
420387, 420380, 2
420387, 420391, 2
420387, 420392, 2
420387, 420381, 2
420387, 420382, 2
420387, 420385, 2
420366, 420368, 1
420366, 420371, 2
420366, 420369, 2
420366, 420365, 2
420366, 420370, 2
420366, 420367, 2
420410, 420409, 2
420410, 420411, 2
420410, 420408, 2
420410, 420396, 2
420406, 420402, 2
420406, 420408, 1
420406, 420405, 2
420406, 420396, 2
420406, 420395, 2
420406, 420398, 2
420406, 420394, 2
420406, 420400, 2
420364, 420365, 1
420364, 420362, 2
420364, 420361, 2
420364, 420363, 2
420375, 420371, 2
420375, 420374, 2
420375, 420377, 1
420375, 420373, 2
420375, 420380, 2
420360, 420369, 2
420360, 420359, 2
420360, 420358, 2
420360, 420361, 2
420377, 420375, 2
420377, 420374, 2
420377, 420373, 2
420377, 420378, 1
420377, 420380, 2
420358, 420360, 0
420358, 420359, 3
420358, 420361, 1
420395, 420398, 2
420395, 420394, 2
420395, 420406, 1
420395, 420408, 2
420395, 420396, 2
420395, 420397, 0
420395, 420405, 2
420395, 420411, 2
420396, 420403, 2
420396, 420398, 2
420396, 420395, 6
420396, 420411, 1
420396, 420408, 2
420396, 420407, 2
420396, 420401, 2
420396, 420404, 2
420396, 420402, 2
420396, 420409, 2
420396, 420410, 2
420396, 420406, 2
420396, 420405, 2
420396, 420397, 2
420396, 420399, 4
420396, 420394, 2
420396, 420400, 2
420372, 420371, 2
420372, 420376, 1
420372, 420373, 2
420372, 420380, 2
420362, 420365, 2
420362, 420361, 2
420362, 420364, 1
420362, 420363, 8
420383, 420386, 1
420383, 420392, 2
420383, 420381, 2
420383, 420380, 2
420379, 420371, 2
420379, 420376, 2
420379, 420373, 2
420379, 420380, 2
420409, 420410, 1
420409, 420408, 2
420409, 420396, 2
420390, 420392, 2
420390, 420391, 1
420390, 420387, 2
420390, 420381, 2
420390, 420385, 2
420363, 420365, 2
420363, 420367, 2
420363, 420362, 2
420363, 420364, 2
420363, 420361, 2
420391, 420382, 2
420391, 420387, 2
420391, 420390, 2
420391, 420380, 2
420391, 420397, 2
420391, 420393, 2
420391, 420392, 2
420391, 420381, 2
420391, 420394, 2
420391, 420385, 2
420403, 420404, 1
420403, 420401, 2
420403, 420396, 2
420384, 420380, 2
420384, 420381, 2
420384, 420382, 2
420384, 420378, 2
420384, 420385, 1
420378, 420384, 2
420378, 420380, 2
420378, 420371, 2
420378, 420374, 2
420378, 420377, 2
420378, 420373, 2
420408, 420409, 1
420408, 420410, 2
420408, 420406, 2
420408, 420396, 2
420408, 420395, 2
420408, 420411, 2
420399, 420401, 0
420399, 420394, 2
420399, 420411, 2
420399, 420396, 2
420401, 420403, 1
420401, 420399, 2
420401, 420394, 2
420401, 420396, 2
420370, 420366, 2
420370, 420367, 2
420370, 420361, 2
420370, 420371, 2
420370, 420365, 2
420370, 420368, 2
420382, 420387, 2
420382, 420384, 0
420382, 420393, 2
420382, 420380, 2
420382, 420391, 2
420382, 420392, 2
420382, 420381, 2
420382, 420394, 2
420382, 420385, 2
420404, 420403, 2
420404, 420407, 1
420404, 420394, 2
420404, 420396, 2
420368, 420366, 2
420368, 420367, 4
420368, 420371, 1
420368, 420369, 6
420368, 420365, 2
420368, 420370, 2
420402, 420394, 2
420402, 420400, 2
420402, 420406, 2
420402, 420405, 1
420402, 420396, 2
420369, 420366, 2
420369, 420368, 2
420369, 420361, 2
420369, 420371, 2
420369, 420360, 2
420369, 420365, 2
420359, 420360, 2
420359, 420367, 2
420359, 420358, 2
420359, 420361, 2
420373, 420372, 4
420373, 420378, 2
420373, 420380, 1
420373, 420371, 2
420373, 420374, 6
420373, 420376, 2
420373, 420377, 2
420373, 420375, 2
420373, 420379, 2
420393, 420385, 2
420393, 420387, 2
420393, 420380, 2
420393, 420391, 2
420393, 420392, 2
420393, 420389, 2
420393, 420382, 2
420393, 420394, 1
420392, 420393, 1
420392, 420380, 2
420392, 420383, 2
420392, 420389, 2
420392, 420382, 2
420392, 420385, 2
420392, 420386, 2
420392, 420387, 2
420392, 420390, 2
420392, 420391, 2
420392, 420381, 2
420392, 420394, 2
420367, 420366, 2
420367, 420368, 2
420367, 420361, 2
420367, 420363, 2
420367, 420371, 2
420367, 420359, 2
420367, 420365, 2
420367, 420370, 0
420407, 420404, 2
420407, 420411, 2
420407, 420394, 2
420407, 420396, 2
420411, 420407, 2
420411, 420395, 2
420411, 420410, 2
420411, 420408, 2
420411, 420396, 2
420411, 420399, 2
420411, 420394, 2
420361, 420359, 2
420361, 420367, 2
420361, 420364, 2
420361, 420363, 2
420361, 420360, 2
420361, 420369, 2
420361, 420362, 1
420361, 420358, 2
420361, 420370, 2
420376, 420371, 2
420376, 420372, 2
420376, 420380, 2
420376, 420373, 2
420376, 420379, 1
420365, 420366, 1
420365, 420367, 2
420365, 420364, 2
420365, 420363, 2
420365, 420371, 2
420365, 420369, 2
420365, 420362, 2
420365, 420370, 2
420365, 420368, 2
420389, 420388, 2
420389, 420386, 2
420389, 420381, 2
420389, 420393, 2
420389, 420380, 2
420389, 420392, 2
420389, 420394, 2
420385, 420390, 2
420385, 420384, 2
420385, 420393, 2
420385, 420380, 2
420385, 420387, 1
420385, 420391, 2
420385, 420392, 2
420385, 420382, 2
420385, 420381, 2
420388, 420386, 2
420388, 420381, 2
420388, 420389, 1
420386, 420388, 1
420386, 420381, 2
420386, 420380, 2
420386, 420383, 2
420386, 420392, 2
420386, 420389, 2
420405, 420402, 2
420405, 420395, 2
420405, 420406, 2
420405, 420394, 2
420405, 420396, 2
420371, 420367, 2
420371, 420378, 2
420371, 420380, 2
420371, 420376, 2
420371, 420372, 2
420371, 420370, 2
420371, 420379, 2
420371, 420366, 2
420371, 420368, 2
420371, 420365, 2
420371, 420374, 2
420371, 420369, 2
420371, 420373, 1
420371, 420375, 2
420374, 420378, 2
420374, 420380, 2
420374, 420371, 2
420374, 420375, 0
420374, 420377, 2
420374, 420373, 2
420381, 420384, 2
420381, 420380, 2
420381, 420383, 4
420381, 420389, 2
420381, 420382, 6
420381, 420385, 2
420381, 420388, 2
420381, 420386, 2
420381, 420387, 2
420381, 420390, 2
420381, 420391, 2
420381, 420392, 1
420381, 420394, 2
420394, 420398, 2
420394, 420392, 2
420394, 420395, 2
420394, 420407, 2
420394, 420393, 2
420394, 420400, 2
420394, 420396, 1
420394, 420397, 2
420394, 420380, 2
420394, 420389, 2
420394, 420382, 2
420394, 420404, 2
420394, 420402, 2
420394, 420406, 2
420394, 420405, 2
420394, 420401, 2
420394, 420391, 2
420394, 420399, 2
420394, 420381, 2
420394, 420411, 2
420400, 420398, 2
420400, 420402, 1
420400, 420394, 2
420400, 420406, 2
420400, 420396, 2
