549853, 549852, 2
549853, 549856, 2
549853, 549851, 2
549853, 549854, 0
549853, 549855, 2
549849, 549850, 2
549849, 549846, 2
549849, 549847, 2
549849, 549848, 2
549847, 549845, 2
549847, 549850, 1
549847, 549849, 3
549847, 549846, 2
549847, 549848, 0
549855, 549856, 1
549855, 549853, 2
549855, 549854, 2
549852, 549851, 2
549852, 549853, 1
549857, 549856, 2
549851, 549852, 1
549851, 549850, 2
549851, 549853, 2
549848, 549850, 2
549848, 549849, 2
549848, 549847, 2
549845, 549846, 1
549845, 549847, 2
549854, 549853, 2
549854, 549855, 1
549856, 549857, 1
549856, 549853, 2
549856, 549855, 2
549846, 549845, 2
549846, 549849, 2
549846, 549847, 1
549850, 549851, 1
549850, 549849, 2
549850, 549847, 2
549850, 549848, 2
