570408, 570406, 2
570408, 570407, 2
570408, 570409, 1
570413, 570412, 2
570413, 570411, 2
570413, 570415, 0
570413, 570414, 3
570414, 570415, 2
570414, 570413, 2
570410, 570411, 2
570410, 570409, 2
570406, 570408, 1
570406, 570407, 3
570415, 570414, 2
570415, 570413, 2
570411, 570412, 1
570411, 570413, 2
570411, 570410, 2
570411, 570409, 2
570412, 570411, 2
570412, 570413, 1
570407, 570408, 2
570407, 570406, 2
570409, 570408, 2
570409, 570411, 1
570409, 570410, 3
