536601, 536600, 2
536601, 536599, 2
536601, 536602, 1
536601, 536603, 2
536600, 536601, 1
536600, 536599, 2
536599, 536601, 2
536599, 536600, 3
536599, 536602, 2
536599, 536603, 1
536602, 536601, 2
536602, 536603, 2
536602, 536599, 2
536603, 536601, 2
536603, 536602, 2
536603, 536599, 2
