523358, 523357, 2
523358, 523359, 1
523361, 523360, 2
523361, 523362, 1
523356, 523357, 1
523363, 523364, 1
523363, 523362, 2
523362, 523361, 2
523362, 523364, 2
523362, 523363, 1
523357, 523358, 1
523357, 523356, 2
523364, 523363, 2
523364, 523362, 2
523359, 523358, 2
523359, 523360, 1
523360, 523361, 1
523360, 523359, 2
