592652, 592653, 1
592652, 592651, 2
592648, 592649, 1
592649, 592648, 2
592649, 592650, 1
592650, 592651, 1
592650, 592649, 2
592653, 592652, 2
592653, 592651, 2
592651, 592652, 1
592651, 592650, 2
592651, 592653, 2
