494803, 494802, 2
494803, 494804, 1
494803, 494801, 2
494805, 494804, 2
494805, 494806, 2
494806, 494805, 2
494806, 494804, 2
494801, 494803, 1
494801, 494802, 3
494801, 494804, 2
494802, 494803, 2
494802, 494801, 2
494804, 494803, 2
494804, 494805, 3
494804, 494806, 1
494804, 494801, 2
