340445, 340444, 2
340439, 340440, 1
340439, 340441, 2
340441, 340440, 2
340441, 340439, 2
340441, 340443, 2
340441, 340442, 1
340440, 340439, 2
340440, 340441, 1
340443, 340442, 2
340443, 340441, 2
340443, 340444, 1
340442, 340443, 1
340442, 340441, 2
340444, 340445, 1
340444, 340443, 2
