380179, 380181, 2
380179, 380180, 2
380179, 380177, 2
380179, 380178, 2
380176, 380181, 2
380176, 380175, 2
380176, 380177, 8
380176, 380178, 1
380180, 380179, 2
380180, 380181, 1
380180, 380178, 2
380175, 380174, 2
380175, 380176, 1
380175, 380177, 2
380173, 380174, 1
380181, 380179, 2
380181, 380176, 2
380181, 380180, 2
380181, 380178, 2
380174, 380175, 1
380174, 380173, 2
380177, 380179, 2
380177, 380176, 2
380177, 380175, 2
380177, 380178, 2
380178, 380179, 8
380178, 380181, 2
380178, 380176, 2
380178, 380180, 1
380178, 380177, 2
