641697, 641699, 2
641697, 641696, 2
641697, 641698, 1
641695, 641694, 2
641695, 641696, 1
641704, 641703, 2
641694, 641695, 1
641703, 641704, 1
641703, 641702, 2
641701, 641700, 2
641701, 641702, 1
641696, 641697, 1
641696, 641695, 2
641700, 641699, 2
641700, 641701, 1
641699, 641697, 2
641699, 641700, 1
641699, 641698, 2
641702, 641703, 1
641702, 641701, 2
641698, 641697, 2
641698, 641699, 1
