643850, 643852, 2
643850, 643851, 2
643850, 643848, 2
643850, 643849, 2
643852, 643850, 2
643852, 643851, 2
643852, 643849, 2
643851, 643850, 2
643851, 643852, 1
643851, 643848, 2
643851, 643849, 2
643848, 643850, 0
643848, 643851, 1
643848, 643849, 3
643849, 643850, 2
643849, 643852, 2
643849, 643851, 2
643849, 643848, 2
