340332, 340333, 0
340332, 340331, 2
340332, 340330, 2
340329, 340328, 2
340329, 340330, 1
340328, 340327, 2
340328, 340329, 1
340327, 340328, 1
340333, 340332, 2
340333, 340331, 2
340333, 340330, 2
340331, 340332, 1
340331, 340333, 2
340331, 340330, 2
340330, 340332, 2
340330, 340333, 2
340330, 340329, 2
340330, 340331, 1
