625454, 625455, 3
625454, 625457, 2
625454, 625456, 1
625455, 625454, 2
625455, 625457, 2
625455, 625456, 2
625457, 625454, 2
625457, 625455, 2
625457, 625456, 2
625456, 625454, 2
625456, 625455, 2
625456, 625457, 1
