455720, 455721, 2
455720, 455719, 2
455723, 455721, 2
455723, 455722, 2
455721, 455720, 2
455721, 455723, 2
455721, 455719, 2
455721, 455722, 1
455719, 455720, 3
455719, 455721, 1
455722, 455723, 1
455722, 455721, 2
