590467, 590466, 2
590463, 590464, 0
590463, 590462, 2
590463, 590465, 2
590459, 590458, 2
590459, 590460, 1
590464, 590463, 2
590464, 590465, 1
590465, 590463, 2
590465, 590464, 2
590465, 590466, 1
590460, 590459, 2
590460, 590461, 1
590466, 590467, 1
590466, 590465, 2
590458, 590459, 1
590461, 590462, 1
590461, 590460, 2
590462, 590463, 1
590462, 590461, 2
