453946, 453949, 2
453946, 453944, 2
453946, 453948, 1
453946, 453945, 2
453946, 453950, 2
453946, 453947, 2
453944, 453945, 4
453944, 453946, 1
453944, 453947, 2
453944, 453949, 2
453975, 453974, 2
453975, 453961, 2
453975, 453976, 1
453975, 453973, 2
453975, 453977, 2
453963, 453964, 2
453963, 453962, 2
453963, 453957, 2
453963, 453961, 2
453963, 453958, 2
453963, 453959, 2
453945, 453946, 2
453945, 453944, 2
453945, 453951, 2
453945, 453947, 1
453945, 453949, 2
453945, 453950, 2
453945, 453952, 2
453945, 453948, 2
453950, 453946, 2
453950, 453951, 3
453950, 453948, 2
453950, 453952, 1
453950, 453945, 2
453950, 453949, 2
453950, 453947, 2
453955, 453956, 1
453955, 453954, 2
453965, 453964, 2
453965, 453966, 8
453965, 453967, 1
453958, 453964, 2
453958, 453962, 1
453958, 453963, 2
453958, 453957, 2
453958, 453956, 2
453958, 453961, 2
453958, 453960, 2
453958, 453959, 4
453949, 453946, 2
453949, 453944, 2
453949, 453947, 2
453949, 453952, 2
453949, 453945, 2
453949, 453950, 2
453949, 453959, 2
453949, 453951, 2
453949, 453948, 2
453949, 453953, 2
453949, 453956, 2
453949, 453954, 2
453951, 453945, 2
453951, 453949, 2
453951, 453950, 2
453951, 453947, 2
453951, 453952, 2
453970, 453969, 2
453970, 453961, 2
453970, 453971, 2
453979, 453978, 2
453979, 453980, 2
453964, 453962, 2
453964, 453966, 2
453964, 453963, 2
453964, 453961, 2
453964, 453958, 2
453964, 453965, 1
453964, 453967, 2
453969, 453968, 2
453969, 453970, 3
453969, 453971, 1
453961, 453966, 2
453961, 453975, 2
453961, 453963, 2
453961, 453968, 2
453961, 453970, 2
453961, 453962, 2
453961, 453977, 2
453961, 453959, 2
453961, 453982, 2
453961, 453960, 2
453961, 453980, 2
453961, 453964, 2
453961, 453956, 2
453961, 453958, 2
453961, 453971, 2
453954, 453949, 2
453954, 453955, 1
453954, 453953, 2
453954, 453956, 2
453981, 453982, 1
453981, 453980, 2
453972, 453974, 1
453972, 453971, 2
453972, 453973, 8
453966, 453971, 2
453966, 453964, 2
453966, 453968, 2
453966, 453961, 2
453966, 453967, 2
453966, 453965, 2
453947, 453946, 2
453947, 453944, 2
453947, 453951, 2
453947, 453948, 2
453947, 453949, 1
453947, 453945, 2
453947, 453950, 2
453952, 453945, 2
453952, 453949, 2
453952, 453950, 2
453952, 453951, 2
453952, 453953, 1
453968, 453969, 1
453968, 453961, 2
453968, 453966, 2
453968, 453967, 2
453968, 453971, 2
453973, 453974, 2
453973, 453972, 2
453973, 453975, 2
453948, 453945, 2
453948, 453946, 2
453948, 453950, 1
453948, 453947, 2
453948, 453949, 2
453962, 453964, 1
453962, 453961, 2
453962, 453958, 2
453962, 453963, 3
453962, 453959, 2
453977, 453978, 1
453977, 453961, 2
453977, 453976, 2
453977, 453975, 2
453959, 453949, 2
453959, 453960, 8
453959, 453963, 2
453959, 453957, 2
453959, 453956, 2
453959, 453961, 1
453959, 453962, 2
453959, 453958, 2
453982, 453981, 2
453982, 453961, 2
453960, 453961, 2
453960, 453958, 2
453960, 453959, 2
453953, 453949, 2
453953, 453954, 1
453953, 453952, 2
453971, 453972, 1
453971, 453966, 2
453971, 453970, 2
453971, 453974, 2
453971, 453968, 2
453971, 453961, 2
453971, 453969, 2
453974, 453972, 2
453974, 453973, 2
453974, 453975, 1
453974, 453971, 2
453957, 453956, 2
453957, 453958, 2
453957, 453963, 2
453957, 453959, 2
453956, 453949, 2
453956, 453955, 2
453956, 453957, 3
453956, 453961, 2
453956, 453954, 2
453956, 453958, 1
453956, 453959, 2
453978, 453977, 2
453978, 453979, 1
453976, 453977, 3
453976, 453975, 2
453976, 453980, 1
453967, 453964, 2
453967, 453968, 1
453967, 453966, 2
453967, 453965, 2
453980, 453981, 1
453980, 453961, 2
453980, 453976, 2
453980, 453979, 2
