590753, 590754, 2
590753, 590752, 2
590757, 590758, 1
590757, 590756, 2
590759, 590758, 2
590759, 590760, 8
590759, 590761, 1
590761, 590762, 1
590761, 590760, 2
590761, 590758, 2
590761, 590759, 2
590754, 590753, 2
590754, 590751, 2
590754, 590752, 2
590754, 590755, 1
590758, 590757, 2
590758, 590759, 1
590758, 590756, 2
590758, 590761, 2
590756, 590758, 2
590756, 590757, 1
590756, 590755, 2
590762, 590761, 2
590760, 590759, 2
590760, 590761, 2
590751, 590750, 2
590751, 590754, 2
590751, 590752, 1
590750, 590751, 1
590752, 590753, 8
590752, 590751, 2
590752, 590754, 1
590755, 590756, 1
590755, 590754, 2
