450206, 450207, 3
450206, 450209, 1
450206, 450210, 2
450206, 450208, 0
450214, 450207, 2
450214, 450213, 2
450214, 450216, 2
450214, 450208, 2
450214, 450215, 1
450210, 450207, 2
450210, 450209, 2
450210, 450206, 2
450210, 450208, 2
450210, 450211, 1
450215, 450214, 2
450215, 450216, 1
450220, 450219, 2
450213, 450207, 2
450213, 450214, 1
450213, 450208, 2
450213, 450212, 2
450213, 450211, 2
450217, 450216, 2
450217, 450218, 1
450219, 450220, 1
450219, 450207, 2
450219, 450208, 2
450219, 450218, 2
450209, 450206, 2
450209, 450207, 2
450209, 450210, 1
450209, 450208, 2
450216, 450214, 2
450216, 450217, 1
450216, 450215, 2
450216, 450208, 2
450216, 450218, 2
450208, 450206, 2
450208, 450209, 2
450208, 450210, 2
450208, 450216, 2
450208, 450214, 2
450208, 450207, 2
450208, 450218, 2
450208, 450213, 2
450208, 450211, 2
450208, 450219, 2
450207, 450206, 2
450207, 450209, 2
450207, 450210, 2
450207, 450218, 2
450207, 450208, 2
450207, 450214, 2
450207, 450213, 2
450207, 450211, 2
450207, 450219, 2
450218, 450207, 2
450218, 450217, 2
450218, 450216, 2
450218, 450208, 2
450218, 450219, 1
450212, 450213, 1
450212, 450211, 2
450211, 450207, 2
450211, 450210, 2
450211, 450213, 2
450211, 450212, 1
450211, 450208, 2
