642309, 642310, 1
642311, 642310, 2
642311, 642312, 1
642318, 642320, 1
642318, 642317, 2
642318, 642319, 3
642320, 642321, 1
642320, 642322, 2
642320, 642317, 2
642320, 642318, 2
642320, 642319, 2
642310, 642309, 2
642310, 642311, 1
642322, 642320, 2
642322, 642321, 2
642321, 642320, 2
642321, 642322, 1
642314, 642315, 1
642314, 642313, 2
642316, 642315, 2
642316, 642317, 1
642317, 642320, 2
642317, 642315, 2
642317, 642318, 1
642317, 642316, 2
642315, 642314, 2
642315, 642313, 2
642315, 642316, 1
642315, 642312, 2
642315, 642317, 2
642313, 642314, 1
642313, 642312, 2
642313, 642315, 2
642312, 642315, 2
642312, 642311, 2
642312, 642313, 1
642319, 642320, 2
642319, 642318, 2
