608499, 608507, 2
608499, 608503, 2
608499, 608505, 1
608499, 608501, 3
608499, 608500, 0
608499, 608502, 8
608499, 608504, 2
608503, 608499, 2
608503, 608505, 2
608503, 608501, 2
608503, 608500, 2
608503, 608502, 2
608503, 608504, 1
608505, 608499, 2
608505, 608503, 2
608505, 608501, 2
608505, 608500, 2
608505, 608502, 2
608505, 608504, 2
608505, 608506, 3
608505, 608507, 0
608501, 608499, 2
608501, 608503, 2
608501, 608505, 2
608501, 608500, 2
608501, 608502, 2
608501, 608504, 2
608500, 608499, 2
608500, 608503, 2
608500, 608505, 2
608500, 608501, 2
608500, 608502, 2
608500, 608504, 2
608500, 608506, 2
608500, 608507, 2
608502, 608499, 2
608502, 608503, 1
608502, 608505, 2
608502, 608501, 2
608502, 608500, 2
608502, 608504, 2
608504, 608499, 2
608504, 608503, 2
608504, 608505, 2
608504, 608501, 2
608504, 608500, 2
608504, 608502, 2
608504, 608506, 2
608506, 608504, 2
608506, 608507, 2
608506, 608505, 2
608506, 608500, 2
608507, 608506, 2
608507, 608499, 2
608507, 608505, 2
608507, 608500, 2
