419665, 419664, 2
419665, 419669, 2
419665, 419667, 2
419665, 419668, 2
419665, 419666, 2
419665, 419662, 2
419665, 419663, 2
419676, 419662, 2
419676, 419652, 2
419676, 419657, 2
419658, 419659, 1
419658, 419663, 2
419658, 419662, 2
419658, 419652, 2
419658, 419656, 2
419658, 419660, 2
419658, 419653, 2
419658, 419650, 2
419658, 419657, 2
419658, 419655, 2
419675, 419662, 2
419675, 419674, 2
419675, 419678, 2
419675, 419677, 1
419673, 419662, 2
419673, 419674, 1
419673, 419657, 2
419673, 419672, 2
419659, 419658, 2
419659, 419663, 2
419659, 419652, 2
419659, 419650, 2
419659, 419660, 2
419659, 419653, 2
419659, 419656, 2
419659, 419657, 2
419681, 419679, 2
419681, 419678, 2
419681, 419683, 2
419681, 419662, 2
419681, 419680, 2
419681, 419682, 1
419663, 419665, 3
419663, 419664, 0
419663, 419658, 2
419663, 419669, 1
419663, 419659, 2
419663, 419661, 2
419663, 419650, 2
419663, 419660, 2
419663, 419654, 2
419663, 419655, 2
419663, 419666, 2
419663, 419662, 2
419663, 419656, 2
419663, 419657, 2
419652, 419657, 2
419652, 419676, 2
419652, 419658, 2
419652, 419659, 2
419652, 419662, 2
419652, 419650, 2
419652, 419660, 2
419652, 419656, 2
419652, 419654, 2
419652, 419655, 2
419650, 419664, 2
419650, 419658, 2
419650, 419669, 2
419650, 419659, 2
419650, 419667, 2
419650, 419663, 2
419650, 419652, 6
419650, 419660, 2
419650, 419654, 2
419650, 419655, 2
419650, 419651, 4
419650, 419656, 2
419650, 419653, 2
419650, 419657, 1
419660, 419664, 2
419660, 419658, 2
419660, 419659, 2
419660, 419663, 2
419660, 419652, 2
419660, 419650, 2
419660, 419654, 2
419660, 419655, 2
419660, 419651, 2
419660, 419661, 3
419660, 419662, 2
419660, 419653, 2
419660, 419657, 2
419674, 419678, 2
419674, 419672, 2
419674, 419673, 2
419674, 419662, 2
419674, 419677, 2
419674, 419675, 1
419674, 419657, 2
419674, 419671, 2
419678, 419682, 2
419678, 419679, 2
419678, 419681, 1
419678, 419662, 2
419678, 419680, 3
419678, 419677, 2
419678, 419675, 2
419678, 419653, 2
419678, 419674, 2
419678, 419657, 2
419654, 419651, 2
419654, 419663, 2
419654, 419662, 2
419654, 419652, 2
419654, 419650, 2
419654, 419660, 1
419654, 419653, 2
419654, 419657, 2
419654, 419655, 3
419686, 419662, 2
419686, 419684, 2
419686, 419688, 2
419686, 419685, 2
419686, 419687, 1
419688, 419662, 2
419688, 419687, 2
419688, 419685, 2
419688, 419686, 2
419656, 419658, 1
419656, 419659, 2
419656, 419663, 2
419656, 419662, 2
419656, 419652, 2
419656, 419650, 2
419656, 419657, 2
419656, 419655, 2
419685, 419662, 2
419685, 419684, 2
419685, 419688, 2
419685, 419687, 2
419685, 419686, 2
419668, 419665, 2
419668, 419651, 2
419668, 419669, 2
419668, 419672, 2
419668, 419667, 2
419668, 419666, 2
419668, 419662, 2
419668, 419653, 2
419668, 419657, 2
419683, 419682, 2
419683, 419679, 2
419683, 419681, 2
419683, 419662, 2
419683, 419680, 2
419683, 419677, 2
419683, 419684, 1
419677, 419678, 0
419677, 419682, 2
419677, 419679, 3
419677, 419662, 2
419677, 419680, 2
419677, 419674, 2
419677, 419675, 2
419677, 419657, 2
419677, 419683, 1
419655, 419658, 2
419655, 419657, 2
419655, 419663, 2
419655, 419662, 2
419655, 419652, 2
419655, 419656, 2
419655, 419660, 2
419655, 419653, 2
419655, 419650, 2
419655, 419654, 2
419687, 419662, 2
419687, 419688, 1
419687, 419685, 2
419687, 419686, 2
419664, 419665, 2
419664, 419651, 2
419664, 419663, 2
419664, 419667, 1
419664, 419666, 3
419664, 419662, 2
419664, 419661, 2
419664, 419650, 2
419664, 419660, 2
419664, 419653, 2
419664, 419657, 2
419669, 419665, 2
419669, 419670, 1
419669, 419672, 2
419669, 419667, 2
419669, 419668, 2
419669, 419666, 2
419669, 419662, 2
419669, 419650, 2
419669, 419663, 2
419669, 419657, 2
419667, 419665, 2
419667, 419664, 2
419667, 419669, 2
419667, 419668, 1
419667, 419666, 2
419667, 419662, 2
419667, 419650, 2
419667, 419653, 2
419667, 419657, 2
419684, 419662, 2
419684, 419683, 2
419684, 419685, 3
419684, 419686, 1
419671, 419662, 2
419671, 419670, 2
419671, 419674, 2
419671, 419672, 2
419651, 419664, 2
419651, 419657, 2
419651, 419668, 2
419651, 419662, 2
419651, 419650, 2
419651, 419660, 2
419651, 419653, 0
419651, 419654, 2
419670, 419662, 2
419670, 419669, 2
419670, 419672, 1
419670, 419671, 3
419679, 419678, 2
419679, 419683, 2
419679, 419681, 2
419679, 419662, 2
419679, 419680, 2
419679, 419677, 2
419679, 419682, 2
419672, 419670, 2
419672, 419669, 2
419672, 419668, 2
419672, 419673, 1
419672, 419662, 2
419672, 419674, 2
419672, 419657, 2
419672, 419671, 2
419661, 419662, 2
419661, 419664, 2
419661, 419660, 2
419661, 419657, 2
419661, 419663, 2
419662, 419665, 2
419662, 419676, 6
419662, 419658, 2
419662, 419675, 2
419662, 419673, 2
419662, 419681, 2
419662, 419663, 4
419662, 419661, 2
419662, 419660, 2
419662, 419674, 2
419662, 419678, 2
419662, 419654, 2
419662, 419686, 2
419662, 419688, 2
419662, 419685, 2
419662, 419668, 2
419662, 419683, 2
419662, 419656, 2
419662, 419655, 2
419662, 419677, 2
419662, 419664, 2
419662, 419669, 2
419662, 419667, 2
419662, 419684, 2
419662, 419670, 2
419662, 419671, 2
419662, 419651, 2
419662, 419687, 2
419662, 419679, 2
419662, 419672, 2
419662, 419652, 2
419662, 419680, 2
419662, 419682, 2
419662, 419653, 2
419662, 419666, 2
419662, 419657, 2
419680, 419678, 2
419680, 419679, 2
419680, 419681, 2
419680, 419662, 2
419680, 419683, 2
419680, 419677, 2
419680, 419682, 2
419682, 419678, 2
419682, 419679, 2
419682, 419681, 2
419682, 419662, 2
419682, 419680, 2
419682, 419677, 2
419682, 419683, 2
419682, 419653, 2
419653, 419664, 2
419653, 419658, 2
419653, 419682, 2
419653, 419659, 2
419653, 419667, 2
419653, 419650, 2
419653, 419660, 2
419653, 419678, 2
419653, 419654, 2
419653, 419655, 2
419653, 419651, 2
419653, 419668, 2
419653, 419662, 2
419653, 419657, 2
419666, 419665, 2
419666, 419664, 2
419666, 419669, 2
419666, 419667, 2
419666, 419668, 2
419666, 419663, 2
419666, 419662, 2
419666, 419657, 2
419657, 419676, 2
419657, 419658, 2
419657, 419673, 2
419657, 419659, 2
419657, 419663, 2
419657, 419652, 2
419657, 419650, 2
419657, 419660, 2
419657, 419678, 2
419657, 419654, 4
419657, 419677, 2
419657, 419668, 2
419657, 419656, 2
419657, 419674, 2
419657, 419664, 2
419657, 419669, 2
419657, 419667, 2
419657, 419655, 2
419657, 419651, 2
419657, 419672, 2
419657, 419661, 2
419657, 419662, 1
419657, 419653, 2
419657, 419666, 2
