450436, 450434, 2
450436, 450438, 2
450436, 450435, 2
450436, 450437, 1
450438, 450439, 1
450438, 450436, 2
450438, 450437, 2
450443, 450442, 2
450443, 450444, 1
450435, 450434, 2
450435, 450436, 1
450434, 450436, 2
450434, 450435, 1
450434, 450433, 2
450442, 450439, 2
450442, 450443, 1
450442, 450441, 2
450442, 450440, 2
450445, 450446, 1
450445, 450444, 2
450445, 450447, 2
450441, 450439, 2
450441, 450442, 1
450441, 450440, 2
450447, 450445, 2
450447, 450446, 2
450439, 450442, 2
450439, 450438, 2
450439, 450441, 2
450439, 450440, 1
450437, 450436, 2
450437, 450438, 1
450433, 450434, 1
450444, 450445, 1
450444, 450443, 2
450446, 450445, 2
450446, 450447, 1
450440, 450439, 2
450440, 450442, 2
450440, 450441, 1
