491075, 491076, 1
491075, 491074, 2
491072, 491073, 2
491072, 491071, 2
491074, 491075, 0
491074, 491076, 2
491074, 491073, 2
491059, 491061, 1
491059, 491060, 3
491076, 491075, 2
491076, 491074, 2
491065, 491067, 1
491065, 491071, 2
491065, 491066, 3
491065, 491064, 2
491063, 491062, 2
491063, 491064, 1
491068, 491067, 2
491068, 491069, 3
491068, 491071, 1
491061, 491062, 1
491061, 491060, 2
491061, 491059, 2
491060, 491061, 2
491060, 491062, 2
491060, 491059, 2
491070, 491069, 2
491070, 491071, 2
491069, 491068, 2
491069, 491070, 2
491069, 491071, 2
491073, 491072, 2
491073, 491074, 1
491073, 491071, 2
491067, 491068, 1
491067, 491065, 2
491067, 491066, 2
491062, 491061, 2
491062, 491060, 2
491062, 491063, 1
491071, 491068, 2
491071, 491070, 2
491071, 491069, 2
491071, 491073, 1
491071, 491065, 2
491071, 491072, 3
491066, 491065, 2
491066, 491067, 2
491066, 491064, 2
491064, 491065, 1
491064, 491063, 2
491064, 491066, 2
