551104, 551103, 2
551104, 551105, 1
551099, 551098, 2
551099, 551100, 1
551105, 551104, 2
551105, 551101, 2
551105, 551098, 2
551105, 551103, 2
551088, 551085, 2
551088, 551086, 2
551088, 551090, 2
551088, 551091, 2
551088, 551089, 1
551088, 551087, 2
551095, 551096, 2
551095, 551094, 2
551095, 551098, 2
551103, 551104, 1
551103, 551101, 2
551103, 551102, 2
551103, 551105, 2
551094, 551096, 2
551094, 551091, 2
551094, 551095, 2
551094, 551097, 2
551094, 551098, 2
551094, 551089, 2
551094, 551093, 2
551094, 551092, 2
551089, 551094, 2
551089, 551090, 1
551089, 551088, 2
551100, 551101, 1
551100, 551098, 2
551100, 551099, 2
551093, 551094, 2
551093, 551092, 2
551096, 551097, 2
551096, 551094, 2
551096, 551098, 2
551096, 551095, 2
551101, 551098, 2
551101, 551102, 1
551101, 551103, 2
551101, 551105, 2
551101, 551100, 2
551086, 551085, 2
551086, 551087, 2
551086, 551088, 2
551090, 551091, 1
551090, 551089, 2
551090, 551088, 2
551097, 551096, 2
551097, 551094, 2
551097, 551098, 2
551091, 551094, 2
551091, 551088, 2
551091, 551092, 1
551091, 551090, 2
551098, 551096, 2
551098, 551101, 2
551098, 551099, 2
551098, 551105, 2
551098, 551095, 2
551098, 551097, 2
551098, 551094, 2
551098, 551100, 2
551102, 551101, 2
551102, 551103, 1
551085, 551086, 0
551085, 551087, 1
551085, 551088, 2
551087, 551085, 2
551087, 551086, 2
551087, 551088, 1
551092, 551094, 2
551092, 551091, 2
551092, 551093, 1
