641578, 641577, 2
641578, 641579, 1
641576, 641577, 1
641576, 641575, 2
641573, 641574, 1
641573, 641575, 2
641574, 641575, 1
641574, 641573, 2
641577, 641578, 1
641577, 641576, 2
641583, 641582, 2
641581, 641582, 1
641581, 641580, 2
641582, 641581, 2
641582, 641583, 1
641575, 641574, 2
641575, 641576, 1
641575, 641573, 2
641579, 641578, 2
641579, 641580, 1
641580, 641581, 1
641580, 641579, 2
