377991, 377990, 2
377991, 377989, 2
377991, 377988, 2
377989, 377991, 1
377989, 377990, 0
377989, 377988, 2
377987, 377988, 1
377988, 377991, 2
377988, 377989, 1
377988, 377987, 2
377990, 377991, 2
377990, 377989, 2
