572853, 572851, 2
572853, 572854, 2
572853, 572852, 2
572855, 572854, 2
572855, 572856, 1
572855, 572852, 2
572854, 572855, 1
572854, 572853, 2
572854, 572851, 2
572854, 572856, 2
572854, 572852, 2
572851, 572854, 1
572851, 572853, 0
572851, 572852, 3
572856, 572855, 2
572856, 572854, 2
572852, 572855, 2
572852, 572854, 2
572852, 572851, 2
572852, 572853, 2
