593125, 593126, 1
593127, 593128, 1
593127, 593126, 2
593131, 593130, 2
593131, 593132, 0
593126, 593125, 2
593126, 593127, 1
593128, 593130, 2
593128, 593127, 2
593128, 593129, 1
593130, 593128, 2
593130, 593131, 0
593130, 593129, 2
593129, 593128, 2
593129, 593130, 1
593132, 593131, 2
