455687, 455686, 2
455687, 455688, 1
455684, 455686, 1
455684, 455685, 3
455688, 455687, 2
455688, 455686, 2
455685, 455684, 2
455685, 455686, 2
455686, 455687, 1
455686, 455684, 2
455686, 455688, 2
455686, 455685, 2
