626016, 626015, 2
626016, 626018, 2
626016, 626017, 1
626016, 626014, 2
626020, 626018, 2
626020, 626021, 6
626020, 626019, 2
626020, 626022, 3
626020, 626017, 2
626021, 626020, 2
626021, 626018, 2
626021, 626019, 2
626021, 626017, 2
626015, 626016, 2
626015, 626018, 2
626015, 626014, 2
626014, 626016, 1
626014, 626015, 3
626019, 626020, 1
626019, 626021, 2
626019, 626018, 2
626019, 626017, 2
626019, 626022, 2
626018, 626016, 2
626018, 626020, 2
626018, 626021, 2
626018, 626015, 2
626018, 626019, 2
626018, 626022, 2
626018, 626017, 2
626022, 626020, 2
626022, 626019, 2
626022, 626018, 2
626017, 626016, 2
626017, 626020, 2
626017, 626021, 2
626017, 626019, 1
626017, 626018, 3
