590924, 590926, 2
590924, 590925, 1
590924, 590923, 2
590937, 590936, 2
590932, 590931, 2
590932, 590933, 1
590929, 590928, 2
590929, 590931, 2
590929, 590930, 2
590934, 590935, 2
590934, 590933, 2
590928, 590931, 2
590928, 590929, 0
590928, 590926, 2
590928, 590930, 1
590928, 590927, 2
590931, 590928, 2
590931, 590932, 1
590931, 590933, 2
590931, 590930, 2
590931, 590929, 2
590936, 590935, 2
590936, 590937, 1
590936, 590933, 2
590926, 590928, 2
590926, 590924, 2
590926, 590925, 2
590926, 590927, 1
590930, 590928, 2
590930, 590931, 1
590930, 590929, 2
590927, 590928, 1
590927, 590926, 2
590935, 590936, 1
590935, 590934, 2
590935, 590933, 2
590933, 590935, 1
590933, 590931, 2
590933, 590932, 2
590933, 590936, 2
590933, 590934, 8
590925, 590924, 2
590925, 590926, 1
590923, 590924, 1
