456191, 456193, 2
456191, 456190, 2
456191, 456192, 1
456191, 456189, 2
456190, 456191, 1
456190, 456189, 2
456188, 456189, 1
456189, 456191, 2
456189, 456190, 1
456189, 456188, 2
456192, 456191, 2
456192, 456193, 1
456193, 456191, 2
456193, 456192, 2
