554725, 554724, 2
554725, 554721, 2
554725, 554723, 2
554725, 554722, 2
554724, 554725, 2
554724, 554721, 2
554724, 554723, 2
554724, 554722, 2
554718, 554719, 3
554718, 554720, 1
554718, 554721, 2
554719, 554718, 2
554719, 554720, 2
554719, 554721, 2
554720, 554718, 2
554720, 554719, 2
554720, 554721, 2
554721, 554725, 2
554721, 554724, 2
554721, 554718, 2
554721, 554720, 2
554721, 554719, 2
554721, 554722, 2
554721, 554723, 2
554722, 554725, 2
554722, 554724, 2
554722, 554721, 2
554722, 554723, 2
554723, 554725, 2
554723, 554724, 2
554723, 554721, 2
554723, 554722, 2
