625869, 625870, 1
625869, 625871, 2
625870, 625869, 2
625870, 625871, 1
625871, 625869, 2
625871, 625870, 2
625871, 625872, 1
625874, 625873, 2
625874, 625872, 2
625873, 625872, 2
625873, 625874, 1
625872, 625873, 1
625872, 625871, 2
625872, 625874, 2
