456885, 456886, 1
456885, 456883, 2
456885, 456884, 2
456882, 456881, 2
456882, 456884, 2
456882, 456883, 1
456887, 456886, 2
456880, 456881, 1
456883, 456885, 1
456883, 456882, 2
456883, 456884, 8
456884, 456885, 2
456884, 456882, 2
456884, 456883, 2
456884, 456886, 2
456886, 456885, 2
456886, 456887, 1
456886, 456884, 2
456881, 456882, 1
456881, 456880, 2
