607407, 607408, 1
607407, 607405, 2
607407, 607406, 2
607415, 607416, 1
607415, 607414, 2
607408, 607410, 2
607408, 607407, 2
607408, 607409, 1
607408, 607406, 2
607411, 607410, 2
607411, 607412, 1
607404, 607405, 1
607404, 607403, 2
607404, 607402, 2
607404, 607406, 2
607418, 607419, 1
607418, 607417, 2
607423, 607424, 1
607423, 607422, 2
607406, 607407, 2
607406, 607408, 2
607406, 607405, 2
607406, 607404, 2
607414, 607412, 2
607414, 607415, 1
607414, 607413, 2
607422, 607423, 1
607422, 607421, 2
607413, 607412, 2
607413, 607414, 2
607417, 607416, 2
607417, 607418, 1
607412, 607414, 1
607412, 607411, 2
607412, 607413, 3
607419, 607418, 2
607419, 607420, 1
607403, 607404, 2
607403, 607402, 2
607420, 607419, 2
607420, 607421, 1
607416, 607415, 2
607416, 607417, 1
607405, 607407, 1
607405, 607404, 2
607405, 607406, 8
607421, 607420, 2
607421, 607422, 1
607425, 607424, 2
607424, 607423, 2
607424, 607425, 1
607410, 607409, 2
607410, 607408, 2
607410, 607411, 1
607409, 607410, 1
607409, 607408, 2
607402, 607403, 0
607402, 607404, 1
