406258, 406260, 2
406258, 406259, 1
406258, 406261, 2
406258, 406257, 2
406260, 406258, 2
406260, 406259, 2
406260, 406262, 2
406260, 406261, 1
406260, 406257, 2
406261, 406262, 3
406261, 406260, 2
406261, 406263, 1
406261, 406259, 2
406261, 406258, 2
406261, 406257, 2
406264, 406263, 2
406264, 406262, 2
406263, 406262, 2
406263, 406261, 2
406263, 406264, 1
406259, 406258, 2
406259, 406260, 2
406259, 406261, 2
406259, 406257, 2
406262, 406263, 2
406262, 406264, 2
406262, 406260, 2
406262, 406261, 2
406262, 406257, 2
406257, 406259, 2
406257, 406258, 0
406257, 406260, 1
406257, 406262, 2
406257, 406261, 2
