657804, 657803, 2
657804, 657806, 1
657804, 657805, 0
657804, 657809, 2
657804, 657807, 2
657804, 657801, 2
657787, 657785, 2
657787, 657788, 1
657787, 657786, 2
657794, 657793, 2
657794, 657795, 1
657794, 657792, 2
657796, 657797, 0
657796, 657795, 2
657796, 657798, 1
657809, 657804, 2
657809, 657807, 2
657809, 657808, 2
657809, 657810, 0
657780, 657783, 2
657780, 657781, 2
657780, 657779, 2
657791, 657792, 0
657791, 657793, 1
657791, 657795, 2
657791, 657790, 2
657783, 657784, 2
657783, 657782, 2
657783, 657780, 2
657783, 657781, 2
657799, 657797, 2
657799, 657800, 1
657799, 657798, 2
657805, 657804, 2
657805, 657806, 2
657805, 657802, 2
657805, 657803, 2
657805, 657807, 2
657805, 657810, 2
657786, 657787, 1
657786, 657785, 2
657786, 657788, 2
657782, 657783, 8
657782, 657784, 1
657782, 657785, 2
657782, 657781, 2
657789, 657788, 2
657789, 657790, 1
657779, 657780, 3
657779, 657781, 1
657807, 657804, 2
657807, 657806, 2
657807, 657805, 2
657807, 657808, 1
657807, 657810, 2
657807, 657809, 2
657803, 657804, 1
657803, 657801, 2
657803, 657802, 2
657803, 657805, 2
657806, 657804, 2
657806, 657805, 2
657806, 657807, 1
657800, 657801, 1
657800, 657802, 2
657800, 657799, 2
657788, 657787, 2
657788, 657785, 2
657788, 657789, 1
657788, 657786, 2
657808, 657809, 1
657808, 657807, 2
657802, 657803, 2
657802, 657801, 2
657802, 657800, 2
657802, 657805, 2
657790, 657791, 1
657790, 657789, 2
657797, 657792, 2
657797, 657798, 2
657797, 657796, 2
657797, 657799, 2
657795, 657793, 2
657795, 657791, 2
657795, 657794, 2
657795, 657796, 1
657781, 657783, 2
657781, 657782, 1
657781, 657780, 2
657781, 657784, 2
657781, 657779, 2
657798, 657797, 2
657798, 657799, 1
657798, 657796, 2
657792, 657793, 2
657792, 657797, 2
657792, 657791, 2
657792, 657794, 2
657810, 657809, 2
657810, 657807, 2
657810, 657805, 2
657784, 657783, 2
657784, 657782, 2
657784, 657785, 1
657784, 657781, 2
657793, 657795, 2
657793, 657791, 2
657793, 657794, 1
657793, 657792, 2
657801, 657803, 1
657801, 657800, 2
657801, 657802, 0
657801, 657804, 2
657785, 657784, 2
657785, 657782, 2
657785, 657787, 2
657785, 657788, 2
657785, 657786, 1
