378204, 378206, 2
378204, 378205, 2
378204, 378202, 2
378204, 378203, 2
378206, 378204, 2
378206, 378205, 2
378206, 378202, 2
378205, 378204, 2
378205, 378206, 1
378205, 378202, 2
378205, 378203, 2
378202, 378204, 2
378202, 378206, 2
378202, 378205, 2
378202, 378203, 2
378203, 378204, 0
378203, 378205, 1
378203, 378202, 4
