452405, 452404, 2
452405, 452407, 1
452405, 452406, 3
452405, 452403, 2
452394, 452393, 2
452394, 452395, 1
452412, 452413, 2
452412, 452410, 2
452412, 452418, 2
452412, 452411, 2
452412, 452416, 2
452412, 452414, 2
452413, 452411, 2
452413, 452410, 2
452413, 452412, 2
452413, 452414, 1
452415, 452416, 1
452415, 452414, 2
452411, 452413, 2
452411, 452410, 2
452411, 452412, 3
452411, 452416, 2
452411, 452414, 2
452403, 452405, 2
452403, 452410, 2
452403, 452406, 2
452403, 452402, 2
452403, 452404, 1
452409, 452410, 2
452409, 452408, 2
452416, 452415, 2
452416, 452411, 2
452416, 452417, 1
452416, 452412, 2
452416, 452414, 2
452408, 452407, 2
452408, 452410, 1
452408, 452409, 0
452398, 452400, 2
452398, 452397, 2
452398, 452399, 1
452417, 452418, 1
452417, 452416, 2
452390, 452391, 3
452390, 452392, 1
452391, 452393, 2
452391, 452390, 2
452391, 452392, 2
452410, 452413, 1
452410, 452408, 2
452410, 452412, 2
452410, 452411, 3
452410, 452403, 2
452410, 452409, 2
452399, 452400, 3
452399, 452401, 1
452399, 452398, 2
452402, 452401, 2
452402, 452403, 1
452401, 452400, 2
452401, 452402, 1
452401, 452399, 2
452400, 452401, 2
452400, 452399, 2
452400, 452398, 2
452418, 452417, 2
452418, 452412, 2
452406, 452405, 2
452406, 452407, 2
452406, 452403, 2
452406, 452404, 2
452395, 452397, 2
452395, 452394, 2
452395, 452393, 2
452395, 452396, 1
452414, 452413, 2
452414, 452411, 2
452414, 452412, 2
452414, 452416, 2
452414, 452415, 1
452397, 452396, 2
452397, 452395, 2
452397, 452398, 1
452404, 452405, 1
452404, 452406, 2
452404, 452403, 2
452392, 452391, 2
452392, 452390, 2
452392, 452393, 1
452407, 452405, 2
452407, 452408, 1
452407, 452406, 2
452393, 452391, 2
452393, 452394, 1
452393, 452395, 2
452393, 452392, 2
452396, 452397, 1
452396, 452395, 2
