573297, 573298, 2
573297, 573295, 2
573297, 573296, 2
573295, 573297, 0
573295, 573298, 1
573295, 573296, 3
573296, 573297, 2
573296, 573298, 2
573296, 573295, 2
573300, 573299, 2
573300, 573301, 1
573299, 573300, 1
573299, 573298, 2
573301, 573300, 2
573301, 573302, 1
573298, 573299, 1
573298, 573295, 2
573298, 573297, 2
573298, 573296, 2
573302, 573301, 2
