554174, 554175, 1
554174, 554176, 2
554176, 554174, 2
554176, 554177, 1
554176, 554175, 2
554179, 554178, 2
554175, 554174, 2
554175, 554176, 1
554177, 554176, 2
554177, 554178, 1
554178, 554177, 2
554178, 554179, 1
