489595, 489596, 2
489595, 489597, 2
489595, 489593, 2
489595, 489594, 2
489600, 489601, 1
489600, 489599, 2
489600, 489598, 2
489601, 489600, 2
489601, 489599, 2
489601, 489603, 2
489601, 489602, 1
489597, 489596, 2
489597, 489595, 2
489597, 489599, 2
489597, 489598, 1
489597, 489594, 2
489597, 489593, 2
489603, 489604, 1
489603, 489601, 2
489603, 489599, 2
489603, 489602, 2
489596, 489595, 2
489596, 489597, 2
489596, 489594, 2
489596, 489599, 2
489598, 489600, 1
489598, 489597, 2
489598, 489599, 6
489602, 489604, 2
489602, 489601, 2
489602, 489603, 1
489604, 489599, 2
489604, 489603, 2
489604, 489602, 2
489593, 489595, 2
489593, 489597, 2
489593, 489594, 1
489593, 489599, 2
489594, 489596, 0
489594, 489595, 3
489594, 489597, 1
489594, 489599, 2
489594, 489593, 2
489599, 489596, 2
489599, 489598, 2
489599, 489604, 2
489599, 489601, 2
489599, 489597, 2
489599, 489603, 2
489599, 489593, 2
489599, 489594, 2
489599, 489600, 2
