554575, 554574, 2
554575, 554576, 1
554575, 554577, 2
554580, 554578, 2
554580, 554579, 2
554580, 554577, 2
554580, 554581, 1
554576, 554575, 2
554576, 554577, 1
554577, 554575, 2
554577, 554580, 2
554577, 554576, 2
554577, 554578, 8
554577, 554579, 1
554579, 554580, 1
554579, 554577, 2
554579, 554578, 2
554574, 554575, 1
554582, 554581, 2
554581, 554582, 0
554581, 554580, 2
554581, 554578, 2
554578, 554580, 2
554578, 554581, 2
554578, 554577, 2
554578, 554579, 2
