495167, 495168, 1
495167, 495166, 2
495166, 495167, 1
495166, 495165, 2
495169, 495170, 1
495169, 495168, 2
495165, 495166, 1
495170, 495169, 2
495170, 495168, 2
495168, 495169, 1
495168, 495167, 2
495168, 495170, 2
