657308, 657307, 2
657308, 657310, 2
657308, 657309, 1
657302, 657301, 2
657302, 657303, 1
657315, 657312, 2
657315, 657316, 1
657315, 657314, 2
657315, 657313, 2
657315, 657311, 2
657307, 657308, 1
657307, 657306, 2
657310, 657308, 2
657310, 657311, 2
657310, 657309, 2
657305, 657304, 2
657305, 657303, 2
657305, 657306, 1
657322, 657320, 2
657322, 657319, 2
657322, 657321, 2
657317, 657320, 2
657317, 657316, 2
657317, 657318, 1
657317, 657321, 2
657319, 657320, 0
657319, 657318, 2
657319, 657321, 3
657319, 657322, 1
657320, 657317, 2
657320, 657319, 2
657320, 657318, 2
657320, 657313, 2
657320, 657321, 2
657320, 657322, 2
657303, 657304, 1
657303, 657301, 2
657303, 657302, 2
657303, 657305, 2
657314, 657312, 2
657314, 657316, 2
657314, 657313, 2
657314, 657315, 1
657314, 657311, 2
657306, 657304, 2
657306, 657307, 1
657306, 657305, 2
657311, 657312, 1
657311, 657314, 2
657311, 657315, 2
657311, 657310, 2
657311, 657313, 2
657311, 657309, 2
657304, 657303, 2
657304, 657305, 1
657304, 657306, 2
657312, 657313, 0
657312, 657316, 2
657312, 657314, 1
657312, 657315, 2
657312, 657311, 2
657318, 657317, 2
657318, 657320, 2
657318, 657319, 1
657318, 657321, 2
657321, 657317, 2
657321, 657319, 2
657321, 657318, 2
657321, 657320, 2
657321, 657316, 2
657321, 657322, 2
657300, 657301, 1
657301, 657300, 2
657301, 657302, 1
657301, 657303, 2
657316, 657317, 1
657316, 657312, 2
657316, 657314, 2
657316, 657313, 2
657316, 657315, 2
657316, 657321, 2
657313, 657312, 2
657313, 657314, 2
657313, 657315, 2
657313, 657320, 2
657313, 657316, 2
657313, 657311, 2
657309, 657308, 2
657309, 657310, 8
657309, 657311, 1
