573331, 573332, 3
573331, 573333, 0
573331, 573334, 1
573336, 573335, 2
573336, 573337, 1
573333, 573332, 2
573333, 573331, 2
573333, 573334, 2
573334, 573332, 2
573334, 573331, 2
573334, 573335, 1
573334, 573333, 2
573332, 573331, 2
573332, 573333, 2
573332, 573334, 2
573338, 573337, 2
573335, 573336, 1
573335, 573334, 2
573337, 573338, 1
573337, 573336, 2
