432961, 432962, 1
432961, 432963, 2
432961, 432964, 2
432962, 432961, 2
432962, 432964, 2
432962, 432963, 1
432963, 432961, 2
432963, 432962, 2
432963, 432964, 0
432964, 432961, 2
432964, 432962, 2
432964, 432963, 2
