572761, 572762, 2
572761, 572763, 2
572761, 572760, 2
572761, 572765, 2
572762, 572761, 2
572762, 572765, 2
572762, 572763, 1
572762, 572760, 2
572762, 572764, 2
572763, 572761, 2
572763, 572762, 2
572763, 572765, 2
572763, 572760, 2
572763, 572764, 1
572760, 572761, 3
572760, 572762, 8
572760, 572763, 2
572760, 572765, 1
572764, 572762, 2
572764, 572766, 2
572764, 572763, 2
572764, 572765, 2
572766, 572765, 2
572766, 572764, 2
572765, 572761, 2
572765, 572762, 2
572765, 572763, 2
572765, 572760, 2
572765, 572764, 2
572765, 572766, 3
