489104, 489100, 2
489104, 489096, 2
489104, 489102, 2
489104, 489103, 2
489104, 489105, 2
489098, 489100, 2
489098, 489099, 2
489098, 489097, 2
489095, 489096, 1
489103, 489101, 2
489103, 489105, 0
489103, 489102, 2
489103, 489100, 2
489103, 489104, 3
489099, 489098, 2
489099, 489100, 1
489099, 489096, 2
489099, 489097, 2
489100, 489098, 2
489100, 489103, 2
489100, 489099, 2
489100, 489101, 0
489100, 489104, 2
489100, 489102, 1
489100, 489097, 2
489096, 489104, 2
489096, 489097, 1
489096, 489095, 2
489096, 489099, 2
489102, 489100, 2
489102, 489101, 2
489102, 489103, 1
489102, 489104, 2
489101, 489100, 2
489101, 489102, 2
489101, 489103, 2
489105, 489103, 2
489105, 489104, 2
489097, 489098, 0
489097, 489100, 2
489097, 489096, 2
489097, 489099, 1
