495380, 495377, 2
495380, 495379, 2
495380, 495381, 2
495381, 495379, 2
495381, 495380, 2
495381, 495376, 2
495375, 495377, 3
495375, 495378, 2
495375, 495376, 0
495375, 495379, 2
495377, 495375, 2
495377, 495378, 1
495377, 495376, 2
495377, 495380, 2
495377, 495379, 2
495378, 495375, 2
495378, 495377, 2
495378, 495379, 1
495378, 495376, 2
495376, 495375, 2
495376, 495377, 2
495376, 495378, 2
495376, 495379, 2
495376, 495381, 2
495379, 495380, 8
495379, 495381, 1
495379, 495375, 2
495379, 495377, 2
495379, 495378, 2
495379, 495376, 2
