608315, 608316, 2
608315, 608317, 2
608315, 608313, 2
608315, 608314, 2
608316, 608315, 2
608316, 608317, 1
608316, 608313, 2
608316, 608314, 2
608317, 608315, 2
608317, 608316, 2
608317, 608314, 2
608317, 608313, 2
608313, 608315, 0
608313, 608316, 1
608313, 608317, 2
608313, 608314, 3
608313, 608312, 2
608313, 608311, 2
608314, 608315, 2
608314, 608316, 2
608314, 608317, 2
608314, 608313, 2
608314, 608312, 2
608314, 608311, 2
608312, 608311, 2
608312, 608314, 2
608312, 608313, 1
608311, 608314, 2
608311, 608313, 2
608311, 608312, 1
