657980, 657981, 1
657980, 657982, 2
657981, 657980, 2
657981, 657982, 8
657981, 657983, 1
657983, 657981, 2
657983, 657984, 1
657983, 657982, 2
657984, 657982, 2
657984, 657983, 2
657982, 657980, 2
657982, 657981, 2
657982, 657984, 2
657982, 657983, 2
