625464, 625465, 3
625464, 625467, 1
625465, 625464, 2
625465, 625467, 2
625465, 625466, 2
625466, 625467, 2
625466, 625468, 2
625466, 625465, 2
625467, 625464, 2
625467, 625465, 2
625467, 625466, 2
625467, 625468, 3
625468, 625467, 2
625468, 625466, 2
