450789, 450790, 1
450789, 450791, 2
450789, 450792, 2
450789, 450788, 2
450785, 450783, 2
450785, 450786, 1
450785, 450784, 2
450795, 450794, 2
450795, 450793, 2
450795, 450792, 2
450795, 450796, 1
450790, 450791, 3
450790, 450789, 2
450790, 450792, 1
450786, 450785, 2
450786, 450787, 1
450794, 450793, 2
450794, 450795, 2
450796, 450795, 2
450793, 450794, 0
450793, 450792, 2
450793, 450795, 1
450791, 450790, 2
450791, 450789, 2
450791, 450792, 2
450783, 450781, 2
450783, 450784, 1
450783, 450782, 2
450783, 450785, 2
450784, 450783, 2
450784, 450785, 1
450788, 450789, 1
450788, 450787, 2
450781, 450783, 2
450781, 450782, 1
450781, 450780, 2
450792, 450790, 2
450792, 450793, 1
450792, 450791, 2
450792, 450789, 2
450792, 450795, 2
450782, 450783, 1
450782, 450781, 2
450780, 450781, 1
450787, 450786, 2
450787, 450788, 1
