554517, 554518, 2
554517, 554516, 2
554517, 554519, 2
554518, 554517, 2
554518, 554514, 2
554518, 554512, 2
554518, 554516, 2
554518, 554519, 2
554514, 554518, 2
554514, 554513, 2
554514, 554512, 2
554514, 554511, 2
554514, 554516, 2
554514, 554515, 1
554513, 554514, 1
554513, 554511, 2
554513, 554512, 2
554512, 554513, 2
554512, 554514, 2
554512, 554511, 2
554512, 554518, 2
554511, 554513, 1
554511, 554512, 3
554511, 554514, 2
554519, 554517, 2
554519, 554518, 2
554519, 554516, 2
554516, 554517, 0
554516, 554514, 2
554516, 554519, 1
554516, 554518, 3
554516, 554515, 2
554515, 554514, 2
554515, 554516, 1
