550614, 550612, 2
550614, 550613, 2
550614, 550609, 2
550614, 550615, 2
550602, 550601, 2
550602, 550603, 1
550612, 550610, 2
550612, 550614, 2
550612, 550613, 1
550612, 550609, 2
550612, 550611, 2
550609, 550610, 2
550609, 550614, 2
550609, 550612, 2
550609, 550608, 2
550609, 550607, 2
550609, 550605, 2
550609, 550606, 2
550608, 550610, 1
550608, 550606, 2
550608, 550607, 2
550608, 550609, 0
550604, 550605, 0
550604, 550606, 1
550604, 550603, 2
550613, 550614, 0
550613, 550612, 2
550613, 550615, 1
550613, 550611, 2
550610, 550606, 2
550610, 550612, 1
550610, 550609, 2
550610, 550608, 2
550610, 550611, 3
550601, 550602, 1
550601, 550600, 2
550606, 550610, 2
550606, 550609, 2
550606, 550608, 2
550606, 550607, 1
550606, 550603, 2
550606, 550605, 2
550606, 550604, 2
550616, 550615, 2
550616, 550611, 2
550603, 550605, 2
550603, 550602, 2
550603, 550606, 2
550603, 550604, 1
550605, 550603, 2
550605, 550606, 2
550605, 550607, 2
550605, 550609, 2
550605, 550604, 2
550607, 550605, 2
550607, 550606, 2
550607, 550609, 2
550607, 550608, 1
550600, 550601, 1
550615, 550614, 2
550615, 550613, 2
550615, 550616, 3
550615, 550611, 2
550611, 550613, 2
550611, 550612, 2
550611, 550616, 2
550611, 550615, 2
550611, 550610, 2
