492213, 492214, 3
492213, 492215, 1
492213, 492216, 2
492217, 492214, 2
492217, 492218, 1
492217, 492220, 2
492217, 492215, 2
492217, 492216, 2
492232, 492234, 1
492232, 492233, 0
492232, 492231, 2
492229, 492228, 2
492229, 492230, 1
492224, 492223, 2
492224, 492226, 2
492224, 492225, 2
492228, 492227, 2
492228, 492225, 2
492228, 492226, 2
492228, 492229, 1
492233, 492234, 2
492233, 492235, 2
492233, 492232, 2
492231, 492230, 2
492231, 492234, 2
492231, 492226, 2
492231, 492232, 1
492226, 492228, 2
492226, 492231, 2
492226, 492223, 2
492226, 492227, 2
492226, 492224, 2
492226, 492225, 2
492223, 492222, 2
492223, 492221, 2
492223, 492224, 8
492223, 492226, 2
492223, 492225, 1
492216, 492213, 2
492216, 492215, 2
492216, 492217, 1
492216, 492214, 2
492234, 492233, 2
492234, 492231, 2
492234, 492235, 1
492234, 492232, 2
492218, 492217, 2
492218, 492220, 1
492218, 492219, 0
492220, 492218, 2
492220, 492217, 2
492220, 492221, 1
492220, 492219, 2
492222, 492221, 2
492222, 492223, 1
492214, 492213, 2
492214, 492215, 2
492214, 492217, 2
492214, 492216, 2
492236, 492237, 1
492236, 492235, 2
492227, 492228, 1
492227, 492226, 2
492227, 492225, 2
492238, 492237, 2
492215, 492213, 2
492215, 492216, 1
492215, 492217, 2
492215, 492214, 2
492235, 492236, 1
492235, 492234, 2
492235, 492233, 2
492235, 492237, 2
492225, 492228, 2
492225, 492227, 1
492225, 492224, 2
492225, 492226, 3
492225, 492223, 2
492237, 492236, 2
492237, 492238, 1
492237, 492235, 2
492219, 492221, 2
492219, 492218, 2
492219, 492220, 2
492221, 492222, 1
492221, 492223, 2
492221, 492220, 2
492221, 492219, 2
492230, 492231, 1
492230, 492229, 2
