378616, 378615, 2
378614, 378613, 2
378614, 378615, 1
378614, 378612, 2
378613, 378614, 1
378613, 378612, 2
378615, 378614, 2
378615, 378616, 1
378615, 378612, 2
378612, 378614, 2
378612, 378613, 1
378612, 378615, 2
