490308, 490307, 2
490308, 490309, 2
490308, 490306, 2
490304, 490305, 1
490304, 490303, 2
490303, 490304, 1
490311, 490310, 2
490311, 490312, 1
490307, 490308, 8
490307, 490309, 1
490307, 490305, 2
490307, 490306, 2
490305, 490310, 2
490305, 490307, 2
490305, 490309, 2
490305, 490304, 2
490305, 490306, 1
490306, 490307, 1
490306, 490308, 2
490306, 490305, 2
490310, 490311, 1
490310, 490309, 2
490310, 490305, 2
490310, 490312, 2
490313, 490314, 2
490313, 490312, 2
490315, 490314, 2
490315, 490316, 1
490312, 490310, 2
490312, 490311, 2
490312, 490313, 3
490312, 490314, 1
490309, 490310, 1
490309, 490307, 2
490309, 490308, 2
490309, 490305, 2
490316, 490315, 2
490314, 490313, 2
490314, 490315, 1
490314, 490312, 2
