455451, 455452, 2
455451, 455453, 2
455451, 455450, 2
455451, 455449, 2
455452, 455449, 2
455452, 455453, 1
455452, 455450, 2
455452, 455451, 2
455453, 455452, 2
455453, 455450, 2
455453, 455451, 2
455450, 455452, 1
455450, 455453, 2
455450, 455451, 8
455450, 455449, 2
455449, 455452, 2
455449, 455450, 1
455449, 455451, 2
