379554, 379553, 2
379554, 379555, 1
379553, 379551, 2
379553, 379554, 1
379553, 379552, 2
379558, 379557, 2
379555, 379554, 2
379555, 379556, 0
379555, 379557, 1
379551, 379553, 1
379551, 379552, 0
379552, 379551, 2
379552, 379553, 2
379556, 379557, 2
379556, 379555, 2
379557, 379556, 2
379557, 379558, 0
379557, 379555, 2
