552383, 552382, 2
552383, 552384, 1
552383, 552380, 2
552383, 552386, 2
552383, 552376, 2
552383, 552377, 2
552394, 552395, 2
552394, 552390, 2
552394, 552391, 2
552394, 552384, 2
552394, 552393, 2
552378, 552371, 2
552378, 552372, 2
552378, 552386, 2
552378, 552380, 2
552378, 552369, 2
552378, 552374, 2
552378, 552362, 2
552378, 552365, 2
552378, 552379, 1
552378, 552376, 2
552378, 552377, 2
552378, 552375, 2
552370, 552371, 1
552370, 552369, 2
552389, 552395, 2
552389, 552391, 8
552389, 552393, 2
552389, 552388, 2
552389, 552392, 1
552389, 552390, 3
552382, 552383, 1
552382, 552380, 2
552382, 552377, 2
552395, 552393, 2
552395, 552394, 2
552395, 552389, 2
552395, 552387, 2
552395, 552390, 2
552369, 552371, 2
552369, 552367, 2
552369, 552364, 2
552369, 552378, 2
552369, 552370, 1
552369, 552381, 2
552369, 552368, 2
552363, 552365, 1
552363, 552364, 6
552363, 552362, 2
552391, 552393, 2
552391, 552394, 2
552391, 552389, 2
552391, 552392, 2
552391, 552390, 2
552365, 552367, 2
552365, 552363, 2
552365, 552364, 2
552365, 552366, 1
552365, 552378, 2
552365, 552381, 2
552365, 552368, 2
552362, 552363, 1
552362, 552364, 2
552362, 552378, 2
552388, 552393, 2
552388, 552387, 2
552388, 552384, 2
552388, 552385, 2
552388, 552392, 2
552388, 552389, 1
552388, 552386, 2
552388, 552381, 2
552388, 552377, 2
552388, 552390, 2
552377, 552383, 2
552377, 552387, 2
552377, 552384, 2
552377, 552378, 4
552377, 552386, 1
552377, 552385, 2
552377, 552380, 2
552377, 552382, 2
552377, 552376, 2
552377, 552388, 2
552377, 552379, 2
552377, 552381, 6
552371, 552369, 2
552371, 552364, 2
552371, 552378, 2
552371, 552370, 2
552371, 552372, 1
552371, 552381, 2
552372, 552371, 2
552372, 552373, 1
552372, 552374, 2
552372, 552381, 2
552372, 552378, 2
552366, 552365, 2
552366, 552367, 8
552366, 552368, 1
552364, 552371, 2
552364, 552369, 2
552364, 552363, 2
552364, 552362, 2
552364, 552365, 2
552364, 552381, 2
552387, 552395, 2
552387, 552385, 2
552387, 552381, 2
552387, 552386, 2
552387, 552388, 2
552387, 552377, 2
552387, 552376, 2
552384, 552388, 2
552384, 552393, 2
552384, 552383, 2
552384, 552385, 0
552384, 552394, 2
552384, 552386, 2
552384, 552376, 2
552384, 552377, 2
552384, 552390, 2
552385, 552387, 2
552385, 552384, 2
552385, 552376, 2
552385, 552386, 2
552385, 552388, 2
552385, 552377, 2
552385, 552390, 2
552386, 552388, 1
552386, 552383, 2
552386, 552387, 6
552386, 552384, 2
552386, 552385, 2
552386, 552378, 2
552386, 552380, 2
552386, 552381, 2
552386, 552377, 2
552386, 552376, 2
552380, 552383, 2
552380, 552378, 2
552380, 552386, 2
552380, 552379, 2
552380, 552382, 1
552380, 552377, 2
552380, 552376, 2
552368, 552365, 2
552368, 552369, 1
552368, 552367, 2
552368, 552366, 2
552390, 552395, 2
552390, 552393, 2
552390, 552391, 2
552390, 552384, 2
552390, 552385, 2
552390, 552394, 2
552390, 552389, 2
552390, 552388, 2
552390, 552392, 2
552393, 552395, 1
552393, 552391, 2
552393, 552384, 2
552393, 552394, 3
552393, 552389, 2
552393, 552388, 2
552393, 552392, 2
552393, 552390, 2
552374, 552372, 2
552374, 552378, 2
552374, 552375, 1
552374, 552381, 2
552374, 552376, 2
552374, 552373, 2
552367, 552365, 2
552367, 552369, 2
552367, 552368, 2
552367, 552366, 2
552392, 552393, 1
552392, 552391, 2
552392, 552388, 2
552392, 552389, 2
552392, 552390, 2
552373, 552372, 2
552373, 552374, 1
552379, 552380, 1
552379, 552377, 2
552379, 552378, 2
552381, 552371, 2
552381, 552372, 2
552381, 552364, 2
552381, 552387, 2
552381, 552376, 2
552381, 552369, 2
552381, 552374, 2
552381, 552365, 2
552381, 552386, 2
552381, 552388, 2
552381, 552377, 2
552381, 552375, 2
552376, 552383, 2
552376, 552374, 2
552376, 552387, 2
552376, 552384, 2
552376, 552378, 2
552376, 552386, 2
552376, 552385, 2
552376, 552380, 2
552376, 552381, 2
552376, 552377, 1
552376, 552375, 2
552375, 552374, 2
552375, 552381, 2
552375, 552376, 1
552375, 552378, 2
