553927, 553926, 2
553927, 553925, 2
553922, 553923, 1
553922, 553924, 2
553925, 553923, 2
553925, 553924, 2
553925, 553926, 1
553925, 553927, 2
553923, 553924, 3
553923, 553922, 2
553923, 553925, 1
553924, 553923, 2
553924, 553922, 2
553924, 553925, 2
553926, 553927, 1
553926, 553925, 2
