494125, 494128, 2
494125, 494127, 2
494125, 494126, 1
494129, 494128, 2
494129, 494127, 2
494129, 494126, 2
494126, 494125, 2
494126, 494129, 2
494126, 494128, 1
494126, 494127, 8
494128, 494125, 2
494128, 494129, 1
494128, 494126, 2
494128, 494127, 2
494127, 494128, 2
494127, 494129, 2
494127, 494126, 2
494127, 494125, 2
