449289, 449287, 2
449289, 449290, 1
449289, 449288, 2
449283, 449284, 1
449283, 449285, 2
449283, 449286, 2
449290, 449289, 2
449290, 449292, 2
449290, 449291, 1
449290, 449288, 2
449288, 449289, 2
449288, 449287, 2
449288, 449290, 2
449288, 449286, 2
449286, 449287, 1
449286, 449283, 2
449286, 449285, 2
449286, 449288, 2
449291, 449292, 1
449291, 449290, 2
449287, 449289, 1
449287, 449288, 8
449287, 449286, 2
449284, 449283, 2
449284, 449285, 0
449292, 449291, 2
449292, 449290, 2
449285, 449283, 2
449285, 449284, 2
449285, 449286, 2
