537472, 537474, 2
537472, 537473, 1
537472, 537475, 2
537472, 537471, 2
537472, 537477, 2
537475, 537472, 2
537475, 537471, 2
537475, 537469, 2
537475, 537474, 2
537475, 537473, 2
537475, 537476, 3
537475, 537477, 1
537475, 537470, 2
537471, 537472, 2
537471, 537475, 2
537471, 537474, 2
537471, 537473, 2
537471, 537470, 2
537471, 537469, 2
537477, 537472, 2
537477, 537475, 2
537477, 537476, 2
537477, 537470, 2
537477, 537473, 2
537474, 537472, 2
537474, 537475, 2
537474, 537471, 2
537474, 537476, 2
537474, 537473, 2
537473, 537472, 2
537473, 537475, 2
537473, 537471, 2
537473, 537469, 2
537473, 537474, 1
537473, 537470, 2
537473, 537477, 2
537470, 537473, 2
537470, 537475, 1
537470, 537471, 3
537470, 537477, 2
537470, 537469, 2
537469, 537473, 2
537469, 537475, 2
537469, 537471, 2
537469, 537470, 1
537476, 537474, 2
537476, 537475, 2
537476, 537477, 2
