534718, 534716, 2
534718, 534719, 1
534718, 534717, 2
534712, 534711, 2
534712, 534716, 2
534712, 534715, 2
534712, 534713, 2
534712, 534714, 2
534713, 534711, 2
534713, 534716, 2
534713, 534715, 2
534713, 534712, 2
534713, 534714, 1
534716, 534718, 2
534716, 534715, 2
534716, 534712, 2
534716, 534713, 2
534716, 534717, 3
534716, 534711, 2
534716, 534721, 1
534716, 534719, 2
534716, 534714, 2
534719, 534722, 2
534719, 534718, 2
534719, 534717, 2
534719, 534721, 2
534719, 534720, 2
534719, 534716, 2
534722, 534721, 2
534722, 534720, 2
534722, 534719, 2
534715, 534716, 2
534715, 534712, 2
534715, 534713, 2
534715, 534717, 2
534715, 534714, 2
534717, 534718, 1
534717, 534715, 2
534717, 534716, 2
534717, 534719, 2
534711, 534716, 1
534711, 534712, 3
534711, 534713, 8
534711, 534714, 2
534721, 534722, 3
534721, 534716, 2
534721, 534720, 2
534721, 534719, 2
534720, 534722, 2
534720, 534719, 2
534720, 534721, 2
534714, 534711, 2
534714, 534716, 2
534714, 534715, 1
534714, 534712, 2
534714, 534713, 2
