403926, 403925, 2
403926, 403930, 2
403926, 403927, 2
403926, 403928, 2
403928, 403930, 2
403928, 403927, 2
403928, 403929, 1
403928, 403926, 2
403921, 403923, 2
403921, 403922, 1
403925, 403923, 2
403925, 403927, 1
403925, 403926, 3
403925, 403924, 2
403923, 403925, 2
403923, 403922, 2
403923, 403921, 2
403923, 403924, 1
403930, 403926, 2
403930, 403928, 2
403930, 403929, 2
403927, 403925, 2
403927, 403926, 2
403927, 403928, 1
403929, 403930, 1
403929, 403928, 2
403922, 403923, 1
403922, 403921, 2
403924, 403923, 2
403924, 403925, 1
