432617, 432612, 2
432617, 432620, 1
432617, 432613, 2
432617, 432615, 2
432617, 432616, 2
432617, 432614, 2
432617, 432618, 3
432617, 432619, 2
432613, 432612, 2
432613, 432620, 2
432613, 432615, 2
432613, 432616, 8
432613, 432614, 3
432613, 432617, 1
432616, 432618, 2
432616, 432617, 2
432616, 432613, 2
432616, 432615, 2
432628, 432626, 2
432628, 432627, 2
432628, 432629, 1
432628, 432630, 2
432628, 432625, 2
432633, 432635, 1
432633, 432632, 2
432633, 432634, 8
432633, 432636, 2
432612, 432614, 2
432612, 432617, 2
432612, 432613, 1
432622, 432620, 2
432622, 432627, 2
432622, 432619, 2
432622, 432623, 1
432622, 432621, 2
432622, 432624, 2
432631, 432632, 1
432631, 432630, 2
432618, 432616, 2
432618, 432620, 2
432618, 432617, 2
432618, 432619, 1
432618, 432615, 2
432634, 432635, 2
432634, 432632, 2
432634, 432633, 2
432634, 432636, 2
432632, 432635, 2
432632, 432634, 2
432632, 432631, 2
432632, 432633, 1
432632, 432629, 2
432632, 432630, 2
432629, 432632, 2
432629, 432628, 2
432629, 432627, 2
432629, 432630, 2
432624, 432627, 2
432624, 432623, 2
432624, 432622, 2
432624, 432625, 1
432620, 432613, 2
432620, 432619, 2
432620, 432618, 2
432620, 432622, 2
432620, 432617, 2
432620, 432621, 1
432627, 432624, 2
432627, 432628, 3
432627, 432622, 2
432627, 432626, 2
432627, 432623, 2
432627, 432625, 2
432627, 432630, 1
432627, 432629, 2
432615, 432616, 2
432615, 432618, 2
432615, 432614, 2
432615, 432617, 2
432615, 432613, 2
432636, 432633, 2
432636, 432634, 2
432636, 432635, 2
432623, 432622, 2
432623, 432626, 8
432623, 432627, 1
432623, 432625, 2
432623, 432630, 2
432623, 432624, 3
432630, 432628, 2
432630, 432627, 2
432630, 432631, 1
432630, 432632, 2
432630, 432623, 2
432630, 432629, 2
432625, 432626, 2
432625, 432623, 2
432625, 432627, 2
432625, 432628, 2
432625, 432624, 2
432635, 432633, 2
432635, 432632, 2
432635, 432634, 2
432635, 432636, 1
432626, 432628, 2
432626, 432627, 2
432626, 432625, 2
432626, 432623, 2
432614, 432612, 2
432614, 432617, 2
432614, 432613, 2
432614, 432615, 1
432621, 432620, 2
432621, 432622, 1
432619, 432618, 2
432619, 432620, 2
432619, 432617, 2
432619, 432622, 2
