642699, 642698, 2
642699, 642700, 1
642701, 642704, 2
642701, 642703, 2
642701, 642702, 1
642701, 642700, 2
642688, 642689, 1
642688, 642687, 2
642688, 642690, 2
642697, 642691, 2
642697, 642696, 2
642697, 642698, 1
642692, 642693, 1
642692, 642691, 2
642692, 642690, 2
642694, 642691, 2
642694, 642693, 2
642694, 642696, 2
642694, 642695, 1
642691, 642693, 2
642691, 642694, 2
642691, 642690, 2
642691, 642692, 2
642691, 642697, 2
642690, 642689, 2
642690, 642688, 2
642690, 642692, 1
642690, 642691, 0
642700, 642699, 2
642700, 642701, 1
642700, 642698, 2
642700, 642703, 2
642700, 642702, 2
642689, 642688, 2
642689, 642690, 1
642696, 642694, 2
642696, 642695, 2
642696, 642697, 1
642695, 642696, 1
642695, 642694, 2
642703, 642704, 1
642703, 642701, 2
642703, 642702, 2
642703, 642700, 2
642705, 642704, 2
642698, 642699, 1
642698, 642700, 2
642698, 642697, 2
642704, 642701, 2
642704, 642703, 2
642704, 642705, 1
642687, 642688, 1
642693, 642692, 2
642693, 642694, 1
642693, 642691, 2
642702, 642701, 2
642702, 642703, 1
642702, 642700, 2
