515477, 515475, 2
515477, 515476, 2
515474, 515475, 1
515474, 515473, 2
515474, 515472, 2
515472, 515473, 0
515472, 515474, 1
515476, 515477, 1
515476, 515475, 2
515475, 515477, 2
515475, 515473, 2
515475, 515474, 2
515475, 515476, 1
515473, 515475, 2
515473, 515474, 2
515473, 515472, 2
