495092, 495090, 2
495092, 495093, 1
495092, 495091, 2
495093, 495094, 3
495093, 495092, 2
495093, 495088, 2
495088, 495090, 2
495088, 495093, 2
495088, 495089, 1
495090, 495089, 2
495090, 495092, 1
495090, 495091, 3
495090, 495088, 2
495094, 495093, 2
495094, 495091, 2
495091, 495090, 2
495091, 495092, 2
495091, 495094, 2
495089, 495090, 1
495089, 495088, 2
