514933, 514932, 2
514933, 514934, 1
514930, 514932, 2
514930, 514931, 1
514932, 514933, 1
514932, 514930, 2
514932, 514931, 2
514937, 514938, 1
514937, 514939, 2
514937, 514936, 2
514939, 514940, 1
514939, 514937, 2
514939, 514938, 2
514935, 514934, 2
514935, 514936, 1
514936, 514935, 2
514936, 514937, 1
514934, 514933, 2
514934, 514935, 1
514938, 514937, 2
514938, 514939, 1
514931, 514930, 2
514931, 514932, 1
514940, 514939, 2
