573399, 573398, 2
573399, 573400, 1
573397, 573398, 1
573397, 573394, 2
573397, 573396, 2
573397, 573395, 2
573396, 573394, 2
573396, 573397, 2
573396, 573395, 2
573400, 573399, 2
573400, 573401, 1
573398, 573399, 1
573398, 573397, 2
573394, 573397, 1
573394, 573396, 0
573394, 573395, 3
573401, 573400, 2
573395, 573394, 2
573395, 573397, 2
573395, 573396, 2
