643823, 643825, 2
643823, 643826, 2
643823, 643824, 1
643825, 643823, 2
643825, 643824, 2
643825, 643826, 1
643827, 643826, 2
643826, 643823, 2
643826, 643825, 2
643826, 643827, 1
643826, 643824, 2
643824, 643823, 2
643824, 643825, 1
643824, 643826, 2
