522466, 522462, 2
522466, 522464, 2
522466, 522465, 2
522466, 522467, 1
522466, 522468, 2
522466, 522469, 2
522469, 522466, 2
522469, 522464, 2
522469, 522465, 2
522469, 522467, 2
522469, 522468, 2
522469, 522471, 2
522469, 522470, 2
522470, 522468, 2
522470, 522471, 8
522470, 522469, 2
522470, 522472, 1
522474, 522477, 2
522474, 522473, 2
522474, 522476, 2
522474, 522475, 8
522474, 522478, 1
522474, 522472, 2
522475, 522477, 2
522475, 522473, 2
522475, 522476, 1
522475, 522474, 2
522475, 522478, 2
522475, 522472, 2
522468, 522467, 2
522468, 522466, 2
522468, 522465, 2
522468, 522469, 8
522468, 522470, 1
522471, 522470, 2
522471, 522469, 2
522471, 522472, 2
522477, 522475, 2
522477, 522476, 2
522477, 522478, 2
522477, 522474, 2
522473, 522475, 2
522473, 522474, 1
522473, 522472, 2
522476, 522475, 2
522476, 522477, 1
522476, 522478, 2
522476, 522474, 2
522462, 522466, 1
522462, 522464, 2
522462, 522463, 3
522464, 522465, 2
522464, 522466, 2
522464, 522463, 2
522464, 522469, 2
522464, 522462, 2
522465, 522466, 2
522465, 522468, 2
522465, 522464, 2
522465, 522469, 2
522467, 522466, 2
522467, 522468, 1
522467, 522469, 2
522463, 522462, 2
522463, 522464, 1
522478, 522477, 2
522478, 522475, 2
522478, 522476, 2
522478, 522474, 2
522472, 522475, 2
522472, 522474, 2
522472, 522473, 1
522472, 522471, 2
522472, 522470, 2
