644530, 644529, 2
644530, 644532, 2
644530, 644531, 1
644536, 644537, 1
644536, 644535, 2
644536, 644534, 2
644534, 644536, 2
644534, 644533, 2
644534, 644535, 1
644537, 644536, 2
644537, 644535, 2
644529, 644530, 1
644535, 644536, 1
644535, 644534, 2
644535, 644537, 2
644532, 644530, 2
644532, 644533, 1
644532, 644531, 2
644533, 644532, 2
644533, 644534, 1
644533, 644531, 2
644531, 644530, 2
644531, 644533, 2
644531, 644532, 1
