340888, 340890, 2
340888, 340885, 2
340888, 340886, 2
340888, 340889, 1
340888, 340887, 2
340883, 340884, 1
340883, 340886, 2
340883, 340885, 2
340887, 340888, 2
340887, 340886, 2
340887, 340889, 2
340887, 340885, 2
340884, 340883, 2
340884, 340886, 2
340884, 340885, 1
340890, 340888, 2
340890, 340886, 2
340890, 340889, 2
340886, 340888, 2
340886, 340883, 2
340886, 340887, 3
340886, 340884, 2
340886, 340890, 2
340886, 340885, 2
340889, 340888, 2
340889, 340890, 0
340889, 340885, 2
340889, 340887, 2
340885, 340888, 1
340885, 340883, 2
340885, 340887, 2
340885, 340884, 2
340885, 340886, 0
340885, 340889, 2
