522322, 522321, 2
522322, 522324, 2
522322, 522323, 2
522325, 522326, 1
522325, 522327, 2
522325, 522324, 2
522325, 522323, 2
522323, 522321, 2
522323, 522324, 1
522323, 522322, 2
522323, 522325, 2
522327, 522325, 2
522327, 522324, 2
522327, 522326, 2
522327, 522328, 3
522327, 522329, 1
522332, 522329, 2
522332, 522331, 2
522328, 522327, 2
522328, 522330, 2
522328, 522329, 2
522321, 522323, 1
522321, 522322, 3
522326, 522325, 2
522326, 522327, 1
522326, 522324, 2
522331, 522330, 2
522331, 522329, 2
522331, 522332, 0
522330, 522329, 2
522330, 522328, 2
522330, 522331, 2
522324, 522323, 2
522324, 522327, 2
522324, 522322, 2
522324, 522326, 2
522324, 522325, 1
522329, 522327, 2
522329, 522332, 2
522329, 522328, 2
522329, 522330, 3
522329, 522331, 1
