379618, 379619, 1
379618, 379617, 2
379616, 379615, 2
379616, 379617, 1
379615, 379616, 1
379615, 379617, 2
379619, 379620, 1
379619, 379618, 2
379620, 379619, 2
379620, 379621, 1
379617, 379615, 2
379617, 379618, 1
379617, 379616, 2
379622, 379621, 2
379621, 379620, 2
379621, 379622, 1
