489828, 489827, 2
489828, 489829, 1
489830, 489832, 1
489830, 489831, 0
489830, 489829, 2
489827, 489828, 1
489832, 489831, 2
489832, 489830, 2
489832, 489833, 1
489837, 489835, 2
489837, 489838, 2
489837, 489836, 2
489829, 489828, 2
489829, 489830, 1
489833, 489835, 3
489833, 489839, 2
489833, 489832, 2
489833, 489838, 1
489833, 489834, 0
489833, 489836, 2
489831, 489832, 2
489831, 489830, 2
489839, 489835, 2
489839, 489838, 2
489839, 489833, 2
489835, 489837, 2
489835, 489838, 2
489835, 489834, 2
489835, 489839, 2
489835, 489836, 2
489835, 489833, 2
489838, 489835, 2
489838, 489837, 2
489838, 489839, 3
489838, 489836, 2
489838, 489833, 2
489834, 489835, 2
489834, 489836, 1
489834, 489833, 2
489836, 489835, 2
489836, 489838, 2
489836, 489834, 2
489836, 489837, 1
489836, 489833, 2
