451877, 451878, 1
451877, 451876, 2
451869, 451867, 2
451869, 451871, 2
451869, 451866, 2
451869, 451872, 2
451869, 451864, 2
451869, 451870, 1
451869, 451873, 2
451869, 451868, 2
451862, 451861, 2
451862, 451863, 1
451860, 451861, 1
451860, 451859, 2
451865, 451864, 2
451865, 451866, 1
451870, 451873, 1
451870, 451871, 4
451870, 451869, 2
451870, 451872, 6
451866, 451869, 2
451866, 451865, 2
451866, 451867, 1
451866, 451868, 2
451861, 451860, 2
451861, 451859, 2
451861, 451862, 1
451878, 451879, 1
451878, 451877, 2
451859, 451861, 2
451859, 451860, 1
451859, 451858, 2
451859, 451863, 2
451880, 451879, 2
451880, 451882, 2
451880, 451881, 1
451868, 451869, 1
451868, 451866, 2
451868, 451867, 2
451882, 451880, 2
451882, 451881, 2
451871, 451869, 2
451871, 451874, 2
451871, 451873, 2
451871, 451870, 2
451871, 451875, 2
451858, 451859, 1
451858, 451857, 2
451872, 451869, 2
451872, 451873, 2
451872, 451870, 2
451881, 451880, 2
451881, 451882, 1
451864, 451869, 2
451864, 451865, 1
451864, 451863, 2
451876, 451877, 1
451876, 451875, 2
451879, 451878, 2
451879, 451880, 1
451873, 451869, 2
451873, 451874, 1
451873, 451871, 2
451873, 451870, 2
451873, 451872, 2
451857, 451858, 1
451867, 451869, 2
451867, 451866, 2
451867, 451868, 1
451863, 451864, 1
451863, 451859, 2
451863, 451862, 2
451874, 451873, 2
451874, 451871, 2
451874, 451875, 1
451875, 451871, 2
451875, 451874, 2
451875, 451876, 1
