553362, 553363, 1
553362, 553361, 2
553349, 553347, 2
553349, 553353, 2
553349, 553348, 2
553349, 553351, 2
553349, 553346, 2
553349, 553350, 1
553368, 553370, 1
553368, 553369, 8
553368, 553367, 2
553355, 553357, 1
553355, 553354, 2
553355, 553356, 8
553389, 553387, 2
553389, 553385, 2
553389, 553386, 2
553389, 553390, 1
553389, 553388, 2
553363, 553362, 2
553363, 553353, 2
553363, 553365, 2
553363, 553361, 2
553363, 553364, 1
553346, 553347, 1
553346, 553349, 2
553346, 553353, 2
553346, 553348, 2
553346, 553345, 2
553346, 553344, 2
553380, 553379, 2
553380, 553383, 1
553380, 553384, 2
553380, 553381, 3
553380, 553382, 8
553358, 553359, 1
553358, 553356, 2
553358, 553357, 2
553358, 553360, 2
553358, 553361, 2
553358, 553353, 2
553373, 553375, 2
553373, 553374, 2
553373, 553372, 2
553373, 553376, 2
553373, 553371, 2
553375, 553373, 2
553375, 553376, 3
553375, 553377, 1
553375, 553374, 2
553375, 553372, 2
553375, 553371, 2
553381, 553379, 2
553381, 553383, 2
553381, 553382, 2
553381, 553380, 2
553383, 553379, 2
553383, 553384, 1
553383, 553381, 2
553383, 553382, 2
553383, 553380, 2
553359, 553360, 1
553359, 553361, 2
553359, 553358, 2
553348, 553347, 2
553348, 553349, 1
553348, 553346, 2
553356, 553355, 2
553356, 553357, 2
553356, 553354, 2
553356, 553358, 2
553367, 553369, 2
553367, 553366, 2
553367, 553368, 1
553365, 553353, 2
553365, 553363, 2
553365, 553366, 2
553365, 553354, 2
553365, 553364, 2
553386, 553387, 3
553386, 553389, 1
553386, 553385, 2
553386, 553390, 2
553354, 553353, 2
553354, 553356, 2
553354, 553355, 1
553354, 553357, 2
553354, 553352, 2
553354, 553365, 2
553388, 553387, 2
553388, 553389, 2
553388, 553390, 2
553357, 553355, 2
553357, 553354, 2
553357, 553358, 1
553357, 553356, 2
553385, 553386, 1
553385, 553389, 2
553385, 553384, 2
553385, 553387, 2
553372, 553374, 8
553372, 553377, 2
553372, 553375, 1
553372, 553373, 3
553372, 553371, 2
553379, 553383, 2
553379, 553381, 2
553379, 553378, 2
553379, 553380, 1
553347, 553349, 2
553347, 553346, 2
553347, 553348, 1
553391, 553390, 2
553366, 553367, 1
553366, 553365, 2
553366, 553364, 2
553353, 553349, 2
553353, 553354, 2
553353, 553365, 2
553353, 553358, 2
553353, 553352, 2
553353, 553351, 2
553353, 553363, 2
553353, 553346, 2
553353, 553361, 2
553390, 553386, 2
553390, 553389, 2
553390, 553391, 1
553390, 553388, 2
553378, 553379, 1
553378, 553377, 2
553384, 553383, 2
553384, 553385, 1
553384, 553382, 2
553384, 553380, 2
553345, 553346, 1
553345, 553344, 2
553369, 553370, 2
553369, 553367, 2
553369, 553368, 2
553374, 553375, 2
553374, 553373, 2
553374, 553372, 2
553374, 553376, 2
553350, 553349, 2
553350, 553351, 1
553376, 553373, 2
553376, 553377, 2
553376, 553375, 2
553376, 553374, 2
553343, 553344, 1
553382, 553383, 2
553382, 553384, 2
553382, 553381, 2
553382, 553380, 2
553344, 553343, 2
553344, 553345, 1
553344, 553346, 2
553377, 553378, 1
553377, 553375, 2
553377, 553376, 2
553377, 553372, 2
553351, 553349, 2
553351, 553353, 2
553351, 553350, 2
553351, 553352, 1
553361, 553362, 1
553361, 553359, 2
553361, 553358, 2
553361, 553353, 2
553361, 553360, 2
553361, 553363, 2
553364, 553366, 1
553364, 553363, 2
553364, 553365, 6
553370, 553369, 2
553370, 553371, 1
553370, 553368, 2
553352, 553354, 1
553352, 553351, 2
553352, 553353, 6
553387, 553386, 2
553387, 553389, 2
553387, 553385, 2
553387, 553388, 2
553360, 553359, 2
553360, 553361, 1
553360, 553358, 2
553371, 553370, 2
553371, 553375, 2
553371, 553373, 2
553371, 553372, 1
