374548, 374549, 1
374548, 374547, 2
374550, 374549, 2
374547, 374548, 1
374547, 374549, 2
374547, 374546, 2
374542, 374543, 1
374542, 374541, 2
374541, 374540, 2
374541, 374542, 1
374541, 374538, 2
374541, 374539, 2
374541, 374543, 2
374538, 374540, 2
374538, 374541, 2
374538, 374539, 1
374539, 374540, 3
374539, 374541, 1
374539, 374538, 2
374546, 374545, 2
374546, 374547, 1
374544, 374543, 2
374544, 374545, 1
374543, 374544, 1
374543, 374542, 2
374543, 374541, 2
374543, 374545, 2
374549, 374548, 2
374549, 374550, 1
374549, 374547, 2
374540, 374541, 2
374540, 374538, 2
374540, 374539, 2
374545, 374544, 2
374545, 374543, 2
374545, 374546, 1
