534333, 534334, 3
534333, 534335, 1
534336, 534340, 1
534336, 534337, 3
534336, 534334, 2
534336, 534338, 2
534336, 534335, 2
534342, 534341, 2
534342, 534340, 2
534338, 534336, 2
534338, 534340, 2
534338, 534337, 2
534338, 534339, 1
534337, 534336, 2
534337, 534338, 1
534339, 534340, 2
534339, 534338, 2
534341, 534342, 1
534341, 534340, 2
534334, 534333, 2
534334, 534336, 2
534334, 534335, 2
534340, 534341, 1
534340, 534336, 2
534340, 534342, 2
534340, 534338, 2
534340, 534339, 2
534335, 534333, 2
534335, 534336, 1
534335, 534334, 2
