551590, 551589, 2
551590, 551591, 1
551590, 551593, 2
551590, 551588, 2
551590, 551594, 2
551590, 551598, 2
551595, 551596, 1
551595, 551594, 2
551595, 551598, 2
551578, 551581, 2
551578, 551583, 2
551578, 551582, 2
551578, 551580, 2
551578, 551579, 2
551578, 551577, 2
551589, 551591, 2
551589, 551593, 2
551589, 551583, 2
551589, 551588, 2
551589, 551590, 1
551589, 551594, 2
551596, 551593, 2
551596, 551595, 2
551596, 551597, 0
551596, 551598, 1
551579, 551582, 2
551579, 551580, 2
551579, 551578, 2
551579, 551581, 2
551579, 551577, 2
551587, 551586, 2
551587, 551588, 1
551574, 551573, 2
551574, 551576, 2
551574, 551575, 2
551594, 551592, 2
551594, 551589, 2
551594, 551595, 1
551594, 551591, 2
551594, 551593, 2
551594, 551583, 2
551594, 551588, 2
551594, 551590, 2
551594, 551598, 2
551577, 551578, 2
551577, 551581, 2
551577, 551576, 2
551577, 551582, 2
551577, 551580, 2
551577, 551579, 2
551592, 551593, 2
551592, 551588, 2
551592, 551594, 2
551592, 551598, 2
551592, 551591, 2
551573, 551576, 2
551573, 551574, 3
551573, 551575, 1
551597, 551596, 2
551597, 551598, 2
551576, 551573, 2
551576, 551575, 2
551576, 551574, 2
551576, 551577, 2
551584, 551593, 2
551584, 551583, 2
551584, 551585, 1
551582, 551578, 2
551582, 551581, 2
551582, 551583, 2
551582, 551579, 2
551582, 551580, 2
551582, 551577, 2
551575, 551573, 2
551575, 551574, 2
551575, 551576, 1
551585, 551584, 2
551585, 551586, 1
551585, 551583, 2
551586, 551593, 2
551586, 551583, 2
551586, 551587, 1
551586, 551585, 2
551591, 551592, 1
551591, 551589, 2
551591, 551593, 2
551591, 551588, 2
551591, 551590, 2
551591, 551594, 2
551581, 551578, 2
551581, 551582, 2
551581, 551580, 2
551581, 551579, 2
551581, 551577, 2
551593, 551592, 2
551593, 551589, 2
551593, 551588, 2
551593, 551591, 2
551593, 551584, 2
551593, 551596, 2
551593, 551586, 2
551593, 551583, 2
551593, 551594, 2
551593, 551598, 2
551593, 551590, 2
551583, 551589, 2
551583, 551586, 2
551583, 551578, 2
551583, 551593, 2
551583, 551584, 1
551583, 551582, 2
551583, 551594, 2
551583, 551585, 2
551588, 551589, 0
551588, 551592, 2
551588, 551591, 2
551588, 551593, 8
551588, 551587, 2
551588, 551590, 2
551588, 551594, 1
551580, 551582, 2
551580, 551581, 2
551580, 551579, 2
551580, 551578, 2
551580, 551577, 2
551598, 551592, 2
551598, 551595, 2
551598, 551597, 2
551598, 551593, 2
551598, 551596, 2
551598, 551590, 2
551598, 551594, 2
