378583, 378585, 2
378583, 378584, 1
378583, 378582, 2
378586, 378585, 2
378586, 378587, 1
378582, 378583, 1
378585, 378586, 1
378585, 378583, 2
378585, 378584, 2
378585, 378587, 2
378584, 378583, 2
378584, 378585, 1
378587, 378585, 2
378587, 378586, 2
