421303, 421304, 2
421303, 421306, 2
421303, 421305, 2
421303, 421302, 2
421305, 421303, 2
421305, 421307, 2
421305, 421301, 2
421305, 421304, 2
421305, 421306, 2
421305, 421302, 2
421301, 421304, 1
421301, 421306, 2
421301, 421305, 2
421301, 421302, 3
421304, 421303, 2
421304, 421301, 2
421304, 421306, 1
421304, 421305, 8
421304, 421302, 2
421306, 421303, 2
421306, 421301, 2
421306, 421304, 2
421306, 421305, 2
421306, 421307, 3
421302, 421303, 2
421302, 421301, 2
421302, 421304, 2
421302, 421305, 2
421307, 421306, 2
421307, 421305, 2
