641616, 641614, 2
641616, 641615, 2
641612, 641614, 2
641612, 641611, 2
641612, 641609, 2
641612, 641613, 2
641613, 641614, 1
641613, 641612, 2
641613, 641609, 2
641607, 641608, 1
641607, 641606, 2
641614, 641616, 2
641614, 641612, 2
641614, 641613, 2
641614, 641615, 1
641614, 641609, 2
641614, 641606, 2
641615, 641614, 2
641615, 641616, 3
641608, 641609, 1
641608, 641606, 2
641608, 641607, 2
641609, 641611, 2
641609, 641612, 2
641609, 641613, 1
641609, 641614, 2
641609, 641608, 2
641609, 641610, 3
641611, 641612, 1
641611, 641609, 2
641611, 641610, 2
641610, 641611, 1
641610, 641609, 2
641606, 641614, 2
641606, 641608, 2
641606, 641607, 1
