417438, 417439, 2
417438, 417441, 2
417438, 417443, 2
417438, 417437, 2
417441, 417439, 2
417441, 417438, 2
417441, 417442, 1
417441, 417443, 2
417441, 417440, 2
417445, 417444, 2
417445, 417442, 2
417445, 417443, 2
417437, 417438, 3
417437, 417439, 1
417440, 417439, 2
417440, 417441, 1
417439, 417438, 2
417439, 417441, 2
417439, 417437, 2
417439, 417440, 1
417439, 417442, 2
417439, 417443, 2
417444, 417445, 1
417444, 417442, 2
417444, 417443, 2
417442, 417439, 2
417442, 417441, 2
417442, 417445, 2
417442, 417443, 3
417442, 417444, 1
417443, 417438, 2
417443, 417441, 2
417443, 417445, 2
417443, 417439, 2
417443, 417444, 2
417443, 417442, 2
