625797, 625798, 2
625797, 625795, 2
625797, 625796, 2
625797, 625794, 2
625795, 625797, 2
625795, 625796, 2
625795, 625793, 2
625795, 625794, 2
625796, 625797, 3
625796, 625795, 2
625796, 625798, 1
625796, 625794, 2
625793, 625795, 2
625793, 625792, 2
625793, 625794, 1
625798, 625797, 2
625798, 625796, 2
625792, 625793, 1
625794, 625797, 2
625794, 625795, 8
625794, 625796, 1
625794, 625793, 2
