420661, 420662, 1
420661, 420659, 2
420661, 420663, 2
420661, 420660, 2
420662, 420661, 2
420662, 420663, 1
420662, 420660, 2
420659, 420661, 2
420659, 420660, 1
420663, 420661, 2
420663, 420662, 2
420660, 420661, 1
420660, 420662, 2
420660, 420659, 2
