592845, 592844, 2
592845, 592846, 1
592844, 592845, 1
592844, 592846, 2
592848, 592849, 1
592848, 592847, 2
592848, 592846, 2
592849, 592850, 1
592849, 592848, 2
592850, 592849, 2
592847, 592846, 2
592847, 592848, 2
592846, 592845, 2
592846, 592847, 0
592846, 592844, 2
592846, 592848, 1
