625954, 625952, 2
625954, 625953, 2
625954, 625951, 2
625948, 625949, 2
625948, 625947, 2
625952, 625954, 2
625952, 625953, 2
625952, 625950, 2
625952, 625951, 2
625950, 625949, 2
625950, 625952, 2
625950, 625953, 1
625950, 625951, 0
625949, 625948, 2
625949, 625950, 1
625949, 625947, 2
625947, 625949, 1
625947, 625948, 3
625953, 625954, 1
625953, 625952, 2
625953, 625950, 2
625951, 625954, 2
625951, 625952, 3
625951, 625950, 2
