449414, 449419, 2
449414, 449415, 1
449414, 449417, 2
449423, 449422, 2
449423, 449424, 1
449422, 449419, 2
449422, 449423, 1
449422, 449424, 2
449422, 449421, 2
449419, 449414, 2
449419, 449422, 2
449419, 449418, 2
449419, 449417, 2
449419, 449415, 2
449419, 449420, 2
449419, 449421, 2
449418, 449419, 8
449418, 449417, 2
449418, 449416, 2
449418, 449420, 1
449418, 449421, 2
449416, 449418, 2
449416, 449417, 2
449416, 449415, 2
449415, 449414, 2
449415, 449417, 1
449415, 449416, 0
449415, 449419, 2
449424, 449423, 2
449424, 449422, 2
449417, 449418, 1
449417, 449419, 2
449417, 449416, 2
449417, 449415, 2
449417, 449414, 2
449420, 449418, 2
449420, 449419, 2
449420, 449421, 0
449421, 449418, 2
449421, 449419, 2
449421, 449422, 2
449421, 449420, 2
