455600, 455599, 2
455600, 455601, 8
455600, 455602, 1
455599, 455600, 1
455599, 455602, 2
455601, 455600, 2
455601, 455603, 2
455601, 455602, 2
455602, 455600, 2
455602, 455599, 2
455602, 455601, 2
455602, 455603, 1
455603, 455601, 2
455603, 455602, 2
