571072, 571073, 1
571072, 571074, 2
571073, 571072, 2
571073, 571074, 1
571078, 571079, 1
571078, 571076, 2
571078, 571077, 2
571088, 571086, 2
571088, 571083, 2
571088, 571089, 3
571088, 571087, 2
571081, 571080, 2
571081, 571082, 1
571081, 571079, 2
571081, 571077, 2
571074, 571072, 2
571074, 571073, 2
571074, 571075, 0
571074, 571076, 1
571085, 571086, 1
571085, 571083, 2
571085, 571084, 2
571085, 571087, 2
571089, 571088, 2
571089, 571090, 3
571082, 571083, 1
571082, 571081, 2
571087, 571086, 2
571087, 571083, 2
571087, 571085, 2
571087, 571088, 2
571087, 571084, 2
571090, 571086, 2
571090, 571089, 2
571086, 571083, 2
571086, 571085, 2
571086, 571088, 2
571086, 571087, 0
571086, 571090, 2
571083, 571086, 2
571083, 571082, 2
571083, 571088, 1
571083, 571085, 2
571083, 571087, 2
571083, 571084, 3
571079, 571080, 1
571079, 571078, 2
571079, 571077, 2
571079, 571081, 2
571077, 571078, 3
571077, 571079, 2
571077, 571076, 2
571077, 571081, 1
571075, 571074, 2
571075, 571076, 2
571080, 571079, 2
571080, 571081, 2
571076, 571074, 2
571076, 571078, 2
571076, 571075, 2
571076, 571077, 1
571084, 571083, 2
571084, 571085, 1
571084, 571087, 2
