592387, 592389, 1
592387, 592386, 2
592387, 592388, 3
592387, 592385, 2
592389, 592387, 2
592389, 592388, 2
592386, 592387, 1
592386, 592385, 2
592388, 592387, 2
592388, 592389, 2
592388, 592385, 2
592385, 592387, 2
592385, 592386, 1
592385, 592388, 2
