536990, 536989, 2
536990, 536992, 2
536990, 536991, 1
536990, 536993, 2
536990, 536988, 2
536994, 536993, 2
536994, 536992, 2
536992, 536990, 2
536992, 536994, 2
536992, 536991, 2
536992, 536989, 2
536992, 536993, 2
536991, 536990, 2
536991, 536993, 2
536991, 536992, 1
536991, 536988, 2
536991, 536989, 2
536988, 536990, 8
536988, 536989, 3
536988, 536991, 2
536988, 536993, 1
536989, 536990, 2
536989, 536993, 2
536989, 536992, 2
536989, 536991, 2
536989, 536988, 2
536993, 536994, 3
536993, 536990, 2
536993, 536992, 2
536993, 536991, 2
536993, 536988, 2
536993, 536989, 2
