593117, 593118, 1
593121, 593120, 2
593121, 593122, 1
593119, 593118, 2
593119, 593120, 1
593118, 593117, 2
593118, 593119, 1
593120, 593121, 1
593120, 593119, 2
593120, 593122, 2
593123, 593122, 2
593123, 593124, 0
593124, 593123, 2
593122, 593120, 2
593122, 593123, 0
593122, 593121, 2
