405784, 405783, 2
405780, 405781, 3
405780, 405782, 1
405780, 405779, 2
405779, 405780, 3
405779, 405783, 2
405779, 405782, 2
405783, 405784, 1
405783, 405782, 2
405783, 405779, 2
405781, 405780, 2
405781, 405782, 2
405782, 405780, 2
405782, 405783, 1
405782, 405781, 2
405782, 405779, 2
