450406, 450407, 1
450406, 450405, 2
450405, 450407, 2
450405, 450404, 2
450405, 450406, 1
450401, 450403, 1
450401, 450402, 3
450403, 450404, 1
450403, 450402, 2
450403, 450401, 2
450404, 450403, 2
450404, 450405, 1
450412, 450410, 2
450412, 450411, 2
450412, 450413, 1
450408, 450409, 8
450408, 450407, 2
450408, 450410, 1
450407, 450408, 1
450407, 450409, 2
450407, 450410, 2
450407, 450406, 2
450407, 450405, 2
450415, 450414, 2
450409, 450408, 2
450409, 450410, 2
450409, 450407, 2
450410, 450408, 2
450410, 450409, 2
450410, 450407, 2
450410, 450411, 3
450410, 450412, 1
450411, 450410, 2
450411, 450412, 2
450414, 450413, 2
450414, 450415, 1
450402, 450403, 2
450402, 450401, 2
450413, 450412, 2
450413, 450414, 1
