379566, 379565, 2
379564, 379565, 1
379564, 379563, 2
379563, 379565, 2
379563, 379561, 2
379563, 379562, 2
379563, 379564, 1
379563, 379559, 2
379565, 379564, 2
379565, 379566, 1
379565, 379563, 2
379561, 379563, 2
379561, 379560, 2
379561, 379562, 1
379561, 379559, 2
379559, 379561, 2
379559, 379560, 1
379559, 379563, 2
379562, 379561, 2
379562, 379563, 1
379560, 379561, 1
379560, 379559, 2
