551302, 551303, 2
551302, 551301, 2
551302, 551298, 2
551302, 551304, 2
551302, 551300, 2
551292, 551291, 2
551292, 551293, 3
551292, 551284, 2
551292, 551294, 1
551294, 551292, 2
551294, 551293, 2
551294, 551296, 2
551294, 551295, 1
551296, 551299, 2
551296, 551297, 1
551296, 551300, 2
551296, 551295, 2
551296, 551298, 2
551296, 551294, 2
551303, 551301, 2
551303, 551300, 2
551303, 551304, 1
551303, 551302, 2
551295, 551296, 1
551295, 551294, 2
551298, 551299, 2
551298, 551302, 2
551298, 551296, 2
551298, 551297, 2
551298, 551300, 2
551284, 551291, 2
551284, 551283, 2
551284, 551292, 2
551284, 551286, 2
551284, 551300, 2
551284, 551288, 2
551289, 551291, 2
551289, 551288, 2
551289, 551290, 1
551283, 551286, 1
551283, 551284, 6
551283, 551285, 3
551291, 551290, 2
551291, 551292, 1
551291, 551293, 2
551291, 551289, 2
551291, 551284, 2
551291, 551288, 2
551299, 551298, 2
551299, 551296, 2
551299, 551297, 2
551299, 551300, 1
551287, 551288, 1
551287, 551286, 2
551290, 551291, 1
551290, 551289, 2
551290, 551288, 2
551286, 551287, 1
551286, 551284, 2
551286, 551285, 2
551286, 551288, 2
551286, 551283, 2
551285, 551286, 2
551285, 551283, 2
551301, 551303, 1
551301, 551300, 2
551301, 551304, 2
551301, 551302, 3
551297, 551299, 1
551297, 551298, 3
551297, 551300, 2
551297, 551296, 2
551300, 551299, 2
551300, 551296, 2
551300, 551297, 2
551300, 551302, 2
551300, 551303, 2
551300, 551298, 2
551300, 551284, 2
551300, 551301, 1
551293, 551292, 2
551293, 551291, 2
551293, 551288, 2
551293, 551294, 2
551288, 551291, 2
551288, 551287, 2
551288, 551290, 2
551288, 551293, 2
551288, 551289, 1
551288, 551284, 2
551288, 551286, 2
551304, 551303, 2
551304, 551301, 2
551304, 551302, 2
