607945, 607946, 1
607945, 607944, 2
607946, 607945, 2
607946, 607944, 2
607946, 607947, 1
607946, 607948, 2
607944, 607945, 1
607944, 607946, 2
607947, 607946, 2
607947, 607948, 1
607948, 607946, 2
607948, 607947, 2
