454828, 454829, 1
454828, 454827, 2
454822, 454821, 2
454822, 454824, 2
454822, 454823, 1
454826, 454825, 2
454826, 454809, 2
454826, 454827, 1
454826, 454813, 2
454831, 454832, 1
454831, 454830, 2
454825, 454824, 2
454825, 454826, 1
454804, 454805, 1
454804, 454802, 2
454804, 454806, 2
454804, 454803, 2
454812, 454811, 2
454812, 454813, 2
454812, 454814, 2
454812, 454810, 2
454808, 454809, 2
454808, 454811, 2
454808, 454810, 2
454808, 454807, 2
454808, 454806, 2
454808, 454814, 2
454840, 454839, 2
454840, 454813, 2
454834, 454813, 2
454834, 454838, 1
454834, 454835, 0
454834, 454832, 2
454834, 454833, 2
454834, 454836, 3
454824, 454821, 2
454824, 454809, 2
454824, 454822, 2
454824, 454813, 2
454824, 454825, 1
454824, 454823, 2
454818, 454809, 2
454818, 454817, 2
454818, 454819, 0
454818, 454821, 1
454818, 454813, 2
454818, 454820, 2
454818, 454815, 2
454818, 454816, 2
454817, 454809, 2
454817, 454818, 1
454817, 454813, 2
454817, 454816, 2
454817, 454810, 2
454817, 454815, 2
454817, 454814, 2
454836, 454835, 2
454836, 454834, 2
454836, 454833, 2
454836, 454838, 2
454836, 454837, 1
454803, 454804, 1
454803, 454802, 2
454837, 454835, 2
454837, 454838, 2
454837, 454836, 2
454821, 454824, 1
454821, 454822, 3
454821, 454813, 2
454821, 454819, 2
454821, 454818, 2
454821, 454820, 2
454821, 454809, 2
454821, 454823, 2
454820, 454821, 2
454820, 454809, 2
454820, 454818, 2
454820, 454819, 2
454833, 454835, 2
454833, 454834, 1
454833, 454836, 2
454833, 454832, 2
454829, 454828, 2
454829, 454827, 2
454829, 454830, 2
454816, 454818, 2
454816, 454817, 1
454816, 454810, 2
454816, 454813, 2
454816, 454815, 2
454816, 454814, 2
454823, 454821, 2
454823, 454824, 2
454823, 454822, 2
454823, 454813, 2
454811, 454809, 2
454811, 454813, 2
454811, 454808, 2
454811, 454812, 2
454811, 454807, 2
454811, 454810, 4
454811, 454806, 2
454811, 454814, 1
454813, 454811, 2
454813, 454838, 2
454813, 454832, 2
454813, 454810, 2
454813, 454806, 2
454813, 454830, 2
454813, 454840, 2
454813, 454834, 2
454813, 454824, 2
454813, 454818, 2
454813, 454817, 2
454813, 454826, 2
454813, 454812, 2
454813, 454821, 2
454813, 454827, 2
454813, 454815, 2
454813, 454816, 2
454813, 454814, 2
454813, 454823, 2
454819, 454821, 2
454819, 454820, 1
454819, 454818, 2
454838, 454834, 2
454838, 454809, 2
454838, 454813, 2
454838, 454837, 2
454838, 454835, 2
454838, 454839, 1
454838, 454836, 2
454832, 454834, 2
454832, 454809, 2
454832, 454833, 1
454832, 454813, 2
454832, 454831, 2
454801, 454802, 2
454801, 454800, 2
454801, 454799, 2
454806, 454809, 0
454806, 454811, 1
454806, 454813, 2
454806, 454810, 2
454806, 454805, 2
454806, 454804, 2
454806, 454807, 3
454806, 454808, 2
454830, 454829, 2
454830, 454809, 2
454830, 454827, 2
454830, 454813, 2
454830, 454831, 1
454809, 454811, 2
454809, 454838, 2
454809, 454832, 2
454809, 454807, 2
454809, 454806, 2
454809, 454830, 2
454809, 454824, 2
454809, 454818, 2
454809, 454817, 2
454809, 454808, 2
454809, 454810, 2
454809, 454821, 2
454809, 454820, 2
454809, 454814, 2
454809, 454826, 2
454839, 454838, 2
454839, 454840, 1
454827, 454828, 3
454827, 454813, 2
454827, 454826, 2
454827, 454830, 1
454827, 454829, 2
454800, 454799, 2
454800, 454801, 1
454810, 454809, 2
454810, 454811, 2
454810, 454813, 1
454810, 454814, 2
454810, 454812, 8
454810, 454808, 2
454810, 454817, 2
454810, 454806, 2
454810, 454816, 2
454835, 454834, 2
454835, 454833, 2
454835, 454836, 2
454835, 454838, 2
454835, 454837, 2
454805, 454804, 2
454805, 454806, 1
454802, 454804, 2
454802, 454799, 2
454802, 454803, 1
454802, 454801, 2
454815, 454813, 2
454815, 454818, 2
454815, 454817, 2
454815, 454814, 2
454815, 454816, 1
454807, 454809, 2
454807, 454811, 2
454807, 454806, 2
454807, 454808, 1
454814, 454809, 2
454814, 454811, 2
454814, 454817, 2
454814, 454808, 2
454814, 454812, 2
454814, 454813, 2
454814, 454810, 2
454814, 454815, 1
454814, 454816, 2
454799, 454802, 1
454799, 454800, 3
454799, 454801, 2
