624077, 624076, 2
624077, 624080, 2
624077, 624075, 2
624077, 624078, 1
624085, 624084, 2
624085, 624086, 1
624085, 624083, 2
624081, 624082, 1
624081, 624079, 2
624081, 624083, 2
624081, 624080, 2
624081, 624078, 2
624083, 624084, 1
624083, 624081, 2
624083, 624085, 2
624083, 624082, 2
624083, 624080, 2
624079, 624081, 2
624079, 624080, 1
624079, 624078, 2
624084, 624085, 1
624084, 624083, 2
624082, 624081, 2
624082, 624083, 1
624082, 624080, 2
624076, 624077, 1
624076, 624075, 2
624080, 624077, 2
624080, 624082, 2
624080, 624075, 2
624080, 624078, 2
624080, 624081, 1
624080, 624083, 2
624080, 624079, 2
624075, 624077, 2
624075, 624076, 1
624075, 624080, 2
624078, 624081, 2
624078, 624077, 2
624078, 624080, 2
624078, 624079, 1
624087, 624086, 2
624086, 624087, 1
624086, 624085, 2
