489308, 489307, 2
489308, 489309, 1
489308, 489305, 2
489304, 489307, 2
489304, 489306, 1
489304, 489305, 6
489311, 489310, 2
489311, 489312, 1
489311, 489305, 2
489306, 489304, 2
489306, 489307, 1
489306, 489305, 2
489305, 489308, 2
489305, 489304, 2
489305, 489311, 2
489305, 489306, 2
489305, 489307, 2
489305, 489310, 2
489305, 489312, 2
489305, 489309, 2
489307, 489308, 1
489307, 489304, 2
489307, 489306, 2
489307, 489305, 2
489310, 489311, 1
489310, 489309, 2
489310, 489305, 2
489312, 489311, 2
489312, 489313, 1
489312, 489305, 2
489312, 489314, 2
489313, 489312, 2
489313, 489314, 1
489309, 489308, 2
489309, 489310, 1
489309, 489305, 2
489314, 489312, 2
489314, 489313, 2
