417834, 417832, 2
417834, 417836, 2
417834, 417837, 2
417834, 417833, 2
417834, 417835, 1
417829, 417830, 1
417829, 417828, 2
417829, 417827, 2
417829, 417826, 2
417832, 417830, 2
417832, 417834, 1
417832, 417833, 3
417832, 417831, 2
417837, 417836, 2
417837, 417834, 2
417837, 417838, 1
417837, 417835, 2
417824, 417825, 0
417824, 417826, 1
417831, 417830, 2
417831, 417832, 1
417836, 417837, 2
417836, 417834, 2
417836, 417838, 2
417836, 417835, 2
417835, 417837, 1
417835, 417836, 8
417835, 417834, 2
417825, 417824, 2
417825, 417826, 2
417828, 417830, 2
417828, 417827, 2
417828, 417829, 2
417828, 417826, 2
417826, 417825, 2
417826, 417824, 2
417826, 417829, 2
417826, 417828, 2
417826, 417827, 1
417830, 417832, 2
417830, 417828, 2
417830, 417831, 1
417830, 417829, 2
417830, 417833, 2
417833, 417830, 2
417833, 417832, 2
417833, 417834, 2
417827, 417828, 8
417827, 417829, 1
417827, 417826, 2
417838, 417837, 2
417838, 417836, 2
