572059, 572057, 2
572059, 572058, 2
572059, 572060, 1
572059, 572061, 2
572057, 572059, 2
572057, 572058, 1
572058, 572059, 1
572058, 572057, 2
572060, 572059, 2
572060, 572061, 1
572061, 572059, 2
572061, 572060, 2
