534165, 534164, 2
534165, 534163, 2
534165, 534162, 2
534164, 534165, 1
534164, 534163, 2
534164, 534162, 2
534158, 534161, 2
534158, 534160, 2
534158, 534157, 2
534158, 534159, 2
534162, 534165, 2
534162, 534164, 1
534162, 534160, 2
534162, 534163, 3
534162, 534161, 2
534161, 534158, 2
534161, 534162, 2
534161, 534159, 2
534161, 534163, 2
534161, 534160, 2
534161, 534157, 2
534163, 534165, 2
534163, 534164, 2
534163, 534160, 2
534163, 534162, 2
534163, 534161, 2
534160, 534158, 2
534160, 534162, 1
534160, 534159, 2
534160, 534163, 2
534160, 534161, 8
534160, 534157, 2
534157, 534161, 2
534157, 534160, 2
534157, 534158, 3
534157, 534159, 1
534159, 534160, 1
534159, 534157, 2
534159, 534158, 2
534159, 534161, 2
