491540, 491539, 2
491540, 491543, 1
491540, 491541, 3
491540, 491542, 0
491552, 491548, 2
491552, 491551, 2
491552, 491549, 2
491552, 491547, 2
491538, 491539, 1
491538, 491536, 2
491538, 491537, 2
491545, 491544, 2
491545, 491543, 2
491545, 491541, 2
491545, 491546, 1
491535, 491534, 2
491535, 491537, 2
491535, 491536, 1
491539, 491540, 1
491539, 491538, 2
491543, 491544, 3
491543, 491540, 2
491543, 491541, 2
491543, 491546, 2
491543, 491545, 1
491543, 491542, 2
491549, 491548, 2
491549, 491552, 2
491549, 491546, 2
491549, 491550, 1
491549, 491551, 2
491549, 491542, 2
491549, 491547, 2
491547, 491549, 0
491547, 491552, 1
491547, 491548, 3
491547, 491546, 2
491544, 491545, 2
491544, 491543, 2
491544, 491541, 2
491551, 491550, 2
491551, 491552, 2
491551, 491548, 2
491551, 491549, 2
491548, 491549, 2
491548, 491552, 2
491548, 491546, 2
491548, 491550, 2
491548, 491551, 2
491548, 491547, 2
491537, 491535, 2
491537, 491538, 2
491537, 491536, 2
491541, 491544, 2
491541, 491545, 2
491541, 491540, 2
491541, 491543, 2
491541, 491542, 2
491546, 491549, 2
491546, 491545, 2
491546, 491543, 2
491546, 491542, 2
491546, 491548, 2
491546, 491547, 1
491550, 491549, 2
491550, 491551, 1
491550, 491548, 2
491534, 491535, 1
491542, 491540, 2
491542, 491543, 2
491542, 491541, 2
491542, 491549, 2
491542, 491546, 2
491536, 491535, 2
491536, 491537, 3
491536, 491538, 1
