490043, 490044, 2
490043, 490041, 2
490043, 490046, 2
490043, 490045, 2
490043, 490042, 2
490047, 490049, 2
490047, 490046, 2
490047, 490045, 2
490047, 490048, 1
490038, 490037, 2
490038, 490039, 1
490039, 490041, 2
490039, 490040, 1
490039, 490038, 2
490041, 490044, 2
490041, 490043, 2
490041, 490040, 2
490041, 490039, 2
490041, 490045, 2
490041, 490042, 1
490037, 490038, 1
490045, 490044, 2
490045, 490041, 2
490045, 490046, 3
490045, 490043, 2
490045, 490047, 1
490049, 490046, 2
490049, 490048, 2
490049, 490047, 2
490044, 490041, 2
490044, 490046, 2
490044, 490043, 2
490044, 490045, 1
490044, 490042, 2
490046, 490049, 2
490046, 490044, 2
490046, 490043, 2
490046, 490047, 2
490046, 490045, 2
490046, 490048, 2
490040, 490041, 1
490040, 490039, 2
490042, 490044, 1
490042, 490041, 2
490042, 490043, 3
490048, 490049, 1
490048, 490046, 2
490048, 490047, 2
