571464, 571465, 1
571464, 571466, 2
571464, 571463, 2
571487, 571486, 2
571487, 571488, 1
571470, 571468, 2
571470, 571472, 2
571470, 571471, 1
571470, 571469, 2
571467, 571468, 1
571467, 571466, 2
571466, 571464, 2
571466, 571465, 2
571466, 571467, 1
571466, 571468, 2
571482, 571481, 2
571482, 571483, 1
571476, 571477, 1
571476, 571475, 2
571468, 571469, 1
571468, 571470, 2
571468, 571467, 2
571468, 571466, 2
571474, 571473, 2
571474, 571475, 1
571465, 571464, 2
571465, 571463, 2
571465, 571466, 1
571481, 571483, 2
571481, 571480, 2
571481, 571482, 1
571473, 571472, 2
571473, 571474, 1
571473, 571471, 2
571478, 571477, 2
571478, 571479, 2
571486, 571487, 1
571486, 571485, 2
571475, 571477, 2
571475, 571474, 2
571475, 571476, 1
571483, 571484, 3
571483, 571485, 1
571483, 571481, 2
571483, 571482, 2
571488, 571487, 2
571485, 571486, 1
571485, 571483, 2
571485, 571484, 2
571484, 571483, 2
571484, 571485, 2
571463, 571464, 1
571463, 571465, 2
571477, 571478, 3
571477, 571476, 2
571477, 571475, 2
571477, 571479, 1
571472, 571473, 2
571472, 571470, 2
571472, 571471, 2
571469, 571468, 2
571469, 571470, 1
571480, 571481, 1
571480, 571479, 2
571471, 571472, 3
571471, 571473, 1
571471, 571470, 2
571479, 571477, 2
571479, 571478, 2
571479, 571480, 1
