657939, 657938, 2
657939, 657937, 2
657939, 657936, 2
657936, 657939, 2
657936, 657938, 2
657936, 657937, 3
657937, 657939, 1
657937, 657936, 2
657937, 657938, 8
657938, 657939, 2
657938, 657936, 2
657938, 657937, 2
