374483, 374484, 1
374483, 374480, 2
374483, 374481, 2
374483, 374482, 2
374478, 374479, 1
374478, 374477, 2
374479, 374478, 2
374479, 374481, 1
374479, 374480, 0
374479, 374484, 2
374479, 374477, 2
374479, 374482, 2
374481, 374483, 2
374481, 374482, 1
374481, 374484, 2
374481, 374479, 2
374481, 374480, 2
374480, 374483, 2
374480, 374479, 2
374480, 374481, 2
374480, 374482, 2
374486, 374485, 2
374486, 374484, 2
374482, 374483, 1
374482, 374479, 2
374482, 374481, 2
374482, 374480, 2
374484, 374486, 2
374484, 374483, 2
374484, 374479, 2
374484, 374481, 2
374484, 374485, 1
374485, 374484, 2
374485, 374486, 1
374477, 374478, 1
374477, 374479, 2
374477, 374476, 2
374476, 374477, 1
