593392, 593394, 1
593392, 593395, 2
593392, 593393, 3
593393, 593392, 2
593393, 593394, 2
593393, 593395, 2
593393, 593396, 2
593395, 593392, 2
593395, 593394, 2
593395, 593393, 2
593395, 593396, 1
593396, 593397, 1
593396, 593395, 2
593396, 593393, 2
593397, 593398, 1
593397, 593396, 2
593399, 593398, 2
593394, 593392, 2
593394, 593393, 2
593394, 593395, 1
593398, 593397, 2
593398, 593399, 1
