593159, 593161, 1
593159, 593160, 8
593159, 593158, 2
593164, 593161, 2
593164, 593162, 2
593164, 593163, 2
593157, 593158, 1
593158, 593161, 2
593158, 593159, 1
593158, 593163, 2
593158, 593157, 2
593161, 593159, 2
593161, 593164, 2
593161, 593158, 2
593161, 593163, 1
593161, 593162, 8
593161, 593160, 2
593163, 593161, 2
593163, 593162, 2
593163, 593164, 1
593163, 593158, 2
593162, 593161, 2
593162, 593163, 2
593162, 593160, 2
593162, 593164, 2
593160, 593161, 2
593160, 593159, 2
593160, 593162, 2
