642486, 642485, 2
642486, 642483, 2
642486, 642487, 1
642486, 642484, 2
642481, 642480, 2
642481, 642479, 2
642481, 642482, 1
642481, 642483, 2
642482, 642484, 2
642482, 642481, 2
642482, 642479, 2
642482, 642480, 2
642482, 642483, 2
642484, 642485, 2
642484, 642486, 2
642484, 642482, 2
642484, 642483, 2
642479, 642478, 2
642479, 642481, 2
642479, 642482, 2
642479, 642493, 2
642479, 642483, 1
642479, 642480, 8
642490, 642493, 2
642490, 642491, 1
642490, 642489, 2
642478, 642480, 2
642478, 642479, 1
642492, 642493, 6
642492, 642491, 2
642493, 642492, 2
642493, 642487, 2
642493, 642490, 2
642493, 642479, 2
642493, 642488, 2
642493, 642491, 2
642493, 642489, 2
642487, 642486, 2
642487, 642488, 1
642487, 642493, 2
642483, 642486, 2
642483, 642481, 2
642483, 642482, 2
642483, 642480, 2
642483, 642485, 1
642483, 642484, 8
642483, 642479, 2
642485, 642484, 2
642485, 642486, 1
642485, 642483, 2
642480, 642478, 2
642480, 642479, 2
642480, 642481, 1
642480, 642482, 2
642480, 642483, 2
642488, 642493, 2
642488, 642487, 2
642488, 642489, 1
642491, 642492, 1
642491, 642493, 2
642491, 642490, 2
642489, 642488, 2
642489, 642493, 2
642489, 642490, 1
