419127, 419126, 2
419127, 419131, 2
419127, 419129, 2
419127, 419128, 2
419127, 419125, 2
419149, 419144, 2
419149, 419150, 1
419149, 419148, 2
419149, 419147, 2
419156, 419152, 2
419156, 419155, 2
419156, 419157, 2
419153, 419154, 1
419153, 419152, 2
419153, 419155, 2
419153, 419157, 2
419129, 419127, 2
419129, 419135, 2
419129, 419128, 2
419129, 419131, 2
419129, 419133, 2
419129, 419130, 1
419129, 419132, 2
419129, 419134, 2
419133, 419135, 2
419133, 419125, 2
419133, 419129, 2
419133, 419130, 2
419133, 419124, 2
419133, 419132, 2
419130, 419135, 2
419130, 419131, 2
419130, 419129, 2
419130, 419133, 2
419130, 419132, 1
419130, 419134, 2
419139, 419136, 2
419139, 419141, 1
419139, 419135, 2
419139, 419144, 2
419139, 419138, 2
419126, 419127, 8
419126, 419125, 2
419126, 419128, 1
419135, 419139, 2
419135, 419142, 2
419135, 419137, 2
419135, 419129, 2
419135, 419133, 2
419135, 419130, 2
419135, 419134, 2
419135, 419138, 2
419135, 419140, 2
419135, 419136, 1
419135, 419131, 2
419135, 419144, 2
419135, 419132, 2
419135, 419143, 2
419125, 419126, 1
419125, 419127, 2
419125, 419122, 2
419125, 419128, 2
419125, 419131, 2
419125, 419133, 2
419125, 419123, 2
419125, 419124, 2
419136, 419138, 6
419136, 419135, 2
419136, 419142, 2
419136, 419137, 4
419136, 419141, 2
419136, 419144, 1
419136, 419139, 2
419136, 419140, 2
419136, 419143, 2
419141, 419136, 2
419141, 419144, 2
419141, 419139, 2
419141, 419138, 2
419141, 419142, 1
419134, 419131, 2
419134, 419135, 2
419134, 419129, 2
419134, 419132, 2
419134, 419130, 2
419145, 419144, 2
419145, 419146, 1
419140, 419136, 2
419140, 419135, 2
419140, 419144, 2
419140, 419143, 1
419140, 419137, 2
419148, 419149, 1
419148, 419147, 2
419122, 419123, 3
419122, 419125, 1
419122, 419124, 0
419154, 419153, 2
419154, 419152, 2
419154, 419155, 1
419146, 419145, 2
419146, 419147, 1
419128, 419126, 2
419128, 419127, 2
419128, 419129, 1
419128, 419125, 2
419142, 419136, 2
419142, 419141, 2
419142, 419135, 2
419142, 419144, 2
419142, 419138, 2
419137, 419136, 2
419137, 419135, 2
419137, 419144, 2
419137, 419140, 1
419152, 419154, 2
419152, 419156, 2
419152, 419157, 1
419152, 419151, 2
419152, 419153, 3
419152, 419155, 2
419157, 419153, 2
419157, 419152, 2
419157, 419156, 2
419150, 419151, 1
419150, 419149, 2
419150, 419144, 2
419123, 419122, 2
419123, 419131, 2
419123, 419125, 2
419123, 419124, 2
419124, 419122, 2
419124, 419133, 2
419124, 419125, 2
419124, 419123, 2
419151, 419152, 1
419151, 419150, 2
419155, 419153, 2
419155, 419152, 2
419155, 419156, 1
419155, 419154, 2
419138, 419135, 2
419138, 419142, 2
419138, 419136, 2
419138, 419141, 2
419138, 419144, 2
419138, 419139, 0
419131, 419127, 2
419131, 419135, 2
419131, 419125, 2
419131, 419129, 2
419131, 419123, 2
419131, 419130, 2
419131, 419132, 2
419131, 419134, 0
419144, 419149, 2
419144, 419142, 2
419144, 419137, 2
419144, 419150, 2
419144, 419139, 2
419144, 419135, 2
419144, 419140, 2
419144, 419136, 2
419144, 419141, 2
419144, 419145, 1
419144, 419138, 2
419144, 419143, 2
419143, 419136, 2
419143, 419135, 2
419143, 419144, 2
419143, 419140, 2
419147, 419149, 2
419147, 419146, 2
419147, 419148, 1
419132, 419135, 1
419132, 419131, 4
419132, 419129, 2
419132, 419133, 6
419132, 419130, 2
419132, 419134, 2
