554183, 554186, 2
554183, 554185, 2
554183, 554184, 3
554183, 554182, 2
554185, 554183, 2
554185, 554184, 2
554185, 554186, 1
554182, 554183, 1
554182, 554181, 2
554182, 554184, 2
554186, 554183, 2
554186, 554185, 2
554186, 554184, 2
554181, 554182, 1
554181, 554184, 2
554184, 554183, 2
554184, 554185, 1
554184, 554181, 2
554184, 554182, 2
554184, 554186, 2
