495044, 495041, 2
495044, 495043, 2
495044, 495042, 2
495044, 495045, 2
495041, 495044, 2
495041, 495040, 2
495041, 495042, 1
495041, 495043, 2
495042, 495044, 2
495042, 495041, 2
495042, 495043, 1
495045, 495044, 2
495045, 495043, 2
495040, 495041, 1
495040, 495039, 2
495039, 495040, 1
495043, 495044, 3
495043, 495041, 2
495043, 495042, 2
495043, 495045, 0
