495638, 495637, 2
495635, 495636, 1
495635, 495633, 2
495635, 495634, 2
495631, 495633, 1
495631, 495632, 3
495637, 495638, 0
495637, 495636, 2
495633, 495635, 2
495633, 495631, 2
495633, 495632, 2
495633, 495634, 1
495636, 495637, 1
495636, 495635, 2
495634, 495635, 1
495634, 495633, 2
495632, 495631, 2
495632, 495633, 2
