549899, 549901, 1
549899, 549898, 2
549899, 549900, 3
549899, 549897, 2
549902, 549901, 2
549902, 549904, 0
549902, 549903, 3
549902, 549900, 2
549902, 549905, 1
549904, 549903, 2
549904, 549905, 2
549904, 549902, 2
549903, 549901, 2
549903, 549904, 2
549903, 549900, 2
549903, 549902, 2
549903, 549905, 2
549901, 549898, 2
549901, 549900, 2
549901, 549897, 2
549901, 549902, 1
549901, 549899, 2
549901, 549903, 2
549898, 549901, 2
549898, 549899, 1
549898, 549897, 2
549900, 549901, 2
549900, 549903, 2
549900, 549899, 2
549900, 549902, 2
549906, 549908, 2
549906, 549905, 2
549906, 549907, 1
549897, 549901, 2
549897, 549898, 1
549897, 549899, 2
549907, 549908, 3
549907, 549906, 2
549908, 549905, 2
549908, 549906, 2
549908, 549907, 2
549905, 549904, 2
549905, 549903, 2
549905, 549908, 2
549905, 549902, 2
549905, 549906, 1
