433193, 433191, 2
433193, 433192, 2
433193, 433195, 1
433193, 433194, 8
433191, 433193, 2
433191, 433192, 1
433192, 433193, 1
433192, 433191, 2
433195, 433193, 2
433195, 433194, 2
433194, 433193, 2
433194, 433195, 2
