625864, 625865, 2
625864, 625867, 2
625864, 625863, 2
625862, 625863, 1
625867, 625865, 2
625867, 625866, 2
625867, 625864, 2
625865, 625864, 2
625865, 625866, 1
625865, 625867, 2
625865, 625863, 2
625866, 625865, 2
625866, 625867, 3
625866, 625863, 2
625863, 625864, 3
625863, 625862, 2
625863, 625865, 1
625863, 625866, 2
