490803, 490802, 2
490803, 490804, 1
490803, 490801, 2
490803, 490799, 2
490809, 490810, 2
490809, 490808, 2
490809, 490805, 2
490807, 490810, 2
490807, 490806, 2
490807, 490808, 2
490807, 490805, 2
490799, 490798, 2
490799, 490800, 1
490799, 490803, 2
490799, 490801, 2
490799, 490802, 2
490806, 490807, 1
490806, 490808, 2
490806, 490805, 2
490805, 490807, 2
490805, 490808, 1
490805, 490804, 2
490805, 490806, 0
490805, 490809, 2
490798, 490796, 2
490798, 490795, 2
490798, 490800, 2
490798, 490801, 2
490798, 490797, 2
490798, 490799, 1
490802, 490803, 2
490802, 490801, 2
490802, 490799, 2
490796, 490798, 2
490796, 490797, 2
490796, 490795, 2
490795, 490798, 2
490795, 490797, 1
490795, 490796, 0
490800, 490798, 2
490800, 490801, 1
490800, 490799, 2
490801, 490798, 2
490801, 490803, 1
490801, 490799, 2
490801, 490800, 2
490801, 490802, 3
490797, 490798, 1
490797, 490796, 2
490797, 490795, 2
490808, 490807, 2
490808, 490809, 3
490808, 490806, 2
490808, 490805, 2
490804, 490803, 2
490804, 490805, 1
490810, 490807, 2
490810, 490809, 2
