553793, 553794, 1
553797, 553795, 2
553797, 553796, 2
553795, 553797, 1
553795, 553796, 3
553795, 553794, 2
553794, 553795, 1
553794, 553793, 2
553794, 553796, 2
553796, 553797, 2
553796, 553795, 2
553796, 553794, 2
