572142, 572146, 2
572142, 572144, 1
572142, 572143, 0
572144, 572142, 2
572144, 572146, 2
572144, 572145, 1
572144, 572143, 2
572145, 572146, 1
572145, 572144, 2
572145, 572143, 2
572146, 572142, 2
572146, 572144, 2
572146, 572145, 2
572146, 572143, 2
572143, 572142, 2
572143, 572144, 2
572143, 572145, 2
572143, 572146, 2
