656964, 656963, 2
656964, 656962, 2
656964, 656965, 1
656954, 656953, 2
656954, 656955, 1
656954, 656952, 2
656961, 656962, 1
656961, 656958, 2
656961, 656959, 2
656961, 656960, 2
656952, 656951, 2
656952, 656955, 2
656952, 656953, 8
656952, 656954, 1
656963, 656964, 2
656963, 656962, 2
656965, 656964, 2
656965, 656966, 1
656965, 656962, 2
656953, 656951, 2
656953, 656955, 2
656953, 656954, 2
656953, 656952, 2
656959, 656961, 1
656959, 656962, 2
656959, 656958, 2
656959, 656960, 8
656962, 656964, 1
656962, 656961, 2
656962, 656960, 2
656962, 656963, 8
656962, 656965, 2
656962, 656959, 2
656951, 656950, 2
656951, 656953, 2
656951, 656952, 1
656966, 656965, 2
656950, 656951, 1
656958, 656957, 2
656958, 656961, 2
656958, 656959, 1
656955, 656953, 2
656955, 656956, 1
656955, 656954, 2
656955, 656952, 2
656960, 656961, 2
656960, 656962, 2
656960, 656959, 2
656957, 656958, 1
656957, 656956, 2
656956, 656957, 1
656956, 656955, 2
