552923, 552922, 2
552923, 552924, 1
552923, 552921, 2
552903, 552900, 2
552903, 552902, 2
552903, 552905, 2
552903, 552904, 1
552921, 552923, 0
552921, 552917, 2
552921, 552919, 2
552921, 552922, 3
552921, 552924, 2
552921, 552920, 2
552921, 552918, 2
552921, 552927, 1
552925, 552922, 2
552925, 552924, 2
552925, 552926, 1
552925, 552927, 2
552912, 552913, 1
552912, 552911, 2
552931, 552932, 1
552931, 552930, 2
552901, 552902, 1
552901, 552899, 2
552901, 552900, 2
552917, 552918, 1
552917, 552915, 2
552917, 552919, 2
552917, 552916, 2
552917, 552921, 2
552899, 552898, 2
552899, 552901, 0
552899, 552905, 1
552899, 552897, 2
552899, 552895, 2
552899, 552902, 2
552899, 552896, 2
552899, 552900, 3
552908, 552907, 2
552908, 552909, 2
552908, 552911, 2
552889, 552888, 2
552889, 552890, 1
552889, 552887, 2
552889, 552886, 2
552929, 552932, 2
552929, 552930, 1
552929, 552928, 2
552902, 552903, 1
552902, 552901, 2
552902, 552899, 2
552902, 552900, 2
552920, 552922, 2
552920, 552919, 2
552920, 552921, 2
552920, 552918, 2
552890, 552892, 2
552890, 552891, 1
552890, 552887, 2
552890, 552888, 2
552890, 552889, 2
552890, 552894, 2
552890, 552886, 2
552911, 552908, 2
552911, 552912, 1
552911, 552913, 2
552911, 552910, 2
552910, 552909, 2
552910, 552911, 1
552888, 552890, 2
552888, 552889, 2
552888, 552887, 2
552888, 552886, 2
552924, 552922, 2
552924, 552923, 2
552924, 552921, 2
552924, 552925, 1
552928, 552930, 2
552928, 552929, 1
552928, 552927, 2
552898, 552897, 2
552898, 552900, 2
552898, 552896, 2
552898, 552899, 2
552905, 552907, 2
552905, 552903, 2
552905, 552906, 1
552905, 552904, 2
552905, 552899, 2
552905, 552900, 2
552919, 552922, 2
552919, 552917, 2
552919, 552920, 2
552919, 552921, 2
552919, 552918, 2
552915, 552914, 2
552915, 552917, 1
552915, 552916, 3
552904, 552903, 2
552904, 552905, 2
552904, 552900, 2
552932, 552931, 2
552932, 552929, 2
552913, 552912, 2
552913, 552914, 1
552913, 552916, 2
552913, 552911, 2
552897, 552898, 2
552897, 552900, 2
552897, 552895, 2
552897, 552899, 2
552897, 552896, 2
552926, 552922, 2
552926, 552925, 2
552926, 552927, 2
552906, 552907, 1
552906, 552905, 2
552893, 552892, 2
552893, 552895, 1
552893, 552894, 3
552892, 552893, 1
552892, 552891, 2
552892, 552890, 2
552895, 552897, 2
552895, 552893, 2
552895, 552894, 2
552895, 552899, 2
552895, 552896, 1
552894, 552893, 2
552894, 552895, 2
552894, 552891, 2
552894, 552890, 2
552891, 552894, 2
552891, 552892, 1
552891, 552890, 2
552930, 552931, 1
552930, 552929, 2
552930, 552928, 2
552916, 552913, 2
552916, 552917, 2
552916, 552915, 2
552887, 552888, 2
552887, 552890, 2
552887, 552889, 2
552887, 552886, 2
552909, 552908, 2
552909, 552910, 1
552909, 552907, 2
552896, 552897, 3
552896, 552898, 8
552896, 552895, 2
552896, 552899, 1
552927, 552922, 2
552927, 552925, 2
552927, 552928, 1
552927, 552926, 2
552927, 552921, 2
552886, 552888, 0
552886, 552890, 2
552886, 552889, 1
552886, 552887, 3
552922, 552923, 2
552922, 552921, 2
552922, 552925, 2
552922, 552920, 2
552922, 552919, 2
552922, 552927, 2
552922, 552924, 2
552922, 552926, 2
552907, 552906, 2
552907, 552908, 0
552907, 552909, 1
552907, 552905, 2
552914, 552913, 2
552914, 552915, 1
552918, 552920, 8
552918, 552917, 2
552918, 552921, 1
552918, 552919, 3
552900, 552897, 2
552900, 552903, 2
552900, 552902, 2
552900, 552905, 2
552900, 552898, 2
552900, 552901, 2
552900, 552899, 2
552900, 552904, 2
