457019, 457021, 1
457019, 457020, 8
457027, 457025, 2
457027, 457026, 2
457026, 457027, 1
457026, 457025, 2
457020, 457021, 2
457020, 457019, 2
457022, 457023, 2
457022, 457021, 2
457021, 457023, 1
457021, 457022, 3
457021, 457019, 2
457021, 457020, 2
457025, 457023, 2
457025, 457027, 2
457025, 457026, 1
457025, 457024, 2
457023, 457025, 2
457023, 457021, 2
457023, 457024, 1
457023, 457022, 2
457024, 457023, 2
457024, 457025, 1
