494217, 494215, 2
494217, 494216, 2
494217, 494218, 2
494217, 494219, 2
494215, 494217, 0
494215, 494216, 3
494215, 494219, 2
494216, 494217, 2
494216, 494215, 2
494216, 494218, 8
494216, 494219, 1
494218, 494217, 2
494218, 494216, 2
494218, 494219, 2
494219, 494217, 2
494219, 494215, 2
494219, 494216, 2
494219, 494218, 2
