490674, 490675, 1
490674, 490673, 2
490673, 490672, 2
490673, 490674, 1
490676, 490675, 2
490676, 490678, 2
490676, 490677, 1
490671, 490670, 2
490671, 490672, 1
490681, 490678, 2
490681, 490680, 2
490668, 490669, 1
490668, 490667, 2
490680, 490681, 3
490680, 490679, 2
490675, 490674, 2
490675, 490676, 1
490672, 490671, 2
490672, 490673, 1
490667, 490670, 2
490667, 490669, 2
490667, 490668, 1
490678, 490681, 2
490678, 490677, 2
490678, 490679, 2
490678, 490676, 2
490677, 490678, 3
490677, 490679, 1
490677, 490676, 2
490669, 490670, 1
490669, 490668, 2
490669, 490667, 2
490679, 490678, 2
490679, 490677, 2
490679, 490680, 1
490670, 490671, 1
490670, 490669, 2
490670, 490667, 2
