340348, 340350, 2
340348, 340349, 1
340354, 340352, 2
340354, 340353, 2
340353, 340352, 2
340353, 340354, 1
340351, 340350, 2
340351, 340352, 1
340351, 340349, 2
340350, 340348, 2
340350, 340351, 2
340350, 340349, 2
340352, 340354, 2
340352, 340353, 1
340352, 340351, 2
340352, 340349, 2
340349, 340350, 8
340349, 340348, 2
340349, 340351, 1
340349, 340352, 2
