432162, 432161, 2
432162, 432163, 1
432162, 432159, 2
432162, 432160, 2
432166, 432165, 2
432166, 432167, 1
432165, 432167, 2
432165, 432166, 1
432165, 432168, 2
432165, 432164, 2
432163, 432162, 2
432163, 432160, 2
432163, 432168, 2
432163, 432164, 1
432164, 432165, 1
432164, 432163, 2
432164, 432168, 2
432159, 432162, 2
432159, 432161, 1
432159, 432157, 2
432159, 432158, 2
432159, 432160, 3
432168, 432170, 2
432168, 432165, 2
432168, 432164, 2
432168, 432167, 2
432168, 432169, 2
432168, 432163, 2
432168, 432171, 2
432171, 432170, 2
432171, 432168, 2
432170, 432169, 2
432170, 432168, 2
432170, 432171, 1
432161, 432162, 1
432161, 432159, 2
432161, 432160, 2
432167, 432165, 2
432167, 432169, 1
432167, 432166, 2
432167, 432168, 2
432160, 432162, 2
432160, 432161, 2
432160, 432158, 2
432160, 432157, 2
432160, 432163, 2
432160, 432159, 2
432158, 432157, 2
432158, 432159, 1
432158, 432160, 2
432169, 432170, 1
432169, 432167, 2
432169, 432168, 6
432157, 432158, 1
432157, 432159, 2
432157, 432160, 2
