418486, 418489, 2
418486, 418477, 2
418486, 418480, 2
418486, 418488, 2
418486, 418482, 2
418486, 418484, 2
418486, 418483, 2
418486, 418487, 2
418486, 418479, 2
418488, 418489, 2
418488, 418484, 2
418488, 418486, 2
418488, 418487, 2
418488, 418477, 2
418482, 418481, 2
418482, 418486, 2
418482, 418484, 2
418482, 418487, 2
418482, 418480, 2
418482, 418479, 2
418482, 418476, 2
418482, 418477, 2
418482, 418485, 2
418482, 418478, 2
418482, 418483, 1
418482, 418489, 2
418496, 418489, 2
418496, 418491, 2
418496, 418493, 2
418496, 418490, 2
418496, 418494, 2
418496, 418499, 2
418496, 418492, 2
418477, 418486, 2
418477, 418488, 2
418477, 418482, 2
418477, 418484, 2
418477, 418473, 2
418477, 418487, 2
418477, 418479, 2
418477, 418476, 2
418477, 418475, 2
418477, 418481, 2
418477, 418474, 2
418477, 418483, 2
418477, 418478, 2
418498, 418491, 2
418498, 418493, 2
418498, 418495, 2
418498, 418497, 2
418498, 418494, 2
418498, 418499, 2
418487, 418489, 1
418487, 418476, 2
418487, 418486, 2
418487, 418488, 4
418487, 418482, 2
418487, 418485, 2
418487, 418473, 2
418487, 418481, 2
418487, 418477, 2
418487, 418483, 2
418487, 418479, 2
418495, 418497, 1
418495, 418498, 2
418495, 418493, 2
418495, 418494, 2
418495, 418492, 2
418489, 418486, 2
418489, 418488, 2
418489, 418482, 2
418489, 418496, 2
418489, 418484, 2
418489, 418494, 2
418489, 418487, 2
418489, 418499, 2
418489, 418497, 2
418489, 418491, 2
418489, 418485, 2
418489, 418492, 2
418489, 418493, 2
418489, 418490, 1
418497, 418489, 2
418497, 418493, 2
418497, 418495, 2
418497, 418491, 2
418497, 418498, 0
418497, 418494, 2
418497, 418499, 2
418497, 418492, 2
418491, 418489, 2
418491, 418493, 2
418491, 418496, 2
418491, 418497, 2
418491, 418498, 2
418491, 418490, 2
418491, 418494, 1
418491, 418499, 2
418491, 418492, 2
418499, 418489, 2
418499, 418491, 2
418499, 418493, 2
418499, 418496, 2
418499, 418497, 2
418499, 418498, 2
418499, 418494, 2
418499, 418492, 2
418485, 418489, 2
418485, 418476, 2
418485, 418480, 2
418485, 418482, 2
418485, 418481, 2
418485, 418483, 2
418485, 418478, 2
418485, 418487, 2
418485, 418474, 2
418474, 418476, 6
418474, 418477, 2
418474, 418484, 2
418474, 418485, 2
418474, 418481, 2
418474, 418473, 4
418474, 418478, 1
418474, 418475, 2
418474, 418479, 2
418478, 418476, 2
418478, 418485, 2
418478, 418480, 1
418478, 418482, 2
418478, 418481, 2
418478, 418473, 2
418478, 418474, 2
418478, 418477, 2
418478, 418475, 2
418478, 418479, 3
418480, 418476, 2
418480, 418485, 2
418480, 418486, 2
418480, 418482, 1
418480, 418484, 2
418480, 418481, 0
418480, 418478, 2
418480, 418479, 2
418494, 418489, 2
418494, 418491, 2
418494, 418499, 1
418494, 418496, 6
418494, 418497, 2
418494, 418498, 2
418494, 418490, 2
418494, 418493, 2
418494, 418495, 2
418494, 418492, 4
418475, 418477, 1
418475, 418473, 2
418475, 418474, 2
418475, 418478, 2
418475, 418479, 2
418473, 418477, 2
418473, 418475, 1
418473, 418474, 2
418473, 418487, 2
418473, 418478, 2
418473, 418479, 2
418479, 418475, 2
418479, 418486, 2
418479, 418482, 2
418479, 418477, 2
418479, 418484, 2
418479, 418473, 2
418479, 418478, 2
418479, 418480, 2
418479, 418487, 2
418479, 418474, 2
418479, 418483, 2
418476, 418485, 2
418476, 418480, 2
418476, 418482, 2
418476, 418481, 2
418476, 418484, 2
418476, 418478, 2
418476, 418477, 2
418476, 418487, 2
418476, 418474, 2
418484, 418489, 2
418484, 418476, 2
418484, 418486, 0
418484, 418488, 2
418484, 418482, 2
418484, 418477, 2
418484, 418481, 2
418484, 418474, 2
418484, 418483, 2
418484, 418480, 2
418484, 418479, 2
418493, 418489, 2
418493, 418491, 2
418493, 418499, 2
418493, 418496, 2
418493, 418497, 2
418493, 418498, 2
418493, 418490, 2
418493, 418494, 2
418493, 418495, 2
418493, 418492, 2
418481, 418476, 2
418481, 418485, 2
418481, 418480, 2
418481, 418482, 2
418481, 418477, 2
418481, 418484, 2
418481, 418487, 2
418481, 418478, 2
418481, 418483, 2
418481, 418474, 2
418490, 418489, 2
418490, 418491, 1
418490, 418493, 2
418490, 418496, 2
418490, 418494, 2
418490, 418492, 2
418483, 418485, 6
418483, 418486, 2
418483, 418482, 2
418483, 418477, 2
418483, 418484, 4
418483, 418481, 2
418483, 418487, 1
418483, 418479, 2
418492, 418489, 2
418492, 418491, 2
418492, 418499, 2
418492, 418496, 2
418492, 418497, 2
418492, 418494, 2
418492, 418493, 0
418492, 418495, 1
418492, 418490, 2
