658383, 658384, 2
658383, 658382, 2
658383, 658385, 2
658383, 658381, 2
658382, 658383, 8
658382, 658381, 2
658382, 658384, 1
658381, 658380, 2
658381, 658383, 2
658381, 658382, 1
658381, 658384, 2
658378, 658379, 1
658378, 658380, 2
658384, 658383, 2
658384, 658382, 2
658384, 658381, 2
658384, 658385, 1
658379, 658380, 1
658379, 658378, 2
658385, 658383, 2
658385, 658384, 2
658380, 658379, 2
658380, 658381, 1
658380, 658378, 2
