339774, 339773, 2
339770, 339771, 2
339770, 339769, 2
339773, 339774, 3
339773, 339772, 2
339771, 339770, 2
339771, 339769, 2
339771, 339772, 1
339769, 339770, 3
339769, 339771, 1
339772, 339773, 1
339772, 339771, 2
