554393, 554394, 1
554393, 554395, 2
554393, 554392, 2
554394, 554393, 2
554394, 554396, 0
554394, 554397, 2
554394, 554398, 2
554394, 554395, 3
554397, 554394, 2
554397, 554395, 2
554397, 554398, 1
554397, 554396, 2
554395, 554394, 2
554395, 554393, 2
554395, 554392, 2
554395, 554396, 2
554395, 554397, 1
554395, 554398, 2
554396, 554394, 2
554396, 554395, 2
554396, 554397, 2
554396, 554398, 2
554392, 554393, 1
554392, 554395, 2
554398, 554394, 2
554398, 554395, 2
554398, 554397, 2
554398, 554396, 2
